xmin,ymin,xmax,ymax,Object,label,like_num,is_punct,is_title,is_upper,is_digit,is_currency,is_alpha,is_ascii,hasNumbers,hascurrency,like_email,like_url,dh,dv,v_hor,v_vert
1044,56,1135,74,Facture,O,0,0,1,0,0,0,1,1,0,0,0,0,6,0,-1,3
952,80,988,93,Réf.,O,0,0,1,0,0,0,0,0,0,0,0,0,11,8,2,5
996,84,999,86,:,O,0,1,0,0,0,0,0,1,0,0,0,0,18,9,3,5
1008,80,1136,93,FA-1901-1997,NUMBER,0,0,0,1,0,0,0,1,1,0,0,0,11,0,-1,6
930,104,962,115,Date,O,0,0,1,0,0,0,1,1,0,0,0,0,4,6,5,7
968,104,1033,115,facturatio,O,0,0,0,0,0,0,1,1,0,0,0,0,4,34,6,8
1067,104,1136,115,1/01/2019,DATE,0,0,0,0,0,0,0,1,1,0,0,0,4,0,-1,9
935,119,968,130,Date,O,0,0,1,0,0,0,1,1,0,0,0,0,4,5,8,10
973,119,1033,130,échéanc:,O,0,0,0,0,0,0,0,0,0,0,0,0,5,33,9,11
1066,119,1136,130,0/02/2019,O,0,0,0,0,0,0,0,1,1,0,0,0,4,0,-1,13
943,134,980,145,Code,O,0,0,1,0,0,0,1,1,0,0,0,0,0,6,11,-1
986,135,1023,145,client,O,0,0,0,0,0,0,1,1,0,0,0,0,0,6,12,-1
1029,143,1031,145,:,O,0,1,0,0,0,0,0,1,0,0,0,0,0,6,13,-1
1037,134,1136,145,CU1811-0028,O,0,0,0,1,0,0,0,1,1,0,0,0,0,0,-1,-1
80,110,133,156,Ji,O,0,0,1,0,0,0,1,1,0,0,0,0,32,47,15,17
180,142,187,151,0,LOGO,1,0,0,0,1,0,0,1,1,0,0,0,102,10,16,25
197,142,294,151,RMATION,LOGO,0,0,0,1,0,0,1,1,0,0,0,0,102,735,12,26
64,188,128,201,Emetteur:,O,0,0,1,0,0,0,0,1,0,0,0,0,30,460,18,20
588,190,647,201,Adressé,O,0,0,1,0,0,0,1,0,0,0,0,0,30,5,19,21
652,190,664,201,a:,O,0,0,0,0,0,0,0,1,0,0,0,0,52,0,-1,29
75,231,133,245,Mistra,COMPANY_NAME,0,0,1,0,0,0,1,1,0,0,0,0,8,456,21,22
589,231,636,244,ABDI,CLIENT_NAME,0,0,0,1,0,0,1,1,0,0,0,0,9,0,-1,27
75,253,94,265,59,COMPANY_ADDRESS,1,0,0,0,1,0,0,1,1,0,0,0,8,6,23,30
100,256,125,265,rue,COMPANY_ADDRESS,0,0,0,0,0,0,1,1,0,0,0,0,8,6,24,30
131,253,159,265,des,COMPANY_ADDRESS,0,0,0,0,0,0,1,1,0,0,0,0,8,7,25,31
166,253,210,265,Petits,COMPANY_ADDRESS,0,0,1,0,0,0,1,1,0,0,0,0,48,6,26,37
216,253,282,268,Champs,COMPANY_ADDRESS,0,0,1,0,0,0,1,1,0,0,0,0,45,307,27,39
589,253,598,265,8,CLIENT_ADDRESS,1,0,0,0,1,0,0,1,1,0,0,0,8,6,28,32
604,256,629,265,rue,CLIENT_ADDRESS,0,0,0,0,0,0,1,1,0,0,0,0,8,7,29,32
636,253,693,265,Rossini,CLIENT_ADDRESS,0,0,1,0,0,0,1,1,0,0,0,0,8,0,-1,33
75,273,121,285,75001,COMPANY_ADDRESS,1,0,0,0,1,0,0,1,1,0,0,0,28,10,31,34
131,273,171,285,Paris,COMPANY_ADDRESS,0,0,1,0,0,0,1,1,0,0,0,0,28,418,32,36
589,273,638,285,75009,CLIENT_ADDRESS,1,0,0,0,1,0,0,1,1,0,0,0,0,7,33,-1
645,273,684,285,Paris,CLIENT_ADDRESS,0,0,1,0,0,0,1,1,0,0,0,0,0,0,-1,-1
74,313,108,326,Tél.:,O,0,0,1,0,0,0,0,0,0,0,0,0,7,7,35,40
115,313,132,326,01,O,1,0,0,0,1,0,0,1,1,0,0,0,7,8,36,40
140,313,159,326,82,O,1,0,0,0,1,0,0,1,1,0,0,0,7,6,37,41
165,313,184,326,52,O,1,0,0,0,1,0,0,1,1,0,0,0,7,7,38,41
191,313,210,326,25,O,1,0,0,0,1,0,0,1,1,0,0,0,7,6,39,41
216,313,235,326,25,O,1,0,0,0,1,0,0,1,1,0,0,0,7,0,-1,41
75,333,123,345,Email:,O,0,0,1,0,0,0,0,1,0,0,0,0,8,7,41,42
130,333,272,349,contact@mistra.fr,O,0,0,0,0,0,0,0,1,0,0,1,0,99,0,-1,45
74,353,115,365,Web:,O,0,0,1,0,0,0,0,1,0,0,0,0,83,0,-1,43
64,448,94,460,Bon,O,0,0,1,0,0,0,1,1,0,0,0,0,43,7,44,53
101,448,120,460,de,O,0,0,0,0,0,0,1,1,0,0,0,0,43,6,45,53
126,448,214,460,commande,O,0,0,0,0,0,0,1,1,0,0,0,0,73,7,46,62
221,448,300,460,référence:,O,0,0,0,0,0,0,0,0,0,0,0,0,73,7,47,63
307,448,403,460,ADBI-BDC2,O,0,0,0,1,0,0,0,1,1,0,0,0,134,6,48,74
409,448,492,460,-20181221,O,1,0,0,0,0,0,0,1,1,0,0,0,134,0,-1,76
927,478,992,488,Montants,O,0,0,1,0,0,0,1,1,0,0,0,0,15,7,50,57
999,478,1063,491,exprimés,O,0,0,0,0,0,0,1,0,0,0,0,0,12,8,51,58
1071,480,1087,488,en,O,0,0,0,0,0,0,1,1,0,0,0,0,15,9,52,58
1096,478,1136,488,Euros,O,0,0,1,0,0,0,1,1,0,0,0,0,15,0,-1,59
64,503,157,518,Désignation,O,0,0,1,0,0,0,1,0,0,0,0,0,15,560,54,60
717,503,752,515,TVA,O,0,0,0,1,0,0,1,1,0,0,0,0,0,51,55,-1
803,503,836,515,P.U.,O,0,0,1,1,0,0,0,1,0,0,0,0,0,7,56,-1
843,503,866,515,HT,O,0,0,0,1,0,0,1,1,0,0,0,0,18,57,57,65
923,503,951,516,Qté,O,0,0,1,0,0,0,1,0,0,0,0,0,0,89,58,-1
1040,503,1078,515,Total,O,0,0,1,0,0,0,1,1,0,0,0,0,18,8,59,66
1086,503,1108,515,HT,O,0,0,0,1,0,0,1,1,0,0,0,0,18,0,-1,67
63,533,106,545,#JAV,O,0,0,0,1,0,0,0,1,0,0,0,0,9,6,61,68
112,540,117,542,-,O,0,1,0,0,0,0,0,1,0,0,0,0,12,7,62,68
124,533,203,545,Formation,O,0,0,1,0,0,0,1,1,0,0,0,0,9,6,63,68
209,533,246,545,Java,O,0,0,1,0,0,0,1,1,0,0,0,0,49,505,64,72
751,533,776,546,0%,O,0,0,0,0,0,0,0,1,1,0,0,0,0,56,65,-1
832,533,886,547,"630,00",O,1,0,0,0,0,0,0,1,1,0,0,0,0,181,66,-1
1067,533,1076,545,3,O,1,0,0,0,1,0,0,1,1,0,0,0,0,7,67,-1
1083,533,1136,547,"150,00",O,1,0,0,0,0,0,0,1,1,0,0,0,0,0,-1,-1
64,554,170,566,FORMATION,O,0,0,0,1,0,0,1,1,0,0,0,0,28,0,-1,69
64,594,114,609,Spring,O,0,0,1,0,0,0,1,1,0,0,0,0,5,7,70,78
121,594,157,606,Boot,O,0,0,1,0,0,0,1,1,0,0,0,0,7,6,71,79
163,594,196,606,JPA,O,0,0,0,1,0,0,1,1,0,0,0,0,7,6,72,79
202,594,279,606,Hibernate,O,0,0,1,0,0,0,1,1,0,0,0,0,7,6,73,81
285,594,296,606,S,O,0,0,1,1,0,0,1,1,0,0,0,0,7,7,74,81
303,594,341,609,pring,O,0,0,0,0,0,0,1,1,0,0,0,0,0,7,75,-1
348,594,412,609,Security,O,0,0,1,0,0,0,1,1,0,0,0,0,0,6,76,-1
418,594,469,609,Spring,O,0,0,1,0,0,0,1,1,0,0,0,0,0,7,77,-1
476,594,561,606,HATEOAS,O,0,0,0,1,0,0,1,1,0,0,0,0,0,0,-1,-1
64,614,91,629,(Du,O,0,0,1,0,0,0,0,1,0,0,0,0,0,7,79,-1
98,613,187,626,07/01/2019,O,0,0,0,0,0,0,0,1,1,0,0,0,0,6,80,-1
193,617,212,626,au,O,0,0,0,0,0,0,1,1,0,0,0,0,0,8,81,-1
220,613,314,629,11/01/2019),O,0,0,0,0,0,0,0,1,1,0,0,0,0,0,-1,-1
63,1139,146,1150,Conditions,O,0,0,1,0,0,0,1,1,0,0,0,0,25,6,83,97
152,1139,170,1150,de,O,0,0,0,0,0,0,1,1,0,0,0,0,27,6,84,98
176,1139,256,1153,réglement:,O,0,0,0,0,0,0,0,0,0,0,0,0,22,48,85,99
304,1139,381,1153,Règlement,O,0,0,1,0,0,0,1,0,0,0,0,0,22,5,86,103
386,1139,393,1150,à,O,0,0,0,0,0,0,1,0,0,0,0,0,25,6,87,104
399,1139,416,1150,30,O,1,0,0,0,1,0,0,1,1,0,0,0,25,4,88,104
420,1142,455,1153,jours,O,0,0,0,0,0,0,1,1,0,0,0,0,22,237,89,104
692,1140,730,1152,Total,O,0,0,1,0,0,0,1,1,0,0,0,0,8,8,90,93
738,1140,760,1152,HT,O,0,0,0,1,0,0,1,1,0,0,0,0,8,307,91,94
1067,1140,1076,1152,3,O,1,0,0,0,1,0,0,1,1,0,0,0,28,7,92,107
1083,1140,1136,1154,"150,00",O,1,0,0,0,0,0,0,1,1,0,0,0,6,0,-1,96
692,1160,731,1172,Total,O,0,0,1,0,0,0,1,1,0,0,0,0,8,6,94,105
737,1160,772,1172,TVA,O,0,0,0,1,0,0,1,1,0,0,0,0,8,5,95,106
777,1160,812,1172,20%,O,0,0,0,0,0,0,0,1,1,0,0,0,0,270,96,-1
1082,1160,1136,1174,"630,00",O,1,0,0,0,0,0,0,1,1,0,0,0,6,0,-1,108
64,1175,135,1187,Règlement,O,0,0,1,0,0,0,1,0,0,0,0,0,7,5,98,109
140,1177,161,1186,par,O,0,0,0,0,0,0,1,1,0,0,0,0,8,4,99,110
165,1175,223,1184,virement,O,0,0,0,0,0,0,1,1,0,0,0,0,10,5,100,111
228,1177,249,1184,sur,O,0,0,0,0,0,0,1,1,0,0,0,0,10,5,101,112
254,1175,265,1184,le,O,0,0,0,0,0,0,1,1,0,0,0,0,10,4,102,112
269,1175,319,1186,compte,O,0,0,0,0,0,0,1,1,0,0,0,0,8,5,103,113
324,1175,381,1184,bancaire,O,0,0,0,0,0,0,1,1,0,0,0,0,31,4,104,120
385,1175,438,1184,suivant:,O,0,0,0,0,0,0,0,1,0,0,0,0,30,0,-1,122
691,1180,731,1193,Total,O,0,0,1,0,0,0,1,1,0,0,0,0,0,6,106,-1
737,1180,771,1193,TTC,O,0,0,0,1,0,0,1,1,0,0,0,0,0,296,107,-1
1067,1180,1076,1193,3,TOTAL,1,0,0,0,1,0,0,1,1,0,0,0,0,6,108,-1
1082,1180,1136,1194,"780,00",TOTAL,1,0,0,0,0,0,0,1,1,0,0,0,0,0,-1,-1
63,1194,104,1204,Banque:,O,0,0,1,0,0,0,0,1,0,0,0,0,10,8,110,115
112,1194,162,1202,BANQUE,O,0,0,0,1,0,0,1,1,0,0,0,0,13,4,111,116
166,1194,234,1202,POPULAIRE,O,0,0,0,1,0,0,1,1,0,0,0,0,12,5,112,117
239,1194,274,1202,RIVES,O,0,0,0,1,0,0,1,1,0,0,0,0,48,5,113,129
279,1194,294,1202,DE,O,0,0,0,1,0,0,1,1,0,0,0,0,12,5,114,119
299,1194,334,1202,PARIS,O,0,0,0,1,0,0,1,1,0,0,0,0,12,0,-1,119
71,1214,100,1223,Gode,O,0,0,1,0,0,0,1,1,0,0,0,0,27,4,116,127
104,1215,146,1225,banque,O,0,0,0,0,0,0,1,1,0,0,0,0,5,27,117,123
173,1214,203,1223,Gode,O,0,0,1,0,0,0,1,1,0,0,0,0,27,4,118,128
207,1215,250,1225,guichet,O,0,0,0,0,0,0,1,1,0,0,0,0,5,27,119,124
277,1214,322,1223,Numéro,O,0,0,1,0,0,0,1,0,0,0,0,0,7,4,120,125
326,1215,339,1223,de,O,0,0,0,0,0,0,1,1,0,0,0,0,7,4,121,125
343,1215,386,1225,compte,O,0,0,0,0,0,0,1,1,0,0,0,0,5,42,122,125
428,1214,446,1223,cié,O,0,0,0,0,0,0,1,0,0,0,0,0,7,0,-1,126
90,1230,128,1239,10207,O,1,0,0,0,1,0,0,1,1,0,0,0,11,64,124,127
192,1230,229,1239,00001,O,1,0,0,0,1,0,0,1,1,0,0,0,11,59,125,129
288,1230,374,1239,21215245444,O,1,0,0,0,1,0,0,1,1,0,0,0,24,56,126,136
430,1230,444,1239,96,O,1,0,0,0,1,0,0,1,1,0,0,0,0,0,-1,-1
64,1250,131,1258,Domiciliation:,O,0,0,1,0,0,0,0,1,0,0,0,0,5,8,128,130
139,1250,190,1258,BPRIVES,O,0,0,0,1,0,0,1,1,0,0,0,0,5,4,129,132
194,1250,273,1258,MONTROUGE,O,0,0,0,1,0,0,1,1,0,0,0,0,5,0,-1,135
64,1263,88,1271,Nom,O,0,0,1,0,0,0,1,1,0,0,0,0,6,4,131,137
92,1263,104,1271,du,O,0,0,0,0,0,0,1,1,0,0,0,0,6,5,132,137
109,1263,169,1273,propriétaire,O,0,0,0,0,0,0,1,0,0,0,0,0,4,4,133,138
173,1263,186,1271,du,O,0,0,0,0,0,0,1,1,0,0,0,0,6,4,134,139
190,1264,229,1273,compte:,O,0,0,0,0,0,0,0,1,0,0,0,0,4,8,135,140
237,1263,267,1271,SARL,O,0,0,0,1,0,0,1,1,0,0,0,0,6,5,136,141
272,1263,317,1271,MISTRA,O,0,0,0,1,0,0,1,1,0,0,0,0,6,0,-1,143
63,1277,98,1286,Code,O,0,0,1,0,0,0,1,1,0,0,0,0,6,5,138,146
103,1277,140,1286,IBAN:,O,0,0,0,1,0,0,0,1,0,0,0,0,6,6,139,147
146,1277,179,1286,FR76,O,0,0,0,1,0,0,0,1,1,0,0,0,6,5,140,147
184,1277,214,1286,1020,O,1,0,0,0,1,0,0,1,1,0,0,0,6,5,141,148
219,1277,250,1286,7000,O,1,0,0,0,1,0,0,1,1,0,0,0,6,5,142,148
255,1277,283,1286,0121,O,1,0,0,0,1,0,0,1,1,0,0,0,6,7,143,148
290,1277,320,1286,2152,O,1,0,0,0,1,0,0,1,1,0,0,0,0,5,144,-1
325,1277,356,1286,4544,O,1,0,0,0,1,0,0,1,1,0,0,0,0,4,145,-1
360,1277,383,1286,496,O,1,0,0,0,1,0,0,1,1,0,0,0,0,0,-1,-1
63,1292,98,1301,Code,O,0,0,1,0,0,0,1,1,0,0,0,0,0,5,147,-1
103,1292,178,1301,BIC/SWIFT:,O,0,0,0,1,0,0,0,1,0,0,0,0,0,5,148,-1
183,1292,291,1301,CCBPFRPPMTG,O,0,0,0,1,0,0,1,1,0,0,0,0,0,0,-1,-1
322,1427,368,1436,Société,O,0,0,1,0,0,0,1,0,0,0,0,0,6,5,150,166
373,1427,380,1436,à,O,0,0,0,0,0,0,1,0,0,0,0,0,6,5,151,167
385,1427,471,1438,responsabilité,O,0,0,0,0,0,0,1,0,0,0,0,0,-5,5,152,168
476,1427,515,1436,limitée,O,0,0,0,0,0,0,1,0,0,0,0,0,6,6,153,170
521,1427,566,1439,(SARL),O,0,0,0,1,0,0,0,1,0,0,0,0,-6,4,154,171
570,1432,574,1433,-,O,0,1,0,0,0,0,0,1,0,0,0,0,9,5,155,173
579,1427,622,1438,Capital,O,0,0,1,0,0,0,1,1,0,0,0,0,-5,5,156,174
627,1427,642,1436,de,O,0,0,0,0,0,0,1,1,0,0,0,0,6,5,157,175
647,1427,653,1436,7,O,1,0,0,0,1,0,0,1,1,0,0,0,6,6,158,176
659,1427,681,1436,500,O,1,0,0,0,1,0,0,1,1,0,0,0,6,4,159,177
685,1427,693,1436,€,O,0,0,0,0,0,1,0,0,0,1,0,0,6,4,160,178
697,1432,701,1433,-,O,0,1,0,0,0,0,0,1,0,0,0,0,9,5,161,178
706,1427,747,1436,SIRET:,O,0,0,0,1,0,0,0,1,0,0,0,0,6,9,162,179
756,1427,778,1436,528,O,1,0,0,0,1,0,0,1,1,0,0,0,0,5,163,-1
783,1427,806,1436,563,O,1,0,0,0,1,0,0,1,1,0,0,0,6,4,164,182
810,1427,831,1436,661,O,1,0,0,0,1,0,0,1,1,0,0,0,6,7,165,183
838,1427,876,1436,00024,O,1,0,0,0,1,0,0,1,1,0,0,0,6,0,-1,183
289,1442,349,1451,NAF-APE:,O,0,0,0,1,0,0,0,1,0,0,0,0,0,9,167,-1
358,1442,466,1452,8559A,O,0,0,1,1,0,0,0,1,1,0,0,0,0,-65,168,-1
401,1433,409,1461,-,O,0,1,0,0,0,0,0,1,0,0,0,0,-19,6,169,167
415,1442,466,1452,RCS/RM:,O,0,0,0,1,0,0,0,1,0,0,0,0,0,9,170,-1
475,1442,558,1452,PARIS,O,0,0,0,1,0,0,1,1,0,0,0,0,0,-40,171,-1
518,1433,526,1461,-,O,0,1,0,0,0,0,0,1,0,0,0,0,-19,6,172,170
532,1442,554,1452,Num,O,0,0,1,0,0,0,1,1,0,0,0,0,0,9,173,-1
563,1442,606,1452,activité,O,0,0,0,0,0,0,1,0,0,0,0,0,0,5,174,-1
611,1433,617,1461,:,O,0,1,0,0,0,0,0,1,0,0,0,0,0,3,175,-1
620,1442,632,1451,11,O,1,0,0,0,1,0,0,1,1,0,0,0,0,7,176,-1
639,1442,653,1452,75,O,1,0,0,0,1,0,0,1,1,0,0,0,0,5,177,-1
658,1442,673,1452,49,O,1,0,0,0,1,0,0,1,1,0,0,0,0,5,178,-1
678,1442,700,1452,918,O,1,0,0,0,1,0,0,1,1,0,0,0,0,6,179,-1
706,1442,717,1452,75,O,1,0,0,0,1,0,0,1,1,0,0,0,0,8,180,-1
725,1447,729,1449,-,O,0,1,0,0,0,0,0,1,0,0,0,0,0,5,181,-1
734,1442,762,1452,Num.,O,0,0,1,0,0,0,0,1,0,0,0,0,0,9,182,-1
771,1442,798,1451,TVA:,O,0,0,0,1,0,0,0,1,0,0,0,0,0,9,183,-1
807,1442,909,1452,FR82528563661,O,0,0,0,1,0,0,0,1,1,0,0,0,0,181,184,-1
1090,1442,1105,1451,11,O,1,0,0,0,1,0,0,1,1,0,0,0,0,0,-1,-1
