xmin,ymin,xmax,ymax,Object,label,like_num,is_punct,is_title,is_upper,is_digit,is_currency,is_alpha,is_ascii,hasNumbers,hascurrency,like_email,like_url,dh,dv,v_hor,v_vert
702,38,773,67,ee,O,0,0,0,0,0,0,1,1,0,0,0,0,-4,0,-1,4
611,63,673,85,ues,LOGO,0,0,0,0,0,0,1,1,0,0,0,0,3,10,4,3
497,53,608,94,bouyg,LOGO,0,0,0,0,0,0,1,1,0,0,0,0,86,3,1,14
613,88,672,95,TELECOM,LOGO,0,0,0,1,0,0,1,1,0,0,0,0,85,11,4,15
683,63,732,118,à,O,0,0,0,0,0,0,1,0,0,0,0,0,422,12,5,114
744,64,792,118,9,O,1,0,0,0,1,0,0,1,1,0,0,0,62,0,-1,6
772,180,843,193,Annexe,O,0,0,1,0,0,0,1,1,0,0,0,0,8,2,7,23
845,176,855,202,à,O,0,0,0,0,0,0,1,0,0,0,0,0,-1,13,8,23
868,180,882,193,la,O,0,0,0,0,0,0,1,1,0,0,0,0,8,7,9,23
889,180,955,193,facture,O,0,0,0,0,0,0,1,1,0,0,0,0,8,0,-1,23
81,180,178,193,Utilisateur,O,0,0,1,0,0,0,1,1,0,0,0,0,8,7,11,16
185,180,207,193,du,O,0,0,0,0,0,0,1,1,0,0,0,0,8,8,12,17
215,180,308,196,téléphone,O,0,0,0,0,0,0,1,0,0,0,0,0,5,131,13,17
439,180,512,193,Numéro,O,0,0,1,0,0,0,1,0,0,0,0,0,8,8,14,18
520,180,541,193,de,O,0,0,0,0,0,0,1,1,0,0,0,0,8,7,15,21
548,180,642,196,téléphone,O,0,0,0,0,0,0,1,0,0,0,0,0,5,130,6,22
80,201,164,215,AHCENE,O,0,0,0,1,0,0,1,1,0,0,0,0,58,7,17,27
171,201,317,215,OUGUENOUNE,O,0,0,0,1,0,0,1,1,0,0,0,0,58,121,18,29
438,201,459,215,06,O,1,0,0,0,1,0,0,1,1,0,0,0,96,7,19,37
466,201,487,215,58,O,1,0,0,0,1,0,0,1,1,0,0,0,0,6,20,-1
493,201,515,215,20,O,1,0,0,0,1,0,0,1,1,0,0,0,0,7,21,-1
522,201,543,215,94,O,1,0,0,0,1,0,0,1,1,0,0,0,0,6,22,-1
549,201,571,215,93,O,1,0,0,0,1,0,0,1,1,0,0,0,0,202,23,-1
773,201,927,215,11964852370119,NUMBER,1,0,0,0,1,0,0,1,1,0,0,0,0,0,-1,-1
950,235,989,247,€HT,O,0,0,0,1,0,0,0,0,0,1,0,0,32,33,25,31
1022,233,1033,247,€,O,0,0,0,0,0,1,0,0,0,1,0,0,0,7,26,-1
1040,233,1099,250,TTC(*),O,0,0,0,1,0,0,0,1,0,0,0,0,23,0,-1,32
73,273,112,287,Vos,O,0,0,1,0,0,0,1,1,0,0,0,0,24,9,28,33
121,277,207,287,services,O,0,0,0,0,0,0,1,1,0,0,0,0,24,9,29,34
216,273,320,291,Bouygues,O,0,0,1,0,0,0,1,1,0,0,0,0,19,8,30,35
328,273,416,287,Telecom,O,0,0,1,0,0,0,1,1,0,0,0,0,23,535,31,35
951,279,995,290,"107,31",O,1,0,0,0,0,0,0,1,1,0,0,0,73,39,32,48
1034,273,1099,287,"128,77",O,1,0,0,0,0,0,0,1,1,0,0,0,23,0,-1,38
85,311,124,325,Vos,O,0,0,1,0,0,0,1,1,0,0,0,0,20,8,34,39
132,311,274,325,"abonnements,",O,0,0,0,0,0,0,0,1,0,0,0,0,20,14,35,40
288,310,361,325,forfaits,O,0,0,0,0,0,0,1,1,0,0,0,0,20,9,36,44
370,311,388,325,et,O,0,0,0,0,0,0,1,1,0,0,0,0,20,8,37,46
396,311,474,328,options,O,0,0,0,0,0,0,1,1,0,0,0,0,91,572,38,65
1046,310,1099,325,"38,69",O,1,0,0,0,0,0,0,1,1,0,0,0,39,0,-1,53
85,345,121,355,Pour,O,0,0,1,0,0,0,1,1,0,0,0,0,8,6,40,49
127,345,138,355,le,O,0,0,0,0,0,0,1,1,0,0,0,0,8,6,41,49
144,348,180,355,mois,O,0,0,0,0,0,0,1,1,0,0,0,0,8,6,42,50
186,348,194,355,à,O,0,0,0,0,0,0,1,0,0,0,0,0,8,5,43,50
199,345,262,358,venir(du,O,0,0,0,0,0,0,0,1,0,0,0,0,5,7,44,51
269,345,306,355,06/01,O,1,0,0,0,0,0,0,1,1,0,0,0,8,8,45,51
314,348,331,355,au,O,0,0,0,0,0,0,1,1,0,0,0,0,8,6,46,52
337,345,381,358,05/02),O,0,0,0,0,0,0,0,1,1,0,0,0,61,0,-1,63
879,363,919,374,"20,00",O,1,0,0,0,0,0,0,1,1,0,0,0,11,39,48,56
958,363,998,374,"35,83",O,1,0,0,0,0,0,0,1,1,0,0,0,11,58,53,57
102,363,152,375,Forfait,O,0,0,1,0,0,0,1,1,0,0,0,0,10,6,50,54
158,363,200,375,client,O,0,0,0,0,0,0,1,1,0,0,0,0,10,6,51,55
206,363,285,376,Sensation,O,0,0,1,0,0,0,1,1,0,0,0,0,9,6,52,55
291,363,335,376,70Go,O,0,0,1,0,0,0,0,1,1,0,0,0,43,544,47,62
1056,364,1100,376,"42,99",O,1,0,0,0,0,0,0,1,1,0,0,0,10,0,-1,58
102,385,162,397,Remise,O,0,0,1,0,0,0,1,1,0,0,0,0,22,6,55,60
168,385,242,397,exclusive,O,0,0,0,0,0,0,1,1,0,0,0,0,23,637,56,61
879,385,919,395,"20,00",O,1,0,0,0,0,0,0,1,1,0,0,0,0,43,57,-1
962,385,997,395,"-3,58",O,1,0,0,0,0,0,0,1,1,0,0,0,0,63,58,-1
1060,386,1100,400,"-4,30",O,1,0,0,0,0,0,0,1,1,0,0,0,19,0,-1,59
1046,419,1099,433,"90,08",O,1,0,0,0,0,0,0,1,1,0,0,0,0,0,-1,-1
85,419,124,433,Vos,O,0,0,1,0,0,0,1,1,0,0,0,0,21,8,61,66
132,420,306,433,communications,O,0,0,0,0,0,0,1,1,0,0,0,0,21,8,62,66
314,419,345,437,(du,O,0,0,0,0,0,0,0,1,0,0,0,0,35,9,63,74
354,419,407,433,06/12,O,1,0,0,0,0,0,0,1,1,0,0,0,39,9,64,76
416,423,439,433,au,O,0,0,0,0,0,0,1,1,0,0,0,0,39,9,65,77
448,419,509,437,05/01),O,0,0,0,0,0,0,0,1,1,0,0,0,35,537,59,77
85,454,177,467,décomptées,O,0,0,0,0,0,0,1,0,0,0,0,0,5,7,67,70
184,454,201,464,de,O,0,0,0,0,0,0,1,1,0,0,0,0,8,6,68,71
207,457,233,464,vos,O,0,0,0,0,0,0,1,1,0,0,0,0,8,6,69,71
239,454,292,464,forfaits,O,0,0,0,0,0,0,1,1,0,0,0,0,8,0,-1,72
102,472,183,487,(04:18:38),O,0,0,0,0,0,0,0,1,1,0,0,0,8,6,71,79
189,472,228,484,dans,O,0,0,0,0,0,0,1,1,0,0,0,0,11,6,72,80
234,472,247,484,le,O,0,0,0,0,0,0,1,1,0,0,0,0,11,6,73,81
253,472,297,484,cadre,O,0,0,0,0,0,0,1,1,0,0,0,0,11,6,74,82
303,472,322,484,de,O,0,0,0,0,0,0,1,1,0,0,0,0,11,6,75,83
328,475,356,484,vos,O,0,0,0,0,0,0,1,1,0,0,0,0,14,6,76,84
362,472,416,487,Appels,O,0,0,1,0,0,0,1,1,0,0,0,0,8,7,77,85
423,472,481,484,illimités,O,0,0,0,0,0,0,1,0,0,0,0,0,11,6,78,88
487,472,541,484,24h/24,O,0,0,0,0,0,0,0,1,1,0,0,0,11,0,-1,89
102,495,183,510,(01:46:25),O,0,0,0,0,0,0,0,1,1,0,0,0,7,6,80,91
189,495,228,507,dans,O,0,0,0,0,0,0,1,1,0,0,0,0,10,6,81,93
234,495,247,507,le,O,0,0,0,0,0,0,1,1,0,0,0,0,10,6,82,93
253,495,297,507,cadre,O,0,0,0,0,0,0,1,1,0,0,0,0,10,6,83,94
303,495,322,507,de,O,0,0,0,0,0,0,1,1,0,0,0,0,33,6,84,107
328,498,356,507,vos,O,0,0,0,0,0,0,1,1,0,0,0,0,13,7,85,97
363,495,381,507,10,O,1,0,0,0,1,0,0,1,1,0,0,0,33,7,86,108
388,495,396,507,h,O,0,0,0,0,0,0,1,1,0,0,0,0,10,6,87,98
402,498,435,507,vers,O,0,0,0,0,0,0,1,1,0,0,0,0,10,7,88,98
442,495,504,510,l'Algérie,O,0,0,0,0,0,0,0,0,0,0,0,0,7,7,89,99
511,495,559,510,(Fixes,O,0,0,1,0,0,0,0,1,0,0,0,0,7,6,90,100
565,495,665,510,uniquement),O,0,0,0,0,0,0,0,1,0,0,0,0,30,0,-1,113
102,517,137,533,(256,O,0,0,0,0,0,0,0,1,1,0,0,0,7,6,92,101
143,517,196,532,unités),O,0,0,0,0,0,0,0,0,0,0,0,0,8,6,93,103
202,517,241,529,dans,O,0,0,0,0,0,0,1,1,0,0,0,0,11,6,94,104
247,517,260,529,le,O,0,0,0,0,0,0,1,1,0,0,0,0,47,6,95,118
266,517,310,529,cadre,O,0,0,0,0,0,0,1,1,0,0,0,0,11,6,96,106
316,517,335,529,de,O,0,0,0,0,0,0,1,1,0,0,0,0,11,7,97,107
342,520,369,529,vos,O,0,0,0,0,0,0,1,1,0,0,0,0,11,6,98,108
375,517,460,529,SMS/MMS,O,0,0,0,1,0,0,0,1,0,0,0,0,11,7,99,109
467,517,525,529,illimités,O,0,0,0,0,0,0,1,0,0,0,0,0,11,6,100,110
531,517,585,529,24h/24,O,0,0,0,0,0,0,0,1,1,0,0,0,11,0,-1,111
102,540,117,555,(5,O,0,0,0,0,0,0,0,1,1,0,0,0,18,6,102,116
123,540,146,552,Go,O,0,0,1,0,0,0,1,1,0,0,0,0,21,6,103,116
152,540,187,555,522),O,0,0,0,0,0,0,0,1,1,0,0,0,18,6,104,116
193,540,232,552,dans,O,0,0,0,0,0,0,1,1,0,0,0,0,21,6,105,116
238,540,251,552,le,O,0,0,0,0,0,0,1,1,0,0,0,0,24,6,106,118
257,540,301,552,cadre,O,0,0,0,0,0,0,1,1,0,0,0,0,21,6,107,119
307,540,326,552,de,O,0,0,0,0,0,0,1,1,0,0,0,0,21,6,108,119
332,540,372,552,votre,O,0,0,0,0,0,0,1,1,0,0,0,0,22,7,109,120
379,540,439,552,Internet,O,0,0,1,0,0,0,1,1,0,0,0,0,21,6,110,122
445,540,523,555,décompté,O,0,0,0,0,0,0,1,0,0,0,0,0,18,6,111,122
529,540,548,552,de,O,0,0,0,0,0,0,1,1,0,0,0,0,62,6,112,140
554,541,594,552,votre,O,0,0,0,0,0,0,1,1,0,0,0,0,65,6,113,141
600,540,645,552,forfait,O,0,0,0,0,0,0,1,1,0,0,0,0,62,6,114,142
651,540,716,555,principal,O,0,0,0,0,0,0,1,1,0,0,0,0,0,0,-1,-1
85,576,102,584,en,O,0,0,0,0,0,0,1,1,0,0,0,0,13,6,116,123
108,573,210,586,dépassement,O,0,0,0,0,0,0,1,0,0,0,0,0,6,6,117,124
216,576,234,584,ou,O,0,0,0,0,0,0,1,1,0,0,0,0,8,6,118,126
240,576,268,584,non,O,0,0,0,0,0,0,1,1,0,0,0,0,8,7,119,126
275,573,337,584,incluses,O,0,0,0,0,0,0,1,1,0,0,0,0,8,6,120,126
343,574,379,584,dans,O,0,0,0,0,0,0,1,1,0,0,0,0,11,6,121,127
385,576,411,584,vos,O,0,0,0,0,0,0,1,1,0,0,0,0,8,6,122,128
417,573,470,584,forfaits,O,0,0,0,0,0,0,1,1,0,0,0,0,8,0,-1,128
86,597,88,599,-,O,0,1,0,0,0,0,0,1,0,0,0,0,0,14,124,-1
102,592,183,607,(00:07:30),O,0,0,0,0,0,0,0,1,1,0,0,0,7,6,125,132
189,592,208,604,de,O,0,0,0,0,0,0,1,1,0,0,0,0,10,7,126,133
215,592,345,604,communications,O,0,0,0,0,0,0,1,1,0,0,0,0,10,6,127,134
351,595,384,604,vers,O,0,0,0,0,0,0,1,1,0,0,0,0,10,6,128,137
390,592,495,604,l'international,O,0,0,0,0,0,0,0,1,0,0,0,0,10,384,129,138
879,591,919,602,"20,00",O,1,0,0,0,0,0,0,1,1,0,0,0,12,48,130,143
967,591,997,602,"6,75",O,1,0,0,0,0,0,0,1,1,0,0,0,12,69,131,144
1066,592,1100,604,"8,10",O,1,0,0,0,0,0,0,1,1,0,0,0,11,0,-1,145
102,614,183,629,(00:08:00),O,0,0,0,0,0,0,0,1,1,0,0,0,8,6,133,146
189,614,208,626,de,O,0,0,0,0,0,0,1,1,0,0,0,0,11,6,134,147
214,614,269,629,Appels,O,0,0,1,0,0,0,1,1,0,0,0,0,8,6,135,148
275,614,312,626,émis,O,0,0,0,0,0,0,1,0,0,0,0,0,14,7,136,149
319,614,353,626,hors,O,0,0,0,0,0,0,1,1,0,0,0,0,11,5,137,150
358,614,399,626,Zone,O,0,0,1,0,0,0,1,1,0,0,0,0,11,7,138,151
406,614,463,629,Europe,O,0,0,1,0,0,0,1,1,0,0,0,0,8,16,139,152
479,614,497,626,du,O,0,0,0,0,0,0,1,1,0,0,0,0,11,7,140,153
504,614,548,626,05/10,O,1,0,0,0,0,0,0,1,1,0,0,0,11,6,141,154
554,617,573,626,au,O,0,0,0,0,0,0,1,1,0,0,0,0,14,7,142,155
580,614,622,626,05/01,O,1,0,0,0,0,0,0,1,1,0,0,0,11,257,143,156
879,614,919,625,"20,00",O,1,0,0,0,0,0,0,1,1,0,0,0,12,40,144,157
959,614,998,625,"15,33",O,1,0,0,0,0,0,0,1,1,0,0,0,12,59,145,158
1057,615,1100,628,"18,39",O,1,0,0,0,0,0,0,1,1,0,0,0,10,0,-1,159
102,637,183,652,(00:03:00),O,0,0,0,0,0,0,0,1,1,0,0,0,8,6,147,160
189,637,208,649,de,O,0,0,0,0,0,0,1,1,0,0,0,0,11,6,148,163
214,637,269,652,Appels,O,0,0,1,0,0,0,1,1,0,0,0,0,8,7,149,163
276,640,318,652,reçus,O,0,0,0,0,0,0,1,0,0,0,0,0,11,7,150,164
325,637,359,649,hors,O,0,0,0,0,0,0,1,1,0,0,0,0,11,6,151,165
365,637,405,649,Zone,O,0,0,1,0,0,0,1,1,0,0,0,0,11,7,152,165
412,637,469,652,Europe,O,0,0,1,0,0,0,1,1,0,0,0,0,53,15,153,187
484,637,502,649,du,O,0,0,0,0,0,0,1,1,0,0,0,0,56,7,154,188
509,637,553,649,05/10,O,1,0,0,0,0,0,0,1,1,0,0,0,56,6,155,188
559,640,578,649,au,O,0,0,0,0,0,0,1,1,0,0,0,0,0,7,156,-1
585,637,626,649,05/01,O,1,0,0,0,0,0,0,1,1,0,0,0,0,253,157,-1
879,637,919,647,"20,00",O,1,0,0,0,0,0,0,1,1,0,0,0,12,48,158,166
967,637,997,647,"2,50",O,1,0,0,0,0,0,0,1,1,0,0,0,12,69,159,167
1066,638,1100,652,"3,00",O,1,0,0,0,0,0,0,1,1,0,0,0,8,0,-1,168
102,660,114,675,(1,O,0,0,0,0,0,0,0,1,1,0,0,0,7,9,161,169
123,660,167,675,unité),O,0,0,0,0,0,0,0,0,0,0,0,0,7,6,162,170
173,660,192,672,de,O,0,0,0,0,0,0,1,1,0,0,0,0,10,7,163,171
199,660,284,672,SMS/MMS,O,0,0,0,1,0,0,0,1,0,0,0,0,10,6,164,172
290,663,323,672,vers,O,0,0,0,0,0,0,1,1,0,0,0,0,10,7,165,173
330,660,434,672,l'international,O,0,0,0,0,0,0,0,1,0,0,0,0,10,445,166,174
879,659,919,670,"20,00",O,1,0,0,0,0,0,0,1,1,0,0,0,12,48,167,176
967,659,997,670,"0,25",O,1,0,0,0,0,0,0,1,1,0,0,0,12,69,168,177
1066,660,1100,675,"0,30",O,1,0,0,0,0,0,0,1,1,0,0,0,8,0,-1,178
102,682,114,697,(1,O,0,0,0,0,0,0,0,1,1,0,0,0,8,9,170,179
123,682,167,697,unité),O,0,0,0,0,0,0,0,0,0,0,0,0,8,6,171,180
173,682,192,694,de,O,0,0,0,0,0,0,1,1,0,0,0,0,11,7,172,181
199,682,284,694,SMS/MMS,O,0,0,0,1,0,0,0,1,0,0,0,0,11,6,173,182
290,682,327,694,émis,O,0,0,0,0,0,0,1,0,0,0,0,0,11,7,174,184
334,682,353,694,de,O,0,0,0,0,0,0,1,1,0,0,0,0,11,6,175,185
359,682,433,697,l'étranger,O,0,0,0,0,0,0,0,0,0,0,0,0,8,446,176,186
879,682,919,693,"20,00",O,1,0,0,0,0,0,0,1,1,0,0,0,12,48,177,189
967,682,997,693,"0,25",O,1,0,0,0,0,0,0,1,1,0,0,0,12,69,178,190
1066,683,1100,696,"0,30",O,1,0,0,0,0,0,0,1,1,0,0,0,10,0,-1,191
102,705,117,720,(5,O,0,0,0,0,0,0,0,1,1,0,0,0,21,6,180,192
123,705,147,717,Mo,O,0,0,1,0,0,0,1,1,0,0,0,0,24,6,181,193
153,705,188,720,859),O,0,0,0,0,0,0,0,1,1,0,0,0,21,6,182,194
194,705,214,717,de,O,0,0,0,0,0,0,1,1,0,0,0,0,24,7,183,195
221,705,280,717,Internet,O,0,0,1,0,0,0,1,1,0,0,0,0,24,6,184,196
286,705,295,717,à,O,0,0,0,0,0,0,1,0,0,0,0,0,24,7,185,197
302,705,376,720,l'étranger,O,0,0,0,0,0,0,0,0,0,0,0,0,21,6,186,199
382,705,416,717,hors,O,0,0,0,0,0,0,1,1,0,0,0,0,23,6,187,200
422,705,479,720,Europe,O,0,0,1,0,0,0,1,1,0,0,0,0,21,7,188,202
486,705,526,717,DOM,O,0,0,0,1,0,0,1,1,0,0,0,0,24,353,189,205
879,705,919,715,"20,00",O,1,0,0,0,0,0,0,1,1,0,0,0,0,39,190,-1
958,705,998,715,"49,99",O,1,0,0,0,0,0,0,1,1,0,0,0,0,58,191,-1
1056,706,1100,718,"59,99",O,1,0,0,0,0,0,0,1,1,0,0,0,50,0,-1,211
80,741,112,751,Les,O,0,0,1,0,0,0,1,1,0,0,0,0,17,4,193,207
116,741,165,749,montants,O,0,0,0,0,0,0,1,1,0,0,0,0,23,4,194,208
169,741,191,749,TTC,O,0,0,0,1,0,0,1,1,0,0,0,0,23,5,195,208
196,741,218,749,sont,O,0,0,0,0,0,0,1,1,0,0,0,0,20,4,196,209
222,741,265,749,"arrondis,",O,0,0,0,0,0,0,0,1,0,0,0,0,20,8,197,209
273,741,292,749,leur,O,0,0,0,0,0,0,1,1,0,0,0,0,19,4,198,210
296,743,335,749,somme,O,0,0,0,0,0,0,1,1,0,0,0,0,0,4,199,-1
339,741,362,750,peut,O,0,0,0,0,0,0,1,1,0,0,0,0,0,4,200,-1
366,740,403,749,différer,O,0,0,0,0,0,0,1,0,0,0,0,0,0,4,201,-1
407,741,420,749,de,O,0,0,0,0,0,0,1,1,0,0,0,0,0,4,202,-1
424,741,448,749,celle,O,0,0,0,0,0,0,1,1,0,0,0,0,0,4,203,-1
452,743,488,751,reprise,O,0,0,0,0,0,0,1,1,0,0,0,0,0,4,204,-1
492,743,509,749,sur,O,0,0,0,0,0,0,1,1,0,0,0,0,0,4,205,-1
513,741,521,749,la,O,0,0,0,0,0,0,1,1,0,0,0,0,0,4,206,-1
525,740,561,749,facture,O,0,0,0,0,0,0,1,1,0,0,0,0,0,0,-1,-1
80,768,131,783,Total,O,0,0,1,0,0,0,1,1,0,0,0,0,0,9,208,-1
140,772,188,786,pour,O,0,0,0,0,0,0,1,1,0,0,0,0,0,7,209,-1
195,769,245,783,cette,O,0,0,0,0,0,0,1,1,0,0,0,0,0,9,210,-1
254,768,303,786,ligne,O,0,0,0,0,0,0,1,1,0,0,0,0,0,731,211,-1
1034,768,1099,783,"128,77",TOTAL,1,0,0,0,0,0,0,1,1,0,0,0,0,0,-1,-1
1106,1470,1142,1483,Page,O,0,0,1,0,0,0,1,1,0,0,0,0,0,6,213,-1
1148,1470,1178,1480,5/16,O,1,0,0,0,0,0,0,1,1,0,0,0,0,0,-1,-1
