xmin,ymin,xmax,ymax,Object,label,like_num,is_punct,is_title,is_upper,is_digit,is_currency,is_alpha,is_ascii,hasNumbers,hascurrency,like_email,like_url,dh,dv,v_hor,v_vert
26,18,96,32,Numéro,O,0,0,1,0,0,0,1,0,0,0,0,0,9,7,1,3
103,19,124,32,de,O,0,0,0,0,0,0,1,1,0,0,0,0,9,6,2,6
130,18,218,35,téléphone,O,0,0,0,0,0,0,1,0,0,0,0,0,6,0,-1,7
26,41,46,53,06,O,1,0,0,0,1,0,0,1,1,0,0,0,0,8,4,-1
54,41,74,53,58,O,1,0,0,0,1,0,0,1,1,0,0,0,0,7,5,-1
81,41,102,53,20,O,1,0,0,0,1,0,0,1,1,0,0,0,0,8,6,-1
110,41,131,53,94,O,1,0,0,0,1,0,0,1,1,0,0,0,0,6,7,-1
137,41,158,53,93,O,1,0,0,0,1,0,0,1,1,0,0,0,0,0,-1,-1
385,181,443,196,Détail,O,0,0,1,0,0,0,1,0,0,0,0,0,33,8,9,25
451,181,476,196,de,O,0,0,0,0,0,0,1,1,0,0,0,0,137,7,10,75
483,182,536,196,votre,O,0,0,0,0,0,0,1,1,0,0,0,0,0,7,11,-1
543,181,616,196,facture,O,0,0,0,0,0,0,1,1,0,0,0,0,116,8,12,54
624,181,649,196,du,O,0,0,0,0,0,0,1,1,0,0,0,0,26,8,13,16
657,181,668,196,6,DATE,1,0,0,0,1,0,0,1,1,0,0,0,26,6,14,16
674,181,746,200,janvier,DATE,0,0,0,0,0,0,1,1,0,0,0,0,22,7,15,17
753,181,801,196,2019,DATE,1,0,0,0,1,0,0,1,1,0,0,0,26,0,-1,19
613,222,666,235,Appels,O,0,0,1,0,0,0,1,1,0,0,0,0,11,5,17,26
671,222,707,232,émis,O,0,0,0,0,0,0,1,0,0,0,0,0,14,6,18,27
713,222,746,232,hors,O,0,0,0,0,0,0,1,1,0,0,0,0,14,6,19,29
752,222,790,232,Zone,O,0,0,1,0,0,0,1,1,0,0,0,0,14,6,20,30
796,222,850,235,Europe,O,0,0,1,0,0,0,1,1,0,0,0,0,11,286,21,31
1136,222,1175,234,"18,39",O,1,0,0,0,0,0,0,1,1,0,0,0,31,0,-1,39
40,229,83,244,Vos,O,0,0,1,0,0,0,1,1,0,0,0,0,15,9,23,32
92,229,186,244,services,O,0,0,0,0,0,0,1,1,0,0,0,0,15,10,24,33
196,229,310,249,Bouygues,O,0,0,1,0,0,0,1,1,0,0,0,0,34,9,25,45
319,229,415,244,Telecom,O,0,0,1,0,0,0,1,1,0,0,0,0,89,0,-1,73
617,246,654,256,Heure,O,0,0,1,0,0,0,1,1,0,0,0,0,9,5,27,34
659,246,711,258,indiquée,O,0,0,0,0,0,0,1,0,0,0,0,0,7,5,28,35
716,252,723,253,=,O,0,0,0,0,0,0,0,1,0,0,0,0,0,6,29,-1
729,246,763,256,heure,O,0,0,0,0,0,0,1,1,0,0,0,0,54,6,30,57
769,246,811,255,France,O,0,0,1,0,0,0,1,1,0,0,0,0,10,5,31,36
816,246,904,258,métropolitaine,O,0,0,0,0,0,0,1,0,0,0,0,0,7,0,-1,37
40,259,75,272,Vos,O,0,0,1,0,0,0,1,1,0,0,0,0,12,8,33,42
83,259,241,272,communications,O,0,0,0,0,0,0,1,1,0,0,0,0,11,374,34,45
615,265,643,274,Date,O,0,0,1,0,0,0,1,1,0,0,0,0,36,16,35,55
659,265,696,274,Heure,O,0,0,1,0,0,0,1,1,0,0,0,0,36,56,36,56
752,265,801,274,Numéro,O,0,0,1,0,0,0,1,0,0,0,0,0,6,55,37,46
856,265,892,274,Durée,O,0,0,1,0,0,0,1,0,0,0,0,0,5,35,38,47
927,265,964,274,Durée,O,0,0,1,0,0,0,1,0,0,0,0,0,5,22,40,48
1144,265,1173,274,Coat,O,0,0,1,0,0,0,1,1,0,0,0,0,5,0,-1,51
986,265,1016,277,Pays,O,0,0,1,0,0,0,1,1,0,0,0,0,33,4,41,60
1020,265,1054,274,Visité,O,0,0,1,0,0,0,1,0,0,0,0,0,5,90,39,49
40,284,138,298,décomptées,O,0,0,0,0,0,0,1,0,0,0,0,0,14,6,43,62
144,284,163,295,de,O,0,0,0,0,0,0,1,1,0,0,0,0,16,6,44,65
169,287,196,295,vos,O,0,0,0,0,0,0,1,1,0,0,0,0,16,7,45,66
203,283,256,295,forfaits,O,0,0,0,0,0,0,1,1,0,0,0,0,16,497,46,66
753,280,796,291,Appelé,O,0,0,1,0,0,0,1,0,0,0,0,0,19,60,47,57
856,279,895,289,Réelle,O,0,0,1,0,0,0,1,0,0,0,0,0,6,24,48,52
919,279,973,289,Facturée,O,0,0,1,0,0,0,1,0,0,0,0,0,6,51,49,53
1024,279,1054,291,Pays,O,0,0,1,0,0,0,1,1,0,0,0,0,19,4,50,60
1058,280,1102,291,Appelé,O,0,0,1,0,0,0,1,0,0,0,0,0,33,30,51,68
1132,279,1176,289,€TTC*,O,0,0,0,1,0,0,0,0,0,1,0,0,21,0,-1,61
844,295,904,304,hh:mm:ss,O,0,0,0,0,0,0,0,1,0,0,0,0,6,11,53,58
915,295,975,304,hh:mm:ss.,O,0,0,0,0,0,0,0,1,0,0,0,0,6,0,-1,59
574,312,604,324,"0,00",O,1,0,0,0,0,0,0,1,1,0,0,0,9,7,55,76
611,310,644,319,16/12,O,1,0,0,0,0,0,0,1,1,0,0,0,21,6,56,83
650,310,704,319,06:33:05,O,0,0,0,0,0,0,0,1,1,0,0,0,21,44,57,84
748,310,801,319,3397024,O,1,0,0,0,1,0,0,1,1,0,0,0,21,47,58,85
848,310,902,319,00:00:02,O,0,0,0,0,0,0,0,1,1,0,0,0,21,15,59,86
917,310,971,319,00:01:00,O,0,0,0,0,0,0,0,1,1,0,0,0,21,15,60,87
986,310,1040,319,Maldives,O,0,0,1,0,0,0,1,1,0,0,0,0,21,98,61,88
1138,310,1172,320,"2,299",O,1,0,0,0,0,0,0,1,1,0,0,0,20,0,-1,89
44,312,60,322,10,O,1,0,0,0,1,0,0,1,1,0,0,0,11,6,63,69
66,312,74,322,h,O,0,0,0,0,0,0,1,1,0,0,0,0,11,6,64,69
80,314,112,322,vers,O,0,0,0,0,0,0,1,1,0,0,0,0,11,6,65,70
118,311,179,325,l'Algérie,O,0,0,0,0,0,0,0,0,0,0,0,0,0,6,66,-1
185,311,230,325,(Fixes,O,0,0,1,0,0,0,0,1,0,0,0,0,8,7,67,71
237,311,332,325,uniquement),O,0,0,0,0,0,0,0,1,0,0,0,0,8,242,54,72
1058,324,1100,334,France,O,0,0,1,0,0,0,1,1,0,0,0,0,21,0,-1,92
44,333,73,342,Date,O,0,0,1,0,0,0,1,1,0,0,0,0,36,16,70,102
89,333,126,342,Heure,O,0,0,1,0,0,0,1,1,0,0,0,0,36,56,71,103
182,333,231,342,Numéro,O,0,0,1,0,0,0,1,0,0,0,0,0,6,54,72,77
285,333,322,342,Durée,O,0,0,1,0,0,0,1,0,0,0,0,0,5,35,73,78
357,333,394,342,Durée,O,0,0,1,0,0,0,1,0,0,0,0,0,5,22,74,79
416,333,446,345,Pays,O,0,0,1,0,0,0,1,1,0,0,0,0,33,4,75,107
450,333,484,342,Visité,O,0,0,1,0,0,0,1,0,0,0,0,0,5,90,76,80
574,333,603,342,Coût,O,0,0,1,0,0,0,1,0,0,0,0,0,5,0,-1,82
183,348,226,359,Appelé,O,0,0,1,0,0,0,1,0,0,0,0,0,19,60,78,104
286,347,324,357,Réelle,O,0,0,1,0,0,0,1,0,0,0,0,0,6,25,79,90
349,347,403,357,Facturée,O,0,0,1,0,0,0,1,0,0,0,0,0,6,51,80,91
454,347,484,359,Pays,O,0,0,1,0,0,0,1,1,0,0,0,0,0,4,81,-1
488,348,532,359,Appelé,O,0,0,1,0,0,0,1,0,0,0,0,0,33,30,82,110
562,347,605,357,€TTC*,O,0,0,0,1,0,0,0,0,0,1,0,0,21,0,-1,108
610,340,644,349,23/12,O,1,0,0,0,0,0,0,1,1,0,0,0,20,6,84,93
650,340,704,349,03:49:24,O,0,0,0,0,0,0,0,1,1,0,0,0,20,39,85,94
743,340,807,351,Répondeur,O,0,0,1,0,0,0,1,0,0,0,0,0,18,41,86,95
848,340,902,349,00:02:47,O,0,0,0,0,0,0,0,1,1,0,0,0,20,15,87,96
917,340,971,349,00:03:00,O,0,0,0,0,0,0,0,1,1,0,0,0,20,15,88,97
986,340,1040,349,Maldives,O,0,0,1,0,0,0,1,1,0,0,0,0,20,98,89,98
1138,340,1172,350,"6,899",O,1,0,0,0,0,0,0,1,1,0,0,0,19,0,-1,101
274,363,334,372,hh:mm:ss.,O,0,0,0,0,0,0,0,1,0,0,0,0,6,11,91,105
345,363,405,372,hh:mm:ss.,O,0,0,0,0,0,0,0,1,0,0,0,0,6,0,-1,106
1058,355,1100,364,France,O,0,0,1,0,0,0,1,1,0,0,0,0,5,0,-1,100
610,369,644,379,26/12,O,1,0,0,0,0,0,0,1,1,0,0,0,20,8,94,118
652,369,704,379,13:02:29,O,0,0,0,0,0,0,0,1,1,0,0,0,20,44,95,119
748,369,801,379,3366835,O,1,0,0,0,1,0,0,1,1,0,0,0,20,47,96,120
848,369,902,379,00:00:34,O,0,0,0,0,0,0,0,1,1,0,0,0,20,15,97,121
917,369,971,379,00:01:00,O,0,0,0,0,0,0,0,1,1,0,0,0,20,15,98,122
986,369,1005,379,Em.,O,0,0,1,0,0,0,0,1,0,0,0,0,20,9,99,123
1014,369,1058,379,Arabes,O,0,0,1,0,0,0,1,1,0,0,0,0,20,5,100,124
1063,369,1090,379,Unis,O,0,0,1,0,0,0,1,1,0,0,0,0,6,48,101,109
1138,369,1172,380,2.299,O,1,0,0,0,0,0,0,1,1,0,0,0,19,0,-1,126
41,378,74,387,12/12,O,1,0,0,0,0,0,0,1,1,0,0,0,21,7,103,111
81,378,134,387,18:55:17,O,0,0,0,0,0,0,0,1,1,0,0,0,21,36,104,112
170,378,238,387,002132392,O,1,0,0,0,1,0,0,1,1,0,0,0,21,40,105,113
278,378,332,387,00:04:43,O,0,0,0,0,0,0,0,1,1,0,0,0,21,14,106,114
346,378,400,387,00:04:43,O,0,0,0,0,0,0,0,1,1,0,0,0,21,16,107,115
416,378,458,387,France,O,0,0,1,0,0,0,1,1,0,0,0,0,21,110,108,116
568,378,602,388,"0,000",O,1,0,0,0,0,0,0,1,1,0,0,0,20,0,-1,117
1058,385,1100,394,France,O,0,0,1,0,0,0,1,1,0,0,0,0,5,0,-1,125
484,392,527,404,Algérie,O,0,0,1,0,0,0,1,0,0,0,0,0,19,0,-1,128
41,408,74,417,12/12,O,1,0,0,0,0,0,0,1,1,0,0,0,20,7,112,138
81,408,134,417,19:00:00,O,0,0,0,0,0,0,0,1,1,0,0,0,20,36,113,139
170,408,238,417,002132392,O,1,0,0,0,1,0,0,1,1,0,0,0,20,40,114,140
278,408,332,417,00:22:46,O,0,0,0,0,0,0,0,1,1,0,0,0,20,14,115,141
346,408,400,417,00:22:46,O,0,0,0,0,0,0,0,1,1,0,0,0,20,16,116,142
416,408,458,417,France,O,0,0,1,0,0,0,1,1,0,0,0,0,20,110,117,143
568,408,602,418,"0,000",O,1,0,0,0,0,0,0,1,1,0,0,0,19,0,-1,144
618,399,644,409,7/12,O,1,0,0,0,0,0,0,1,1,0,0,0,21,7,119,129
651,399,704,409,18:04:32,O,0,0,0,0,0,0,0,1,1,0,0,0,21,44,120,130
748,399,801,409,3366835,O,1,0,0,0,1,0,0,1,1,0,0,0,21,47,121,131
848,399,902,409,00:00:04,O,0,0,0,0,0,0,0,1,1,0,0,0,21,15,122,132
917,399,971,409,00:01:00,O,0,0,0,0,0,0,0,1,1,0,0,0,21,15,123,133
986,399,1009,409,Em.,O,0,0,1,0,0,0,0,1,0,0,0,0,21,5,124,134
1014,399,1058,409,Arabes,O,0,0,1,0,0,0,1,1,0,0,0,0,21,5,125,135
1063,399,1090,409,Unis,O,0,0,1,0,0,0,1,1,0,0,0,0,5,48,126,127
1138,399,1172,410,"2,299",O,1,0,0,0,0,0,0,1,1,0,0,0,20,0,-1,137
1058,414,1100,424,France,O,0,0,1,0,0,0,1,1,0,0,0,0,6,0,-1,136
484,423,527,434,Algérie,O,0,0,1,0,0,0,1,0,0,0,0,0,19,0,-1,146
610,430,644,439,31/12,O,1,0,0,0,0,0,0,1,1,0,0,0,20,7,130,147
651,430,704,439,14:13:40,O,0,0,0,0,0,0,0,1,1,0,0,0,20,40,131,148
744,430,804,439,21379054,O,1,0,0,0,1,0,0,1,1,0,0,0,20,44,132,149
848,430,902,439,00:00:07,O,0,0,0,0,0,0,0,1,1,0,0,0,20,15,133,150
917,430,971,439,00:01:00,O,0,0,0,0,0,0,0,1,1,0,0,0,20,15,134,151
986,430,1009,439,Em.,O,0,0,1,0,0,0,0,1,0,0,0,0,20,5,135,152
1014,430,1058,439,Arabes,O,0,0,1,0,0,0,1,1,0,0,0,0,20,5,136,153
1063,430,1090,439,Unis,O,0,0,1,0,0,0,1,1,0,0,0,0,5,48,137,145
1138,430,1172,440,"2,299",O,1,0,0,0,0,0,0,1,1,0,0,0,19,0,-1,162
40,437,73,447,02/01,O,1,0,0,0,0,0,0,1,1,0,0,0,20,9,139,155
82,437,134,447,18:02:37,O,0,0,0,0,0,0,0,1,1,0,0,0,20,36,140,156
170,437,238,447,002132392,O,1,0,0,0,1,0,0,1,1,0,0,0,20,40,141,157
278,437,332,447,00:00:57,O,0,0,0,0,0,0,0,1,1,0,0,0,20,14,142,158
346,437,400,447,00:00:57,O,0,0,0,0,0,0,0,1,1,0,0,0,20,16,143,159
416,437,458,447,France,O,0,0,1,0,0,0,1,1,0,0,0,0,20,110,144,160
568,437,602,448,"0,000",O,1,0,0,0,0,0,0,1,1,0,0,0,19,0,-1,161
1054,444,1097,456,Algérie,O,0,0,1,0,0,0,1,0,0,0,0,0,3,0,-1,154
484,453,527,464,Algérie,O,0,0,1,0,0,0,1,0,0,0,0,0,18,83,147,164
610,459,644,468,31/12,O,1,0,0,0,0,0,0,1,1,0,0,0,36,7,148,174
651,459,702,468,14:14:01,O,0,0,0,0,0,0,0,1,1,0,0,0,39,42,149,175
744,459,805,468,21379054,O,1,0,0,0,1,0,0,1,1,0,0,0,36,43,150,177
848,459,902,468,00:00:39,O,0,0,0,0,0,0,0,1,1,0,0,0,60,15,151,190
917,459,971,468,00:01:00,O,0,0,0,0,0,0,0,1,1,0,0,0,79,15,152,195
986,459,1005,468,Em.,O,0,0,1,0,0,0,0,1,0,0,0,0,79,9,153,196
1014,459,1058,468,Arabes,O,0,0,1,0,0,0,1,1,0,0,0,0,79,5,154,197
1063,459,1090,468,Unis,O,0,0,1,0,0,0,1,1,0,0,0,0,6,48,162,163
40,467,73,477,02/01,O,1,0,0,0,0,0,0,1,1,0,0,0,21,8,156,165
81,467,134,477,18:03:56,O,0,0,0,0,0,0,0,1,1,0,0,0,21,36,157,166
170,467,238,477,002132392,O,1,0,0,0,1,0,0,1,1,0,0,0,21,40,158,167
278,467,332,477,00:56:04,O,0,0,0,0,0,0,0,1,1,0,0,0,21,14,159,168
346,467,400,477,00:56:04,O,0,0,0,0,0,0,0,1,1,0,0,0,21,16,160,169
416,467,458,477,France,O,0,0,1,0,0,0,1,1,0,0,0,0,21,110,161,170
568,467,602,478,"0,000",O,1,0,0,0,0,0,0,1,1,0,0,0,20,0,-1,171
1138,459,1172,470,"2,299",O,1,0,0,0,0,0,0,1,1,0,0,0,34,0,-1,172
1054,474,1097,486,Algérie,O,0,0,1,0,0,0,1,0,0,0,0,0,106,0,-1,226
484,482,527,494,Algérie,O,0,0,1,0,0,0,1,0,0,0,0,0,18,0,-1,173
40,498,73,507,02/01,O,1,0,0,0,0,0,0,1,1,0,0,0,20,8,166,179
81,498,134,507,19:00:00,O,0,0,0,0,0,0,0,1,1,0,0,0,20,36,167,180
170,498,238,507,002132392,O,1,0,0,0,1,0,0,1,1,0,0,0,20,40,168,181
278,498,332,507,00:03:56,O,0,0,0,0,0,0,0,1,1,0,0,0,20,14,169,182
346,498,400,507,00:03:56,O,0,0,0,0,0,0,0,1,1,0,0,0,20,16,170,183
416,498,458,507,France,O,0,0,1,0,0,0,1,1,0,0,0,0,20,110,171,184
568,498,602,508,"0,000",O,1,0,0,0,0,0,0,1,1,0,0,0,19,0,-1,185
1144,504,1174,516,"3,00",O,1,0,0,0,0,0,0,1,1,0,0,0,31,0,-1,198
484,512,527,524,Algérie,O,0,0,1,0,0,0,1,0,0,0,0,0,18,0,-1,191
613,504,666,517,Appels,O,0,0,1,0,0,0,1,1,0,0,0,0,11,6,175,186
672,507,713,517,reçus,O,0,0,0,0,0,0,1,0,0,0,0,0,11,6,176,187
719,504,753,515,hors,O,0,0,0,0,0,0,1,1,0,0,0,0,13,5,177,188
758,504,796,515,Zone,O,0,0,1,0,0,0,1,1,0,0,0,0,13,6,178,189
802,504,856,517,Europe,O,0,0,1,0,0,0,1,1,0,0,0,0,11,288,172,190
40,527,73,536,02/01,O,1,0,0,0,0,0,0,1,1,0,0,0,36,8,180,202
81,527,134,536,19:04:13,O,0,0,0,0,0,0,0,1,1,0,0,0,36,36,181,203
170,527,238,536,002132392,O,1,0,0,0,1,0,0,1,1,0,0,0,36,40,182,204
278,527,332,536,00:17:59,O,0,0,0,0,0,0,0,1,1,0,0,0,36,14,183,206
346,527,400,536,00:17:59,O,0,0,0,0,0,0,0,1,1,0,0,0,36,16,184,207
416,527,458,536,France,O,0,0,1,0,0,0,1,1,0,0,0,0,79,110,185,241
568,527,602,538,"0,000",O,1,0,0,0,0,0,0,1,1,0,0,0,34,15,186,208
617,528,654,538,Heure,O,0,0,1,0,0,0,1,1,0,0,0,0,9,5,187,192
659,528,711,540,indiquée,O,0,0,0,0,0,0,1,0,0,0,0,0,7,18,188,193
729,528,763,538,heure,O,0,0,0,0,0,0,1,1,0,0,0,0,0,6,189,-1
769,528,811,538,France,O,0,0,1,0,0,0,1,1,0,0,0,0,0,5,190,-1
816,528,904,540,métropolitaine,O,0,0,0,0,0,0,1,0,0,0,0,0,7,0,-1,194
484,542,527,554,Algérie,O,0,0,1,0,0,0,1,0,0,0,0,0,0,88,192,-1
615,547,643,556,Date,O,0,0,1,0,0,0,1,1,0,0,0,0,36,16,193,220
659,547,696,556,Heure,O,0,0,1,0,0,0,1,1,0,0,0,0,36,160,194,221
856,547,892,556,Durée,O,0,0,1,0,0,0,1,0,0,0,0,0,6,35,195,199
927,547,964,556,Durée,O,0,0,1,0,0,0,1,0,0,0,0,0,6,22,196,200
986,547,1016,559,Pays,O,0,0,1,0,0,0,1,1,0,0,0,0,33,4,197,224
1020,547,1054,556,Visité,O,0,0,1,0,0,0,1,0,0,0,0,0,36,90,198,225
1144,547,1173,556,Coat,O,0,0,1,0,0,0,1,1,0,0,0,0,6,0,-1,201
856,562,895,571,Réelle,O,0,0,1,0,0,0,1,0,0,0,0,0,6,24,200,209
919,562,973,571,Facturée,O,0,0,1,0,0,0,1,0,0,0,0,0,6,159,201,210
1132,562,1176,571,ETTC*,O,0,0,0,1,0,0,0,1,0,0,0,0,21,0,-1,227
43,572,102,583,Internet,O,0,0,1,0,0,0,1,1,0,0,0,0,11,5,203,211
107,572,182,585,décompté,O,0,0,0,0,0,0,1,0,0,0,0,0,9,5,204,212
187,572,205,583,de,O,0,0,0,0,0,0,1,1,0,0,0,0,11,5,205,215
210,573,249,583,votre,O,0,0,0,0,0,0,1,1,0,0,0,0,11,5,206,216
254,572,300,583,forfait,O,0,0,0,0,0,0,1,1,0,0,0,0,11,5,207,218
305,572,370,585,principal,O,0,0,0,0,0,0,1,1,0,0,0,0,9,204,208,219
574,572,604,584,"0,00",O,1,0,0,0,0,0,0,1,1,0,0,0,31,240,209,232
844,577,904,586,hh:mm:ss.,O,0,0,0,0,0,0,0,1,0,0,0,0,6,11,210,222
915,577,975,586,hh:mm:ss.,O,0,0,0,0,0,0,0,1,0,0,0,0,6,0,-1,223
47,594,90,605,Rappel,O,0,0,1,0,0,0,1,1,0,0,0,0,10,14,212,228
104,594,125,603,ko,O,0,0,0,0,0,0,1,1,0,0,0,0,273,5,213,406
130,596,137,600,=,O,0,0,0,0,0,0,0,1,0,0,0,0,0,6,214,-1
143,594,172,603,1024,O,1,0,0,0,1,0,0,1,1,0,0,0,0,5,215,-1
177,594,217,604,"octets,",O,0,0,0,0,0,0,0,1,0,0,0,0,0,7,216,-1
224,594,249,603,1Mo,O,0,0,1,0,0,0,0,1,1,0,0,0,0,5,217,-1
254,596,261,600,=,O,0,0,0,0,0,0,0,1,0,0,0,0,0,6,218,-1
267,594,296,603,1024,O,1,0,0,0,1,0,0,1,1,0,0,0,0,6,219,-1
302,594,315,603,ko,O,0,0,0,0,0,0,1,1,0,0,0,0,0,295,220,-1
610,592,644,601,26/12,O,1,0,0,0,0,0,0,1,1,0,0,0,6,6,221,233
650,592,704,601,06:54:13,O,0,0,0,0,0,0,0,1,1,0,0,0,6,144,222,234
848,592,900,601,00:00:21,O,0,0,0,0,0,0,0,1,1,0,0,0,6,17,223,235
917,592,971,601,00:01:00,O,0,0,0,0,0,0,0,1,1,0,0,0,6,15,224,236
986,592,1005,601,Em.,O,0,0,1,0,0,0,0,1,0,0,0,0,6,9,225,237
1014,592,1058,601,Arabes,O,0,0,1,0,0,0,1,1,0,0,0,0,6,5,226,238
1063,592,1090,601,Unis,O,0,0,1,0,0,0,1,1,0,0,0,0,6,49,227,239
1139,592,1172,602,"1,000",O,1,0,0,0,0,0,0,1,1,0,0,0,5,0,-1,240
44,615,73,624,Date,O,0,0,1,0,0,0,1,1,0,0,0,0,21,277,229,250
350,615,398,624,Volume,O,0,0,1,0,0,0,1,1,0,0,0,0,11,18,241,252
528,615,557,624,Coat,O,0,0,1,0,0,0,1,1,0,0,0,0,0,9,231,-1
566,615,569,624,€,O,0,0,0,0,0,1,0,0,0,1,0,0,0,5,232,-1
574,615,606,624,TTC*,O,0,0,0,1,0,0,0,1,0,0,0,0,21,0,-1,255
610,607,644,616,26/12,O,1,0,0,0,0,0,0,1,1,0,0,0,5,7,234,242
651,607,704,616,11:45:09,O,0,0,0,0,0,0,0,1,1,0,0,0,5,144,235,243
848,607,902,616,00:00:40,O,0,0,0,0,0,0,0,1,1,0,0,0,5,15,236,244
917,607,971,616,00:01:00,O,0,0,0,0,0,0,0,1,1,0,0,0,5,15,237,245
986,607,1009,616,Em.,O,0,0,1,0,0,0,0,1,0,0,0,0,5,5,238,246
1014,607,1058,616,Arabes,O,0,0,1,0,0,0,1,1,0,0,0,0,5,5,239,247
1063,607,1090,616,Unis,O,0,0,1,0,0,0,1,1,0,0,0,0,5,49,240,248
1139,607,1172,617,"1,000",O,1,0,0,0,0,0,0,1,1,0,0,0,4,0,-1,249
416,615,446,627,Pays,O,0,0,1,0,0,0,1,1,0,0,0,0,18,82,230,254
610,621,644,630,26/12,O,1,0,0,0,0,0,0,1,1,0,0,0,20,7,243,262
651,621,704,630,13:07:10,O,0,0,0,0,0,0,0,1,1,0,0,0,20,144,244,262
848,621,902,630,00:00:15,O,0,0,0,0,0,0,0,1,1,0,0,0,0,15,245,-1
917,621,971,630,00:01:00,O,0,0,0,0,0,0,0,1,1,0,0,0,0,15,246,-1
986,621,1005,630,Em.,O,0,0,1,0,0,0,0,1,0,0,0,0,63,9,247,285
1014,621,1058,630,Arabes,O,0,0,1,0,0,0,1,1,0,0,0,0,63,5,248,286
1063,621,1090,630,Unis,O,0,0,1,0,0,0,1,1,0,0,0,0,0,49,249,-1
1139,621,1172,631,"1,000",O,1,0,0,0,0,0,0,1,1,0,0,0,19,0,-1,265
40,645,74,654,06/12,O,1,0,0,0,0,0,0,1,1,0,0,0,5,263,251,256
337,645,409,654,1012,O,1,0,0,0,1,0,0,1,1,0,0,0,5,-37,252,257
372,635,387,663,Mo,O,0,0,1,0,0,0,1,1,0,0,0,0,-18,6,253,251
393,635,413,663,86,O,1,0,0,0,1,0,0,1,1,0,0,0,-18,3,254,251
416,645,458,654,France,O,0,0,1,0,0,0,1,1,0,0,0,0,5,110,255,260
568,645,602,656,"0,000",O,1,0,0,0,0,0,0,1,1,0,0,0,3,11,262,261
40,659,74,669,07/12,O,1,0,0,0,0,0,0,1,1,0,0,0,5,262,257,266
336,659,358,669,689,O,1,0,0,0,1,0,0,1,1,0,0,0,5,6,258,267
364,659,382,669,Mo,O,0,0,1,0,0,0,1,1,0,0,0,0,5,5,259,268
387,659,409,669,023,O,1,0,0,0,1,0,0,1,1,0,0,0,5,7,260,269
416,659,458,668,France,O,0,0,1,0,0,0,1,1,0,0,0,0,6,110,261,270
568,659,602,670,"0,000",O,1,0,0,0,0,0,0,1,1,0,0,0,4,0,-1,271
613,650,689,661,SMS/MMS,O,0,0,0,1,0,0,0,1,0,0,0,0,13,5,263,273
694,653,727,661,vers,O,0,0,0,0,0,0,1,1,0,0,0,0,13,28,264,274
755,650,836,661,ternational,O,0,0,0,0,0,0,1,1,0,0,0,0,13,308,265,275
1144,650,1174,663,"0,30",O,1,0,0,0,0,0,0,1,1,0,0,0,30,0,-1,287
40,674,74,683,08/12,O,1,0,0,0,0,0,0,1,1,0,0,0,6,266,267,276
340,674,355,683,56,O,1,0,0,0,1,0,0,1,1,0,0,0,6,5,268,277
360,674,378,683,Mo,O,0,0,1,0,0,0,1,1,0,0,0,0,6,5,269,278
383,674,406,683,445,O,1,0,0,0,1,0,0,1,1,0,0,0,6,10,270,279
416,674,458,683,France,O,0,0,1,0,0,0,1,1,0,0,0,0,6,110,271,280
568,674,602,684,"0,000",O,1,0,0,0,0,0,0,1,1,0,0,0,5,11,272,281
613,677,621,687,y,O,0,0,0,0,0,0,1,1,0,0,0,0,6,6,273,282
627,674,688,687,compris,O,0,0,0,0,0,0,1,1,0,0,0,0,6,7,274,282
695,674,715,684,les,O,0,0,0,0,0,0,1,1,0,0,0,0,39,6,275,308
721,674,798,684,DOM-TOM,O,0,0,0,1,0,0,0,1,0,0,0,0,9,0,-1,284
40,689,74,698,09/12,O,1,0,0,0,0,0,0,1,1,0,0,0,5,262,277,288
336,689,358,698,214,O,1,0,0,0,1,0,0,1,1,0,0,0,5,6,278,289
364,689,382,698,Mo,O,0,0,1,0,0,0,1,1,0,0,0,0,5,5,279,290
387,689,409,698,463,O,1,0,0,0,1,0,0,1,1,0,0,0,5,7,280,291
416,689,458,698,France,O,0,0,1,0,0,0,1,1,0,0,0,0,5,110,281,292
568,689,602,699,"0,000",O,1,0,0,0,0,0,0,1,1,0,0,0,4,13,282,293
615,693,643,702,Date,O,0,0,1,0,0,0,1,1,0,0,0,0,21,16,283,307
659,693,696,702,Heure,O,0,0,1,0,0,0,1,1,0,0,0,0,21,54,284,308
750,693,799,702,Numéro,O,0,0,1,0,0,0,1,0,0,0,0,0,6,187,285,294
986,693,1016,705,Pays,O,0,0,1,0,0,0,1,1,0,0,0,0,18,4,286,310
1020,693,1054,702,Visité,O,0,0,1,0,0,0,1,0,0,0,0,0,0,90,287,-1
1144,693,1173,702,Coat,O,0,0,1,0,0,0,1,1,0,0,0,0,21,0,-1,311
41,703,74,712,10/12,O,1,0,0,0,0,0,0,1,1,0,0,0,5,272,289,295
346,703,350,712,1,O,1,0,0,0,1,0,0,1,1,0,0,0,5,8,290,296
358,703,375,712,Go,O,0,0,1,0,0,0,1,1,0,0,0,0,5,6,291,297
381,703,403,712,100,O,1,0,0,0,1,0,0,1,1,0,0,0,5,13,292,298
416,703,458,712,France,O,0,0,1,0,0,0,1,1,0,0,0,0,5,110,293,299
568,703,602,713,"0,000",O,1,0,0,0,0,0,0,1,1,0,0,0,4,0,-1,300
753,708,796,720,Appelé,O,0,0,1,0,0,0,1,0,0,0,0,0,3,0,-1,309
41,717,74,727,1112,O,1,0,0,0,1,0,0,1,1,0,0,0,5,263,296,301
337,717,358,727,103,O,1,0,0,0,1,0,0,1,1,0,0,0,5,6,297,302
364,717,382,727,Mo,O,0,0,1,0,0,0,1,1,0,0,0,0,5,5,298,303
387,717,409,727,085,O,1,0,0,0,1,0,0,1,1,0,0,0,5,7,299,304
416,717,458,727,France,O,0,0,1,0,0,0,1,1,0,0,0,0,5,110,300,305
568,717,602,728,"0,000",O,1,0,0,0,0,0,0,1,1,0,0,0,4,0,-1,306
41,732,74,741,12/12,O,1,0,0,0,0,0,0,1,1,0,0,0,5,262,302,312
336,732,358,742,620,O,1,0,0,0,1,0,0,1,1,0,0,0,4,6,303,313
364,732,382,742,Mo,O,0,0,1,0,0,0,1,1,0,0,0,0,4,5,304,314
387,732,409,742,579,O,1,0,0,0,1,0,0,1,1,0,0,0,4,7,305,315
416,732,458,742,France,O,0,0,1,0,0,0,1,1,0,0,0,0,4,110,306,316
568,732,602,743,"0,000",O,1,0,0,0,0,0,0,1,1,0,0,0,3,0,-1,317
618,723,644,733,19/12,O,1,0,0,0,0,0,0,1,1,0,0,0,20,8,308,318
652,723,704,733,13:00:03,O,0,0,0,0,0,0,0,1,1,0,0,0,20,32,309,318
736,723,813,733,0021377118,O,1,0,0,0,1,0,0,1,1,0,0,0,20,173,310,320
986,723,1028,733,France,O,0,0,1,0,0,0,1,1,0,0,0,0,62,110,311,356
1138,723,1172,734,"0,300",O,1,0,0,0,0,0,0,1,1,0,0,0,19,0,-1,322
41,746,74,756,13/12,O,1,0,0,0,0,0,0,1,1,0,0,0,5,262,313,323
336,746,356,756,651,O,1,0,0,0,1,0,0,1,1,0,0,0,5,8,314,324
364,746,382,756,Mo,O,0,0,1,0,0,0,1,1,0,0,0,0,5,5,315,325
387,746,409,756,639,O,1,0,0,0,1,0,0,1,1,0,0,0,5,7,316,326
416,746,458,756,France,O,0,0,1,0,0,0,1,1,0,0,0,0,5,110,317,327
568,746,602,757,"0,000",O,1,0,0,0,0,0,0,1,1,0,0,0,4,0,-1,328
613,753,689,763,SMS/MMS,O,0,0,0,1,0,0,0,1,0,0,0,0,14,6,319,335
695,753,730,763,émis,O,0,0,0,0,0,0,1,0,0,0,0,0,14,6,320,336
736,753,754,763,de,O,0,0,0,0,0,0,1,1,0,0,0,0,14,6,321,337
760,753,832,766,l'étranger,O,0,0,0,0,0,0,0,0,0,0,0,0,11,312,322,338
1144,753,1174,765,"0,30",O,1,0,0,0,0,0,0,1,1,0,0,0,30,0,-1,349
41,761,74,770,14/12,O,1,0,0,0,0,0,0,1,1,0,0,0,6,263,324,329
337,761,358,770,139,O,1,0,0,0,1,0,0,1,1,0,0,0,6,6,325,330
364,761,382,770,Mo,O,0,0,1,0,0,0,1,1,0,0,0,0,6,5,326,331
387,761,409,770,095,O,1,0,0,0,1,0,0,1,1,0,0,0,6,7,327,332
416,761,458,770,France,O,0,0,1,0,0,0,1,1,0,0,0,0,6,110,328,333
568,761,602,772,"0,000",O,1,0,0,0,0,0,0,1,1,0,0,0,4,0,-1,334
40,776,73,785,01/01,O,1,0,0,0,0,0,0,1,1,0,0,0,5,267,330,340
340,776,355,785,27,O,1,0,0,0,1,0,0,1,1,0,0,0,5,5,331,341
360,776,378,785,Mo,O,0,0,1,0,0,0,1,1,0,0,0,0,5,5,332,342
383,776,406,785,633,O,1,0,0,0,1,0,0,1,1,0,0,0,5,10,333,343
416,776,458,785,France,O,0,0,1,0,0,0,1,1,0,0,0,0,5,110,334,344
568,776,602,786,"0,000",O,1,0,0,0,0,0,0,1,1,0,0,0,4,15,335,345
617,777,654,786,Heure,O,0,0,1,0,0,0,1,1,0,0,0,0,9,5,336,346
659,777,711,789,indiquée,O,0,0,0,0,0,0,1,0,0,0,0,0,6,18,337,347
729,777,763,787,heure,O,0,0,0,0,0,0,1,1,0,0,0,0,38,6,338,368
769,777,811,786,France,O,0,0,1,0,0,0,1,1,0,0,0,0,9,5,339,348
816,777,904,789,métropolitaine,O,0,0,0,0,0,0,1,0,0,0,0,0,66,0,-1,383
40,790,73,799,02/01,O,1,0,0,0,0,0,0,1,1,0,0,0,6,263,341,350
336,790,358,799,243,O,1,0,0,0,1,0,0,1,1,0,0,0,6,6,342,351
364,790,382,799,Mo,O,0,0,1,0,0,0,1,1,0,0,0,0,6,5,343,352
387,790,409,799,816,O,1,0,0,0,1,0,0,1,1,0,0,0,6,7,344,353
416,790,458,799,France,O,0,0,1,0,0,0,1,1,0,0,0,0,6,110,345,354
568,790,602,801,"0,000",O,1,0,0,0,0,0,0,1,1,0,0,0,4,13,346,355
615,795,643,804,Date,O,0,0,1,0,0,0,1,1,0,0,0,0,21,16,347,366
659,795,696,804,Heure,O,0,0,1,0,0,0,1,1,0,0,0,0,21,54,348,367
750,795,799,804,Numéro,O,0,0,1,0,0,0,1,0,0,0,0,0,7,187,356,358
1144,795,1173,804,Coat,O,0,0,1,0,0,0,1,1,0,0,0,0,6,0,-1,359
40,805,73,814,03/01,O,1,0,0,0,0,0,0,1,1,0,0,0,5,263,351,360
336,805,358,814,236,O,1,0,0,0,1,0,0,1,1,0,0,0,6,6,352,361
364,805,382,814,Mo,O,0,0,1,0,0,0,1,1,0,0,0,0,5,5,353,362
387,805,409,814,335,O,1,0,0,0,1,0,0,1,1,0,0,0,5,7,354,363
416,805,458,814,France,O,0,0,1,0,0,0,1,1,0,0,0,0,5,110,355,364
568,805,602,815,"0,000",O,1,0,0,0,0,0,0,1,1,0,0,0,4,0,-1,365
986,795,1016,807,Pays,O,0,0,1,0,0,0,1,1,0,0,0,0,18,4,357,369
1020,795,1054,804,Visité,O,0,0,1,0,0,0,1,0,0,0,0,0,21,90,349,370
753,811,796,822,Appelé,O,0,0,1,0,0,0,1,0,0,0,0,0,3,336,359,368
1132,810,1176,820,€TTC*,O,0,0,0,1,0,0,0,0,0,1,0,0,5,0,-1,372
40,819,73,829,04/01,O,1,0,0,0,0,0,0,1,1,0,0,0,5,267,361,373
340,820,355,829,74,O,1,0,0,0,1,0,0,1,1,0,0,0,5,5,362,374
360,819,378,829,Mo,O,0,0,1,0,0,0,1,1,0,0,0,0,5,5,363,375
383,819,406,829,945,O,1,0,0,0,1,0,0,1,1,0,0,0,5,10,364,376
416,819,458,829,France,O,0,0,1,0,0,0,1,1,0,0,0,0,5,110,365,377
568,819,602,830,"0,000",O,1,0,0,0,0,0,0,1,1,0,0,0,4,384,369,378
610,825,644,835,31/12,O,1,0,0,0,0,0,0,1,1,0,0,0,20,8,367,379
652,825,704,835,12:03:32,O,0,0,0,0,0,0,0,1,1,0,0,0,20,44,368,380
748,825,801,835,3366000,O,1,0,0,0,1,0,0,1,1,0,0,0,20,185,369,382
986,825,1005,834,Em.,O,0,0,1,0,0,0,0,1,0,0,0,0,64,9,370,412
1014,825,1058,835,Arabes,O,0,0,1,0,0,0,1,1,0,0,0,0,92,5,371,430
1063,825,1090,835,Unis,O,0,0,1,0,0,0,1,1,0,0,0,0,92,48,372,431
1138,825,1172,836,"0,300",O,1,0,0,0,0,0,0,1,1,0,0,0,19,0,-1,385
40,834,73,843,05/01,O,1,0,0,0,0,0,0,1,1,0,0,0,23,262,374,386
335,834,358,843,458,O,1,0,0,0,1,0,0,1,1,0,0,0,20,6,375,391
364,834,382,843,Mo,O,0,0,1,0,0,0,1,1,0,0,0,0,23,5,376,392
387,834,409,843,013,O,1,0,0,0,1,0,0,1,1,0,0,0,20,7,377,393
416,834,458,843,France,O,0,0,1,0,0,0,1,1,0,0,0,0,20,110,378,393
568,834,602,844,"0,000",O,1,0,0,0,0,0,0,1,1,0,0,0,63,0,-1,419
614,855,672,865,Internet,O,0,0,1,0,0,0,1,1,0,0,0,0,11,5,380,394
677,855,685,865,à,O,0,0,0,0,0,0,1,0,0,0,0,0,11,6,381,395
691,855,763,868,l'étranger,O,0,0,0,0,0,0,0,0,0,0,0,0,8,5,382,397
768,855,801,865,hors,O,0,0,0,0,0,0,1,1,0,0,0,0,11,7,383,398
808,855,862,868,Europe,O,0,0,1,0,0,0,1,1,0,0,0,0,8,6,384,399
868,855,903,865,DOM,O,0,0,0,1,0,0,1,1,0,0,0,0,11,233,385,402
1136,855,1175,867,"59,99",O,1,0,0,0,0,0,0,1,1,0,0,0,31,0,-1,414
40,866,58,874,en,O,0,0,0,0,0,0,1,1,0,0,0,0,12,8,387,405
66,863,173,877,dépassement,O,0,0,0,0,0,0,1,0,0,0,0,0,-1,6,388,406
179,866,198,874,ou,O,0,0,0,0,0,0,1,1,0,0,0,0,11,7,389,408
205,866,233,874,non,O,0,0,0,0,0,0,1,1,0,0,0,0,11,8,390,408
241,863,304,874,incluses,O,0,0,0,0,0,0,1,1,0,0,0,0,11,7,391,408
311,863,348,874,dans,O,0,0,0,0,0,0,1,1,0,0,0,0,14,7,392,409
355,866,382,874,vos,O,0,0,0,0,0,0,1,1,0,0,0,0,14,6,393,403
388,863,441,874,forfaits,O,0,0,0,0,0,0,1,1,0,0,0,0,12,0,-1,404
617,876,660,888,Rappel,O,0,0,1,0,0,0,1,1,0,0,0,0,10,14,395,410
674,876,695,885,ko,O,0,0,0,0,0,0,1,1,0,0,0,0,71,5,396,448
700,879,707,883,=,O,0,0,0,0,0,0,0,1,0,0,0,0,73,6,397,448
713,876,742,885,1024,O,1,0,0,0,1,0,0,1,1,0,0,0,75,5,398,449
747,876,787,886,"octets,",O,0,0,0,0,0,0,0,1,0,0,0,0,74,7,399,449
794,876,819,885,1Mo,O,0,0,1,0,0,0,0,1,1,0,0,0,71,5,400,450
824,879,831,883,=,O,0,0,0,0,0,0,0,1,0,0,0,0,73,6,401,450
837,876,867,885,1024,O,1,0,0,0,1,0,0,1,1,0,0,0,71,5,402,450
872,876,886,885,ko,O,0,0,0,0,0,0,1,1,0,0,0,0,71,0,-1,450
364,888,393,895,arifs,O,0,0,0,0,0,0,1,1,0,0,0,0,54,21,404,437
414,886,476,895,condition:,O,0,0,0,0,0,0,0,1,0,0,0,0,54,0,-1,439
40,886,69,895,Plus,O,0,0,1,0,0,0,1,1,0,0,0,0,12,5,406,416
74,876,119,905,d'infos,O,0,0,0,0,0,0,0,1,0,0,0,0,2,6,407,416
125,888,145,895,sur,O,0,0,0,0,0,0,1,1,0,0,0,0,12,5,408,416
150,885,283,901,bouyguestelecom.fr,O,0,0,0,0,0,0,0,1,0,0,0,1,6,4,409,418
287,888,344,895,rubrique,O,0,0,0,0,0,0,1,1,0,0,0,0,12,20,403,418
615,898,643,907,Date,O,0,0,1,0,0,0,1,1,0,0,0,0,20,278,411,425
921,898,968,907,Volume,O,0,0,1,0,0,0,1,1,0,0,0,0,20,18,412,427
986,898,1016,910,Pays,O,0,0,1,0,0,0,1,1,0,0,0,0,17,82,413,429
1098,898,1127,907,Goût,O,0,0,1,0,0,0,1,0,0,0,0,0,5,5,414,420
1132,898,1140,907,€,O,0,0,0,0,0,1,0,0,0,1,0,0,5,4,415,420
1144,898,1176,907,TTC*,O,0,0,0,1,0,0,0,1,0,0,0,0,5,0,-1,420
43,907,170,917,communications,O,0,0,0,0,0,0,1,1,0,0,0,0,13,5,417,423
175,909,208,917,vers,O,0,0,0,0,0,0,1,1,0,0,0,0,13,6,418,424
214,907,317,917,l'international,O,0,0,0,0,0,0,0,1,0,0,0,0,32,257,419,436
574,907,604,919,"8,10",O,1,0,0,0,0,0,0,1,1,0,0,0,30,510,420,438
1114,912,1175,924,Ipays/jour,O,0,0,0,0,0,0,0,1,0,0,0,0,3,0,-1,432
43,933,51,943,y,O,0,0,0,0,0,0,1,1,0,0,0,0,6,6,422,433
57,933,118,943,compris,O,0,0,0,0,0,0,1,1,0,0,0,0,6,6,423,433
124,930,145,940,les,O,0,0,0,0,0,0,1,1,0,0,0,0,54,6,424,455
151,930,228,940,DOM-TOM,O,0,0,0,1,0,0,0,1,0,0,0,0,9,382,425,435
610,927,644,937,31/12,O,1,0,0,0,0,0,0,1,1,0,0,0,19,270,426,447
914,927,921,937,5,O,1,0,0,0,1,0,0,1,1,0,0,0,19,5,427,450
926,927,945,937,Mo,O,0,0,1,0,0,0,1,1,0,0,0,0,19,4,428,450
949,927,972,937,859,O,1,0,0,0,1,0,0,1,1,0,0,0,19,14,429,450
986,927,1005,936,Em.,O,0,0,1,0,0,0,0,1,0,0,0,0,20,9,430,450
1014,927,1058,937,Arabes,O,0,0,1,0,0,0,1,1,0,0,0,0,0,5,431,-1
1063,927,1090,937,Unis,O,0,0,1,0,0,0,1,1,0,0,0,0,0,40,432,-1
1130,927,1172,938,"59,990",O,1,0,0,0,0,0,0,1,1,0,0,0,18,0,-1,451
44,949,73,958,Date,O,0,0,1,0,0,0,1,1,0,0,0,0,36,16,434,454
89,949,126,958,Heure,O,0,0,1,0,0,0,1,1,0,0,0,0,36,56,435,455
182,949,231,958,Numéro,O,0,0,1,0,0,0,1,0,0,0,0,0,6,54,436,441
285,949,322,958,Durée,O,0,0,1,0,0,0,1,0,0,0,0,0,6,35,437,442
357,949,394,958,Durée,O,0,0,1,0,0,0,1,0,0,0,0,0,6,22,439,443
574,949,603,958,Coat,O,0,0,1,0,0,0,1,1,0,0,0,0,6,0,-1,446
416,949,446,961,Pays,O,0,0,1,0,0,0,1,1,0,0,0,0,33,4,440,459
450,949,484,958,Visité,O,0,0,1,0,0,0,1,0,0,0,0,0,6,90,438,444
183,964,226,976,Appelé,O,0,0,1,0,0,0,1,0,0,0,0,0,18,60,442,456
286,964,324,974,Réelle,O,0,0,1,0,0,0,1,0,0,0,0,0,5,25,443,452
349,964,403,974,Facturée,O,0,0,1,0,0,0,1,0,0,0,0,0,5,51,444,453
454,964,484,976,Pays,O,0,0,1,0,0,0,1,1,0,0,0,0,0,4,445,-1
488,964,532,976,Appelé,O,0,0,1,0,0,0,1,0,0,0,0,0,33,30,446,461
562,964,605,974,etc:,O,0,0,0,0,0,0,0,1,0,0,0,0,20,6,447,460
611,956,675,974,Total,O,0,0,1,0,0,0,1,1,0,0,0,0,0,11,448,-1
686,956,716,974,de,O,0,0,0,0,0,0,1,1,0,0,0,0,0,10,449,-1
726,960,773,974,vos,O,0,0,0,0,0,0,1,1,0,0,0,0,0,10,450,-1
783,956,997,974,consommations,O,0,0,0,0,0,0,1,1,0,0,0,0,0,97,451,-1
1094,956,1163,977,"90,08",TOTAL,1,0,0,0,0,0,0,1,1,0,0,0,0,0,-1,-1
274,979,334,989,hh:mm:ss.,O,0,0,0,0,0,0,0,1,0,0,0,0,5,11,453,457
345,979,405,989,hh:mm:ss.,O,0,0,0,0,0,0,0,1,0,0,0,0,5,0,-1,458
40,994,74,1003,09/12,O,1,0,0,0,0,0,0,1,1,0,0,0,21,7,455,462
81,994,134,1003,12:52:25,O,0,0,0,0,0,0,0,1,1,0,0,0,21,39,456,463
173,994,235,1003,21355845,O,1,0,0,0,1,0,0,1,1,0,0,0,21,43,457,464
278,994,332,1003,00:00:49,O,0,0,0,0,0,0,0,1,1,0,0,0,21,14,458,465
346,994,400,1003,00:01:00,O,0,0,0,0,0,0,0,1,1,0,0,0,21,16,459,466
416,994,458,1003,France,O,0,0,1,0,0,0,1,1,0,0,0,0,21,111,460,467
569,994,602,1005,"1,000",O,1,0,0,0,0,0,0,1,1,0,0,0,19,0,-1,468
484,1009,527,1021,Algérie,O,0,0,1,0,0,0,1,0,0,0,0,0,18,0,-1,469
40,1024,74,1033,09/12,O,1,0,0,0,0,0,0,1,1,0,0,0,21,7,463,470
81,1024,134,1033,13:01:38,O,0,0,0,0,0,0,0,1,1,0,0,0,21,39,464,471
173,1024,235,1033,21355845,O,1,0,0,0,1,0,0,1,1,0,0,0,21,43,465,472
278,1024,330,1033,00:01:21,O,0,0,0,0,0,0,0,1,1,0,0,0,21,16,466,473
346,1024,400,1033,00:01:30,O,0,0,0,0,0,0,0,1,1,0,0,0,21,16,467,474
416,1024,458,1033,France,O,0,0,1,0,0,0,1,1,0,0,0,0,21,111,468,475
569,1024,602,1035,"1,499",O,1,0,0,0,0,0,0,1,1,0,0,0,19,0,-1,476
484,1039,527,1051,Algérie,O,0,0,1,0,0,0,1,0,0,0,0,0,18,0,-1,477
40,1054,74,1064,09/12,O,1,0,0,0,0,0,0,1,1,0,0,0,20,7,471,478
81,1054,134,1064,13:03:23,O,0,0,0,0,0,0,0,1,1,0,0,0,20,32,472,479
166,1054,243,1064,0021377118,O,1,0,0,0,1,0,0,1,1,0,0,0,20,35,473,480
278,1054,332,1064,00:01:03,O,0,0,0,0,0,0,0,1,1,0,0,0,20,14,474,481
346,1054,400,1064,00:01:30,O,0,0,0,0,0,0,0,1,1,0,0,0,20,16,475,482
416,1054,458,1064,France,O,0,0,1,0,0,0,1,1,0,0,0,0,20,111,476,483
569,1054,602,1065,"1,499",O,1,0,0,0,0,0,0,1,1,0,0,0,19,0,-1,484
484,1069,527,1081,Algérie,O,0,0,1,0,0,0,1,0,0,0,0,0,18,0,-1,485
40,1084,74,1093,09/12,O,1,0,0,0,0,0,0,1,1,0,0,0,21,7,479,486
81,1084,132,1093,16:29:21,O,0,0,0,0,0,0,0,1,1,0,0,0,21,42,480,487
174,1084,235,1093,21355845,O,1,0,0,0,1,0,0,1,1,0,0,0,21,43,481,488
278,1084,332,1093,00:00:46,O,0,0,0,0,0,0,0,1,1,0,0,0,21,14,482,489
346,1084,400,1093,00:01:00,O,0,0,0,0,0,0,0,1,1,0,0,0,21,16,483,490
416,1084,458,1093,France,O,0,0,1,0,0,0,1,1,0,0,0,0,21,111,484,491
569,1084,602,1094,"1,000",O,1,0,0,0,0,0,0,1,1,0,0,0,20,0,-1,492
484,1099,527,1111,Algérie,O,0,0,1,0,0,0,1,0,0,0,0,0,18,0,-1,493
41,1114,74,1123,10/12,O,1,0,0,0,0,0,0,1,1,0,0,0,21,7,487,494
81,1114,134,1123,11:22:46,O,0,0,0,0,0,0,0,1,1,0,0,0,21,40,488,495
174,1114,235,1123,00960664,O,1,0,0,0,1,0,0,1,1,0,0,0,21,43,489,496
278,1114,332,1123,00:01:27,O,0,0,0,0,0,0,0,1,1,0,0,0,21,14,490,497
346,1114,400,1123,00:01:30,O,0,0,0,0,0,0,0,1,1,0,0,0,21,16,491,498
416,1114,458,1123,France,O,0,0,1,0,0,0,1,1,0,0,0,0,21,110,492,499
568,1114,602,1124,"2,099",O,1,0,0,0,0,0,0,1,1,0,0,0,20,0,-1,500
473,1129,527,1138,Maldives,O,0,0,1,0,0,0,1,1,0,0,0,0,21,0,-1,501
41,1144,74,1153,10/12,O,1,0,0,0,0,0,0,1,1,0,0,0,0,7,495,-1
81,1144,134,1153,15:27:33,O,0,0,0,0,0,0,0,1,1,0,0,0,0,39,496,-1
173,1144,235,1153,21379054,O,1,0,0,0,1,0,0,1,1,0,0,0,0,43,497,-1
278,1144,332,1153,00:00:17,O,0,0,0,0,0,0,0,1,1,0,0,0,0,14,498,-1
346,1144,400,1153,00:01:00,O,0,0,0,0,0,0,0,1,1,0,0,0,0,16,499,-1
416,1144,458,1153,France,O,0,0,1,0,0,0,1,1,0,0,0,0,0,111,500,-1
569,1144,602,1155,"1,000",O,1,0,0,0,0,0,0,1,1,0,0,0,0,0,-1,-1
484,1159,527,1171,Algérie,O,0,0,1,0,0,0,1,0,0,0,0,0,0,0,-1,-1
27,1471,58,1482,*Les,O,0,0,1,0,0,0,0,1,0,0,0,0,0,6,503,-1
64,1472,129,1482,montants,O,0,0,0,0,0,0,1,1,0,0,0,0,0,6,504,-1
135,1471,195,1482,unitaires,O,0,0,0,0,0,0,1,1,0,0,0,0,0,5,505,-1
200,1472,230,1482,sont,O,0,0,0,0,0,0,1,1,0,0,0,0,0,5,506,-1
235,1471,296,1483,"arrondis,",O,0,0,0,0,0,0,0,1,0,0,0,0,0,7,507,-1
303,1471,329,1482,leur,O,0,0,0,0,0,0,1,1,0,0,0,0,0,5,508,-1
334,1474,386,1482,somme,O,0,0,0,0,0,0,1,1,0,0,0,0,0,5,509,-1
391,1472,422,1484,peut,O,0,0,0,0,0,0,1,1,0,0,0,0,0,5,510,-1
427,1471,477,1482,différer,O,0,0,0,0,0,0,1,0,0,0,0,0,0,5,511,-1
482,1471,498,1482,du,O,0,0,0,0,0,0,1,1,0,0,0,0,0,7,512,-1
505,1463,556,1491,montant,O,0,0,0,0,0,0,1,1,0,0,0,0,0,8,513,-1
564,1471,596,1482,total,O,0,0,0,0,0,0,1,1,0,0,0,0,0,0,-1,-1
