xmin,ymin,xmax,ymax,Object,label,like_num,is_punct,is_title,is_upper,is_digit,is_currency,is_alpha,is_ascii,hasNumbers,hascurrency,like_email,like_url,dh,dv,v_hor,v_vert
64,45,121,59,Slaimi,COMPANY_NAME,0,0,1,0,0,0,1,1,0,0,0,0,10,8,1,2
129,49,193,59,mouna,COMPANY_NAME,0,0,0,0,0,0,1,1,0,0,0,0,10,0,-1,4
63,69,80,80,92,COMPANY_ADDRESS,1,0,0,0,1,0,0,1,1,0,0,0,10,5,3,6
85,69,119,80,allée,COMPANY_ADDRESS,0,0,0,0,0,0,1,0,0,0,0,0,10,5,4,6
124,69,149,80,des,COMPANY_ADDRESS,0,0,0,0,0,0,1,1,0,0,0,0,10,6,5,7
155,69,235,82,parfumeurs,COMPANY_ADDRESS,0,0,0,0,0,0,1,1,0,0,0,0,8,604,8,7
63,90,107,100,92000,COMPANY_ADDRESS,1,0,0,0,1,0,0,1,1,0,0,0,9,6,7,18
113,90,200,100,NANTERRE,COMPANY_ADDRESS,0,0,0,1,0,0,1,1,0,0,0,0,30,0,-1,21
839,72,917,87,Facture,O,0,0,1,0,0,0,1,1,0,0,0,0,10,8,9,13
925,72,946,87,n°,O,0,0,0,0,0,0,0,0,0,0,0,0,10,7,10,13
953,72,1075,87,2019010019,NUMBER,1,0,0,0,1,0,0,1,1,0,0,0,10,0,-1,14
807,97,839,108,Date,O,0,0,1,0,0,0,1,1,0,0,0,0,0,6,12,-1
845,100,847,108,:,O,0,1,0,0,0,0,0,1,0,0,0,0,0,7,13,-1
854,97,935,108,17-01-2019,DATE,0,0,0,0,0,0,0,1,1,0,0,0,0,82,14,-1
1017,97,1053,111,Page,O,0,0,1,0,0,0,1,1,0,0,0,0,0,6,15,-1
1059,98,1064,108,1,O,1,0,0,0,1,0,0,1,1,0,0,0,0,8,16,-1
1072,100,1093,108,sur,O,0,0,0,0,0,0,1,1,0,0,0,0,0,7,17,-1
1100,97,1104,108,1,O,1,0,0,0,1,0,0,1,1,0,0,0,0,0,-1,-1
64,109,128,120,FRANCE,COMPANY_ADDRESS,0,0,0,1,0,0,1,1,0,0,0,0,2,0,-1,20
63,130,96,141,Siret,O,0,0,1,0,0,0,1,1,0,0,0,0,9,7,20,22
103,122,108,150,:,O,0,1,0,0,0,0,0,1,0,0,0,0,0,2,21,23
110,130,234,141,84310157700016,O,1,0,0,0,1,0,0,1,1,0,0,0,9,0,-1,23
63,150,84,161,Tél,O,0,0,1,0,0,0,1,0,0,0,0,0,9,15,23,24
99,150,188,161,0646123278,O,1,0,0,0,1,0,0,1,1,0,0,0,9,0,-1,26
64,170,107,181,E-mail,O,0,0,0,0,0,0,0,1,0,0,0,0,0,9,25,-1
116,173,117,181,:,O,0,1,0,0,0,0,0,1,0,0,0,0,0,6,26,-1
123,170,311,184,mouna.slaimi@yahoo.com,O,0,0,0,0,0,0,0,1,0,0,1,0,0,0,-1,-1
605,257,651,270,ADBI,CLIENT_NAME,0,0,0,1,0,0,1,1,0,0,0,0,13,0,-1,28
606,283,616,296,8,CLIENT_ADDRESS,1,0,0,0,1,0,0,1,1,0,0,0,12,7,29,31
623,286,651,296,rue,CLIENT_ADDRESS,0,0,0,0,0,0,1,1,0,0,0,0,12,7,30,31
658,283,722,296,Rossini,CLIENT_ADDRESS,0,0,1,0,0,0,1,1,0,0,0,0,12,0,-1,32
606,308,661,321,75009,CLIENT_ADDRESS,1,0,0,0,1,0,0,1,1,0,0,0,12,8,32,33
669,308,727,321,PARIS,CLIENT_ADDRESS,0,0,0,1,0,0,1,1,0,0,0,0,0,0,-1,-1
607,333,668,346,France,CLIENT_ADDRESS,0,0,1,0,0,0,1,1,0,0,0,0,0,0,-1,-1
63,453,98,467,Obje,O,0,0,1,0,0,0,1,1,0,0,0,0,16,22,35,37
120,453,191,464,Formation,O,0,0,1,0,0,0,1,1,0,0,0,0,19,6,36,38
197,453,279,467,FeelEurope,O,0,0,0,0,0,0,1,1,0,0,0,0,16,0,-1,38
64,483,129,497,Dispensé,O,0,0,1,0,0,0,1,0,0,0,0,0,14,6,38,53
135,483,254,494,d'immatriculation,O,0,0,0,0,0,0,0,1,0,0,0,0,55,6,39,61
260,486,276,494,au,O,0,0,0,0,0,0,1,1,0,0,0,0,55,7,40,63
283,483,335,497,registre,O,0,0,0,0,0,0,1,1,0,0,0,0,54,5,41,64
340,484,357,494,du,O,0,0,0,0,0,0,1,1,0,0,0,0,57,6,42,64
363,486,437,494,commerce,O,0,0,0,0,0,0,1,1,0,0,0,0,55,6,43,65
443,484,455,494,et,O,0,0,0,0,0,0,1,1,0,0,0,0,17,5,44,54
460,484,485,494,des,O,0,0,0,0,0,0,1,1,0,0,0,0,17,6,45,54
491,483,549,494,sociétés,O,0,0,0,0,0,0,1,0,0,0,0,0,17,6,46,54
555,483,598,497,(RCS),O,0,0,0,1,0,0,0,1,0,0,0,0,0,6,47,-1
604,484,617,494,et,O,0,0,0,0,0,0,1,1,0,0,0,0,0,5,48,-1
622,486,638,494,au,O,0,0,0,0,0,0,1,1,0,0,0,0,0,7,49,-1
645,483,712,497,répertoire,O,0,0,0,0,0,0,1,0,0,0,0,0,0,6,50,-1
718,483,743,494,des,O,0,0,0,0,0,0,1,1,0,0,0,0,0,6,51,-1
749,483,800,494,métiers,O,0,0,0,0,0,0,1,0,0,0,0,0,0,6,52,-1
806,483,840,497,(RM),O,0,0,0,1,0,0,0,1,0,0,0,0,0,0,-1,-1
82,511,113,522,REF.,O,0,0,0,1,0,0,0,1,0,0,0,0,27,303,54,60
416,511,526,522,DESIGNATION,O,0,0,0,1,0,0,1,1,0,0,0,0,27,315,55,66
841,511,873,522,QTE,O,0,0,0,1,0,0,1,1,0,0,0,0,0,75,56,-1
948,511,968,522,PU,O,0,0,0,1,0,0,1,1,0,0,0,0,0,7,57,-1
975,511,995,522,HT,O,0,0,0,1,0,0,1,1,0,0,0,0,27,51,58,69
1046,511,1099,522,TOTAL,O,0,0,0,1,0,0,1,1,0,0,0,0,27,6,59,70
1105,511,1125,522,HT,O,0,0,0,1,0,0,1,1,0,0,0,0,19,0,-1,72
65,549,98,560,1910,O,1,0,0,0,1,0,0,1,1,0,0,0,0,51,61,-1
149,549,191,562,spring,O,0,0,0,0,0,0,1,1,0,0,0,0,0,7,62,-1
198,549,228,560,boot,O,0,0,0,0,0,0,1,1,0,0,0,0,0,6,63,-1
234,549,299,560,hibernate,O,0,0,0,0,0,0,1,1,0,0,0,0,0,6,64,-1
305,551,347,562,spring,O,0,0,0,0,0,0,1,1,0,0,0,0,0,6,65,-1
353,549,408,562,security,O,0,0,0,0,0,0,1,1,0,0,0,0,0,5,66,-1
413,549,456,562,spring,O,0,0,0,0,0,0,1,1,0,0,0,0,0,6,67,-1
462,549,518,560,hateoas,O,0,0,0,0,0,0,1,1,0,0,0,0,0,348,68,-1
866,549,896,560,2.00,O,1,0,0,0,0,0,0,1,1,0,0,0,0,67,69,-1
963,549,1010,560,500.00,O,1,0,0,0,0,0,0,1,1,0,0,0,0,41,70,-1
1051,549,1055,559,1,O,1,0,0,0,1,0,0,1,1,0,0,0,0,8,71,-1
1063,549,1125,560,000.00,O,1,0,0,0,0,0,0,1,1,0,0,0,0,-8,72,-1
1117,541,1129,569,€,O,0,0,0,0,0,1,0,0,0,1,0,0,-20,0,-1,71
64,1092,96,1103,Date,O,0,0,1,0,0,0,1,1,0,0,0,0,11,6,74,82
102,1092,183,1103,d'échéance,O,0,0,0,0,0,0,0,0,0,0,0,0,11,6,75,83
189,1095,191,1097,:,O,0,1,0,0,0,0,0,1,0,0,0,0,20,7,76,84
198,1092,279,1103,17-01-2019,O,0,0,0,0,0,0,0,1,1,0,0,0,11,533,77,85
812,1097,874,1108,Montant,O,0,0,1,0,0,0,1,1,0,0,0,0,22,5,78,86
879,1097,900,1108,HT,O,0,0,0,1,0,0,1,1,0,0,0,0,22,156,79,88
1056,1097,1061,1108,1,O,1,0,0,0,1,0,0,1,1,0,0,0,22,8,80,90
1069,1097,1117,1108,000.00,O,1,0,0,0,0,0,0,1,1,0,0,0,22,5,81,90
1122,1097,1131,1108,€,O,0,0,0,0,0,1,0,0,0,1,0,0,22,0,-1,91
64,1114,96,1125,Date,O,0,0,1,0,0,0,1,1,0,0,0,0,13,6,83,92
102,1114,181,1125,d'exécution,O,0,0,0,0,0,0,0,0,0,0,0,0,13,7,84,93
188,1117,190,1125,:,O,0,1,0,0,0,0,0,1,0,0,0,0,13,7,85,94
197,1114,278,1125,14-01-2019,O,0,0,0,0,0,0,0,1,1,0,0,0,13,0,-1,96
812,1130,851,1144,NET,O,0,0,0,1,0,0,1,1,0,0,0,0,26,6,87,97
857,1130,871,1144,A,O,0,0,1,1,0,0,1,1,0,0,0,0,26,7,88,97
878,1130,946,1144,PAYER,O,0,0,0,1,0,0,1,1,0,0,0,0,26,91,89,99
1037,1130,1044,1144,1,TOTAL,1,0,0,0,1,0,0,1,1,0,0,0,0,9,90,-1
1053,1130,1113,1144,000.00,TOTAL,1,0,0,0,0,0,0,1,1,0,0,0,26,6,91,103
1119,1130,1131,1144,€,TOTAL,0,0,0,0,0,1,0,0,0,1,0,0,0,0,-1,-1
64,1138,103,1148,Mode,O,0,0,1,0,0,0,1,1,0,0,0,0,0,5,93,-1
108,1138,125,1148,de,O,0,0,0,0,0,0,1,1,0,0,0,0,0,6,94,-1
131,1138,196,1151,paiement,O,0,0,0,0,0,0,1,1,0,0,0,0,0,6,95,-1
202,1140,204,1148,:,O,0,1,0,0,0,0,0,1,0,0,0,0,0,6,96,-1
210,1138,274,1148,Virement,O,0,0,1,0,0,0,1,1,0,0,0,0,0,538,86,-1
834,1170,865,1181,TVA,O,0,0,0,1,0,0,1,1,0,0,0,0,0,6,98,-1
871,1173,896,1181,non,O,0,0,0,0,0,0,1,1,0,0,0,0,0,6,99,-1
902,1170,977,1184,"applicable,",O,0,0,0,0,0,0,0,1,0,0,0,0,0,6,100,-1
983,1171,1005,1181,art.,O,0,0,0,0,0,0,0,1,0,0,0,0,0,6,101,-1
1011,1170,1037,1181,293,O,1,0,0,0,1,0,0,1,1,0,0,0,0,6,102,-1
1043,1170,1052,1181,B,O,0,0,1,1,0,0,1,1,0,0,0,0,0,6,103,-1
1058,1170,1074,1181,du,O,0,0,0,0,0,0,1,1,0,0,0,0,0,6,104,-1
1080,1170,1107,1181,CGI,O,0,0,0,1,0,0,1,1,0,0,0,0,0,0,-1,-1
607,1438,611,1440,-,O,0,1,0,0,0,0,0,1,0,0,0,0,16,0,-1,108
495,1454,545,1463,Facture,O,0,0,1,0,0,0,1,1,0,0,0,0,0,5,107,-1
550,1454,590,1463,éditée,O,0,0,0,0,0,0,1,0,0,0,0,0,0,5,108,-1
595,1456,616,1463,sur,O,0,0,0,0,0,0,1,1,0,0,0,0,0,4,109,-1
620,1454,711,1466,www.myAE.fr,O,0,0,0,0,0,0,0,1,0,0,0,1,0,0,-1,-1
