xmin,ymin,xmax,ymax,Object,label,like_num,is_punct,is_title,is_upper,is_digit,is_currency,is_alpha,is_ascii,hasNumbers,hascurrency,like_email,like_url,dh,dv,v_hor,v_vert
58,53,109,64,TOTAL,COMPANY_NAME,0,0,0,1,0,0,1,1,0,0,0,0,6,6,1,3
115,53,211,64,MARKETING,COMPANY_NAME,0,0,0,1,0,0,1,1,0,0,0,0,6,7,2,5
218,53,283,64,FRANCE,COMPANY_NAME,0,0,0,1,0,0,1,1,0,0,0,0,6,0,-1,7
58,70,99,80,S.A.S.,O,0,0,1,1,0,0,0,1,0,0,0,0,6,11,4,13
110,73,126,80,au,O,0,0,0,0,0,0,1,1,0,0,0,0,9,7,5,14
133,70,179,83,capital,O,0,0,0,0,0,0,1,1,0,0,0,0,3,7,6,15
186,70,203,80,de,O,0,0,0,0,0,0,1,1,0,0,0,0,6,6,7,16
209,70,234,80,390,O,1,0,0,0,1,0,0,1,1,0,0,0,7,7,8,17
241,70,267,80,553,O,1,0,0,0,1,0,0,1,1,0,0,0,6,6,9,18
273,70,299,80,839,O,1,0,0,0,1,0,0,1,1,0,0,0,6,6,10,20
305,72,344,80,euros,O,0,0,0,0,0,0,1,1,0,0,0,0,6,572,11,21
916,61,1006,81,Votre,O,0,0,1,0,0,0,1,1,0,0,0,0,11,12,12,28
1018,61,1142,81,Facture,O,0,0,1,0,0,0,1,1,0,0,0,0,11,0,-1,31
58,86,84,97,562,COMPANY_ADDRESS,1,0,0,0,1,0,0,1,1,0,0,0,6,6,14,22
90,89,142,97,avenue,COMPANY_ADDRESS,0,0,0,0,0,0,1,1,0,0,0,0,6,6,15,23
148,86,165,97,du,COMPANY_ADDRESS,0,0,0,0,0,0,1,1,0,0,0,0,6,7,16,24
172,86,203,97,Parc,COMPANY_ADDRESS,0,0,1,0,0,0,1,1,0,0,0,0,6,6,17,25
209,87,226,97,de,COMPANY_ADDRESS,0,0,0,0,0,0,1,1,0,0,0,0,6,6,18,26
232,86,255,97,l'Ile,COMPANY_ADDRESS,0,0,0,0,0,0,0,1,0,0,0,0,6,6,19,26
261,92,265,94,-,COMPANY_ADDRESS,0,1,0,0,0,0,0,1,0,0,0,0,9,7,20,27
272,86,316,97,92000,COMPANY_ADDRESS,1,0,0,0,1,0,0,1,1,0,0,0,6,6,21,27
322,86,410,97,NANTERRE,COMPANY_ADDRESS,0,0,0,1,0,0,1,1,0,0,0,0,0,0,-1,-1
58,103,107,114,SIREN,O,0,0,0,1,0,0,1,1,0,0,0,0,6,6,23,32
113,103,137,114,531,O,1,0,0,0,1,0,0,1,1,0,0,0,6,8,24,34
145,103,171,114,680,O,1,0,0,0,1,0,0,1,1,0,0,0,6,6,25,34
177,103,203,114,445,O,1,0,0,0,1,0,0,1,1,0,0,0,6,7,26,34
210,103,243,114,RCS,O,0,0,0,1,0,0,1,1,0,0,0,0,6,7,27,34
250,103,311,114,Nanterre,O,0,0,1,0,0,0,1,1,0,0,0,0,0,0,-1,-1
882,92,979,108,FRANCE,O,0,0,0,1,0,0,1,1,0,0,0,0,47,10,29,35
989,101,995,104,-,O,0,1,0,0,0,0,0,1,0,0,0,0,51,8,30,35
1003,92,1028,108,N°,O,0,0,1,1,0,0,0,0,0,0,0,0,47,9,31,35
1037,92,1143,108,F9177485,NUMBER,0,0,1,1,0,0,0,1,1,0,0,0,47,0,-1,36
58,120,74,130,N°,O,0,0,1,1,0,0,0,0,0,0,0,0,0,7,33,-1
81,120,103,130,DE,O,0,0,0,1,0,0,1,1,0,0,0,0,0,5,34,-1
108,120,265,130,TVA:FR22531680445,O,0,0,0,1,0,0,0,1,1,0,0,0,249,0,-1,47
951,155,1019,170,Feuillet,O,0,0,1,0,0,0,1,1,0,0,0,0,31,81,36,39
1100,155,1141,170,2/3,O,1,0,0,0,0,0,0,1,1,0,0,0,8,0,-1,38
543,157,657,176,TOTAL,LOGO,0,0,0,1,0,0,1,1,0,0,0,0,0,294,35,-1
1069,178,1143,197,Original,O,0,0,1,0,0,0,1,1,0,0,0,0,3,0,-1,40
1000,201,1023,215,Le,O,0,0,1,0,0,0,1,1,0,0,0,0,0,9,40,-1
1032,200,1142,215,15/01/2019,DATE,0,0,0,0,0,0,0,1,1,0,0,0,0,0,-1,-1
47,370,82,379,SEPA,O,0,0,0,1,0,0,1,1,0,0,0,0,10,5,42,44
87,370,162,379,Prélèvement,O,0,0,1,0,0,0,1,0,0,0,0,0,10,4,43,45
166,370,241,381,Automatique,O,0,0,1,0,0,0,1,1,0,0,0,0,-2,0,-1,47
47,389,75,398,Date,O,0,0,1,0,0,0,1,1,0,0,0,0,5,5,45,49
80,389,94,398,de,O,0,0,0,0,0,0,1,1,0,0,0,0,5,5,46,49
99,389,172,401,prélèvement,O,0,0,0,0,0,0,1,0,0,0,0,0,2,4,47,50
176,379,181,407,:,O,0,1,0,0,0,0,0,1,0,0,0,0,-4,3,48,51
184,389,253,398,25/01/2019,O,0,0,0,0,0,0,0,1,1,0,0,0,-4,0,-1,52
47,403,95,413,Montant,O,0,0,1,0,0,0,1,1,0,0,0,0,5,4,50,55
99,403,113,413,du,O,0,0,0,0,0,0,1,1,0,0,0,0,19,4,51,59
117,403,191,415,prélèvement,O,0,0,0,0,0,0,1,0,0,0,0,0,17,3,52,59
194,394,200,422,:,O,0,1,0,0,0,0,0,1,0,0,0,0,10,4,53,59
204,403,244,413,165.56,TOTAL,1,0,0,0,0,0,0,1,1,0,0,0,19,6,54,59
250,403,277,413,EUR,TOTAL,0,0,0,1,0,0,1,1,0,0,0,0,19,0,-1,59
47,418,62,427,Bai,O,0,0,1,0,0,0,1,1,0,0,0,0,5,16,56,57
78,420,92,427,ue,O,0,0,0,0,0,0,1,1,0,0,0,0,-5,-12,58,58
47,432,77,441,IBAN,O,0,0,0,1,0,0,1,1,0,0,0,0,0,3,58,-1
80,422,88,450,:,O,0,1,0,0,0,0,0,1,0,0,0,0,0,2,59,-1
90,432,304,441,FR7630066109340002010560113,O,0,0,0,1,0,0,0,1,1,0,0,0,0,0,-1,-1
1089,1448,1113,1460,2/3,O,1,0,0,0,0,0,0,1,1,0,0,0,0,0,-1,-1
