xmin,ymin,xmax,ymax,Object,label,like_num,is_punct,is_title,is_upper,is_digit,is_currency,is_alpha,is_ascii,hasNumbers,hascurrency,like_email,like_url,dh,dv,v_hor,v_vert
45,41,94,56,7103/2019,DATE,1,0,0,0,0,0,0,1,1,0,0,0,0,436,1,-1
530,41,571,56,Amazon,O,0,0,1,0,0,0,1,1,0,0,0,0,90,4,2,6
575,41,582,55,fr,O,0,0,0,0,0,0,1,1,0,0,0,0,91,6,3,7
588,49,589,51,-,O,0,1,0,0,0,0,0,1,0,0,0,0,95,4,4,7
593,41,651,56,Commande,O,0,0,1,0,0,0,1,1,0,0,0,0,90,3,5,7
654,41,768,56,408-3697057-7459521,O,0,0,0,0,0,0,0,1,1,0,0,0,90,0,-1,7
492,146,566,181,Infos,O,0,0,1,0,0,0,1,1,0,0,0,0,84,11,7,21
577,146,710,190,paiement,O,0,0,0,0,0,0,1,1,0,0,0,0,76,0,-1,23
105,218,170,249,Mode,O,0,0,1,0,0,0,1,1,0,0,0,0,16,10,9,16
180,218,209,249,de,O,0,0,0,0,0,0,1,1,0,0,0,0,16,11,10,16
220,218,338,257,paiement,O,0,0,0,0,0,0,1,1,0,0,0,0,8,10,11,18
348,226,353,249,:,O,0,1,0,0,0,0,0,1,0,0,0,0,16,489,12,18
842,223,925,255,Articles,O,0,0,1,0,0,0,1,1,0,0,0,0,18,13,13,24
938,232,940,254,:,O,0,1,0,0,0,0,0,1,0,0,0,0,27,21,14,25
961,225,1006,255,EUR,O,0,0,0,1,0,0,1,1,0,0,0,0,118,10,15,34
1016,224,1094,261,"500,00",O,1,0,0,0,0,0,0,1,1,0,0,0,12,0,-1,27
105,265,203,297,Eurocard,O,0,0,1,0,0,0,1,1,0,0,0,0,62,10,17,28
213,265,222,302,/,O,0,1,0,0,0,0,0,1,0,0,0,0,57,12,18,29
234,265,360,297,MasterCard,O,0,0,0,0,0,0,1,1,0,0,0,0,62,14,19,30
374,265,376,304,|,O,0,0,0,0,0,0,0,1,0,0,0,0,55,15,20,30
391,266,485,296,Derniers,O,0,0,1,0,0,0,1,1,0,0,0,0,72,10,21,31
495,265,576,296,chiffres,O,0,0,0,0,0,0,1,1,0,0,0,0,0,13,22,-1
589,274,592,296,:,O,0,1,0,0,0,0,0,1,0,0,0,0,0,13,23,-1
605,266,661,297,4388,O,1,0,0,0,1,0,0,1,1,0,0,0,0,165,24,-1
826,273,924,304,Livraison,O,0,0,1,0,0,0,1,1,0,0,0,0,67,14,25,32
938,281,940,303,:,O,0,1,0,0,0,0,0,1,0,0,0,0,77,50,26,33
990,274,1035,304,EUR,O,0,0,0,1,0,0,1,1,0,0,0,0,68,9,27,35
1044,273,1094,310,"0,00",O,1,0,0,0,0,0,0,1,1,0,0,0,62,0,-1,35
103,359,204,391,Adresse,O,0,0,1,0,0,0,1,1,0,0,0,0,17,10,29,36
214,359,243,391,de,O,0,0,0,0,0,0,1,1,0,0,0,0,65,9,30,39
252,359,392,391,facturation,O,0,0,0,0,0,0,1,1,0,0,0,0,287,12,31,53
404,368,408,390,:,O,0,1,0,0,0,0,0,1,0,0,0,0,288,464,32,55
872,371,924,403,Total,O,0,0,1,0,0,0,1,1,0,0,0,0,67,14,33,42
938,380,940,402,:,O,0,1,0,0,0,0,0,1,0,0,0,0,277,21,34,61
961,373,1006,403,EUR,O,0,0,0,1,0,0,1,1,0,0,0,0,68,10,35,44
1016,372,1094,409,"500,00",TOTAL,1,0,0,0,0,0,0,1,1,0,0,0,61,0,-1,45
103,408,160,437,ADBI,CLIENT_NAME,0,0,0,1,0,0,1,1,0,0,0,0,18,0,-1,37
104,455,116,486,8,CLIENT_ADDRESS,1,0,0,0,1,0,0,1,1,0,0,0,17,11,38,46
127,456,168,486,Rue,CLIENT_ADDRESS,0,0,1,0,0,0,1,1,0,0,0,0,17,11,39,46
179,456,255,486,Rossini,CLIENT_ADDRESS,0,0,1,0,0,0,1,1,0,0,0,0,17,550,41,47
693,471,796,501,Montant,O,0,0,1,0,0,0,1,1,0,0,0,0,178,9,41,58
805,469,862,501,total,O,0,0,0,0,0,0,1,1,0,0,0,0,178,10,42,60
872,470,919,501,TTC,O,0,0,0,1,0,0,1,1,0,0,0,0,178,10,43,61
929,478,934,500,:,O,0,1,0,0,0,0,0,1,0,0,0,0,179,14,44,61
948,471,998,501,EUR,O,0,0,0,1,0,0,1,1,0,0,0,0,178,9,45,62
1007,470,1094,507,"500,00",TOTAL,1,0,0,0,0,0,0,1,1,0,0,0,172,0,-1,63
105,503,164,540,"Paris,",CLIENT_ADDRESS,0,0,1,0,0,0,0,1,0,0,0,0,10,12,47,48
176,503,245,533,75009,CLIENT_ADDRESS,1,0,0,0,1,0,0,1,1,0,0,0,97,0,-1,49
105,550,178,581,France,CLIENT_ADDRESS,0,0,1,0,0,0,1,1,0,0,0,0,49,0,-1,49
103,630,266,661,Transactions,O,0,0,1,0,0,0,1,1,0,0,0,0,17,0,-1,50
104,678,133,709,de,O,0,0,0,0,0,0,1,1,0,0,0,0,14,10,51,64
143,680,206,709,carte,O,0,0,0,0,0,0,1,1,0,0,0,0,14,10,52,64
216,678,245,709,de,O,0,0,0,0,0,0,1,1,0,0,0,0,112,30,53,66
275,678,373,709,Eurocard,O,0,0,1,0,0,0,1,1,0,0,0,0,110,10,54,67
383,678,393,715,/,O,0,1,0,0,0,0,0,1,0,0,0,0,106,11,55,68
404,678,530,709,MasterCard,O,0,0,0,0,0,0,1,1,0,0,0,0,112,11,56,68
541,678,636,709,finissant,O,0,0,0,0,0,0,1,1,0,0,0,0,112,10,57,71
646,686,683,717,par,O,0,0,0,0,0,0,1,1,0,0,0,0,104,8,58,71
691,679,755,710,4388:,O,0,0,0,0,0,0,0,1,1,0,0,0,111,13,59,71
768,679,795,709,24,O,1,0,0,0,1,0,0,1,1,0,0,0,115,8,60,72
803,679,883,717,janvier,O,0,0,0,0,0,0,1,1,0,0,0,0,107,9,61,72
892,679,956,709,2019:,O,0,0,0,0,0,0,0,1,1,0,0,0,110,8,62,75
964,679,1008,709,EUR,O,0,0,0,1,0,0,1,1,0,0,0,0,110,10,63,75
1018,679,1096,716,"500,00",O,1,0,0,0,0,0,0,1,1,0,0,0,103,0,-1,75
104,723,176,757,crédit,O,0,0,0,0,0,0,1,0,0,0,0,0,64,0,-1,66
78,823,127,853,Pour,O,0,0,1,0,0,0,1,1,0,0,0,0,0,9,66,-1
136,821,241,853,consulter,O,0,0,0,0,0,0,1,1,0,0,0,0,244,9,67,89
250,819,306,853,l'état,O,0,0,0,0,0,0,0,0,0,0,0,0,242,9,68,90
315,821,474,853,d'avancement,O,0,0,0,0,0,0,0,1,0,0,0,0,104,9,69,80
483,821,509,853,de,O,0,0,0,0,0,0,1,1,0,0,0,0,104,10,70,80
519,824,576,853,votre,O,0,0,0,0,0,0,1,1,0,0,0,0,16,10,71,78
586,821,718,859,"commande,",O,0,0,0,0,0,0,0,1,0,0,0,0,10,12,72,78
730,824,838,853,retournez,O,0,0,0,0,0,0,1,1,0,0,0,0,104,10,73,86
848,829,883,853,sur,O,0,0,0,0,0,0,1,1,0,0,0,0,106,10,74,88
893,821,910,853,le,O,0,0,0,0,0,0,1,1,0,0,0,0,106,11,75,88
921,819,1062,860,Récapitulatif,O,0,0,1,0,0,0,1,0,0,0,0,0,237,8,76,100
1070,821,1096,853,de,O,0,0,0,0,0,0,1,1,0,0,0,0,244,11,77,101
1107,821,1123,853,la,O,0,0,0,0,0,0,1,1,0,0,0,0,0,0,-1,-1
534,869,665,900,commande.,O,0,0,0,0,0,0,0,1,0,0,0,0,57,0,-1,83
287,959,344,989,Note,O,0,0,1,0,0,0,1,1,0,0,0,0,108,11,80,91
355,957,495,996,importante,O,0,0,0,0,0,0,1,1,0,0,0,0,95,12,81,93
507,966,510,988,:,O,0,1,0,0,0,0,0,1,0,0,0,0,109,13,82,95
523,958,568,989,Ceci,O,0,0,1,0,0,0,1,1,0,0,0,0,108,11,83,95
579,957,632,989,n'est,O,0,0,0,0,0,0,0,1,0,0,0,0,108,11,84,96
643,965,680,996,pas,O,0,0,0,0,0,0,1,1,0,0,0,0,101,10,85,96
690,965,730,989,une,O,0,0,0,0,0,0,1,1,0,0,0,0,108,9,86,96
739,957,819,989,facture,O,0,0,0,0,0,0,1,1,0,0,0,0,108,10,87,98
829,957,854,989,de,O,0,0,0,0,0,0,1,1,0,0,0,0,108,9,88,98
863,959,914,988,TVA.,O,0,0,0,1,0,0,0,1,0,0,0,0,107,0,-1,99
109,1097,209,1123,Conditions,O,0,0,1,0,0,0,1,1,0,0,0,0,0,9,90,-1
218,1095,309,1129,générales,O,0,0,0,0,0,0,1,0,0,0,0,0,313,9,91,104
318,1097,339,1123,de,O,0,0,0,0,0,0,1,1,0,0,0,0,0,9,92,-1
348,1096,413,1129,vente,O,0,0,0,0,0,0,1,1,0,0,0,0,313,-4,93,105
409,1091,417,1133,|,O,0,0,0,0,0,0,0,1,0,0,0,0,-37,13,94,92
430,1098,463,1123,Vos,O,0,0,1,0,0,0,1,1,0,0,0,0,0,9,95,-1
472,1097,590,1123,informations,O,0,0,0,0,0,0,1,1,0,0,0,0,16,10,96,102
600,1097,732,1129,personnelles,O,0,0,0,0,0,0,1,1,0,0,0,0,10,-4,97,103
728,1091,735,1133,|,O,0,0,0,0,0,0,0,1,0,0,0,0,-36,15,98,96
750,1097,872,1123,Informations,O,0,0,1,0,0,0,1,1,0,0,0,0,0,9,99,-1
881,1095,945,1129,légales,O,0,0,0,0,0,0,1,0,0,0,0,0,0,16,100,-1
961,1097,978,1126,©,O,0,0,0,0,0,0,0,0,0,0,0,0,0,11,101,-1
989,1097,1092,1123,1996-2017,O,0,0,0,0,0,0,0,1,1,0,0,0,0,0,-1,-1
513,1139,642,1170,"Amazon.com,",O,0,0,0,0,0,0,0,1,0,0,0,0,272,10,103,105
652,1139,686,1165,Inc.,O,0,0,1,0,0,0,0,1,0,0,0,0,0,0,-1,-1
38,1442,261,1461,https:/Avww.amazon.frigp/css/summary/print.,O,0,0,0,0,0,0,0,1,0,0,0,0,0,4,105,-1
265,1442,628,1461,htmllref=oh_aui_ajax_invoice?ie=UTF88orderlD=408-3697057-7459521,O,0,0,0,0,0,0,0,1,1,0,0,0,0,519,106,-1
1147,1442,1162,1457,22,O,1,0,0,0,1,0,0,1,1,0,0,0,0,0,-1,-1
