xmin,ymin,xmax,ymax,Object,label,like_num,is_punct,is_title,is_upper,is_digit,is_currency,is_alpha,is_ascii,hasNumbers,hascurrency,like_email,like_url,dh,dv,v_hor,v_vert
847,46,920,60,Facture,O,0,0,1,0,0,0,1,1,0,0,0,0,0,0,-1,-1
50,37,226,92,Orta,LOGO,0,0,1,0,0,0,1,1,0,0,0,0,26,483,2,6
709,81,776,94,Numéro,O,0,0,1,0,0,0,1,0,0,0,0,0,21,229,3,4
1005,82,1044,94,Date,O,0,0,1,0,0,0,1,1,0,0,0,0,20,0,-1,5
690,115,799,127,F2019010034,NUMBER,0,0,1,1,0,0,0,1,1,0,0,0,22,176,5,9
975,114,1070,129,31/01/2019,DATE,0,0,0,0,0,0,0,1,1,0,0,0,20,0,-1,13
43,118,92,136,STA,COMPANY_NAME,0,0,0,1,0,0,1,1,0,0,0,0,29,10,7,14
102,118,228,136,PORTAGE,COMPANY_NAME,0,0,0,1,0,0,1,1,0,0,0,0,29,9,8,16
237,115,301,141,(H?S),COMPANY_NAME,0,0,1,1,0,0,0,1,0,0,0,0,112,389,4,28
663,149,711,161,Mode,O,0,0,1,0,0,0,1,1,0,0,0,0,0,6,10,-1
717,149,736,161,de,O,0,0,0,0,0,0,1,1,0,0,0,0,22,7,11,18
743,149,821,164,paiement,O,0,0,0,0,0,0,1,1,0,0,0,0,19,135,12,18
956,150,994,161,Date,O,0,0,1,0,0,0,1,1,0,0,0,0,21,6,13,21
1000,149,1093,161,d'échéance,O,0,0,0,0,0,0,0,0,0,0,0,0,21,0,-1,21
41,165,60,177,31,COMPANY_ADDRESS,1,0,0,0,1,0,0,1,1,0,0,0,10,6,15,19
66,169,109,177,cours,COMPANY_ADDRESS,0,0,0,0,0,0,1,1,0,0,0,0,10,6,16,19
115,165,142,177,des,COMPANY_ADDRESS,0,0,0,0,0,0,1,1,0,0,0,0,10,5,17,20
147,165,224,177,Juilliottes,COMPANY_ADDRESS,0,0,1,0,0,0,1,1,0,0,0,0,10,0,-1,20
706,183,782,195,Virement,O,0,0,1,0,0,0,1,1,0,0,0,0,90,192,21,34
41,187,91,199,94700,COMPANY_ADDRESS,1,0,0,0,1,0,0,1,1,0,0,0,10,6,20,22
97,187,217,199,Maisons-Alfort,COMPANY_ADDRESS,0,0,1,0,0,0,0,1,0,0,0,0,53,489,18,25
974,182,1069,197,28/02/2019,O,0,0,0,0,0,0,0,1,1,0,0,0,0,0,-1,-1
42,209,94,221,France,COMPANY_ADDRESS,0,0,1,0,0,0,1,1,0,0,0,0,32,0,-1,23
42,253,70,264,RCS,O,0,0,0,1,0,0,1,1,0,0,0,0,32,8,24,35
78,256,80,264,:,O,0,1,0,0,0,0,0,1,0,0,0,0,32,7,25,35
87,252,138,264,Créteil,O,0,0,1,0,0,0,1,0,0,0,0,0,32,8,26,37
146,253,246,264,B540037702,O,0,0,1,1,0,0,0,1,1,0,0,0,32,6,27,37
252,259,257,261,-,O,0,1,0,0,0,0,0,1,0,0,0,0,35,7,28,37
264,253,299,264,N.I.I.,O,0,0,1,1,0,0,0,1,0,0,0,0,32,12,29,37
311,256,312,264,:,O,0,1,0,0,0,0,0,1,0,0,0,0,0,4,30,-1
316,253,446,264,FRO9S40037702,O,0,0,0,1,0,0,0,1,1,0,0,0,0,0,-1,-1
627,246,667,257,ADBI,CLIENT_NAME,0,0,0,1,0,0,1,1,0,0,0,0,28,0,-1,32
628,285,636,297,8,CLIENT_ADDRESS,1,0,0,0,1,0,0,1,1,0,0,0,31,7,33,45
643,288,668,297,rue,CLIENT_ADDRESS,0,0,0,0,0,0,1,1,0,0,0,0,31,8,34,45
676,285,730,297,Rossini,CLIENT_ADDRESS,0,0,1,0,0,0,1,1,0,0,0,0,31,0,-1,46
42,296,84,308,Email,O,0,0,1,0,0,0,1,1,0,0,0,0,9,10,36,38
94,300,95,308,:,O,0,1,0,0,0,0,0,1,0,0,0,0,10,6,37,40
101,296,303,311,admin@sta-portage.com,O,0,0,0,0,0,0,0,1,0,0,1,0,7,0,-1,41
41,317,63,330,Tél,O,0,0,1,0,0,0,1,0,0,0,0,0,0,9,39,-1
72,322,73,330,:,O,0,1,0,0,0,0,0,1,0,0,0,0,0,7,40,-1
80,318,98,330,01,O,1,0,0,0,1,0,0,1,1,0,0,0,0,7,41,-1
105,318,124,330,84,O,1,0,0,0,1,0,0,1,1,0,0,0,0,6,42,-1
130,318,149,330,77,O,1,0,0,0,1,0,0,1,1,0,0,0,0,6,43,-1
155,318,174,330,00,O,1,0,0,0,1,0,0,1,1,0,0,0,0,6,44,-1
180,318,199,330,40,O,1,0,0,0,1,0,0,1,1,0,0,0,0,0,-1,-1
628,328,677,340,75009,CLIENT_ADDRESS,1,0,0,0,1,0,0,1,1,0,0,0,10,7,46,47
684,328,721,340,Paris,CLIENT_ADDRESS,0,0,1,0,0,0,1,1,0,0,0,0,118,0,-1,49
629,350,691,362,FRANCE,CLIENT_ADDRESS,0,0,0,1,0,0,1,1,0,0,0,0,96,0,-1,48
627,458,659,470,TVA,O,0,0,0,1,0,0,1,1,0,0,0,0,44,7,49,53
666,458,833,470,Intracommunautaire,O,0,0,1,0,0,0,1,1,0,0,0,0,44,8,50,53
841,461,843,463,:,O,0,1,0,0,0,0,0,1,0,0,0,0,87,7,51,67
850,458,981,470,FR27805321650,O,0,0,0,1,0,0,0,1,1,0,0,0,44,0,-1,56
270,515,363,530,Description,O,0,0,1,0,0,0,1,1,0,0,0,0,19,264,53,62
627,514,700,529,Quantité,O,0,0,1,0,0,0,1,0,0,0,0,0,21,76,54,65
776,515,806,527,Prix,O,0,0,1,0,0,0,1,1,0,0,0,0,23,7,55,66
813,515,834,527,HT,O,0,0,0,1,0,0,1,1,0,0,0,0,23,77,56,66
911,514,952,527,Total,O,0,0,1,0,0,0,1,1,0,0,0,0,23,7,57,68
959,515,981,527,HT,O,0,0,0,1,0,0,1,1,0,0,0,0,23,66,58,68
1047,515,1087,527,Taux,O,0,0,1,0,0,0,1,1,0,0,0,0,23,5,59,70
1092,515,1126,527,TVA,O,0,0,0,1,0,0,1,1,0,0,0,0,23,0,-1,70
56,550,137,562,Prestation,O,0,0,1,0,0,0,1,1,0,0,0,0,9,8,61,72
145,550,250,565,informatique,O,0,0,0,0,0,0,1,1,0,0,0,0,7,6,62,74
256,549,357,565,(01/01/2019,O,0,0,0,0,0,0,0,1,1,0,0,0,7,7,63,74
364,553,382,562,au,O,0,0,0,0,0,0,1,1,0,0,0,0,10,7,64,74
389,549,490,565,31/01/2019),O,0,0,0,0,0,0,0,1,1,0,0,0,0,163,65,-1
653,550,697,564,"21,00",O,1,0,0,0,0,0,0,1,1,0,0,0,0,73,66,-1
770,550,825,564,"410,00",O,1,0,0,0,0,0,0,1,1,0,0,0,0,10,67,-1
835,550,845,562,€,O,0,0,0,0,0,1,0,0,0,1,0,0,0,60,68,-1
905,550,969,564,"8610,00",O,1,0,0,0,0,0,0,1,1,0,0,0,0,11,69,-1
980,550,989,562,€,O,0,0,0,0,0,1,0,0,0,1,0,0,0,76,70,-1
1065,550,1109,564,"20,00",O,1,0,0,0,0,0,0,1,1,0,0,0,0,0,-1,-1
56,572,73,584,N°,O,0,0,1,1,0,0,0,0,0,0,0,0,0,7,72,-1
80,571,170,584,commande,O,0,0,0,0,0,0,1,1,0,0,0,0,0,7,73,-1
177,576,179,584,:,O,0,1,0,0,0,0,0,1,0,0,0,0,0,7,74,-1
186,572,396,584,ATPS20181210-BENATTIA,O,0,0,0,1,0,0,0,1,1,0,0,0,0,0,-1,-1
123,1213,157,1225,Brut,O,0,0,1,0,0,0,1,1,0,0,0,0,19,6,76,85
163,1213,185,1224,HT,O,0,0,0,1,0,0,1,1,0,0,0,0,20,147,77,85
332,1212,391,1225,Remise,O,0,0,1,0,0,0,1,1,0,0,0,0,19,7,78,87
398,1213,419,1224,HT,O,0,0,0,1,0,0,1,1,0,0,0,0,73,145,79,103
564,1212,606,1225,Total,O,0,0,1,0,0,0,1,1,0,0,0,0,19,6,80,88
612,1213,634,1224,HT,O,0,0,0,1,0,0,1,1,0,0,0,0,20,148,81,88
782,1212,824,1225,Total,O,0,0,1,0,0,0,1,1,0,0,0,0,19,5,82,90
829,1213,863,1224,TVA,O,0,0,0,1,0,0,1,1,0,0,0,0,20,145,83,90
1008,1212,1049,1225,Total,O,0,0,1,0,0,0,1,1,0,0,0,0,19,6,84,92
1055,1213,1085,1225,TTC,O,0,0,0,1,0,0,1,1,0,0,0,0,19,0,-1,92
113,1244,178,1258,"8610,00",O,1,0,0,0,0,0,0,1,1,0,0,0,39,6,86,95
184,1244,193,1255,€,O,0,0,0,0,0,1,0,0,0,1,0,0,42,157,87,98
350,1244,400,1257,"0,00€",O,0,0,0,0,0,0,0,0,1,1,0,0,40,157,88,102
557,1244,622,1257,"8610,00",O,1,0,0,0,0,0,0,1,1,0,0,0,40,10,89,105
632,1244,641,1255,€,O,0,0,0,0,0,1,0,0,0,1,0,0,99,141,90,128
782,1244,846,1258,"1722,00",O,1,0,0,0,0,0,0,1,1,0,0,0,0,10,91,-1
856,1244,865,1255,€,O,0,0,0,0,0,1,0,0,0,1,0,0,0,135,92,-1
1000,1244,1074,1258,"10332,00",TOTAL,1,0,0,0,0,0,0,1,1,0,0,0,0,11,93,-1
1085,1244,1094,1255,€,O,0,0,0,0,0,1,0,0,0,1,0,0,0,0,-1,-1
43,1297,79,1308,CCM,O,0,0,0,1,0,0,1,1,0,0,0,0,11,8,95,106
87,1297,132,1308,PARIS,O,0,0,0,1,0,0,1,1,0,0,0,0,11,7,96,108
139,1297,157,1308,12,O,1,0,0,0,1,0,0,1,1,0,0,0,11,6,97,108
163,1297,181,1308,ST,O,0,0,0,1,0,0,1,1,0,0,0,0,11,7,98,108
188,1297,249,1308,MANDE,O,0,0,0,1,0,0,1,1,0,0,0,0,11,7,99,108
256,1297,284,1308,BEL,O,0,0,0,1,0,0,1,1,0,0,0,0,11,5,100,108
289,1297,315,1308,AIR,O,0,0,0,1,0,0,1,1,0,0,0,0,11,7,101,108
322,1300,325,1308,:,O,0,1,0,0,0,0,0,1,0,0,0,0,11,7,102,108
332,1297,381,1309,10278,O,1,0,0,0,1,0,0,1,1,0,0,0,10,6,103,108
387,1297,436,1308,06042,O,1,0,0,0,1,0,0,1,1,0,0,0,11,6,104,109
442,1297,553,1308,00020556001,O,1,0,0,0,1,0,0,1,1,0,0,0,11,7,105,111
560,1297,578,1308,71,O,1,0,0,0,1,0,0,1,1,0,0,0,46,0,-1,127
44,1319,81,1330,IBAN,O,0,0,0,1,0,0,1,1,0,0,0,0,22,8,107,112
89,1322,91,1330,:,O,0,1,0,0,0,0,0,1,0,0,0,0,22,8,108,112
99,1319,372,1330,FR7610278060420002055600171,O,0,0,0,1,0,0,0,1,1,0,0,0,13,7,109,119
379,1319,404,1330,BIC,O,0,0,0,1,0,0,1,1,0,0,0,0,22,6,110,123
410,1322,412,1330,:,O,0,1,0,0,0,0,0,1,0,0,0,0,22,7,111,123
419,1319,504,1330,CMCIFR2A,O,0,0,0,1,0,0,0,1,1,0,0,0,22,0,-1,123
46,1352,103,1362,Pénalités,O,0,0,1,0,0,0,1,0,0,0,0,0,8,5,113,129
108,1353,123,1362,de,O,0,0,0,0,0,0,1,1,0,0,0,0,8,6,114,130
129,1352,167,1362,retard,O,0,0,0,0,0,0,1,1,0,0,0,0,8,6,115,130
173,1355,187,1362,au,O,0,0,0,0,0,0,1,1,0,0,0,0,8,6,116,130
193,1354,220,1362,taux,O,0,0,0,0,0,0,1,1,0,0,0,0,-1,5,117,131
225,1352,268,1362,annuel,O,0,0,0,0,0,0,1,1,0,0,0,0,-1,5,118,132
273,1352,288,1362,de,O,0,0,0,0,0,0,1,1,0,0,0,0,9,5,119,134
293,1343,299,1372,:,O,0,1,0,0,0,0,0,1,0,0,0,0,-1,3,120,134
302,1353,348,1364,"10,50%",O,0,0,0,0,0,0,0,1,1,0,0,0,7,5,121,134
353,1358,357,1359,-,O,0,1,0,0,0,0,0,1,0,0,0,0,12,5,122,134
362,1353,383,1362,Pas,O,0,0,1,0,0,0,1,1,0,0,0,0,11,5,123,135
388,1352,463,1365,d'escompte,O,0,0,0,0,0,0,0,1,0,0,0,0,5,5,124,137
468,1355,483,1362,en,O,0,0,0,0,0,0,1,1,0,0,0,0,83,5,125,145
488,1355,508,1362,cas,O,0,0,0,0,0,0,1,1,0,0,0,0,9,5,126,140
513,1352,528,1362,de,O,0,0,0,0,0,0,1,1,0,0,0,0,9,5,127,140
533,1354,594,1365,paiement,O,0,0,0,0,0,0,1,1,0,0,0,0,5,5,128,142
599,1354,650,1365,anticipé,O,0,0,0,0,0,0,1,0,0,0,0,0,80,0,-1,152
46,1370,111,1380,Indemnité,O,0,0,1,0,0,0,1,0,0,0,0,0,0,5,130,-1
116,1370,180,1380,forfaitaire,O,0,0,0,0,0,0,1,1,0,0,0,0,0,6,131,-1
186,1361,209,1389,pour,O,0,0,0,0,0,0,1,1,0,0,0,0,0,10,132,-1
219,1361,247,1389,frais,O,0,0,0,0,0,0,1,1,0,0,0,0,0,5,133,-1
252,1370,267,1380,de,O,0,0,0,0,0,0,1,1,0,0,0,0,0,6,134,-1
273,1371,364,1380,recouvrement,O,0,0,0,0,0,0,1,1,0,0,0,0,0,5,135,-1
369,1373,384,1380,en,O,0,0,0,0,0,0,1,1,0,0,0,0,0,5,136,-1
389,1373,409,1380,cas,O,0,0,0,0,0,0,1,1,0,0,0,0,0,5,137,-1
414,1370,429,1380,de,O,0,0,0,0,0,0,1,1,0,0,0,0,65,5,138,143
434,1370,473,1380,retard,O,0,0,0,0,0,0,1,1,0,0,0,0,65,5,139,145
478,1370,493,1380,de,O,0,0,0,0,0,0,1,1,0,0,0,0,65,6,140,145
499,1371,560,1382,paiement,O,0,0,0,0,0,0,1,1,0,0,0,0,63,5,141,146
565,1373,567,1380,:,O,0,1,0,0,0,0,0,1,0,0,0,0,65,5,142,149
572,1370,616,1381,"40,00€",O,0,0,0,0,0,0,0,0,1,1,0,0,67,0,-1,150
401,1445,424,1455,SAS,O,0,0,0,1,0,0,1,1,0,0,0,0,0,5,144,-1
429,1448,443,1455,au,O,0,0,0,0,0,0,1,1,0,0,0,0,0,6,145,-1
449,1445,490,1457,capital,O,0,0,0,0,0,0,1,1,0,0,0,0,0,6,146,-1
496,1445,511,1455,de,O,0,0,0,0,0,0,1,1,0,0,0,0,0,5,147,-1
516,1445,531,1455,30,O,1,0,0,0,1,0,0,1,1,0,0,0,0,5,148,-1
536,1445,559,1455,000,O,1,0,0,0,1,0,0,1,1,0,0,0,0,5,149,-1
564,1445,571,1455,€,O,0,0,0,0,0,1,0,0,0,1,0,0,0,5,150,-1
576,1448,612,1455,euros,O,0,0,0,0,0,0,1,1,0,0,0,0,0,5,151,-1
617,1450,620,1452,-,O,0,1,0,0,0,0,0,1,0,0,0,0,0,5,152,-1
625,1445,660,1455,SIRET,O,0,0,0,1,0,0,1,1,0,0,0,0,0,3,153,-1
663,1436,668,1464,:,O,0,1,0,0,0,0,0,1,0,0,0,0,0,5,154,-1
673,1445,696,1455,540,O,1,0,0,0,1,0,0,1,1,0,0,0,0,5,155,-1
701,1445,724,1455,037,O,1,0,0,0,1,0,0,1,1,0,0,0,0,5,156,-1
729,1445,752,1455,702,O,1,0,0,0,1,0,0,1,1,0,0,0,0,5,157,-1
757,1445,796,1455,00037,O,1,0,0,0,1,0,0,1,1,0,0,0,0,0,-1,-1
