xmin,ymin,xmax,ymax,Object,label,like_num,is_punct,is_title,is_upper,is_digit,is_currency,is_alpha,is_ascii,hasNumbers,hascurrency,like_email,like_url,dh,dv,v_hor,v_vert
58,53,109,64,TOTAL,COMPANY_NAME,0,0,0,1,0,0,1,1,0,0,0,0,6,6,1,3
115,53,211,64,MARKETING,COMPANY_NAME,0,0,0,1,0,0,1,1,0,0,0,0,6,7,2,5
218,53,283,64,FRANCE,COMPANY_NAME,0,0,0,1,0,0,1,1,0,0,0,0,6,0,-1,7
58,70,99,80,S.A.S.,O,0,0,1,1,0,0,0,1,0,0,0,0,7,11,4,16
110,73,126,80,au,O,0,0,0,0,0,0,1,1,0,0,0,0,9,7,5,17
133,70,179,83,capital,O,0,0,0,0,0,0,1,1,0,0,0,0,3,7,6,18
186,70,203,80,de,O,0,0,0,0,0,0,1,1,0,0,0,0,6,6,7,19
209,70,234,80,390,O,1,0,0,0,1,0,0,1,1,0,0,0,7,7,8,20
241,70,267,80,553,O,1,0,0,0,1,0,0,1,1,0,0,0,6,6,9,21
273,70,299,80,839,O,1,0,0,0,1,0,0,1,1,0,0,0,6,6,10,23
305,72,344,80,euros,O,0,0,0,0,0,0,1,1,0,0,0,0,6,356,11,24
700,61,789,81,Votre,O,0,0,1,0,0,0,1,1,0,0,0,0,0,13,12,-1
802,61,926,81,Facture,O,0,0,1,0,0,0,1,1,0,0,0,0,11,11,13,25
937,61,969,81,et,O,0,0,0,0,0,0,1,1,0,0,0,0,11,12,14,25
981,66,1038,81,son,O,0,0,0,0,0,0,1,1,0,0,0,0,11,12,15,27
1050,61,1122,81,déta,O,0,0,0,0,0,0,1,0,0,0,0,0,11,0,-1,28
58,87,84,97,562,COMPANY_ADDRESS,1,0,0,0,1,0,0,1,1,0,0,0,6,6,17,29
90,89,142,97,avenue,COMPANY_ADDRESS,0,0,0,0,0,0,1,1,0,0,0,0,6,6,18,30
148,86,165,97,du,COMPANY_ADDRESS,0,0,0,0,0,0,1,1,0,0,0,0,6,7,19,31
172,86,203,97,Parc,COMPANY_ADDRESS,0,0,1,0,0,0,1,1,0,0,0,0,6,6,20,32
209,87,226,97,de,COMPANY_ADDRESS,0,0,0,0,0,0,1,1,0,0,0,0,6,6,21,33
232,86,255,97,l'Ile,COMPANY_ADDRESS,0,0,0,0,0,0,0,1,0,0,0,0,6,6,22,33
261,92,265,94,-,COMPANY_ADDRESS,0,1,0,0,0,0,0,1,0,0,0,0,9,7,23,34
272,86,316,97,92000,COMPANY_ADDRESS,1,0,0,0,1,0,0,1,1,0,0,0,6,6,24,34
322,86,410,97,NANTERRE,COMPANY_ADDRESS,0,0,0,1,0,0,1,1,0,0,0,0,0,0,-1,-1
882,92,979,108,FRANCE,O,0,0,0,1,0,0,1,1,0,0,0,0,70,10,26,46
989,101,995,104,-,O,0,1,0,0,0,0,0,1,0,0,0,0,74,8,27,46
1003,92,1028,108,N°,O,0,0,1,1,0,0,0,0,0,0,0,0,70,9,28,46
1037,92,1143,108,F9520375,NUMBER,0,0,1,1,0,0,0,1,1,0,0,0,70,0,-1,47
58,103,107,114,SIREN,O,0,0,0,1,0,0,1,1,0,0,0,0,6,6,30,35
113,103,137,114,531,O,1,0,0,0,1,0,0,1,1,0,0,0,6,8,31,37
145,103,171,114,680,O,1,0,0,0,1,0,0,1,1,0,0,0,6,6,32,37
177,103,203,114,445,O,1,0,0,0,1,0,0,1,1,0,0,0,6,7,33,37
210,103,243,114,RCS,O,0,0,0,1,0,0,1,1,0,0,0,0,6,7,34,37
250,103,311,114,Nanterre,O,0,0,1,0,0,0,1,1,0,0,0,0,47,0,-1,40
58,120,74,130,N°,O,0,0,1,1,0,0,0,0,0,0,0,0,31,7,36,38
81,120,103,130,DE,O,0,0,0,1,0,0,1,1,0,0,0,0,31,5,37,38
108,120,265,130,TVA:FR22531680445,O,0,0,0,1,0,0,0,1,1,0,0,0,31,0,-1,39
58,161,117,174,Votre,O,0,0,1,0,0,0,1,1,0,0,0,0,8,9,39,42
126,161,230,174,référence,O,0,0,0,0,0,0,1,0,0,0,0,0,8,8,40,43
238,161,299,174,client,O,0,0,0,0,0,0,1,1,0,0,0,0,8,244,41,45
543,157,657,176,TOTAL,LOGO,0,0,0,1,0,0,1,1,0,0,0,0,170,0,-1,65
59,182,77,194,N°,O,0,0,1,1,0,0,0,0,0,0,0,0,0,6,43,-1
83,182,164,194,87263392,O,1,0,0,0,1,0,0,1,1,0,0,0,0,6,44,-1
170,189,175,190,-,O,0,1,0,0,0,0,0,1,0,0,0,0,0,7,45,-1
182,182,271,194,D001/D001,O,0,0,1,1,0,0,0,1,1,0,0,0,0,680,46,-1
951,178,1019,193,Feuillet,O,0,0,1,0,0,0,1,1,0,0,0,0,31,82,47,49
1101,178,1142,193,3/3,O,1,0,0,0,0,0,0,1,1,0,0,0,7,0,-1,48
1069,200,1143,219,Original,O,0,0,1,0,0,0,1,1,0,0,0,0,5,0,-1,50
1000,224,1023,238,Le,O,0,0,1,0,0,0,1,1,0,0,0,0,79,9,50,53
1032,224,1142,238,15/02/2019,DATE,0,0,0,0,0,0,0,1,1,0,0,0,78,0,-1,54
875,316,900,327,Les,O,0,0,1,0,0,0,1,1,0,0,0,0,19,6,52,69
906,317,973,327,montants,O,0,0,0,0,0,0,1,1,0,0,0,0,19,6,53,70
979,317,1010,327,sont,O,0,0,0,0,0,0,1,1,0,0,0,0,19,5,54,71
1015,316,1080,329,exprimés,O,0,0,0,0,0,0,1,0,0,0,0,0,17,6,55,72
1086,319,1103,327,en,O,0,0,0,0,0,0,1,1,0,0,0,0,19,6,56,73
1109,316,1143,327,EUR,O,0,0,0,1,0,0,1,1,0,0,0,0,19,0,-1,73
61,346,102,354,INrcarte,O,0,0,0,0,0,0,1,1,0,0,0,0,5,7,58,74
109,346,137,354,Code,O,0,0,1,0,0,0,1,1,0,0,0,0,5,41,59,75
178,345,197,354,Réf.,O,0,0,1,0,0,0,0,0,0,0,0,0,6,13,60,76
210,346,235,354,Date,O,0,0,1,0,0,0,1,1,0,0,0,0,31,5,61,87
240,346,273,354,Heure,O,0,0,1,0,0,0,1,1,0,0,0,0,31,8,62,88
281,345,322,354,Réseau,O,0,0,1,0,0,0,1,0,0,0,0,0,31,24,63,89
346,348,359,354,eu,O,0,0,0,0,0,0,1,1,0,0,0,0,32,99,64,99
458,346,499,354,Produit,O,0,0,1,0,0,0,1,1,0,0,0,0,5,111,65,77
610,346,629,354,ate,O,0,0,0,0,0,0,1,1,0,0,0,0,60,40,66,123
669,346,687,353,Km,O,0,0,1,0,0,0,1,1,0,0,0,0,6,60,67,78
747,346,762,354,PU,O,0,0,0,1,0,0,1,1,0,0,0,0,5,96,68,79
858,346,874,354,PU,O,0,0,0,1,0,0,1,1,0,0,0,0,32,4,69,91
878,346,895,354,net,O,0,0,0,0,0,0,1,1,0,0,0,0,5,23,70,80
918,346,964,354,Montant,O,0,0,1,0,0,0,1,1,0,0,0,0,5,13,71,82
977,346,1004,354,Taux,O,0,0,1,0,0,0,1,1,0,0,0,0,5,23,72,83
1027,346,1073,354,Montant,O,0,0,1,0,0,0,1,1,0,0,0,0,5,22,73,84
1095,346,1141,354,Montant],O,0,0,1,0,0,0,0,1,0,0,0,0,32,0,-1,95
61,359,89,369,Rang,O,0,0,1,0,0,0,1,1,0,0,0,0,17,20,75,85
109,359,139,367,cond.,O,0,0,0,0,0,0,0,1,0,0,0,0,0,15,76,-1
154,360,199,367,transac.,O,0,0,0,0,0,0,0,1,0,0,0,0,47,259,77,114
458,359,499,367,Service,O,0,0,1,0,0,0,1,1,0,0,0,0,19,163,78,100
662,359,687,367,saisi,O,0,0,0,0,0,0,1,1,0,0,0,0,0,60,79,-1
747,359,762,367,HT,O,0,0,0,1,0,0,1,1,0,0,0,0,19,118,80,90
880,359,895,367,HT,O,0,0,0,1,0,0,1,1,0,0,0,0,19,32,81,91
927,360,944,367,not,O,0,0,0,0,0,0,1,1,0,0,0,0,47,5,82,126
949,359,964,367,HT,O,0,0,0,1,0,0,1,1,0,0,0,0,19,17,83,92
981,359,1005,367,TVA,O,0,0,0,1,0,0,1,1,0,0,0,0,19,45,84,93
1050,359,1074,367,TVA,O,0,0,0,1,0,0,1,1,0,0,0,0,19,0,-1,94
61,386,87,395,0001,O,1,0,0,0,1,0,0,1,1,0,0,0,5,7,86,101
94,386,100,395,0,O,1,0,0,0,1,0,0,1,1,0,0,0,5,104,87,102
204,385,243,393,070219,O,1,0,0,0,1,0,0,1,1,0,0,0,6,5,88,96
248,385,273,393,1133,O,1,0,0,0,1,0,0,1,1,0,0,0,6,8,89,97
281,385,328,393,Cofiroute,O,0,0,1,0,0,0,1,1,0,0,0,0,6,7,99,98
723,386,762,395,4.0800,O,1,0,0,0,0,0,0,1,1,0,0,0,5,94,91,106
856,386,895,395,4.0800,O,1,0,0,0,0,0,0,1,1,0,0,0,5,45,92,107
940,386,964,395,4.08,O,1,0,0,0,0,0,0,1,1,0,0,0,5,9,93,108
973,386,1004,395,20.00,O,1,0,0,0,0,0,0,1,1,0,0,0,5,44,94,109
1048,386,1073,395,082,O,1,0,0,0,1,0,0,1,1,0,0,0,5,43,95,110
1116,386,1141,395,4.90,O,1,0,0,0,0,0,0,1,1,0,0,0,5,0,-1,111
204,399,243,407,070219,O,1,0,0,0,1,0,0,1,1,0,0,0,7,5,97,116
248,399,273,407,1227,O,1,0,0,0,1,0,0,1,1,0,0,0,7,9,98,117
282,399,323,407,INDIGO,O,0,0,0,1,0,0,1,1,0,0,0,0,6,13,103,118
335,386,441,395,VAUCRESSON/P,O,0,0,0,1,0,0,0,1,0,0,0,0,5,17,100,103
458,386,495,397,Péage,O,0,0,1,0,0,0,1,0,0,0,0,0,3,228,90,105
61,400,87,409,0001,O,1,0,0,0,1,0,0,1,1,0,0,0,5,7,102,112
94,400,100,409,0,O,1,0,0,0,1,0,0,1,1,0,0,0,5,104,96,113
336,400,351,409,LA,O,0,0,0,1,0,0,1,1,0,0,0,0,5,5,104,119
356,400,444,409,DEFENSE/PA/,O,0,0,0,1,0,0,0,1,0,0,0,0,4,14,105,120
458,400,500,411,Parking,O,0,0,1,0,0,0,1,1,0,0,0,0,2,224,106,121
724,400,762,409,5.6700,O,1,0,0,0,0,0,0,1,1,0,0,0,5,95,107,124
857,400,895,409,5.6700,O,1,0,0,0,0,0,0,1,1,0,0,0,5,56,108,125
951,400,964,409,67,O,1,0,0,0,1,0,0,1,1,0,0,0,5,9,109,126
973,400,1004,409,20.00,O,1,0,0,0,0,0,0,1,1,0,0,0,5,45,110,127
1049,400,1073,409,1.13,O,1,0,0,0,0,0,0,1,1,0,0,0,5,44,111,128
1117,400,1141,409,6.80,O,1,0,0,0,0,0,0,1,1,0,0,0,5,0,-1,129
61,414,87,422,0001,O,1,0,0,0,1,0,0,1,1,0,0,0,65,7,113,159
94,414,100,422,0,O,1,0,0,0,1,0,0,1,1,0,0,0,65,47,114,159
147,414,170,421,PXA,O,0,0,0,1,0,0,1,1,0,0,0,0,66,4,115,160
174,414,200,422,4326,O,1,0,0,0,1,0,0,1,1,0,0,0,47,4,116,148
204,414,243,422,070219,O,1,0,0,0,1,0,0,1,1,0,0,0,47,5,117,149
248,414,273,422,1904,O,1,0,0,0,1,0,0,1,1,0,0,0,47,8,118,149
281,413,319,422,TOTAL,O,0,0,0,1,0,0,1,1,0,0,0,0,6,17,119,130
336,414,349,422,77,O,1,0,0,0,1,0,0,1,1,0,0,0,6,5,120,131
354,413,405,422,NOISIEL,O,0,0,0,1,0,0,1,1,0,0,0,0,6,53,121,131
458,413,499,422,Gazole,O,0,0,1,0,0,0,1,1,0,0,0,0,65,5,122,168
504,414,549,422,Premier,O,1,0,1,0,0,0,1,1,0,0,0,0,65,49,123,169
598,414,629,422,55.02,O,1,0,0,0,0,0,0,1,1,0,0,0,6,96,124,134
725,414,762,422,1.2408,O,1,0,0,0,0,0,0,1,1,0,0,0,65,96,125,171
858,414,895,422,4.2408,O,1,0,0,0,0,0,0,1,1,0,0,0,65,38,126,172
933,414,964,422,68.27,O,1,0,0,0,0,0,0,1,1,0,0,0,6,8,127,135
972,414,1004,422,20.00,O,1,0,0,0,0,0,0,1,1,0,0,0,65,38,128,174
1042,414,1073,422,13.65,O,1,0,0,0,0,0,0,1,1,0,0,0,6,36,129,136
1109,414,1141,422,81.92,O,1,0,0,0,0,0,0,1,1,0,0,0,6,0,-1,137
300,428,329,436,Total,O,0,0,1,0,0,0,1,1,0,0,0,0,33,8,131,152
337,428,393,436,Essences,O,0,0,1,0,0,0,1,1,0,0,0,0,6,4,132,138
397,428,405,436,&,O,0,1,0,0,0,0,0,1,0,0,0,0,33,5,133,153
410,428,451,436,Gazole,O,0,0,1,0,0,0,1,1,0,0,0,0,6,147,134,139
598,428,629,436,55.02,O,1,0,0,0,0,0,0,1,1,0,0,0,51,303,135,170
932,428,964,436,68.27,O,1,0,0,0,0,0,0,1,1,0,0,0,6,77,136,140
1041,428,1072,436,13.65,O,1,0,0,0,0,0,0,1,1,0,0,0,6,37,137,141
1109,428,1140,436,81.92,O,1,0,0,0,0,0,0,1,1,0,0,0,6,0,-1,142
370,442,399,450,Total,O,0,0,1,0,0,0,1,1,0,0,0,0,5,8,139,143
407,442,451,453,Péages,O,0,0,1,0,0,0,1,0,0,0,0,0,2,488,140,144
939,442,964,450,4.08,O,1,0,0,0,0,0,0,1,1,0,0,0,5,84,141,145
1048,442,1072,450,0.82,O,1,0,0,0,0,0,0,1,1,0,0,0,5,44,142,146
1116,442,1140,450,4:90,O,0,0,0,0,0,0,0,1,1,0,0,0,5,0,-1,147
364,455,393,464,Total,O,0,0,1,0,0,0,1,1,0,0,0,0,5,9,144,153
402,455,451,466,Parkings,O,0,0,1,0,0,0,1,1,0,0,0,0,3,489,145,154
940,455,964,464,5.67,O,1,0,0,0,0,0,0,1,1,0,0,0,5,85,146,156
1049,455,1072,464,113,O,1,0,0,0,1,0,0,1,1,0,0,0,5,44,147,157
1116,455,1140,464,6.80,O,1,0,0,0,0,0,0,1,1,0,0,0,5,0,-1,158
184,469,212,477,Total,O,0,0,1,0,0,0,1,1,0,0,0,0,0,5,149,161
217,469,262,479,Support,O,0,0,1,0,0,0,1,1,0,0,0,0,-2,4,150,163
266,469,290,477,0001,O,1,0,0,0,1,0,0,1,1,0,0,0,0,6,151,163
296,469,302,477,0,O,1,0,0,0,1,0,0,1,1,0,0,0,10,5,152,164
307,469,371,477,DW-923-DE,O,0,0,0,1,0,0,0,1,1,0,0,0,10,4,153,165
375,469,402,479,Type,O,0,0,1,0,0,0,1,1,0,0,0,0,8,5,154,166
407,469,426,477,véh.,O,0,0,0,0,0,0,0,0,0,0,0,0,0,12,155,167
438,469,451,477,03,O,1,0,0,0,1,0,0,1,1,0,0,0,24,483,156,180
934,469,964,477,78.02,O,1,0,0,0,0,0,0,1,1,0,0,0,10,79,157,173
1043,469,1072,477,15.60,O,1,0,0,0,0,0,0,1,1,0,0,0,10,39,158,175
1111,469,1141,477,93.62,O,1,0,0,0,0,0,0,1,1,0,0,0,10,0,-1,176
61,487,100,496,00020,O,1,0,0,0,1,0,0,1,1,0,0,0,37,44,160,196
144,487,168,495,CMH,O,0,0,0,1,0,0,1,1,0,0,0,0,38,4,161,197
172,477,199,505,5468,O,1,0,0,0,1,0,0,1,1,0,0,0,11,5,162,185
204,487,271,495,050219,O,1,0,0,0,1,0,0,1,1,0,0,0,20,-22,163,186
249,477,276,505,1911,O,1,0,0,0,1,0,0,1,1,0,0,0,-18,5,164,162
281,487,319,495,TOTAL,O,0,0,0,1,0,0,1,1,0,0,0,0,6,17,165,177
336,487,349,496,75,O,1,0,0,0,1,0,0,1,1,0,0,0,5,5,166,178
354,487,412,496,PARIS,O,0,0,0,1,0,0,1,1,0,0,0,0,5,-13,167,178
399,477,416,505,19,O,1,0,0,0,1,0,0,1,1,0,0,0,-18,42,168,166
458,487,499,496,Gazole,O,0,0,1,0,0,0,1,1,0,0,0,0,0,5,169,-1
504,487,549,496,Premier,O,1,0,1,0,0,0,1,1,0,0,0,0,0,49,170,-1
598,487,629,496,50.86,O,1,0,0,0,0,0,0,1,1,0,0,0,5,95,171,181
724,487,762,496,1.2806,O,1,0,0,0,0,0,0,1,1,0,0,0,0,95,172,-1
857,487,895,496,1.2806,O,1,0,0,0,0,0,0,1,1,0,0,0,0,38,173,-1
933,487,964,496,65.13,O,1,0,0,0,0,0,0,1,1,0,0,0,5,9,174,182
973,487,1004,496,20.00,O,1,0,0,0,0,0,0,1,1,0,0,0,0,38,175,-1
1042,487,1073,496,13.03,O,1,0,0,0,0,0,0,1,1,0,0,0,5,37,176,183
1110,487,1141,496,78.16,O,1,0,0,0,0,0,0,1,1,0,0,0,5,0,-1,184
300,501,329,510,Total,O,0,0,1,0,0,0,1,1,0,0,0,0,6,8,178,188
337,501,393,510,Essences,O,0,0,1,0,0,0,1,1,0,0,0,0,6,4,179,189
397,501,405,510,&,O,0,1,0,0,0,0,0,1,0,0,0,0,6,5,180,190
410,501,451,510,Gazole,O,0,0,1,0,0,0,1,1,0,0,0,0,5,147,181,191
598,501,629,510,50.86,O,1,0,0,0,0,0,0,1,1,0,0,0,23,303,182,200
932,501,964,510,65.13,O,1,0,0,0,0,0,0,1,1,0,0,0,6,77,183,193
1041,501,1072,510,13.03,O,1,0,0,0,0,0,0,1,1,0,0,0,6,37,184,194
1109,501,1140,510,78.16,O,1,0,0,0,0,0,0,1,1,0,0,0,6,0,-1,195
188,516,202,523,Tot,O,0,0,1,0,0,0,1,1,0,0,0,0,10,19,186,199
221,515,266,525,Support,O,0,0,1,0,0,0,1,1,0,0,0,0,71,4,187,224
270,516,296,524,0002,O,1,0,0,0,1,0,0,1,1,0,0,0,72,4,188,224
300,516,306,523,0,O,1,0,0,0,1,0,0,1,1,0,0,0,0,5,189,-1
311,516,370,524,EF-375-RB,O,0,0,0,1,0,0,0,1,1,0,0,0,0,5,190,-1
375,516,402,526,Type,O,0,0,1,0,0,0,1,1,0,0,0,0,0,5,191,-1
407,515,426,524,véh.,O,0,0,0,0,0,0,0,0,0,0,0,0,0,12,192,-1
438,516,451,523,03,O,1,0,0,0,1,0,0,1,1,0,0,0,0,483,193,-1
934,516,964,524,65.13,O,1,0,0,0,0,0,0,1,1,0,0,0,9,79,194,201
1043,516,1072,524,"13.03,",O,1,0,0,0,0,0,0,1,1,0,0,0,9,39,195,202
1111,516,1141,524,78.16,O,1,0,0,0,0,0,0,1,1,0,0,0,9,0,-1,203
63,533,92,542,Total,O,0,0,1,0,0,0,1,1,0,0,0,0,6,9,197,204
101,533,156,542,Essences,O,0,0,1,0,0,0,1,1,0,0,0,0,6,5,198,205
161,533,168,542,&,O,0,1,0,0,0,0,0,1,0,0,0,0,35,6,199,216
174,533,214,542,Gazole,O,0,0,1,0,0,0,1,1,0,0,0,0,52,377,200,223
591,533,629,542,105.88,O,1,0,0,0,0,0,0,1,1,0,0,0,0,297,201,-1
926,533,964,542,133.40,O,1,0,0,0,0,0,0,1,1,0,0,0,6,76,202,206
1040,533,1072,542,26.68,O,1,0,0,0,0,0,0,1,1,0,0,0,6,30,203,207
1102,533,1140,542,160.08,O,1,0,0,0,0,0,0,1,1,0,0,0,6,0,-1,208
63,548,92,556,Total,O,0,0,1,0,0,0,1,1,0,0,0,0,5,9,205,209
101,548,144,559,Péages,O,0,0,1,0,0,0,1,0,0,0,0,0,2,795,206,210
939,548,964,556,4.08,O,1,0,0,0,0,0,0,1,1,0,0,0,5,84,207,211
1048,548,1072,556,0.82,O,1,0,0,0,0,0,0,1,1,0,0,0,5,44,208,212
1116,548,1140,556,4.90,O,1,0,0,0,0,0,0,1,1,0,0,0,5,0,-1,213
63,561,92,570,Total,O,0,0,1,0,0,0,1,1,0,0,0,0,5,9,210,214
101,561,150,572,Parkings,O,0,0,1,0,0,0,1,1,0,0,0,0,3,790,211,215
940,561,964,570,5.67,O,1,0,0,0,0,0,0,1,1,0,0,0,5,85,212,217
1049,561,1072,570,113,O,1,0,0,0,1,0,0,1,1,0,0,0,5,44,213,218
1116,561,1140,570,6.80,O,1,0,0,0,0,0,0,1,1,0,0,0,5,0,-1,219
63,575,94,584,Total,O,0,0,1,0,0,0,1,1,0,0,0,0,10,5,215,220
99,575,147,584,Division,O,0,0,1,0,0,0,1,1,0,0,0,0,10,5,216,221
152,577,178,586,parc,O,0,0,0,0,0,0,1,1,0,0,0,0,8,747,217,222
925,575,964,584,"143.15,",O,1,0,0,0,0,0,0,1,1,0,0,0,51,76,218,236
1040,575,1072,584,28.63,O,1,0,0,0,0,0,0,1,1,0,0,0,10,30,219,225
1102,575,1140,584,171.78,O,1,0,0,0,0,0,0,1,1,0,0,0,51,0,-1,239
63,594,94,602,Total,O,0,0,1,0,0,0,1,1,0,0,0,0,11,5,221,226
99,594,149,602,Produits,O,0,0,1,0,0,0,1,1,0,0,0,0,11,5,222,226
154,594,165,602,et,O,0,0,0,0,0,0,1,1,0,0,0,0,11,4,223,228
169,594,220,602,services,O,0,0,0,0,0,0,1,1,0,0,0,0,11,5,224,228
225,596,299,602,consommés,O,0,0,0,0,0,0,1,0,0,0,0,0,11,741,225,229
1040,594,1072,602,25.65,O,1,0,0,0,0,0,0,1,1,0,0,0,33,0,-1,238
61,613,139,621,[Abonnements,O,0,0,1,0,0,0,0,1,0,0,0,0,28,4,227,240
143,614,153,621,et,O,0,0,0,0,0,0,1,1,0,0,0,0,0,5,228,-1
158,613,204,621,services,O,0,0,0,0,0,0,1,1,0,0,0,0,0,5,229,-1
209,613,258,621,associés,O,0,0,0,0,0,0,1,0,0,0,0,0,14,0,-1,230
207,635,232,643,Date,O,0,0,1,0,0,0,1,1,0,0,0,0,33,49,231,250
281,635,323,643,Service,O,0,0,1,0,0,0,1,1,0,0,0,0,33,172,232,251
495,635,522,643,Base,O,0,0,1,0,0,0,1,1,0,0,0,0,6,23,233,241
545,635,572,643,Taux,O,0,0,1,0,0,0,1,1,0,0,0,0,6,37,234,242
609,635,629,644,até,O,0,0,0,0,0,0,1,0,0,0,0,0,0,118,235,-1
747,635,762,643,pu,O,0,0,0,0,0,0,1,1,0,0,0,0,6,156,236,243
918,635,965,643,Montant,O,0,0,1,0,0,0,1,1,0,0,0,0,6,12,237,244
977,635,1004,643,Taux,O,0,0,1,0,0,0,1,1,0,0,0,0,6,23,238,246
1027,635,1073,643,Montant,O,0,0,1,0,0,0,1,1,0,0,0,0,6,22,239,247
1095,635,1141,643,Montant},O,0,0,1,0,0,0,0,1,0,0,0,0,6,0,-1,248
61,649,89,659,Rang,O,0,0,1,0,0,0,1,1,0,0,0,0,0,401,241,-1
490,649,522,657,calcul,O,0,0,0,0,0,0,1,1,0,0,0,0,19,9,242,253
531,649,573,657,unitaire,O,0,0,0,0,0,0,1,1,0,0,0,0,19,174,243,254
747,649,762,657,HT,O,0,0,0,1,0,0,1,1,0,0,0,0,19,165,244,255
927,649,944,657,not,O,0,0,0,0,0,0,1,1,0,0,0,0,0,5,245,-1
949,649,964,657,HT,O,0,0,0,1,0,0,1,1,0,0,0,0,19,17,246,256
981,649,1005,657,TVA,O,0,0,0,1,0,0,1,1,0,0,0,0,19,45,247,257
1050,649,1074,657,TVA,O,0,0,0,1,0,0,1,1,0,0,0,0,19,22,248,258
1096,649,1113,657,net,O,0,0,0,0,0,0,1,1,0,0,0,0,0,4,249,-1
1117,649,1141,657,TTC,O,0,0,0,1,0,0,1,1,0,0,0,0,19,0,-1,259
208,676,249,685,150219,O,1,0,0,0,1,0,0,1,1,0,0,0,24,33,251,266
282,676,309,685,Frais,O,0,0,1,0,0,0,1,1,0,0,0,0,24,5,252,267
314,676,351,687,Peage,O,0,0,1,0,0,0,1,1,0,0,0,0,21,146,253,268
497,676,522,685,4.90,O,1,0,0,0,0,0,0,1,1,0,0,0,24,14,254,269
536,676,572,685,2.00%,O,0,0,0,0,0,0,0,1,1,0,0,0,23,151,255,270
723,676,762,685,0.0000,O,1,0,0,0,0,0,0,1,1,0,0,0,24,177,256,271
939,676,964,685,0.10,O,1,0,0,0,0,0,0,1,1,0,0,0,5,8,257,263
972,676,1004,685,20.00,O,1,0,0,0,0,0,0,1,1,0,0,0,24,44,258,273
1048,676,1072,685,0.02,O,1,0,0,0,0,0,0,1,1,0,0,0,5,44,259,264
1116,676,1140,685,0.12,O,1,0,0,0,0,0,0,1,1,0,0,0,5,0,-1,265
352,690,380,698,Total,O,0,0,1,0,0,0,1,1,0,0,0,0,24,5,261,276
385,690,412,698,Frais,O,0,0,1,0,0,0,1,1,0,0,0,0,24,5,262,277
417,690,451,700,Péage,O,0,0,1,0,0,0,1,0,0,0,0,0,22,490,263,278
941,690,964,698,0.10,O,1,0,0,0,0,0,0,1,1,0,0,0,11,85,264,272
1049,690,1072,698,0.02,O,1,0,0,0,0,0,0,1,1,0,0,0,11,46,265,274
1118,690,1141,698,0.12,O,1,0,0,0,0,0,0,1,1,0,0,0,11,0,-1,275
208,709,249,717,150219,O,1,0,0,0,1,0,0,1,1,0,0,0,24,33,267,282
282,709,309,717,Frais,O,0,0,1,0,0,0,1,1,0,0,0,0,24,5,268,283
314,708,354,717,Station,O,0,0,1,0,0,0,1,1,0,0,0,0,24,130,269,284
484,709,522,717,160.08,O,1,0,0,0,0,0,0,1,1,0,0,0,24,15,270,285
537,708,572,717,1.50%,O,0,0,0,0,0,0,0,1,1,0,0,0,23,151,271,286
723,709,762,717,0.0000,O,1,0,0,0,0,0,0,1,1,0,0,0,24,177,272,287
939,709,964,717,2.40,O,1,0,0,0,0,0,0,1,1,0,0,0,5,8,273,279
972,709,1004,717,20.00,O,1,0,0,0,0,0,0,1,1,0,0,0,24,44,274,289
1048,709,1072,717,0.48,O,1,0,0,0,0,0,0,1,1,0,0,0,5,44,275,280
1116,709,1140,717,2.88,O,1,0,0,0,0,0,0,1,1,0,0,0,5,0,-1,281
346,722,375,730,Total,O,0,0,1,0,0,0,1,1,0,0,0,0,24,4,277,292
379,722,407,730,Frais,O,0,0,1,0,0,0,1,1,0,0,0,0,24,4,278,293
411,722,451,730,Station,O,0,0,1,0,0,0,1,1,0,0,0,0,24,490,279,294
941,722,964,730,2.40,O,1,0,0,0,0,0,0,1,1,0,0,0,11,85,280,288
1049,722,1072,730,0.48,O,1,0,0,0,0,0,0,1,1,0,0,0,11,46,281,290
1118,722,1141,730,288,O,1,0,0,0,1,0,0,1,1,0,0,0,11,0,-1,291
208,741,249,749,150219,O,1,0,0,0,1,0,0,1,1,0,0,0,26,33,283,301
282,741,309,749,Frais,O,0,0,1,0,0,0,1,1,0,0,0,0,26,5,284,302
314,741,356,752,Parking,O,0,0,1,0,0,0,1,1,0,0,0,0,2,142,285,292
498,741,522,749,6.80,O,1,0,0,0,0,0,0,1,1,0,0,0,0,14,286,-1
536,740,572,749,2.00%,O,0,0,0,0,0,0,0,1,1,0,0,0,48,151,287,309
723,741,762,749,0.0000,O,1,0,0,0,0,0,0,1,1,0,0,0,48,177,288,311
939,741,964,749,0.14,O,1,0,0,0,0,0,0,1,1,0,0,0,5,8,289,295
972,741,1004,749,20.00,O,1,0,0,0,0,0,0,1,1,0,0,0,48,44,290,315
1048,741,1072,749,0.03,O,1,0,0,0,0,0,0,1,1,0,0,0,5,44,291,296
1116,741,1140,749,0.17,O,1,0,0,0,0,0,0,1,1,0,0,0,5,0,-1,297
343,754,372,762,Total,O,0,0,1,0,0,0,1,1,0,0,0,0,0,4,293,-1
376,754,404,762,Frais,O,0,0,1,0,0,0,1,1,0,0,0,0,0,4,294,-1
408,754,451,764,Parking,O,0,0,1,0,0,0,1,1,0,0,0,0,33,490,295,306
941,754,964,762,0.14,O,1,0,0,0,0,0,0,1,1,0,0,0,13,85,296,303
1049,754,1072,762,0.03,O,1,0,0,0,0,0,0,1,1,0,0,0,13,56,297,304
1128,754,1140,762,47,O,1,0,0,0,1,0,0,1,1,0,0,0,13,0,-1,305
63,775,94,784,Total,O,0,0,1,0,0,0,1,1,0,0,0,0,0,4,299,-1
98,775,183,784,Abonnements,O,0,0,1,0,0,0,1,1,0,0,0,0,0,5,300,-1
188,775,196,784,&,O,0,1,0,0,0,0,0,1,0,0,0,0,0,5,301,-1
201,775,252,784,services,O,0,0,0,0,0,0,1,1,0,0,0,0,0,5,302,-1
257,775,310,784,associés,O,0,0,0,0,0,0,1,0,0,0,0,0,0,629,303,-1
939,775,964,784,264,O,1,0,0,0,1,0,0,1,1,0,0,0,13,83,304,314
1047,775,1072,784,0.53,O,1,0,0,0,0,0,0,1,1,0,0,0,13,44,305,316
1116,775,1140,784,317,O,1,0,0,0,1,0,0,1,1,0,0,0,13,0,-1,317
397,797,438,805,Cumul,O,0,0,1,0,0,0,1,1,0,0,0,0,71,5,307,357
443,799,464,807,par,O,0,0,0,0,0,0,1,1,0,0,0,0,69,5,308,357
469,797,504,805,Fami,O,0,0,1,0,0,0,1,1,0,0,0,0,71,37,309,359
541,797,594,807,produits,O,0,0,0,0,0,0,1,1,0,0,0,0,-9,-52,318,318
638,797,694,806,Quantité,O,0,0,1,0,0,0,1,0,0,0,0,0,4,33,311,321
727,797,762,805,Unité,O,0,0,1,0,0,0,1,0,0,0,0,0,5,43,312,323
805,797,857,805,Montant,O,0,0,1,0,0,0,1,1,0,0,0,0,71,6,313,364
863,797,881,805,HT,O,0,0,0,1,0,0,1,1,0,0,0,0,5,46,314,324
927,797,980,805,Montant,O,0,0,1,0,0,0,1,1,0,0,0,0,71,5,315,366
985,797,1012,805,TVA,O,0,0,0,1,0,0,1,1,0,0,0,0,5,47,316,326
1059,797,1112,805,Montant,O,0,0,1,0,0,0,1,1,0,0,0,0,71,5,317,368
1117,797,1143,805,TTC,O,0,0,0,1,0,0,1,1,0,0,0,0,5,0,-1,328
542,798,550,826,08,O,1,0,0,0,1,0,0,1,1,0,0,0,-6,6,319,330
556,810,559,817,&,O,0,1,0,0,0,0,0,1,0,0,0,0,3,6,320,330
565,810,594,817,Gazole,O,0,0,1,0,0,0,1,1,0,0,0,0,3,71,321,331
665,810,694,817,10588,O,1,0,0,0,1,0,0,1,1,0,0,0,3,49,323,344
732,820,761,827,Deus,O,0,0,1,0,0,0,1,1,0,0,0,0,15,101,325,339
743,810,761,817,lure,O,0,0,0,0,0,0,1,1,0,0,0,0,3,91,324,322
852,810,881,817,133.40,O,1,0,0,0,0,0,0,1,1,0,0,0,3,107,326,325
862,820,880,827,0.14,O,1,0,0,0,0,0,0,1,1,0,0,0,4,114,327,334
988,810,1013,817,2668,O,1,0,0,0,1,0,0,1,1,0,0,0,3,101,328,327
994,820,1013,827,0.03,O,1,0,0,0,0,0,0,1,1,0,0,0,4,111,329,335
1114,810,1143,817,16008,O,1,0,0,0,1,0,0,1,1,0,0,0,3,0,-1,329
1124,820,1143,827,017,O,1,0,0,0,1,0,0,1,1,0,0,0,4,0,-1,336
536,820,558,827,Frais,O,0,0,1,0,0,0,1,1,0,0,0,0,4,-16,318,332
561,820,594,829,Parking,O,0,0,1,0,0,0,1,1,0,0,0,0,2,82,344,333
541,831,563,838,Frais,O,0,0,1,0,0,0,1,1,0,0,0,0,4,4,333,337
567,831,594,840,Péage,O,0,0,1,0,0,0,1,0,0,0,0,0,2,82,344,338
862,831,881,838,9:10,O,0,0,0,0,0,0,0,1,1,0,0,0,4,113,335,340
994,831,1012,838,0œ,O,0,0,0,0,0,0,0,0,1,0,0,0,4,112,336,341
1124,831,1143,838,oa,O,0,0,0,0,0,0,1,1,0,0,0,0,4,0,-1,342
540,842,561,849,Frais,O,0,0,1,0,0,0,1,1,0,0,0,0,27,4,338,361
565,842,594,849,Staion,O,0,0,1,0,0,0,1,1,0,0,0,0,3,82,344,343
732,842,761,849,Dose,O,0,0,1,0,0,0,1,1,0,0,0,0,3,101,340,345
862,842,881,849,240,O,1,0,0,0,1,0,0,1,1,0,0,0,3,113,341,346
994,842,1013,849,048,O,1,0,0,0,1,0,0,1,1,0,0,0,3,111,342,347
1124,842,1143,849,288,O,1,0,0,0,1,0,0,1,1,0,0,0,3,0,-1,348
557,852,595,861,Parkings,O,0,0,1,0,0,0,1,1,0,0,0,0,2,81,344,349
676,820,680,859,:,O,0,1,0,0,0,0,0,1,0,0,0,0,4,52,322,350
740,852,761,859,Un,O,1,0,1,0,0,0,1,1,0,0,0,0,4,101,346,351
862,852,880,859,Ser,O,0,0,1,0,0,0,1,1,0,0,0,0,4,115,347,352
995,852,1013,859,113,O,1,0,0,0,1,0,0,1,1,0,0,0,4,111,348,353
1124,852,1143,859,680,O,1,0,0,0,1,0,0,1,1,0,0,0,4,0,-1,354
562,863,595,872,Péages,O,0,0,1,0,0,0,1,0,0,0,0,0,4,81,350,361
676,863,694,870,100,O,1,0,0,0,1,0,0,1,1,0,0,0,6,46,351,362
740,863,761,870,Units,O,0,0,1,0,0,0,1,1,0,0,0,0,6,100,352,363
861,863,881,870,408,O,1,0,0,0,1,0,0,1,1,0,0,0,6,113,353,365
994,863,1012,870,ow,O,0,0,0,0,0,0,1,1,0,0,0,0,6,112,354,367
1124,863,1143,870,490,O,1,0,0,0,1,0,0,1,1,0,0,0,6,0,-1,369
334,876,374,884,Cumul,O,0,0,1,0,0,0,1,1,0,0,0,0,0,6,356,-1
380,878,400,886,par,O,0,0,0,0,0,0,1,1,0,0,0,0,128,5,357,430
405,876,452,884,Produit,O,0,0,1,0,0,0,1,1,0,0,0,0,130,5,358,430
457,878,477,886,par,O,0,0,0,0,0,0,1,1,0,0,0,0,128,5,359,431
482,876,513,886,Type,O,0,0,1,0,0,0,1,1,0,0,0,0,69,5,360,411
518,876,533,884,de,O,0,0,0,0,0,0,1,1,0,0,0,0,5,4,361,370
537,876,595,884,Véhicule,O,0,0,1,0,0,0,1,0,0,0,0,0,5,43,362,371
638,876,694,885,Quantité,O,0,0,1,0,0,0,1,0,0,0,0,0,4,33,363,372
727,876,762,884,Unité,O,0,0,1,0,0,0,1,0,0,0,0,0,5,43,364,373
805,876,857,884,Montant,O,0,0,1,0,0,0,1,1,0,0,0,0,71,6,365,414
863,876,881,884,HT.,O,0,0,0,1,0,0,0,1,0,0,0,0,5,46,366,374
927,876,980,884,Montant,O,0,0,1,0,0,0,1,1,0,0,0,0,71,5,367,416
985,876,1012,884,TVA,O,0,0,0,1,0,0,1,1,0,0,0,0,5,47,368,375
1059,876,1112,884,Montant,O,0,0,1,0,0,0,1,1,0,0,0,0,71,5,369,418
1117,876,1143,884,TTC,O,0,0,0,1,0,0,1,1,0,0,0,0,5,0,-1,376
507,889,529,895,Frais,O,0,0,1,0,0,0,1,1,0,0,0,0,5,4,371,377
533,889,566,897,Parking,O,0,0,1,0,0,0,1,1,0,0,0,0,3,110,372,378
676,889,694,895,100,O,1,0,0,0,1,0,0,1,1,0,0,0,5,38,373,379
732,889,761,895,Devise,O,0,0,1,0,0,0,1,1,0,0,0,0,5,101,374,380
862,889,880,895,01,O,1,0,0,0,1,0,0,1,1,0,0,0,5,114,375,381
994,889,1013,895,003,O,1,0,0,0,1,0,0,1,1,0,0,0,5,111,376,382
1124,889,1143,895,947,O,1,0,0,0,1,0,0,1,1,0,0,0,5,0,-1,383
513,900,535,906,Frais,O,0,0,1,0,0,0,1,1,0,0,0,0,4,3,378,384
538,900,566,908,Peoge,O,0,0,1,0,0,0,1,1,0,0,0,0,2,110,379,385
676,900,694,906,100,O,1,0,0,0,1,0,0,1,1,0,0,0,4,38,380,386
732,900,761,906,Deus,O,0,0,1,0,0,0,1,1,0,0,0,0,4,101,381,387
862,900,881,906,010,O,1,0,0,0,1,0,0,1,1,0,0,0,4,113,382,388
994,900,1012,906,0œ,O,0,0,0,0,0,0,0,0,1,0,0,0,4,112,383,389
1124,900,1143,906,912,O,1,0,0,0,1,0,0,1,1,0,0,0,4,0,-1,390
511,910,533,917,Frais,O,0,0,1,0,0,0,1,1,0,0,0,0,38,4,385,411
537,910,566,917,Stston,O,0,0,1,0,0,0,1,1,0,0,0,0,4,110,386,391
676,910,694,917,200,O,1,0,0,0,1,0,0,1,1,0,0,0,4,38,387,393
732,910,761,917,Deus,O,0,0,1,0,0,0,1,1,0,0,0,0,4,101,388,394
862,910,881,917,240,O,1,0,0,0,1,0,0,1,1,0,0,0,4,113,389,395
994,910,1013,917,048,O,1,0,0,0,1,0,0,1,1,0,0,0,4,111,390,396
1124,910,1143,917,288,O,1,0,0,0,1,0,0,1,1,0,0,0,4,0,-1,397
536,921,566,927,Gao,O,0,0,1,0,0,0,1,1,0,0,0,0,5,18,392,398
584,921,594,927,os,O,0,0,0,0,0,0,1,1,0,0,0,0,5,71,393,399
665,921,694,928,10588,O,1,0,0,0,1,0,0,1,1,0,0,0,4,49,394,400
743,921,761,928,Uwe,O,0,0,1,0,0,0,1,1,0,0,0,0,4,91,395,401
852,921,881,928,133.40,O,1,0,0,0,0,0,0,1,1,0,0,0,4,107,396,402
988,921,1013,928,2668,O,1,0,0,0,1,0,0,1,1,0,0,0,4,101,397,403
1114,921,1143,928,160.08,O,1,0,0,0,0,0,0,1,1,0,0,0,4,0,-1,404
528,932,566,940,Parkings,O,0,0,1,0,0,0,1,1,0,0,0,0,2,18,399,405
584,932,594,938,03,O,1,0,0,0,1,0,0,1,1,0,0,0,4,82,400,406
676,932,694,938,100,O,1,0,0,0,1,0,0,1,1,0,0,0,4,46,401,407
740,932,761,938,Uni,O,0,0,1,0,0,0,1,1,0,0,0,0,4,101,402,408
862,932,881,938,367,O,1,0,0,0,1,0,0,1,1,0,0,0,4,113,403,409
994,932,1013,938,493,O,1,0,0,0,1,0,0,1,1,0,0,0,17,111,404,417
1124,932,1143,938,6.80,O,1,0,0,0,0,0,0,1,1,0,0,0,4,0,-1,410
533,942,566,950,Péages,O,0,0,1,0,0,0,1,0,0,0,0,0,7,18,406,412
584,942,594,949,03,O,1,0,0,0,1,0,0,1,1,0,0,0,6,82,407,413
676,942,694,949,100,O,1,0,0,0,1,0,0,1,1,0,0,0,43,46,408,424
740,942,761,949,Unite,O,0,0,1,0,0,0,1,1,0,0,0,0,0,100,409,-1
861,942,881,949,408,O,1,0,0,0,1,0,0,1,1,0,0,0,6,243,410,415
1124,942,1143,949,490,O,1,0,0,0,1,0,0,1,1,0,0,0,6,0,-1,419
496,955,536,963,Cumul,O,0,0,1,0,0,0,1,1,0,0,0,0,51,6,412,431
542,957,563,965,par,O,0,0,0,0,0,0,1,1,0,0,0,0,49,4,413,431
567,955,594,963,TVA,O,0,0,0,1,0,0,1,1,0,0,0,0,5,211,414,420
805,955,857,963,Montant,O,0,0,1,0,0,0,1,1,0,0,0,0,29,6,415,426
863,955,881,963,HT.,O,0,0,0,1,0,0,0,1,0,0,0,0,5,46,416,421
927,955,980,964,Montant,O,0,0,1,0,0,0,1,1,0,0,0,0,0,5,417,-1
985,955,1012,963,TVA,O,0,0,0,1,0,0,1,1,0,0,0,0,5,47,418,422
1059,955,1112,964,Montant,O,0,0,1,0,0,0,1,1,0,0,0,0,28,5,419,428
1117,955,1142,964,TTC,O,0,0,0,1,0,0,1,1,0,0,0,0,4,0,-1,423
561,968,594,974,"""20.00%",O,0,0,0,0,0,0,0,1,1,0,0,0,0,258,421,-1
852,968,881,974,145.79,O,1,0,0,0,0,0,0,1,1,0,0,0,18,107,422,427
988,968,1012,974,2416,O,1,0,0,0,1,0,0,1,1,0,0,0,40,102,423,434
1114,968,1143,974,748,O,1,0,0,0,1,0,0,1,1,0,0,0,18,0,-1,429
625,992,697,1003,Montant,O,0,0,1,0,0,0,1,1,0,0,0,0,11,7,425,432
704,992,728,1002,HT,O,0,0,0,1,0,0,1,1,0,0,0,0,12,56,426,432
784,992,856,1003,Montant,O,0,0,1,0,0,0,1,1,0,0,0,0,0,6,427,-1
862,992,899,1002,TVA,O,0,0,0,1,0,0,1,1,0,0,0,0,12,124,428,433
1023,992,1094,1003,Montant,O,0,0,1,0,0,0,1,1,0,0,0,0,11,6,429,434
1100,992,1136,1003,TTC,O,0,0,0,1,0,0,1,1,0,0,0,0,11,0,-1,435
390,1014,453,1029,Total,O,0,0,1,0,0,0,1,1,0,0,0,0,0,9,431,-1
462,1014,556,1029,Général,O,0,0,1,0,0,0,1,0,0,0,0,0,0,91,432,-1
647,1014,727,1029,145.79,O,1,0,0,0,0,0,0,1,1,0,0,0,0,106,433,-1
833,1014,898,1029,29.16,O,1,0,0,0,0,0,0,1,1,0,0,0,0,98,434,-1
996,1014,1047,1029,EUR,O,0,0,0,1,0,0,1,1,0,0,0,0,0,9,435,-1
1056,1014,1136,1029,174.95,TOTAL,1,0,0,0,0,0,0,1,1,0,0,0,0,0,-1,-1
1090,1448,1113,1460,3/3,O,1,0,0,0,0,0,0,1,1,0,0,0,0,0,-1,-1
