xmin,ymin,xmax,ymax,Object,label,like_num,is_punct,is_title,is_upper,is_digit,is_currency,is_alpha,is_ascii,hasNumbers,hascurrency,like_email,like_url,dh,dv,v_hor,v_vert
452,46,520,58,2D-DOC,O,0,0,0,1,0,0,0,1,1,0,0,0,39,0,-1,4
226,82,269,104,ue,LOGO,0,0,0,0,0,0,1,1,0,0,0,0,3,28,6,3
111,72,222,113,bouyg,LOGO,0,0,0,0,0,0,1,1,0,0,0,0,89,4,1,8
252,107,276,114,reo,LOGO,0,0,0,0,0,0,1,1,0,0,0,0,87,21,6,10
481,97,504,106,HÈ,O,0,0,0,1,0,0,1,0,0,0,0,0,0,0,-1,-1
431,112,443,121,ES,O,0,0,0,1,0,0,1,1,0,0,0,0,0,0,-1,-1
297,82,407,137,XA,O,0,0,0,1,0,0,1,1,0,0,0,0,64,24,5,10
63,202,101,215,Date,O,0,0,1,0,0,0,1,1,0,0,0,0,10,6,8,11
107,202,127,215,de,O,0,0,0,0,0,0,1,1,0,0,0,0,10,5,9,13
132,202,193,215,facture,O,0,0,0,0,0,0,1,1,0,0,0,0,10,63,10,13
256,201,346,213,06/02/2019,DATE,0,0,0,0,0,0,0,1,1,0,0,0,11,0,-1,14
63,225,82,237,N°,O,0,0,1,1,0,0,0,0,0,0,0,0,33,6,12,15
88,225,108,237,de,O,0,0,0,0,0,0,1,1,0,0,0,0,33,5,13,15
113,225,174,237,facture,O,0,0,0,0,0,0,1,1,0,0,0,0,33,84,14,16
258,224,397,236,11120729580219,NUMBER,1,0,0,0,1,0,0,1,1,0,0,0,33,0,-1,18
63,270,126,283,Remise,O,0,0,1,0,0,0,1,1,0,0,0,0,32,6,16,21
132,270,141,283,a,O,0,0,0,0,0,0,1,1,0,0,0,0,33,5,17,23
146,270,185,283,Zéro,O,0,0,1,0,0,0,1,0,0,0,0,0,33,71,18,23
256,269,346,281,05/03/2019,O,0,0,0,0,0,0,0,1,1,0,0,0,34,0,-1,20
243,318,246,327,:,O,0,1,0,0,0,0,0,1,0,0,0,0,0,12,20,-1
258,315,351,327,1.32868040,O,1,0,0,0,0,0,0,1,1,0,0,0,10,0,-1,28
63,315,82,327,N°,O,0,0,1,1,0,0,0,0,0,0,0,0,11,6,22,25
88,315,108,328,de,O,0,0,0,0,0,0,1,1,0,0,0,0,10,6,23,25
114,316,177,331,compte,O,0,0,0,0,0,0,1,1,0,0,0,0,7,6,24,26
183,315,231,328,client,O,0,0,0,0,0,0,1,1,0,0,0,0,10,12,19,27
63,338,130,351,Nombre,O,0,0,1,0,0,0,1,1,0,0,0,0,0,6,26,-1
136,338,156,351,de,O,0,0,0,0,0,0,1,1,0,0,0,0,0,7,27,-1
163,338,214,354,lignes,O,0,0,0,0,0,0,1,1,0,0,0,0,0,43,28,-1
257,337,265,349,7,O,1,0,0,0,1,0,0,1,1,0,0,0,0,0,-1,-1
642,377,651,388,M,O,0,0,1,1,0,0,1,1,0,0,0,0,6,15,30,32
666,377,735,388,AHCENE,O,0,0,0,1,0,0,1,1,0,0,0,0,7,16,31,33
751,377,869,388,OUGUENOUNE,O,0,0,0,1,0,0,1,1,0,0,0,0,7,0,-1,34
642,394,651,406,8,CLIENT_ADDRESS,1,0,0,0,1,0,0,1,1,0,0,0,6,16,33,35
667,395,699,406,RUE,CLIENT_ADDRESS,0,0,0,1,0,0,1,1,0,0,0,0,6,16,34,35
715,395,795,406,ROSSINI,CLIENT_ADDRESS,0,0,0,1,0,0,1,1,0,0,0,0,7,0,-1,36
642,412,699,424,75009,CLIENT_ADDRESS,1,0,0,0,1,0,0,1,1,0,0,0,0,16,36,-1
715,413,771,424,PARIS,CLIENT_ADDRESS,0,0,0,1,0,0,1,1,0,0,0,0,0,0,-1,-1
74,545,162,563,"Bonjour,",O,0,0,1,0,0,0,0,1,0,0,0,0,41,9,38,48
171,545,219,559,voici,O,0,0,0,0,0,0,1,1,0,0,0,0,45,8,39,49
227,545,280,559,votre,O,0,0,0,0,0,0,1,1,0,0,0,0,45,7,40,49
287,544,360,559,facture,O,0,0,0,0,0,0,1,1,0,0,0,0,45,8,41,51
368,545,392,559,du,O,0,0,0,0,0,0,1,1,0,0,0,0,45,10,42,52
402,545,412,559,6,DATE,1,0,0,0,1,0,0,1,1,0,0,0,45,8,43,53
420,544,487,559,février,DATE,0,0,0,0,0,0,1,0,0,0,0,0,0,7,44,-1
494,545,542,559,2019,DATE,1,0,0,0,1,0,0,1,1,0,0,0,0,9,45,-1
551,548,554,559,:,O,0,1,0,0,0,0,0,1,0,0,0,0,0,0,-1,-1
936,578,974,590,€HT,O,0,0,0,1,0,0,0,0,0,1,0,0,54,83,47,59
1057,578,1067,590,€,O,0,0,0,0,0,1,0,0,0,1,0,0,14,0,-1,54
81,604,166,618,Montant,O,0,0,1,0,0,0,1,1,0,0,0,0,26,8,49,55
174,604,249,622,prélevé,O,0,0,0,0,0,0,1,0,0,0,0,0,22,9,50,56
258,604,274,618,le,O,0,0,0,0,0,0,1,1,0,0,0,0,26,7,51,57
281,604,304,618,20,O,1,0,0,0,1,0,0,1,1,0,0,0,26,8,52,57
312,604,379,618,février,O,0,0,0,0,0,0,1,0,0,0,0,0,26,7,53,58
386,604,434,618,2019,O,1,0,0,0,1,0,0,1,1,0,0,0,26,617,54,58
1051,604,1118,621,"292,66",TOTAL,1,0,0,0,0,0,0,1,1,0,0,0,23,0,-1,60
80,644,119,658,Vos,O,0,0,1,0,0,0,1,1,0,0,0,0,14,9,56,61
128,644,214,658,services,O,0,0,0,0,0,0,1,1,0,0,0,0,14,9,57,62
223,644,328,662,Bouygues,O,0,0,1,0,0,0,1,1,0,0,0,0,10,8,58,63
336,644,424,658,Telecom,O,0,0,1,0,0,0,1,1,0,0,0,0,15,481,59,65
905,644,972,661,"228,36",O,1,0,0,0,0,0,0,1,1,0,0,0,11,79,60,66
1051,644,1117,661,"274,03",O,1,0,0,0,0,0,0,1,1,0,0,0,11,0,-1,67
101,672,132,684,Vos,O,0,0,1,0,0,0,1,1,0,0,0,0,10,6,62,68
138,672,251,686,"abonnements,",O,0,0,0,0,0,0,0,1,0,0,0,0,8,6,63,69
257,672,311,684,forfaits,O,0,0,0,0,0,0,1,1,0,0,0,0,10,6,64,70
317,673,332,684,et,O,0,0,0,0,0,0,1,1,0,0,0,0,10,6,65,71
338,673,395,687,options,O,0,0,0,0,0,0,1,1,0,0,0,0,10,524,66,72
919,672,973,686,"212,03",O,1,0,0,0,0,0,0,1,1,0,0,0,8,91,67,74
1064,672,1118,686,"254,44",O,1,0,0,0,0,0,0,1,1,0,0,0,8,0,-1,75
101,694,132,706,Vos,O,0,0,1,0,0,0,1,1,0,0,0,0,11,6,69,76
138,694,268,706,communications,O,0,0,0,0,0,0,1,1,0,0,0,0,11,11,70,78
279,694,303,710,(du,O,0,0,0,0,0,0,0,1,0,0,0,0,7,6,71,80
309,694,351,706,06/01,O,1,0,0,0,0,0,0,1,1,0,0,0,11,9,72,80
360,697,378,706,au,O,0,0,0,0,0,0,1,1,0,0,0,0,37,7,73,87
385,694,436,709,05/02),O,0,0,0,0,0,0,0,1,1,0,0,0,34,494,74,88
930,694,973,708,"16,33",O,1,0,0,0,0,0,0,1,1,0,0,0,9,103,75,81
1076,694,1119,708,"19,59",O,1,0,0,0,0,0,0,1,1,0,0,0,9,60,297,82
101,717,132,729,Vos,O,0,0,1,0,0,0,1,1,0,0,0,0,14,6,77,83
138,718,187,729,autres,O,0,0,0,0,0,0,1,1,0,0,0,0,14,6,78,84
193,717,259,729,services,O,0,0,0,0,0,0,1,1,0,0,0,0,14,6,79,85
265,718,279,729,et,O,0,0,0,0,0,0,1,1,0,0,0,0,14,7,80,85
286,717,349,732,produits,O,0,0,0,0,0,0,1,1,0,0,0,0,14,590,81,86
939,717,973,731,"0,00",O,1,0,0,0,0,0,0,1,1,0,0,0,11,112,82,89
1085,717,1119,731,"0,00",O,1,0,0,0,0,0,0,1,1,0,0,0,12,60,296,90
80,743,119,757,Vos,O,0,0,1,0,0,0,1,1,0,0,0,0,14,9,84,91
128,743,214,757,services,O,0,0,0,0,0,0,1,1,0,0,0,0,14,8,85,92
222,743,296,757,fournis,O,0,0,0,0,0,0,1,1,0,0,0,0,36,8,86,97
304,746,337,761,par,O,0,0,0,0,0,0,1,1,0,0,0,0,55,8,87,103
345,743,381,757,des,O,0,0,0,0,0,0,1,1,0,0,0,0,59,7,88,103
388,743,434,757,tiers,O,0,0,0,0,0,0,1,1,0,0,0,0,59,497,89,104
931,742,972,760,"2,19",O,1,0,0,0,0,0,0,1,1,0,0,0,11,105,90,93
1077,743,1118,760,"2,63",O,1,0,0,0,0,0,0,1,1,0,0,0,11,61,295,94
101,771,132,783,Vos,O,0,0,1,0,0,0,1,1,0,0,0,0,10,6,92,95
138,771,247,783,abonnements,O,0,0,0,0,0,0,1,1,0,0,0,0,10,692,93,96
939,771,973,785,"0,00",O,1,0,0,0,0,0,0,1,1,0,0,0,8,112,94,98
1085,771,1119,785,"0,00",O,1,0,0,0,0,0,0,1,1,0,0,0,8,47,294,99
101,793,132,805,Vos,O,0,0,1,0,0,0,1,1,0,0,0,0,11,6,96,100
138,793,203,805,services,O,0,0,0,0,0,0,1,1,0,0,0,0,11,7,97,100
210,793,286,808,ponctuels,O,0,0,0,0,0,0,1,1,0,0,0,0,8,653,98,101
939,793,973,807,"2,19",O,1,0,0,0,0,0,0,1,1,0,0,0,48,111,99,117
1084,793,1119,807,"2,63",O,1,0,0,0,0,0,0,1,1,0,0,0,9,0,-1,109
81,816,206,831,Mensualités,O,0,0,1,0,0,0,1,0,0,0,0,0,23,7,101,110
213,816,237,831,de,O,0,0,0,0,0,0,1,1,0,0,0,0,23,8,102,113
245,820,281,831,vos,O,0,0,0,0,0,0,1,1,0,0,0,0,23,8,103,113
289,816,370,831,facilités,O,0,0,0,0,0,0,1,0,0,0,0,0,23,7,104,114
377,816,401,831,de,O,0,0,0,0,0,0,1,1,0,0,0,0,23,9,105,116
410,816,506,834,paiement,O,0,0,0,0,0,0,1,1,0,0,0,0,60,8,106,136
514,820,561,834,pour,O,0,0,0,0,0,0,1,1,0,0,0,0,130,7,107,187
568,817,621,831,votre,O,0,0,0,0,0,0,1,1,0,0,0,0,133,8,108,188
629,816,752,834,équipement,O,0,0,0,0,0,0,1,0,0,0,0,0,130,313,109,191
1065,816,1118,833,"16,00",O,1,0,0,0,0,0,0,1,1,0,0,0,22,48,293,118
81,854,159,867,Montant,O,0,0,1,0,0,0,1,1,0,0,0,0,12,6,111,119
165,854,187,867,de,O,0,0,0,0,0,0,1,1,0,0,0,0,12,7,112,121
194,854,209,867,la,O,0,0,0,0,0,0,1,1,0,0,0,0,12,8,113,122
217,854,282,867,facture,O,0,0,0,0,0,0,1,1,0,0,0,0,12,7,114,124
289,854,358,867,soumis,O,0,0,0,0,0,0,1,1,0,0,0,0,12,7,115,125
365,854,375,867,à,O,0,0,0,0,0,0,1,0,0,0,0,0,27,9,116,135
384,854,420,867,TVA,O,0,0,0,1,0,0,1,1,0,0,0,0,27,494,117,135
914,855,974,870,"230,55",O,1,0,0,0,0,0,0,1,1,0,0,0,84,85,118,199
1059,855,1119,870,"276,66",O,1,0,0,0,0,0,0,1,1,0,0,0,9,47,291,126
80,879,111,890,TVA,O,0,0,0,1,0,0,1,1,0,0,0,0,4,5,120,127
116,879,155,891,"20,00",O,1,0,0,0,0,0,0,1,1,0,0,0,3,6,121,127
161,879,174,890,%,O,0,1,0,0,0,0,0,1,0,0,0,0,4,6,122,128
180,879,223,893,payée,O,0,0,0,0,0,0,1,0,0,0,0,0,1,5,123,129
228,882,250,890,sur,O,0,0,0,0,0,0,1,1,0,0,0,0,6,5,124,130
255,879,275,890,les,O,0,0,0,0,0,0,1,1,0,0,0,0,4,5,125,131
280,879,322,890,débits,O,0,0,0,0,0,0,1,0,0,0,0,0,6,759,126,132
1081,879,1119,891,"46,11",O,1,0,0,0,0,0,0,1,1,0,0,0,3,47,291,137
81,894,138,905,Montant,O,0,0,1,0,0,0,1,1,0,0,0,0,8,5,128,138
143,894,173,905,hors,O,0,0,0,0,0,0,1,1,0,0,0,0,10,6,129,140
179,894,210,904,TVA,O,0,0,0,1,0,0,1,1,0,0,0,0,10,5,130,141
215,896,265,905,soumis,O,0,0,0,0,0,0,1,1,0,0,0,0,9,5,131,141
270,894,278,905,à,O,0,0,0,0,0,0,1,0,0,0,0,0,8,6,132,143
284,896,310,905,une,O,0,0,0,0,0,0,1,1,0,0,0,0,8,5,133,143
315,894,346,904,TVA,O,0,0,0,1,0,0,1,1,0,0,0,0,9,5,134,144
351,894,359,905,à,O,0,0,0,0,0,0,1,0,0,0,0,0,27,5,135,156
364,894,404,906,"20,00",O,1,0,0,0,0,0,0,1,1,0,0,0,7,6,136,145
410,894,422,905,%,O,0,1,0,0,0,0,0,1,0,0,0,0,8,651,137,146
1073,894,1121,906,"230,55",O,1,0,0,0,0,0,0,1,1,0,0,0,60,0,-1,205
81,913,110,925,(Voir,O,0,0,1,0,0,0,0,1,0,0,0,0,5,4,139,149
114,913,131,922,les,O,0,0,0,0,0,0,1,1,0,0,0,0,8,5,140,151
136,915,173,925,pages,O,0,0,0,0,0,0,1,1,0,0,0,0,5,5,141,151
178,914,237,922,suivantes,O,0,0,0,0,0,0,1,1,0,0,0,0,-2,5,142,153
242,915,270,925,pour,O,0,0,0,0,0,0,1,1,0,0,0,0,-5,4,143,154
274,913,291,922,les,O,0,0,0,0,0,0,1,1,0,0,0,0,-2,5,144,154
296,913,352,922,éléments,O,0,0,0,0,0,0,1,0,0,0,0,0,8,5,145,155
357,913,408,922,détaillés,O,0,0,0,0,0,0,1,0,0,0,0,0,8,5,146,157
413,913,428,922,de,O,0,0,0,0,0,0,1,1,0,0,0,0,8,4,147,158
432,913,478,925,chaque,O,0,0,0,0,0,0,1,1,0,0,0,0,5,5,148,159
483,913,516,925,ligne),O,0,0,0,0,0,0,0,1,0,0,0,0,5,0,-1,161
80,930,92,940,(),O,0,1,0,0,0,0,0,1,0,0,0,0,8,4,150,162
96,930,115,938,Les,O,0,0,1,0,0,0,1,1,0,0,0,0,10,4,151,162
119,930,168,938,montants,O,0,0,0,0,0,0,1,1,0,0,0,0,10,4,152,163
172,930,217,938,unitaires,O,0,0,0,0,0,0,1,1,0,0,0,0,12,6,153,164
223,920,240,948,sont,O,0,0,0,0,0,0,1,1,0,0,0,0,0,8,154,166
248,920,293,948,"arrondis,",O,0,0,0,0,0,0,0,1,0,0,0,0,2,5,155,167
298,930,318,938,leur,O,0,0,0,0,0,0,1,1,0,0,0,0,10,4,156,169
322,932,360,938,somme,O,0,0,0,0,0,0,1,1,0,0,0,0,10,5,157,170
365,930,388,940,peut,O,0,0,0,0,0,0,1,1,0,0,0,0,8,3,158,171
391,930,429,938,différer,O,0,0,0,0,0,0,1,0,0,0,0,0,10,3,159,171
432,930,445,938,du,O,0,0,0,0,0,0,1,1,0,0,0,0,26,5,160,181
450,930,492,938,montant,O,0,0,0,0,0,0,1,1,0,0,0,0,26,4,161,182
496,930,518,938,total,O,0,0,0,0,0,0,1,1,0,0,0,0,27,648,289,185
80,948,113,956,Aucun,O,0,0,1,0,0,0,1,1,0,0,0,0,8,5,163,172
118,948,170,958,escompte,O,0,0,0,0,0,0,1,1,0,0,0,0,6,4,164,173
174,950,186,956,ne,O,0,0,0,0,0,0,1,1,0,0,0,0,-2,4,165,175
190,950,213,956,sera,O,0,0,0,0,0,0,1,1,0,0,0,0,-2,4,166,175
217,948,262,958,appliqué,O,0,0,0,0,0,0,1,0,0,0,0,0,-4,4,167,176
266,950,279,956,en,O,0,0,0,0,0,0,1,1,0,0,0,0,8,4,168,177
283,950,301,956,cas,O,0,0,0,0,0,0,1,1,0,0,0,0,8,4,169,177
305,948,318,956,de,O,0,0,0,0,0,0,1,1,0,0,0,0,8,5,170,177
323,948,371,958,paiement,O,0,0,0,0,0,0,1,1,0,0,0,0,6,4,171,178
375,948,416,958,anticipé.,O,0,0,0,0,0,0,0,0,0,0,0,0,6,750,288,179
80,964,104,972,Tout,O,0,0,1,0,0,0,1,1,0,0,0,0,5,4,173,206
108,964,138,972,retard,O,0,0,0,0,0,0,1,1,0,0,0,0,5,5,174,206
143,964,155,972,de,O,0,0,0,0,0,0,1,1,0,0,0,0,19,5,175,209
160,954,205,982,paiement,O,0,0,0,0,0,0,1,1,0,0,0,0,9,8,176,209
213,954,254,982,entraîne,O,0,0,0,0,0,0,1,0,0,0,0,0,10,7,177,211
261,964,322,974,l'application,O,0,0,0,0,0,0,0,1,0,0,0,0,19,4,178,212
326,964,355,972,d'une,O,0,0,0,0,0,0,0,1,0,0,0,0,19,4,179,214
359,964,401,974,pénalité,O,0,0,0,0,0,0,1,0,0,0,0,0,19,4,180,215
405,964,434,975,égale,O,0,0,0,0,0,0,1,0,0,0,0,0,16,4,181,217
438,964,444,972,à,O,0,0,0,0,0,0,1,0,0,0,0,0,19,4,182,218
448,964,454,972,3,O,1,0,0,0,1,0,0,1,1,0,0,0,20,4,183,219
458,964,476,972,fois,O,0,0,0,0,0,0,1,1,0,0,0,0,20,4,184,219
480,965,489,972,le,O,0,0,0,0,0,0,1,1,0,0,0,0,44,4,185,226
493,965,515,972,taux,O,0,0,0,0,0,0,1,1,0,0,0,0,63,4,186,235
519,965,532,972,de,O,0,0,0,0,0,0,1,1,0,0,0,0,63,4,187,236
536,964,574,972,l'intérêt,O,0,0,0,0,0,0,0,0,0,0,0,0,63,4,188,236
578,964,603,975,égal,O,0,0,0,0,0,0,1,0,0,0,0,0,60,4,189,237
607,965,616,972,et,O,0,0,0,0,0,0,1,1,0,0,0,0,81,5,190,249
621,966,640,972,une,O,0,0,0,0,0,0,1,1,0,0,0,0,63,4,191,238
644,964,696,972,indemnité,O,0,0,0,0,0,0,1,0,0,0,0,0,63,4,192,239
700,964,749,972,forfaitaire,O,0,0,0,0,0,0,1,1,0,0,0,0,63,4,193,239
753,964,766,972,de,O,0,0,0,0,0,0,1,1,0,0,0,0,81,5,194,252
771,964,792,972,frais,O,0,0,0,0,0,0,1,1,0,0,0,0,81,4,195,252
796,964,809,972,de,O,0,0,0,0,0,0,1,1,0,0,0,0,81,5,196,252
814,965,887,972,recouvrement,O,0,0,0,0,0,0,1,1,0,0,0,0,81,4,197,254
891,964,903,972,de,O,0,0,0,0,0,0,1,1,0,0,0,0,119,4,198,275
907,964,920,972,40,O,1,0,0,0,1,0,0,1,1,0,0,0,81,5,199,255
925,954,928,982,_,O,0,1,0,0,0,0,0,1,0,0,0,0,71,4,200,255
932,964,939,972,€,O,0,0,0,0,0,1,0,0,0,1,0,0,81,4,201,255
943,966,967,972,ainsi,O,0,0,0,0,0,0,1,1,0,0,0,0,82,4,202,256
971,966,991,974,que,O,0,0,0,0,0,0,1,1,0,0,0,0,80,4,203,256
995,965,1014,972,tout,O,0,0,0,0,0,0,1,1,0,0,0,0,82,4,204,256
1018,964,1084,974,complément,O,0,0,0,0,0,0,1,0,0,0,0,0,80,3,205,257
1087,966,1104,972,sur,O,0,0,0,0,0,0,1,1,0,0,0,0,0,62,287,-1
79,977,139,987,justification.,O,0,0,0,0,0,0,0,1,0,0,0,0,4,1027,286,207
80,991,93,999,Le,O,0,0,1,0,0,0,1,1,0,0,0,0,17,4,208,220
97,991,137,1001,présent,O,0,0,0,0,0,0,1,0,0,0,0,0,15,4,209,220
141,991,193,999,document,O,0,0,0,0,0,0,1,1,0,0,0,0,37,4,210,228
197,993,210,999,ne,O,0,0,0,0,0,0,1,1,0,0,0,0,17,4,211,222
214,992,262,999,constitue,O,0,0,0,0,0,0,1,1,0,0,0,0,20,4,212,223
266,993,285,1001,pas,O,0,0,0,0,0,0,1,1,0,0,0,0,18,4,213,223
289,993,308,999,une,O,0,0,0,0,0,0,1,1,0,0,0,0,36,4,214,231
312,991,348,999,facture,O,0,0,0,0,0,0,1,1,0,0,0,0,20,4,215,224
352,993,365,999,au,O,0,0,0,0,0,0,1,1,0,0,0,0,17,4,216,225
369,993,394,999,sens,O,0,0,0,0,0,0,1,1,0,0,0,0,17,4,217,225
398,991,425,999,fiscal,O,0,0,0,0,0,0,1,1,0,0,0,0,17,4,218,226
429,991,442,999,du,O,0,0,0,0,0,0,1,1,0,0,0,0,17,4,219,226
446,992,476,999,terme.,O,0,0,0,0,0,0,0,1,0,0,0,0,17,690,286,226
80,1016,126,1028,Votre,O,0,0,1,0,0,0,1,1,0,0,0,0,7,5,221,227
131,1016,147,1028,fa,O,0,0,0,0,0,0,1,1,0,0,0,0,8,47,222,228
194,1016,214,1028,de,O,0,0,0,0,0,0,1,1,0,0,0,0,7,7,223,229
221,1019,282,1031,paiement,O,0,0,0,0,0,0,1,1,0,0,0,0,4,24,224,230
306,1019,345,1031,pour,O,0,0,0,0,0,0,1,1,0,0,0,0,4,5,225,232
350,1016,394,1028,votre,O,0,0,0,0,0,0,1,1,0,0,0,0,7,6,226,233
400,1016,501,1031,équipement,O,0,0,0,0,0,0,1,0,0,0,0,0,4,665,285,233
81,1035,99,1047,Le,O,0,0,1,0,0,0,1,1,0,0,0,0,7,7,228,240
106,1036,170,1047,montant,O,0,0,0,0,0,0,1,1,0,0,0,0,7,7,229,240
177,1035,231,1047,restant,O,0,0,0,0,0,0,1,1,0,0,0,0,10,6,230,243
237,1035,255,1047,dû,O,0,0,0,0,0,0,1,0,0,0,0,0,7,7,231,244
262,1035,306,1050,après,O,0,0,0,0,0,0,1,0,0,0,0,0,4,6,232,244
312,1035,350,1047,cette,O,0,0,0,0,0,0,1,1,0,0,0,0,10,7,233,245
357,1035,443,1047,mensualité,O,0,0,0,0,0,0,1,0,0,0,0,0,6,7,234,246
450,1038,483,1047,sera,O,0,0,0,0,0,0,1,1,0,0,0,0,7,7,235,248
490,1035,509,1047,de,O,0,0,0,0,0,0,1,1,0,0,0,0,7,6,236,248
515,1035,574,1049,"56,00€,",O,0,0,0,0,0,0,0,0,1,1,0,0,4,7,237,249
581,1035,608,1047,soit,O,0,0,0,0,0,0,1,1,0,0,0,0,6,11,238,249
619,1035,623,1047,7,O,1,0,0,0,1,0,0,1,1,0,0,0,6,16,239,249
639,1035,738,1047,mensualités.,O,0,0,0,0,0,0,0,0,0,0,0,0,6,428,284,251
81,1054,136,1068,Rappel,O,0,0,1,0,0,0,1,1,0,0,0,0,4,8,241,259
144,1057,146,1065,:,O,0,1,0,0,0,0,0,1,0,0,0,0,7,7,242,259
153,1057,190,1066,vous,O,0,0,0,0,0,0,1,1,0,0,0,0,28,6,243,261
196,1057,234,1066,avez,O,0,0,0,0,0,0,1,1,0,0,0,0,26,6,244,262
240,1054,302,1066,souscrit,O,0,0,0,0,0,0,1,1,0,0,0,0,26,6,245,263
308,1057,336,1066,une,O,0,0,0,0,0,0,1,1,0,0,0,0,25,6,246,264
342,1053,393,1066,facilité,O,0,0,0,0,0,0,1,0,0,0,0,0,25,6,247,265
399,1054,418,1066,de,O,0,0,0,0,0,0,1,1,0,0,0,0,25,7,248,265
425,1054,498,1069,paiement,O,0,0,0,0,0,0,1,1,0,0,0,0,22,13,249,266
511,1053,664,1069,(E0004310239017),O,0,0,1,1,0,0,0,1,1,0,0,0,22,6,250,267
670,1054,690,1066,de,O,0,0,0,0,0,0,1,1,0,0,0,0,25,6,251,271
696,1053,715,1065,24,O,1,0,0,0,1,0,0,1,1,0,0,0,26,6,252,271
721,1053,817,1066,mensualités,O,0,0,0,0,0,0,1,0,0,0,0,0,25,6,253,272
823,1054,842,1066,de,O,0,0,0,0,0,0,1,1,0,0,0,0,25,6,254,274
848,1053,893,1067,"8,00€",O,0,0,0,0,0,0,0,0,1,1,0,0,24,11,255,274
904,1053,936,1066,d'un,O,0,0,0,0,0,0,0,1,0,0,0,0,25,7,256,275
943,1054,1007,1066,montant,O,0,0,0,0,0,0,1,1,0,0,0,0,25,6,257,276
1013,1054,1046,1066,total,O,0,0,0,0,0,0,1,1,0,0,0,0,0,6,258,-1
1052,1054,1071,1066,de,O,0,0,0,0,0,0,1,1,0,0,0,0,0,95,284,-1
82,1072,149,1086,"192,00€.",O,0,0,0,0,0,0,0,0,1,1,0,0,5,1030,283,260
80,1091,121,1103,Vous,O,0,0,1,0,0,0,1,1,0,0,0,0,7,6,261,278
127,1094,185,1106,pouvez,O,0,0,0,0,0,0,1,1,0,0,0,0,4,6,262,278
191,1092,262,1103,retrouver,O,0,0,0,0,0,0,1,1,0,0,0,0,-3,6,263,279
268,1092,316,1103,toutes,O,0,0,0,0,0,0,1,1,0,0,0,0,0,7,264,-1
323,1091,344,1103,les,O,0,0,0,0,0,0,1,1,0,0,0,0,137,7,265,303
351,1091,448,1103,informations,O,0,0,0,0,0,0,1,1,0,0,0,0,137,7,266,303
455,1091,521,1103,relatives,O,0,0,0,0,0,0,1,1,0,0,0,0,0,6,267,-1
527,1091,536,1103,à,O,0,0,0,0,0,0,1,0,0,0,0,0,0,6,268,-1
542,1092,582,1103,votre,O,0,0,0,0,0,0,1,1,0,0,0,0,0,5,269,-1
587,1091,638,1103,facilité,O,0,0,0,0,0,0,1,0,0,0,0,0,0,6,270,-1
644,1091,663,1103,de,O,0,0,0,0,0,0,1,1,0,0,0,0,0,7,271,-1
670,1091,744,1106,paiement,O,0,0,0,0,0,0,1,1,0,0,0,0,133,5,272,306
749,1091,787,1103,dans,O,0,0,0,0,0,0,1,1,0,0,0,0,0,7,273,-1
794,1091,806,1103,la,O,0,0,0,0,0,0,1,1,0,0,0,0,0,7,274,-1
813,1091,878,1106,rubrique,O,0,0,0,0,0,0,1,1,0,0,0,0,0,7,275,-1
885,1091,918,1103,Mon,O,0,0,1,0,0,0,1,1,0,0,0,0,0,7,276,-1
925,1091,987,1106,Compte,O,0,0,1,0,0,0,1,1,0,0,0,0,0,6,277,-1
993,1094,1018,1103,sur,O,0,0,0,0,0,0,1,1,0,0,0,0,0,0,-1,-1
81,1110,242,1125,bouyguestelecom,O,0,0,0,0,0,0,1,1,0,0,0,0,114,-19,279,298
223,1100,245,1132,fr.,O,0,0,0,0,0,0,0,1,0,0,0,0,-22,921,282,278
1166,1174,1194,1209,BOUYGUES,O,0,0,0,1,0,0,1,1,0,0,0,0,0,0,-1,-1
1166,1131,1194,1167,TELECOM.,O,0,0,0,1,0,0,0,1,0,0,0,0,7,0,-1,280
1166,1105,1194,1125,Sot,O,0,0,1,0,0,0,1,1,0,0,0,0,6,0,-1,281
1179,1077,1186,1097,om,O,0,0,0,0,0,0,1,1,0,0,0,0,8,0,-1,282
1166,1040,1194,1066,uct,O,0,0,0,0,0,0,1,1,0,0,0,0,11,0,-1,283
1166,1000,1194,1031,71288,O,1,0,0,0,1,0,0,1,1,0,0,0,9,0,-1,284
1166,977,1194,996,"59,58",O,1,0,0,0,0,0,0,1,1,0,0,0,4,0,-1,285
1166,965,1194,973,€-,O,0,0,0,0,0,0,0,0,0,1,0,0,4,0,-1,286
1166,947,1194,964,She,O,0,0,1,0,0,0,1,1,0,0,0,0,1,0,-1,287
1166,921,1194,943,scl:,O,0,0,0,0,0,0,0,1,0,0,0,0,4,0,-1,288
1166,902,1194,919,7-8,O,0,0,0,0,0,0,0,1,1,0,0,0,2,0,-1,289
1166,856,1194,891,Bore,O,0,0,1,0,0,0,1,1,0,0,0,0,11,0,-1,290
1179,830,1185,847,EE,O,0,0,0,1,0,0,1,1,0,0,0,0,9,0,-1,291
1166,812,1194,828,PAR,O,0,0,0,1,0,0,1,1,0,0,0,0,2,0,-1,292
1166,761,1194,800,2570850,O,1,0,0,0,1,0,0,1,1,0,0,0,12,0,-1,293
1179,740,1185,758,RS,O,0,0,0,1,0,0,1,1,0,0,0,0,3,0,-1,294
1179,714,1185,735,PAR,O,0,0,0,1,0,0,1,1,0,0,0,0,5,0,-1,295
1179,690,1185,708,FRA,O,0,0,0,1,0,0,1,1,0,0,0,0,6,0,-1,296
80,1239,121,1251,Vous,O,0,0,1,0,0,0,1,1,0,0,0,0,10,6,299,307
127,1242,170,1251,serez,O,0,0,0,0,0,0,1,1,0,0,0,0,10,7,300,308
177,1239,235,1254,prélevé,O,0,0,0,0,0,0,1,0,0,0,0,0,4,6,301,309
241,1242,266,1251,sur,O,0,0,0,0,0,0,1,1,0,0,0,0,7,5,302,309
271,1240,310,1251,votre,O,0,0,0,0,0,0,1,1,0,0,0,0,7,6,303,310
316,1240,375,1254,compte,O,0,0,0,0,0,0,1,1,0,0,0,0,4,15,304,311
390,1239,430,1251,IBAN,O,0,0,0,1,0,0,1,1,0,0,0,0,7,8,305,312
438,1242,440,1251,:,O,0,1,0,0,0,0,0,1,0,0,0,0,7,7,306,313
447,1239,702,1251,xxxxxxxxxxxxxx00020105601xx,O,0,0,0,0,0,0,0,1,1,0,0,0,7,0,-1,313
80,1261,118,1270,avec,O,0,0,0,0,0,0,1,1,0,0,0,0,0,6,308,-1
124,1261,182,1270,comme,O,0,0,0,0,0,0,1,1,0,0,0,0,0,7,309,-1
189,1258,271,1270,Référence,O,0,0,1,0,0,0,1,0,0,0,0,0,0,7,310,-1
278,1258,333,1273,Unique,O,0,0,1,0,0,0,1,1,0,0,0,0,0,6,311,-1
339,1258,359,1270,de,O,0,0,0,0,0,0,1,1,0,0,0,0,0,6,312,-1
365,1258,425,1270,Mandat,O,0,0,1,0,0,0,1,1,0,0,0,0,0,6,313,-1
431,1258,483,1273,(RUM),O,0,0,0,1,0,0,0,1,0,0,0,0,0,7,314,-1
490,1261,492,1270,:,O,0,1,0,0,0,0,0,1,0,0,0,0,0,7,315,-1
499,1258,644,1270,BTGACO1A0JE89,O,0,0,0,1,0,0,0,1,1,0,0,0,0,0,-1,-1
