xmin,ymin,xmax,ymax,Object,label,like_num,is_punct,is_title,is_upper,is_digit,is_currency,is_alpha,is_ascii,hasNumbers,hascurrency,like_email,like_url,dh,dv,v_hor,v_vert
54,35,144,76,D,O,0,0,1,1,0,0,1,1,0,0,0,0,209,16,1,2
160,40,386,71,HYUNDAI,LOGO,0,0,0,1,0,0,1,1,0,0,0,0,213,0,-1,3
84,285,129,296,POUR,O,0,0,0,1,0,0,1,1,0,0,0,0,24,7,3,5
136,284,181,296,NOUS,O,0,0,0,1,0,0,1,1,0,0,0,0,24,6,4,5
187,284,287,295,CONTACTER,O,0,0,0,1,0,0,1,1,0,0,0,0,25,0,-1,7
84,320,158,331,Référence,O,0,0,1,0,0,0,1,0,0,0,0,0,5,6,6,8
164,323,166,325,:,O,0,1,0,0,0,0,0,1,0,0,0,0,63,13,7,24
179,320,272,331,FLO1020710,O,0,0,0,1,0,0,0,1,1,0,0,0,5,0,-1,10
83,336,124,347,Client,O,0,0,1,0,0,0,1,1,0,0,0,0,6,6,9,12
130,345,132,347,:,O,0,1,0,0,0,0,0,1,0,0,0,0,42,47,10,23
179,336,210,347,SRL,O,0,0,0,1,0,0,1,1,0,0,0,0,5,5,11,13
215,336,255,347,ADBI,O,0,0,0,1,0,0,1,1,0,0,0,0,5,0,-1,13
84,353,114,363,Bien,O,0,0,1,0,0,0,1,1,0,0,0,0,5,65,13,21
179,352,252,363,HYUNDAI,O,0,0,0,1,0,0,1,1,0,0,0,0,5,6,14,22
258,352,335,363,TUCSON3,O,0,0,0,1,0,0,0,1,1,0,0,0,5,6,15,22
341,352,378,363,D141,O,0,0,1,1,0,0,0,1,1,0,0,0,96,7,16,41
385,351,440,363,CREAT,O,0,0,0,1,0,0,1,1,0,0,0,0,0,6,17,-1
446,351,468,362,2M,O,0,0,1,1,0,0,0,1,1,0,0,0,0,5,18,-1
473,351,496,362,BA,O,0,0,0,1,0,0,1,1,0,0,0,0,0,0,-1,-1
650,363,689,377,SRL,CLIENT_NAME,0,0,0,1,0,0,1,1,0,0,0,0,18,6,20,25
695,363,742,376,ADBI,CLIENT_NAME,0,0,0,1,0,0,1,1,0,0,0,0,7,0,-1,26
83,368,99,382,@,O,0,1,0,0,0,0,0,1,0,0,0,0,7,80,22,23
179,368,339,382,CONTACT@ADBI.FR,O,0,0,0,1,0,0,0,1,0,0,1,0,6,311,19,24
84,389,143,401,Service,O,0,0,1,0,0,0,1,1,0,0,0,0,5,7,24,28
150,388,204,401,Clients,O,0,0,1,0,0,0,1,1,0,0,0,0,23,459,25,32
663,395,665,399,",",CLIENT_ADDRESS,0,1,0,0,0,0,0,1,0,0,0,0,4,0,-1,29
674,383,715,397,RUE,CLIENT_ADDRESS,0,0,0,1,0,0,1,1,0,0,0,0,6,7,27,29
722,383,804,396,ROSSINI,CLIENT_ADDRESS,0,0,0,1,0,0,1,1,0,0,0,0,7,0,-1,30
84,406,135,418,SEFIA,O,0,0,0,1,0,0,1,1,0,0,0,0,6,515,29,31
650,403,706,417,75009,CLIENT_ADDRESS,1,0,0,0,1,0,0,1,1,0,0,0,0,7,30,-1
713,403,773,416,PARIS,CLIENT_ADDRESS,0,0,0,1,0,0,1,1,0,0,0,0,538,0,-1,152
83,424,118,436,TSA,O,0,0,0,1,0,0,1,1,0,0,0,0,6,6,32,33
124,424,175,436,42006,O,1,0,0,0,1,0,0,1,1,0,0,0,6,0,-1,34
84,442,102,454,69,COMPANY_ADDRESS,1,0,0,0,1,0,0,1,1,0,0,0,6,6,34,37
108,442,183,454,AVENUE,COMPANY_ADDRESS,0,0,0,1,0,0,1,1,0,0,0,0,6,8,35,37
191,442,214,453,DE,COMPANY_ADDRESS,0,0,0,1,0,0,1,1,0,0,0,0,7,7,36,38
221,442,305,453,FLANDRE,COMPANY_ADDRESS,0,0,0,1,0,0,1,1,0,0,0,0,6,0,-1,40
84,460,134,472,59846,COMPANY_ADDRESS,1,0,0,0,1,0,0,1,1,0,0,0,9,7,38,42
141,460,207,472,MARCQ,COMPANY_ADDRESS,0,0,0,1,0,0,1,1,0,0,0,0,9,7,39,43
214,460,237,472,EN,COMPANY_ADDRESS,0,0,0,1,0,0,1,1,0,0,0,0,9,7,40,47
244,459,331,471,BAROEUL,COMPANY_ADDRESS,0,0,0,1,0,0,1,1,0,0,0,0,0,6,41,-1
337,459,400,471,CEDEX,COMPANY_ADDRESS,0,0,0,1,0,0,1,1,0,0,0,0,0,0,-1,-1
86,481,116,492,Tel:,O,0,0,1,0,0,0,0,1,0,0,0,0,5,19,43,48
135,481,152,492,03,O,1,0,0,0,1,0,0,1,1,0,0,0,5,6,44,49
158,481,175,492,59,O,1,0,0,0,1,0,0,1,1,0,0,0,5,5,45,50
180,481,198,491,53,O,1,0,0,0,1,0,0,1,1,0,0,0,6,7,46,51
205,481,220,491,18,O,1,0,0,0,1,0,0,1,1,0,0,0,6,7,47,52
227,481,243,491,16,O,1,0,0,0,1,0,0,1,1,0,0,0,6,0,-1,53
86,497,112,508,Fax,O,0,0,1,0,0,0,1,1,0,0,0,0,105,23,49,59
135,497,152,508,03,O,1,0,0,0,1,0,0,1,1,0,0,0,105,6,50,59
158,497,175,508,20,O,1,0,0,0,1,0,0,1,1,0,0,0,105,5,51,59
180,497,198,508,45,O,1,0,0,0,1,0,0,1,1,0,0,0,105,5,52,59
203,497,221,508,66,O,1,0,0,0,1,0,0,1,1,0,0,0,105,5,53,59
226,497,241,508,34,O,1,0,0,0,1,0,0,1,1,0,0,0,125,0,-1,66
649,582,723,595,MARCQ,O,0,0,0,1,0,0,1,1,0,0,0,0,87,8,55,76
731,582,757,595,EN,O,0,0,0,1,0,0,1,1,0,0,0,0,359,8,56,153
765,581,865,597,"BAROEUL,",O,0,0,0,1,0,0,0,1,0,0,0,0,0,9,57,-1
874,581,888,594,le,O,0,0,0,0,0,0,1,1,0,0,0,0,0,7,58,-1
895,580,996,594,23/02/2019,O,0,0,0,0,0,0,0,1,1,0,0,0,190,0,-1,100
82,613,227,630,Caractéristiques,O,0,0,1,0,0,0,1,0,0,0,0,0,3,8,60,65
235,613,256,626,du,O,0,0,0,0,0,0,1,1,0,0,0,0,7,8,61,66
264,613,300,626,bien,O,0,0,0,0,0,0,1,1,0,0,0,0,7,7,62,66
307,613,351,626,objet,O,0,0,0,0,0,0,1,1,0,0,0,0,6,6,63,67
357,613,379,626,du,O,0,0,0,0,0,0,1,1,0,0,0,0,6,7,64,68
386,613,497,626,financement,O,0,0,0,0,0,0,1,1,0,0,0,0,6,648,71,69
82,633,171,647,HYUNDAI,O,0,0,0,1,0,0,1,1,0,0,0,0,6,12,66,72
183,633,279,646,TUCSONS,O,0,0,0,1,0,0,1,1,0,0,0,0,141,8,67,90
287,632,331,646,D141,O,0,0,1,1,0,0,0,1,1,0,0,0,0,10,68,-1
341,632,410,646,CREAT,O,0,0,0,1,0,0,1,1,0,0,0,0,0,6,69,-1
416,632,442,646,2M,O,0,0,1,1,0,0,0,1,1,0,0,0,0,9,70,-1
451,632,477,646,BA,O,0,0,0,1,0,0,1,1,0,0,0,0,36,668,71,73
1145,603,1194,649,|||,O,0,0,0,0,0,0,0,1,0,0,0,0,0,0,-1,-1
82,653,182,667,EF-375-RB,O,0,0,0,1,0,0,0,1,1,0,0,0,0,0,-1,-1
460,682,555,696,FACTURE,O,0,0,0,1,0,0,1,1,0,0,0,0,7,8,74,78
563,682,584,695,N°,O,0,0,1,1,0,0,0,0,0,0,0,0,8,8,75,79
592,685,595,695,:,O,0,1,0,0,0,0,0,1,0,0,0,0,8,9,76,79
604,682,717,695,F190088964,NUMBER,0,0,1,1,0,0,0,1,1,0,0,0,7,0,-1,80
464,706,503,720,pour,O,0,0,0,0,0,0,1,1,0,0,0,0,7,7,78,81
510,703,524,716,le,O,0,0,0,0,0,0,1,1,0,0,0,0,31,8,79,87
532,703,594,716,contrat,O,0,0,0,0,0,0,1,1,0,0,0,0,10,6,80,83
600,702,712,716,FLO1020710,O,0,0,0,1,0,0,0,1,1,0,0,0,10,0,-1,85
446,727,487,740,Date,O,0,0,1,0,0,0,1,1,0,0,0,0,8,7,82,86
494,727,515,739,de,O,0,0,0,0,0,0,1,1,0,0,0,0,8,7,83,87
522,726,617,739,facturation,O,0,0,0,0,0,0,1,1,0,0,0,0,8,8,84,87
625,729,627,739,:,O,0,1,0,0,0,0,0,1,0,0,0,0,8,8,85,89
635,726,736,739,05/03/2019,DATE,0,0,0,0,0,0,0,1,1,0,0,0,8,0,-1,89
443,748,484,761,Date,O,0,0,1,0,0,0,1,1,0,0,0,0,30,8,87,91
492,747,595,761,d'échéance,O,0,0,0,0,0,0,0,0,0,0,0,0,30,8,88,92
603,750,606,760,:,O,0,1,0,0,0,0,0,1,0,0,0,0,0,7,89,-1
613,747,714,760,05/03/2019,O,0,0,0,0,0,0,0,1,1,0,0,0,30,0,-1,95
215,787,303,813,Rubrique,O,0,0,1,0,0,0,1,1,0,0,0,0,3,137,91,109
440,791,518,805,Montant,O,0,0,1,0,0,0,1,1,0,0,0,0,9,7,92,112
525,791,552,804,HT,O,0,0,0,1,0,0,1,1,0,0,0,0,10,6,93,112
558,791,600,804,EUR],O,0,0,0,1,0,0,0,1,0,0,0,0,0,10,94,-1
610,791,657,804,Taux,O,0,0,1,0,0,0,1,1,0,0,0,0,10,7,95,113
664,790,710,804,Taxe,O,0,0,1,0,0,0,1,1,0,0,0,0,10,3,96,113
713,784,723,812,|,O,0,0,0,0,0,0,0,1,0,0,0,0,124,3,97,130
726,790,804,804,Montant,O,0,0,1,0,0,0,1,1,0,0,0,0,135,6,98,131
810,790,851,803,taxe,O,0,0,0,0,0,0,1,1,0,0,0,0,10,7,99,114
858,789,900,803,EUR,O,0,0,0,1,0,0,1,1,0,0,0,0,133,2,100,134
902,784,912,812,|,O,0,0,0,0,0,0,0,1,0,0,0,0,124,3,101,134
915,789,993,803,Montant,O,0,0,1,0,0,0,1,1,0,0,0,0,0,6,102,-1
999,788,1038,803,TTC,O,0,0,0,1,0,0,1,1,0,0,0,0,9,7,103,104
1045,788,1088,802,EUR,O,0,0,0,1,0,0,1,1,0,0,0,0,0,0,-1,-1
970,812,1031,828,"514,98",O,1,0,0,0,0,0,0,1,1,0,0,0,28,0,-1,125
87,817,133,832,Loyer,O,0,0,1,0,0,0,1,1,0,0,0,0,3,5,106,115
138,817,201,832,payable,O,0,0,0,0,0,0,1,1,0,0,0,0,3,7,107,116
208,817,253,829,terme,O,0,0,0,0,0,0,1,1,0,0,0,0,6,7,108,117
260,817,268,829,à,O,0,0,0,0,0,0,1,0,0,0,0,0,6,7,109,117
275,816,325,829,échoir,O,0,0,0,0,0,0,1,0,0,0,0,0,5,6,110,119
331,819,367,831,pour,O,0,0,0,0,0,0,1,1,0,0,0,0,3,6,111,119
373,816,385,828,la,O,0,0,0,0,0,0,1,1,0,0,0,0,6,103,112,119
488,814,550,830,"429,15",O,1,0,0,0,0,0,0,1,1,0,0,0,28,85,113,122
635,814,685,829,"20,00",O,1,0,0,0,0,0,0,1,1,0,0,0,28,103,114,123
788,813,837,829,"85,83",O,1,0,0,0,0,0,0,1,1,0,0,0,28,133,104,124
87,835,147,850,période,O,0,0,0,0,0,0,1,0,0,0,0,0,11,7,116,120
154,835,172,847,du,O,0,0,0,0,0,0,1,1,0,0,0,0,14,7,117,121
179,835,270,847,05/03/2019,O,0,0,0,0,0,0,0,1,1,0,0,0,14,6,118,121
276,838,295,847,au,O,0,0,0,0,0,0,1,1,0,0,0,0,0,7,119,-1
302,834,393,847,04/04/2019,O,0,0,0,0,0,0,0,1,1,0,0,0,0,0,-1,-1
87,861,129,873,Perte,O,0,0,1,0,0,0,1,1,0,0,0,0,0,7,121,-1
136,861,219,875,pecuniaire,O,0,0,0,0,0,0,1,1,0,0,0,0,147,276,122,156
495,858,545,873,"28,06",O,1,0,0,0,0,0,0,1,1,0,0,0,13,97,123,127
642,857,680,873,"0,00",O,1,0,0,0,0,0,0,1,1,0,0,0,63,114,124,130
794,857,832,872,"0,00",O,1,0,0,0,0,0,0,1,1,0,0,0,14,144,125,128
976,856,1026,871,"28,06",O,1,0,0,0,0,0,0,1,1,0,0,0,14,0,-1,129
384,887,431,900,Total,O,0,0,1,0,0,0,1,1,0,0,0,0,0,58,127,-1
489,886,548,902,"457,21",O,1,0,0,0,0,0,0,1,1,0,0,0,61,240,128,136
788,886,838,901,"85,83",O,1,0,0,0,0,0,0,1,1,0,0,0,36,133,129,132
971,885,1031,900,"543,04",O,1,0,0,0,0,0,0,1,1,0,0,0,61,0,-1,145
624,936,747,954,Récapitulatif,O,0,0,1,0,0,0,1,0,0,0,0,0,0,5,131,152
752,939,784,953,par,O,0,0,0,0,0,0,1,1,0,0,0,0,1,4,132,153
788,937,831,950,taux,O,0,0,0,0,0,0,1,1,0,0,0,0,13,7,133,141
838,936,861,950,de,O,0,0,0,0,0,0,1,1,0,0,0,0,13,6,134,142
867,936,907,949,TVA,O,0,0,0,1,0,0,1,1,0,0,0,0,13,0,-1,143
447,964,494,977,Taux,O,0,0,1,0,0,0,1,1,0,0,0,0,10,6,136,147
500,963,546,977,Taxe,O,0,0,1,0,0,0,1,1,0,0,0,0,10,0,151,147
562,964,639,977,|Montant,O,0,0,1,0,0,0,0,1,0,0,0,0,10,8,138,148
647,963,673,977,HT,O,0,0,0,1,0,0,1,1,0,0,0,0,10,6,139,148
679,963,692,977,E!,O,0,0,1,1,0,0,0,1,0,0,0,0,74,2,140,169
694,963,721,977,UR|,O,0,0,0,1,0,0,0,1,0,0,0,0,74,-26,152,170
734,963,812,977,Montant,O,0,0,1,0,0,0,1,1,0,0,0,0,73,-76,153,172
818,963,859,976,taxe,O,0,0,0,0,0,0,1,1,0,0,0,0,10,7,143,149
866,962,908,976,EUR,O,0,0,0,1,0,0,1,1,0,0,0,0,73,11,144,174
919,963,997,976,|Montant,O,0,0,1,0,0,0,0,1,0,0,0,0,73,6,145,174
1003,961,1042,976,TTC,O,0,0,0,1,0,0,1,1,0,0,0,0,9,7,146,150
1049,961,1091,975,EUR,O,0,0,0,1,0,0,1,1,0,0,0,0,74,0,-1,176
472,987,521,1003,"20,00",O,1,0,0,0,0,0,0,1,1,0,0,0,47,25,151,166
610,987,672,1003,"429,15",O,1,0,0,0,0,0,0,1,1,0,0,0,48,23,152,168
796,986,845,1002,"85,83",O,1,0,0,0,0,0,0,1,1,0,0,0,48,131,150,172
976,985,1037,1001,"514,98",TOTAL,1,0,0,0,0,0,0,1,1,0,0,0,48,0,-1,175
546,957,563,1005,1,O,1,0,0,0,1,0,0,1,1,0,0,0,45,-1,137,166
695,954,728,1009,ual,O,0,0,0,0,0,0,1,1,0,0,0,0,-46,6,141,140
736,954,764,1009,Me,O,0,0,1,0,0,0,1,1,0,0,0,0,-46,32,149,141
92,1023,142,1035,Mode,O,0,0,1,0,0,0,1,1,0,0,0,0,17,6,155,159
148,1022,167,1035,de,O,0,0,0,0,0,0,1,1,0,0,0,0,17,5,156,160
172,1022,267,1038,règlement,O,0,0,0,0,0,0,1,0,0,0,0,0,14,8,157,160
275,1025,278,1035,:,O,0,1,0,0,0,0,0,1,0,0,0,0,36,8,158,180
286,1021,400,1035,Prélèvement,O,0,0,1,0,0,0,1,0,0,0,0,0,16,0,-1,163
92,1052,132,1065,Tout,O,0,0,1,0,0,0,1,1,0,0,0,0,6,12,160,177
144,1052,195,1065,retard,O,0,0,0,0,0,0,1,1,0,0,0,0,6,12,161,177
207,1052,250,1064,dans,O,0,0,0,0,0,0,1,1,0,0,0,0,7,12,162,179
262,1052,276,1064,le,O,0,0,0,0,0,0,1,1,0,0,0,0,27,12,163,198
288,1051,371,1068,paiement,O,0,0,0,0,0,0,1,1,0,0,0,0,3,11,164,180
382,1051,413,1064,des,O,0,0,0,0,0,0,1,1,0,0,0,0,7,13,165,182
426,1051,478,1067,loyers,O,0,0,0,0,0,0,1,1,0,0,0,0,3,12,166,183
490,1050,564,1064,entraîne,O,0,0,0,0,0,0,1,0,0,0,0,0,6,11,167,184
575,1051,597,1063,de,O,0,0,0,0,0,0,1,1,0,0,0,0,7,12,168,185
609,1051,649,1067,plein,O,0,0,0,0,0,0,1,1,0,0,0,0,3,12,169,187
661,1051,700,1063,droit,O,0,0,0,0,0,0,1,1,0,0,0,0,7,11,170,188
711,1051,727,1063,et,O,0,0,0,0,0,0,1,1,0,0,0,0,7,12,171,189
739,1053,780,1063,sans,O,0,0,0,0,0,0,1,1,0,0,0,0,7,12,172,189
792,1050,833,1063,mise,O,0,0,0,0,0,0,1,1,0,0,0,0,7,12,173,190
845,1053,866,1063,en,O,0,0,0,0,0,0,1,1,0,0,0,0,7,12,174,192
878,1049,962,1064,"demeure,",O,0,0,0,0,0,0,0,1,0,0,0,0,5,14,175,193
976,1049,989,1062,la,O,0,0,0,0,0,0,1,1,0,0,0,0,7,13,176,194
1002,1049,1095,1066,perception,O,0,0,0,0,0,0,1,1,0,0,0,0,2,0,-1,195
92,1071,173,1085,d'intérêts,O,0,0,0,0,0,0,0,0,0,0,0,0,6,8,178,196
181,1071,203,1084,de,O,0,0,0,0,0,0,1,1,0,0,0,0,10,9,179,197
212,1071,263,1084,retard,O,0,0,0,0,0,0,1,1,0,0,0,0,7,9,180,198
272,1071,344,1084,calculés,O,0,0,0,0,0,0,1,0,0,0,0,0,7,8,181,199
352,1074,373,1084,au,O,0,0,0,0,0,0,1,1,0,0,0,0,7,8,182,200
381,1071,419,1084,taux,O,0,0,0,0,0,0,1,1,0,0,0,0,7,9,183,200
428,1070,469,1087,légal,O,0,0,0,0,0,0,1,0,0,0,0,0,4,9,184,201
478,1070,567,1087,augmenté,O,0,0,0,0,0,0,1,0,0,0,0,0,3,7,185,202
574,1070,596,1083,de,O,0,0,0,0,0,0,1,1,0,0,0,0,7,5,186,204
601,1064,610,1091,5,O,1,0,0,0,1,0,0,1,1,0,0,0,-1,13,187,205
623,1070,675,1086,points,O,0,0,0,0,0,0,1,1,0,0,0,0,4,8,188,206
683,1070,700,1083,et,O,0,0,0,0,0,0,1,1,0,0,0,0,6,8,189,207
708,1070,779,1086,majorés,O,0,0,0,0,0,0,1,0,0,0,0,0,3,8,190,207
787,1070,808,1083,de,O,0,0,0,0,0,0,1,1,0,0,0,0,6,10,191,209
818,1070,831,1082,la,O,0,0,0,0,0,0,1,1,0,0,0,0,10,8,192,210
839,1070,883,1085,"TVA,",O,0,0,0,1,0,0,0,1,0,0,0,0,0,9,193,-1
892,1069,932,1082,ainsi,O,0,0,0,0,0,0,1,1,0,0,0,0,7,8,194,211
940,1069,999,1086,qu'une,O,0,0,0,0,0,0,0,1,0,0,0,0,3,9,195,211
1008,1068,1095,1082,indemnité,O,0,0,0,0,0,0,1,0,0,0,0,0,6,0,-1,212
91,1091,176,1104,forfaitaire,O,0,0,0,0,0,0,1,1,0,0,0,0,7,11,197,214
187,1094,227,1108,pour,O,0,0,0,0,0,0,1,1,0,0,0,0,4,9,198,215
236,1091,274,1104,frais,O,0,0,0,0,0,0,1,1,0,0,0,0,7,10,199,216
284,1091,305,1104,de,O,0,0,0,0,0,0,1,1,0,0,0,0,7,12,200,218
317,1091,441,1104,recouvrement,O,0,0,0,0,0,0,1,1,0,0,0,0,7,9,201,218
450,1091,472,1104,de,O,0,0,0,0,0,0,1,1,0,0,0,0,0,10,202,-1
482,1090,504,1104,40,O,1,0,0,0,1,0,0,1,1,0,0,0,0,10,203,-1
514,1093,564,1104,euros,O,0,0,0,0,0,0,1,1,0,0,0,0,0,11,204,-1
575,1090,588,1103,si,O,0,0,0,0,0,0,1,1,0,0,0,0,0,11,205,-1
599,1090,612,1103,le,O,0,0,0,0,0,0,1,1,0,0,0,0,0,11,206,-1
623,1090,660,1103,bien,O,0,0,0,0,0,0,1,1,0,0,0,0,0,10,207,-1
670,1089,735,1103,financé,O,0,0,0,0,0,0,1,0,0,0,0,0,0,10,208,-1
745,1090,772,1103,est,O,0,0,0,0,0,0,1,1,0,0,0,0,0,11,209,-1
783,1089,792,1103,à,O,0,0,0,0,0,0,1,0,0,0,0,0,0,11,210,-1
803,1092,856,1106,usage,O,0,0,0,0,0,0,1,1,0,0,0,0,0,11,211,-1
867,1089,992,1106,professionnel.,O,0,0,0,0,0,0,0,1,0,0,0,0,0,11,212,-1
1003,1088,1043,1101,Tout,O,0,0,1,0,0,0,1,1,0,0,0,0,0,11,213,-1
1054,1088,1095,1101,mois,O,0,0,0,0,0,0,1,1,0,0,0,0,0,0,-1,-1
92,1111,191,1125,commencé,O,0,0,0,0,0,0,1,0,0,0,0,0,17,7,215,219
198,1112,225,1125,est,O,0,0,0,0,0,0,1,1,0,0,0,0,16,6,216,220
231,1111,252,1125,dû,O,0,0,0,0,0,0,1,0,0,0,0,0,0,8,217,-1
260,1114,281,1124,en,O,0,0,0,0,0,0,1,1,0,0,0,0,18,7,218,221
288,1111,343,1124,entier.,O,0,0,0,0,0,0,0,1,0,0,0,0,17,0,-1,222
93,1142,160,1155,Facture,O,0,0,1,0,0,0,1,1,0,0,0,0,0,8,220,-1
168,1141,237,1158,payable,O,0,0,0,0,0,0,1,1,0,0,0,0,0,7,221,-1
244,1142,296,1155,terme,O,0,0,0,0,0,0,1,1,0,0,0,0,0,7,222,-1
303,1141,313,1154,à,O,0,0,0,0,0,0,1,0,0,0,0,0,0,7,223,-1
320,1141,379,1154,échoir.,O,0,0,0,0,0,0,0,0,0,0,0,0,0,0,-1,-1
300,1418,354,1427,HYUNDAI,O,0,0,0,1,0,0,1,1,0,0,0,0,23,5,225,249
359,1418,402,1427,Finance,O,0,0,1,0,0,0,1,1,0,0,0,0,23,4,226,250
406,1419,422,1427,est,O,0,0,0,0,0,0,1,1,0,0,0,0,23,4,227,252
426,1421,438,1427,un,O,1,0,0,0,0,0,1,1,0,0,0,0,7,5,228,241
443,1418,511,1429,département,O,0,0,0,0,0,0,1,0,0,0,0,0,5,4,229,243
515,1419,528,1426,de,O,0,0,0,0,0,0,1,1,0,0,0,0,8,4,230,244
532,1418,568,1426,"SEFIA,",O,0,0,0,1,0,0,0,1,0,0,0,0,8,7,231,244
575,1418,616,1426,SEFIA,O,0,0,0,1,0,0,1,1,0,0,0,0,8,-3,232,246
613,1408,618,1436,-,O,0,1,0,0,0,0,0,1,0,0,0,0,-18,2,233,231
620,1418,644,1426,SAS,O,0,0,0,1,0,0,1,1,0,0,0,0,8,4,234,246
648,1420,661,1426,au,O,0,0,0,0,0,0,1,1,0,0,0,0,8,4,235,246
665,1418,701,1429,capital,O,0,0,0,0,0,0,1,1,0,0,0,0,5,3,236,246
704,1418,717,1426,de,O,0,0,0,0,0,0,1,1,0,0,0,0,23,5,237,260
722,1418,735,1426,10,O,1,0,0,0,1,0,0,1,1,0,0,0,23,4,238,261
739,1418,759,1426,000,O,1,0,0,0,1,0,0,1,1,0,0,0,23,5,239,261
764,1408,782,1436,000,O,1,0,0,0,1,0,0,1,1,0,0,0,13,6,240,262
788,1408,816,1436,euros,O,0,0,0,0,0,0,1,1,0,0,0,0,13,0,-1,263
431,1434,444,1442,69,O,1,0,0,0,1,0,0,1,1,0,0,0,8,4,242,253
448,1436,488,1442,avenue,O,0,0,0,0,0,0,1,1,0,0,0,0,8,4,243,254
492,1434,505,1442,de,O,0,0,0,0,0,0,1,1,0,0,0,0,8,4,244,255
509,1434,549,1442,Flandre,O,0,0,1,0,0,0,1,1,0,0,0,0,8,5,245,255
554,1434,588,1442,59700,O,1,0,0,0,1,0,0,1,1,0,0,0,8,4,246,258
592,1434,689,1444,Marcq-en-Baroeul,O,0,0,0,0,0,0,0,1,0,0,0,0,5,0,-1,259
1034,1441,1102,1449,FLO1020710,O,0,0,0,1,0,0,0,1,1,0,0,0,0,0,-1,-1
37,1443,89,1453,S_FAC25,O,0,0,0,1,0,0,0,1,1,0,0,0,0,945,247,-1
312,1450,349,1458,SIREN,O,0,0,0,1,0,0,1,1,0,0,0,0,0,4,250,-1
353,1450,372,1458,491,O,1,0,0,0,1,0,0,1,1,0,0,0,0,5,251,-1
377,1450,396,1458,411,O,1,0,0,0,1,0,0,1,1,0,0,0,0,6,252,-1
402,1450,420,1458,542,O,1,0,0,0,1,0,0,1,1,0,0,0,0,5,253,-1
425,1450,450,1458,RCS,O,0,0,0,1,0,0,1,1,0,0,0,0,0,5,254,-1
455,1450,476,1458,Lille,O,0,0,1,0,0,0,1,1,0,0,0,0,0,5,255,-1
481,1450,534,1460,Métropole,O,0,0,1,0,0,0,1,0,0,0,0,0,0,5,256,-1
539,1454,542,1456,-,O,0,1,0,0,0,0,0,1,0,0,0,0,0,4,257,-1
546,1449,558,1458,N°,O,0,0,1,1,0,0,0,0,0,0,0,0,0,5,258,-1
563,1450,586,1458,TVA,O,0,0,0,1,0,0,1,1,0,0,0,0,0,4,259,-1
590,1449,699,1458,Intracommunautaire,O,0,0,1,0,0,0,1,1,0,0,0,0,0,4,260,-1
703,1449,718,1457,FR,O,0,0,0,1,0,0,1,1,0,0,0,0,0,4,261,-1
722,1449,758,1457,23-491,O,0,0,0,0,0,0,0,1,1,0,0,0,0,6,262,-1
764,1449,782,1457,411,O,1,0,0,0,1,0,0,1,1,0,0,0,0,6,263,-1
788,1449,807,1457,542,O,1,0,0,0,1,0,0,1,1,0,0,0,0,0,-1,-1
1162,1223,1171,1235,2,O,1,0,0,0,1,0,0,1,1,0,0,0,0,0,-1,-1
