xmin,ymin,xmax,ymax,Object,label,like_num,is_punct,is_title,is_upper,is_digit,is_currency,is_alpha,is_ascii,hasNumbers,hascurrency,like_email,like_url,dh,dv,v_hor,v_vert
97,13,135,23,D-p750,O,0,0,0,0,0,0,0,1,1,0,0,0,109,30,1,7
165,14,169,26,1,O,1,0,0,0,1,0,0,1,1,0,0,0,106,890,2,8
1059,16,1107,26,18-344,O,0,0,0,0,0,0,0,1,1,0,0,0,0,0,-1,-1
195,36,436,66,NATIXIS,LOGO,0,0,0,1,0,0,1,1,0,0,0,0,13,0,-1,4
195,79,332,89,INTERTITRES,LOGO,0,0,0,1,0,0,1,1,0,0,0,0,14,0,-1,5
196,103,305,118,BEYOND,LOGO,0,0,0,1,0,0,1,1,0,0,0,0,14,10,6,8
315,103,436,118,BANKING,LOGO,0,0,0,1,0,0,1,1,0,0,0,0,97,0,-1,34
95,132,158,143,NATIXIS,COMPANY_NAME,0,0,0,1,0,0,1,1,0,0,0,0,5,7,8,9
165,132,268,143,INTERTITRES,COMPANY_NAME,0,0,0,1,0,0,1,1,0,0,0,0,5,0,-1,12
95,148,114,158,Dir,O,0,0,1,0,0,0,1,1,0,0,0,0,7,12,10,14
126,148,187,158,Relations,O,0,0,1,0,0,0,1,1,0,0,0,0,7,5,11,14
192,151,203,158,et,O,0,0,0,0,0,0,1,1,0,0,0,0,7,6,12,16
209,148,264,159,Services,O,0,0,1,0,0,0,1,1,0,0,0,0,6,5,13,16
269,148,315,158,Clients,O,0,0,1,0,0,0,1,1,0,0,0,0,7,0,-1,18
96,165,159,178,Héliopéle,COMPANY_ADDRESS,0,0,1,0,0,0,1,0,0,0,0,0,4,5,15,20
164,165,179,175,de,COMPANY_ADDRESS,0,0,0,0,0,0,1,1,0,0,0,0,23,5,16,27
184,165,243,176,Gramont,COMPANY_ADDRESS,0,0,1,0,0,0,1,1,0,0,0,0,5,5,17,21
248,171,253,172,-,COMPANY_ADDRESS,0,1,0,0,0,0,0,1,0,0,0,0,9,5,18,22
258,165,279,175,Bât,COMPANY_ADDRESS,0,0,1,0,0,0,1,0,0,0,0,0,6,6,19,22
285,165,296,175,D,COMPANY_ADDRESS,0,0,1,1,0,0,1,1,0,0,0,0,6,0,-1,22
95,182,135,192,31132,COMPANY_ADDRESS,1,0,0,0,1,0,0,1,1,0,0,0,6,41,21,27
176,181,234,192,BALMA,COMPANY_ADDRESS,0,0,0,1,0,0,1,1,0,0,0,0,6,5,22,27
239,181,293,192,CEDEX,COMPANY_ADDRESS,0,0,0,1,0,0,1,1,0,0,0,0,6,266,23,27
559,170,651,188,Votrer,O,0,0,1,0,0,0,1,1,0,0,0,0,0,38,24,-1
689,175,756,188,rence,O,0,0,0,0,0,0,1,1,0,0,0,0,53,9,25,37
765,170,833,187,client,O,0,0,0,0,0,0,1,1,0,0,0,0,54,44,26,39
877,170,980,188,3096286,O,1,0,0,0,1,0,0,1,1,0,0,0,52,0,-1,41
95,198,281,212,service.clients@natixis.com,O,0,0,0,0,0,0,0,1,0,0,1,0,-6,0,-1,29
96,215,133,225,IBAN,O,0,0,0,1,0,0,1,1,0,0,0,0,19,3,29,42
136,206,144,234,:,O,0,1,0,0,0,0,0,1,0,0,0,0,10,8,30,42
152,215,188,225,FR76,O,0,0,0,1,0,0,0,1,1,0,0,0,19,5,31,42
193,215,226,225,3000,O,1,0,0,0,1,0,0,1,1,0,0,0,19,6,32,42
232,215,263,225,7000,O,1,0,0,0,1,0,0,1,1,0,0,0,19,8,33,44
271,215,301,225,1100,O,1,0,0,0,1,0,0,1,1,0,0,0,19,5,34,44
306,215,338,225,0215,O,1,0,0,0,1,0,0,1,1,0,0,0,19,5,35,46
343,215,375,225,0146,O,1,0,0,0,1,0,0,1,1,0,0,0,19,6,36,46
381,215,404,225,533,O,1,0,0,0,1,0,0,1,1,0,0,0,0,0,-1,-1
652,241,717,253,Adresse,O,0,0,1,0,0,0,1,1,0,0,0,0,23,6,38,48
723,241,741,253,de,O,0,0,0,0,0,0,1,1,0,0,0,0,43,6,39,53
747,241,838,253,facturation,O,0,0,0,0,0,0,1,1,0,0,0,0,43,8,40,53
846,244,849,252,:,O,0,1,0,0,0,0,0,1,0,0,0,0,44,11,41,54
860,240,926,252,3285281,O,1,0,0,0,1,0,0,1,1,0,0,0,183,0,-1,69
112,244,207,256,Commande,O,0,0,1,0,0,0,1,1,0,0,0,0,21,6,43,47
213,244,233,256,du,O,0,0,0,0,0,0,1,1,0,0,0,0,42,7,44,50
240,244,284,256,client,O,0,0,0,0,0,0,1,1,0,0,0,0,42,8,45,50
292,248,295,256,:,O,0,1,0,0,0,0,0,1,0,0,0,0,42,7,46,51
302,244,369,256,3096286,O,1,0,0,0,1,0,0,1,1,0,0,0,42,283,37,51
112,277,158,289,ADBI,CLIENT_NAME,0,0,0,1,0,0,1,1,0,0,0,0,9,492,48,49
650,276,696,287,ADBI,CLIENT_NAME,0,0,0,1,0,0,1,1,0,0,0,0,10,0,-1,52
112,298,151,310,Mme,O,0,0,1,0,0,0,1,1,0,0,0,0,31,7,50,58
158,298,277,310,BELHADDAD,O,0,0,0,1,0,0,1,1,0,0,0,0,31,7,51,60
284,298,354,310,RAZIKA,O,0,0,0,1,0,0,1,1,0,0,0,0,0,296,52,-1
650,297,673,308,Mr,O,0,0,1,0,0,0,1,1,0,0,0,0,32,5,53,55
678,296,811,308,OUGUENOUNE,O,0,0,0,1,0,0,1,1,0,0,0,0,31,8,54,57
819,296,869,308,AHCE,O,0,0,0,1,0,0,1,1,0,0,0,0,127,0,-1,69
650,340,658,352,8,COMPANY_ADDRESS,1,0,0,0,1,0,0,1,1,0,0,0,31,7,56,63
665,340,701,352,RUE,COMPANY_ADDRESS,0,0,0,1,0,0,1,1,0,0,0,0,31,8,57,63
709,339,781,352,ROSSINI,COMPANY_ADDRESS,0,0,0,1,0,0,1,1,0,0,0,0,31,0,-1,64
112,341,119,353,8,CLIENT_ADDRESS,1,0,0,0,1,0,0,1,1,0,0,0,31,7,59,61
126,341,163,353,RUE,CLIENT_ADDRESS,0,0,0,1,0,0,1,1,0,0,0,0,31,7,60,61
170,341,244,353,ROSSINI,CLIENT_ADDRESS,0,0,0,1,0,0,1,1,0,0,0,0,31,406,55,62
112,384,159,397,75009,CLIENT_ADDRESS,1,0,0,0,1,0,0,1,1,0,0,0,121,29,62,73
188,384,242,397,PARIS,CLIENT_ADDRESS,0,0,0,1,0,0,1,1,0,0,0,0,121,408,63,74
650,383,697,395,75009,COMPANY_ADDRESS,1,0,0,0,1,0,0,1,1,0,0,0,41,44,64,67
741,383,794,395,PARIS,COMPANY_ADDRESS,0,0,0,1,0,0,1,1,0,0,0,0,40,0,-1,69
339,437,480,455,FACTURE,O,0,0,0,1,0,0,1,1,0,0,0,0,85,17,66,81
497,436,529,454,N°,O,0,0,1,1,0,0,0,0,0,0,0,0,0,19,67,-1
548,436,692,454,1910050210,NUMBER,1,0,0,0,1,0,0,1,1,0,0,0,22,15,68,70
707,436,739,474,ou,O,0,0,0,0,0,0,1,1,0,0,0,0,74,18,69,84
757,435,891,454,01/02/2019,DATE,0,0,0,0,0,0,0,1,1,0,0,0,94,0,-1,86
573,476,653,500,Apetiz,O,0,0,1,0,0,0,1,1,0,0,0,0,0,373,71,-1
1026,481,1062,496,Page,O,0,0,1,0,0,0,1,1,0,0,0,0,51,8,72,82
1070,480,1101,492,3/3,O,1,0,0,0,0,0,0,1,1,0,0,0,55,0,-1,83
96,518,126,530,Vos,O,0,0,1,0,0,0,1,1,0,0,0,0,10,6,74,76
132,518,216,530,références,O,0,0,0,0,0,0,1,0,0,0,0,0,10,7,75,76
223,521,227,530,:,O,0,1,0,0,0,0,0,1,0,0,0,0,10,0,-1,78
96,540,191,553,Commande,O,0,0,1,0,0,0,1,1,0,0,0,0,10,6,77,88
197,544,201,552,:,O,0,1,0,0,0,0,0,1,0,0,0,0,11,7,78,90
208,540,229,552,N°,O,0,0,1,1,0,0,0,0,0,0,0,0,11,6,79,90
235,540,312,552,22671222,O,1,0,0,0,1,0,0,1,1,0,0,0,10,6,80,91
318,540,338,552,du,O,0,0,0,0,0,0,1,1,0,0,0,0,14,7,81,93
345,540,432,552,01/02/2019,O,0,0,0,0,0,0,0,1,1,0,0,0,11,0,-1,94
1057,547,1065,559,7,O,1,0,0,0,1,0,0,1,1,0,0,0,55,6,83,98
1071,547,1124,561,"605,00",O,1,0,0,0,0,0,0,1,1,0,0,0,53,0,-1,98
704,548,761,563,Report,O,0,0,1,0,0,0,1,1,0,0,0,0,51,6,85,97
767,552,805,563,page,O,0,0,0,0,0,0,1,1,0,0,0,0,51,6,86,97
811,548,900,563,précédente,O,0,0,0,0,0,0,1,0,0,0,0,0,63,7,87,99
907,552,910,560,:,O,0,1,0,0,0,0,0,1,0,0,0,0,46,147,82,95
96,563,134,575,Date,O,0,0,1,0,0,0,1,1,0,0,0,0,40,5,89,96
139,563,158,574,de,O,0,0,0,0,0,0,1,1,0,0,0,0,41,6,90,96
164,563,235,575,livraison,O,0,0,0,0,0,0,1,1,0,0,0,0,40,7,91,96
242,562,298,578,prévue,O,0,0,0,0,0,0,1,0,0,0,0,0,82,6,92,103
304,563,317,574,le,O,0,0,0,0,0,0,1,1,0,0,0,0,86,6,93,104
323,566,327,574,:,O,0,1,0,0,0,0,0,1,0,0,0,0,86,7,94,104
334,563,421,574,01/02/2019,O,0,0,0,0,0,0,0,1,1,0,0,0,86,0,-1,105
879,606,935,617,Valeur,O,0,0,1,0,0,0,1,1,0,0,0,0,9,0,-1,99
99,615,193,631,Description,O,0,0,1,0,0,0,1,1,0,0,0,0,29,535,97,101
728,614,801,629,Quantité,O,0,0,1,0,0,0,1,0,0,0,0,0,30,237,98,111
1038,614,1117,626,Montants,O,0,0,1,0,0,0,1,1,0,0,0,0,33,0,-1,113
876,626,896,638,du,O,0,0,0,0,0,0,1,1,0,0,0,0,0,6,100,-1
902,626,937,638,titre,O,0,0,0,0,0,0,1,1,0,0,0,0,0,0,-1,-1
154,660,201,670,274161,O,1,0,0,0,1,0,0,1,1,0,0,0,24,8,102,115
209,666,213,667,-,O,0,1,0,0,0,0,0,1,0,0,0,0,26,6,103,116
219,660,288,670,DIEMADI,O,0,0,0,1,0,0,1,1,0,0,0,0,23,6,104,117
294,660,352,670,ZOHEIR,O,0,0,0,1,0,0,1,1,0,0,0,0,112,5,105,129
357,660,372,670,du,O,0,0,0,0,0,0,1,1,0,0,0,0,0,6,106,-1
378,660,395,670,N°,O,0,0,1,1,0,0,0,0,0,0,0,0,0,5,107,-1
400,659,465,670,48328043,O,1,0,0,0,1,0,0,1,1,0,0,0,0,6,108,-1
471,663,485,670,au,O,0,0,0,0,0,0,1,1,0,0,0,0,0,6,109,-1
491,659,508,670,N°,O,0,0,1,1,0,0,0,0,0,0,0,0,0,5,110,-1
513,659,579,670,48328062,O,1,0,0,0,1,0,0,1,1,0,0,0,0,201,111,-1
780,659,795,669,20,O,1,0,0,0,1,0,0,1,1,0,0,0,0,146,112,-1
941,659,969,669,"9,00",O,1,0,0,0,0,0,0,1,1,0,0,0,0,129,113,-1
1098,659,1142,671,"180,00",O,1,0,0,0,0,0,0,1,1,0,0,0,21,0,-1,119
112,694,143,704,Sous,O,0,0,1,0,0,0,1,1,0,0,0,0,41,26,115,120
169,694,180,703,al,O,0,0,0,0,0,0,1,1,0,0,0,0,41,6,116,121
186,693,232,704,Cartes,O,0,0,1,0,0,0,1,1,0,0,0,0,40,6,117,121
238,693,282,707,Apetiz,O,0,0,1,0,0,0,1,1,0,0,0,0,37,802,118,122
1084,693,1091,703,7,O,1,0,0,0,1,0,0,1,1,0,0,0,40,6,119,124
1097,692,1142,705,"785,00",O,1,0,0,0,0,0,0,1,1,0,0,0,38,0,-1,125
110,745,169,754,Montant,O,0,0,1,0,0,0,1,1,0,0,0,0,28,5,121,126
174,744,210,754,Total,O,0,0,1,0,0,0,1,1,0,0,0,0,28,6,122,127
216,744,263,754,Cartes,O,0,0,1,0,0,0,1,1,0,0,0,0,28,4,123,127
267,744,312,757,Apetiz,O,0,0,1,0,0,0,1,1,0,0,0,0,25,772,124,128
1084,743,1091,753,7,O,1,0,0,0,1,0,0,1,1,0,0,0,55,5,125,135
1096,743,1142,755,"785,00",O,1,0,0,0,0,0,0,1,1,0,0,0,53,0,-1,135
109,782,187,792,Prestations,O,0,0,1,0,0,0,1,1,0,0,0,0,18,5,127,130
192,782,256,792,facturées,O,0,0,0,0,0,0,1,0,0,0,0,0,18,5,128,132
261,782,306,792,Cartes,O,0,0,1,0,0,0,1,1,0,0,0,0,18,5,129,133
311,782,348,795,Apeti:,O,0,0,1,0,0,0,0,1,0,0,0,0,44,0,-1,140
109,810,164,820,Création,O,0,0,1,0,0,0,1,0,0,0,0,0,16,6,131,136
170,810,184,820,de,O,0,0,0,0,0,0,1,1,0,0,0,0,16,5,132,137
189,810,255,823,compte(s),O,0,0,0,0,0,0,0,1,0,0,0,0,13,4,133,138
259,810,302,823,Apetiz,O,0,0,1,0,0,0,1,1,0,0,0,0,16,607,134,139
909,809,969,819,OFFERT,O,0,0,0,1,0,0,1,1,0,0,0,0,16,113,135,142
1082,808,1139,819,OFFERT,O,0,0,0,1,0,0,1,1,0,0,0,0,16,0,-1,143
110,836,140,846,Frais,O,0,0,1,0,0,0,1,1,0,0,0,0,16,6,137,144
146,836,205,846,mensuels,O,0,0,0,0,0,0,1,1,0,0,0,0,16,6,138,145
211,836,257,846,d'accès,O,0,0,0,0,0,0,0,0,0,0,0,0,16,6,139,146
263,839,277,846,au,O,0,0,0,0,0,0,1,1,0,0,0,0,16,5,140,146
282,839,327,846,service,O,0,0,0,0,0,0,1,1,0,0,0,0,42,452,141,153
779,835,794,845,44,O,1,0,0,0,1,0,0,1,1,0,0,0,0,138,142,-1
932,835,968,848,"68,64",O,1,0,0,0,0,0,0,1,1,0,0,0,13,137,143,147
1105,835,1141,847,"68,64",O,1,0,0,0,0,0,0,1,1,0,0,0,14,0,-1,148
109,862,148,872,Alerte,O,0,0,1,0,0,0,1,1,0,0,0,0,16,5,145,150
153,862,193,872,e-mail,O,0,0,0,0,0,0,0,1,0,0,0,0,16,7,146,150
200,862,292,875,"""Chargement""",O,0,0,1,0,0,0,0,1,0,0,0,0,13,617,147,152
909,861,968,871,OFFERT,O,0,0,0,1,0,0,1,1,0,0,0,0,16,114,148,149
1082,861,1142,871,OFFERT,O,0,0,0,1,0,0,1,1,0,0,0,0,15,0,-1,155
934,887,968,897,"12,00",O,1,0,0,0,0,0,0,1,1,0,0,0,16,139,155,161
110,888,192,901,Participation,O,0,0,1,0,0,0,1,1,0,0,0,0,12,6,151,156
198,891,221,898,aux,O,0,0,0,0,0,0,1,1,0,0,0,0,17,6,152,157
227,888,255,898,frais,O,0,0,0,0,0,0,1,1,0,0,0,0,15,5,153,158
260,888,305,898,d'envoi,O,0,0,0,0,0,0,0,1,0,0,0,0,15,6,154,158
311,888,337,900,(13),O,0,0,0,0,0,0,0,1,1,0,0,0,13,597,149,159
1107,886,1142,899,"12,00",O,1,0,0,0,0,0,0,1,1,0,0,0,13,0,-1,162
110,913,183,924,Fabrication,O,0,0,1,0,0,0,1,1,0,0,0,0,15,5,157,163
188,915,219,924,carte,O,0,0,0,0,0,0,1,1,0,0,0,0,15,6,158,164
225,913,298,926,nouveau(x),O,0,0,0,0,0,0,0,1,0,0,0,0,13,5,159,164
303,913,396,926,bénéficiaire(s),O,0,0,0,0,0,0,0,0,0,0,0,0,13,5,160,166
401,913,445,924,4C-SC,O,0,0,0,1,0,0,0,1,1,0,0,0,15,464,161,168
909,913,969,923,OFFERT,O,0,0,0,1,0,0,1,1,0,0,0,0,16,113,162,169
1082,912,1142,922,OFFERT,O,0,0,0,1,0,0,1,1,0,0,0,0,16,0,-1,170
110,939,197,950,Refabrication,O,0,0,1,0,0,0,1,1,0,0,0,0,16,6,164,171
203,939,252,952,carte(s),O,0,0,0,0,0,0,0,1,0,0,0,0,14,5,165,173
257,939,293,950,codes,O,0,0,0,0,0,0,1,1,0,0,0,0,15,5,166,174
298,939,328,950,conf.,O,0,0,0,0,0,0,0,1,0,0,0,0,15,8,167,176
336,939,363,950,faux,O,0,0,0,0,0,0,1,1,0,0,0,0,15,5,168,176
368,939,423,952,(4C-SC),O,0,0,0,1,0,0,0,1,1,0,0,0,13,486,169,177
909,939,965,949,OFFERT,O,0,0,0,1,0,0,1,1,0,0,0,0,16,116,170,178
1081,938,1141,948,OFFERT,O,0,0,0,1,0,0,1,1,0,0,0,0,16,0,-1,179
109,966,189,977,Réédition(s),O,0,0,0,0,0,0,0,0,0,0,0,0,15,5,172,180
194,966,209,976,de,O,0,0,0,0,0,0,1,1,0,0,0,0,16,5,173,181
214,966,245,976,code,O,0,0,0,0,0,0,1,1,0,0,0,0,16,5,174,182
250,965,286,979,perdu,O,0,0,0,0,0,0,1,1,0,0,0,0,13,5,175,182
291,968,306,976,ou,O,0,0,0,0,0,0,1,1,0,0,0,0,16,6,176,183
312,965,351,976,oublié,O,0,0,0,0,0,0,1,0,0,0,0,0,16,6,177,183
357,965,411,978,(4C-SC),O,0,0,0,1,0,0,0,1,1,0,0,0,14,498,178,184
909,965,968,975,OFFERT,O,0,0,0,1,0,0,1,1,0,0,0,0,0,113,179,-1
1081,964,1141,975,OFFERT,O,0,0,0,1,0,0,1,1,0,0,0,0,15,0,-1,185
109,992,178,1002,Sous-total,O,0,0,0,0,0,0,0,1,0,0,0,0,47,6,181,186
184,992,206,1002,des,O,0,0,0,0,0,0,1,1,0,0,0,0,47,5,182,186
211,992,288,1005,prestations,O,0,0,0,0,0,0,1,1,0,0,0,0,44,5,183,187
293,992,338,1002,Cartes,O,0,0,1,0,0,0,1,1,0,0,0,0,47,5,184,190
343,992,388,1005,Apetiz,O,0,0,1,0,0,0,1,1,0,0,0,0,0,717,185,-1
1105,990,1142,1003,"80,64",O,1,0,0,0,0,0,0,1,1,0,0,0,0,0,-1,-1
145,1049,201,1060,Nombre,O,0,0,1,0,0,0,1,1,0,0,0,0,0,6,187,-1
207,1049,238,1060,total,O,0,0,0,0,0,0,1,1,0,0,0,0,0,5,188,-1
243,1049,259,1059,de,O,0,0,0,0,0,0,1,1,0,0,0,0,0,5,189,-1
264,1049,299,1059,titres,O,0,0,0,0,0,0,1,1,0,0,0,0,0,6,190,-1
305,1049,360,1059,facturés,O,0,0,0,0,0,0,1,0,0,0,0,0,0,411,191,-1
771,1049,795,1059,865,O,1,0,0,0,1,0,0,1,1,0,0,0,0,0,-1,-1
22,1118,53,1126,is,O,0,0,0,0,0,0,1,1,0,0,0,0,18,0,-1,214
35,1094,44,1112,Intertires,O,0,0,1,0,0,0,1,1,0,0,0,0,6,0,-1,192
36,1017,47,1080,s'engage,O,0,0,0,0,0,0,0,1,0,0,0,0,14,98,186,193
35,979,46,1013,pour,O,0,0,0,0,0,0,1,1,0,0,0,0,4,63,180,194
22,978,53,987,la,O,0,0,0,0,0,0,1,1,0,0,0,0,-8,-18,195,195
35,938,46,974,planète.,O,0,0,0,0,0,0,0,0,0,0,0,0,4,63,171,196
34,917,44,930,Ce,O,0,0,1,0,0,0,1,1,0,0,0,0,8,66,156,197
34,864,44,913,document,O,0,0,0,0,0,0,1,1,0,0,0,0,4,65,144,198
35,846,44,860,est,O,0,0,0,0,0,0,1,1,0,0,0,0,4,0,-1,199
36,801,46,841,imprimé,O,0,0,0,0,0,0,1,0,0,0,0,0,5,63,130,200
36,782,44,797,sur,O,0,0,0,0,0,0,1,1,0,0,0,0,4,65,126,201
36,747,46,778,papier,O,0,0,0,0,0,0,1,1,0,0,0,0,4,64,120,202
34,710,46,742,Cyclus,O,0,0,1,0,0,0,1,1,0,0,0,0,5,0,-1,203
34,681,43,703,100%,O,0,0,0,0,0,0,0,1,1,0,0,0,7,69,114,204
34,638,46,673,"recyclé,",O,0,0,0,0,0,0,0,0,0,0,0,0,8,108,101,205
34,568,46,593,Ange,O,0,0,1,0,0,0,1,1,0,0,0,0,45,50,88,206
34,544,43,563,bleu,O,0,0,0,0,0,0,1,1,0,0,0,0,5,53,76,207
34,531,43,539,et,O,0,0,0,0,0,0,1,1,0,0,0,0,5,0,-1,208
33,507,43,526,Eco,O,0,0,1,0,0,0,1,1,0,0,0,0,5,53,73,209
34,429,46,475,européen,O,0,0,0,0,0,0,1,0,0,0,0,0,32,293,65,210
34,416,45,424,(n°,O,0,0,0,0,0,0,0,0,0,0,0,0,5,0,-1,211
33,383,43,406,DK/1,O,0,0,0,1,0,0,0,1,1,0,0,0,10,69,61,212
35,1144,44,1150,Ni,O,0,0,1,0,0,0,1,1,0,0,0,0,0,0,-1,-1
456,1212,508,1226,Total,O,0,0,1,0,0,0,1,1,0,0,0,0,7,7,216,222
515,1215,551,1225,non,O,0,0,0,0,0,0,1,1,0,0,0,0,8,8,217,223
559,1211,624,1225,soumis,O,0,0,0,0,0,0,1,1,0,0,0,0,8,8,218,224
632,1211,642,1225,à,O,0,0,0,0,0,0,1,0,0,0,0,0,8,7,219,225
649,1211,713,1225,T.V.A.,O,0,0,1,1,0,0,0,1,0,0,0,0,79,265,220,250
978,1206,1060,1232,"7.785,00",O,1,0,0,0,0,0,0,1,1,0,0,0,0,8,221,226
1068,1211,1115,1225,EUR,O,0,0,0,1,0,0,1,1,0,0,0,0,7,0,-1,227
456,1233,508,1247,Total,O,0,0,1,0,0,0,1,1,0,0,0,0,8,7,223,228
515,1233,582,1247,soumis,O,0,0,0,0,0,0,1,1,0,0,0,0,7,7,224,229
589,1233,599,1247,à,O,0,0,0,0,0,0,1,0,0,0,0,0,57,7,225,249
606,1233,670,1247,T.V.A.,O,0,0,1,1,0,0,0,1,0,0,0,0,57,339,226,249
1009,1232,1060,1250,"67,20",O,1,0,0,0,0,0,0,1,1,0,0,0,4,7,227,231
1067,1232,1115,1246,EUR,O,0,0,0,1,0,0,1,1,0,0,0,0,8,0,-1,232
456,1255,521,1269,T.V.A.,O,0,0,1,1,0,0,0,1,0,0,0,0,8,9,229,233
530,1254,540,1268,à,O,0,0,0,0,0,0,1,0,0,0,0,0,8,7,230,234
547,1255,591,1269,20%,O,0,0,0,0,0,0,0,1,1,0,0,0,7,419,231,234
1010,1254,1060,1272,"13,44",O,1,0,0,0,0,0,0,1,1,0,0,0,4,7,232,236
1067,1254,1115,1268,EUR,O,0,0,0,1,0,0,1,1,0,0,0,0,8,0,-1,237
457,1277,508,1290,Total,O,0,0,1,0,0,0,1,1,0,0,0,0,14,7,234,246
515,1276,593,1290,Général,O,0,0,1,0,0,0,1,0,0,0,0,0,14,386,235,247
979,1276,990,1290,7,TOTAL,1,0,0,0,1,0,0,1,1,0,0,0,94,7,236,299
997,1276,1060,1293,"865,64",TOTAL,1,0,0,0,0,0,0,1,1,0,0,0,90,7,237,300
1067,1276,1116,1290,EUR,O,0,0,0,1,0,0,1,1,0,0,0,0,94,0,-1,302
68,1304,113,1316,Mode,O,0,0,1,0,0,0,1,1,0,0,0,0,8,6,239,257
119,1304,136,1316,de,O,0,0,0,0,0,0,1,1,0,0,0,0,8,5,240,257
141,1304,222,1320,règlement,O,0,0,0,0,0,0,1,0,0,0,0,0,4,5,241,257
227,1308,232,1316,:,O,0,1,0,0,0,0,0,1,0,0,0,0,8,6,242,258
238,1304,337,1316,Prélèvement,O,0,0,1,0,0,0,1,0,0,0,0,0,8,4,243,258
341,1308,366,1316,sur,O,0,0,0,0,0,0,1,1,0,0,0,0,8,5,244,260
371,1304,385,1316,le,O,0,0,0,0,0,0,1,1,0,0,0,0,8,5,245,260
390,1306,447,1319,compte,O,0,0,0,0,0,0,1,1,0,0,0,0,5,6,246,260
453,1304,497,1316,FR76,O,0,0,0,1,0,0,0,1,1,0,0,0,8,6,247,261
503,1304,542,1316,3006,O,1,0,0,0,1,0,0,1,1,0,0,0,27,6,248,269
548,1304,587,1316,6109,O,1,0,0,0,1,0,0,1,1,0,0,0,69,4,249,288
591,1304,630,1316,3400,O,1,0,0,0,1,0,0,1,1,0,0,0,68,6,250,290
636,1304,672,1316,0201,O,1,0,0,0,1,0,0,1,1,0,0,0,70,8,251,291
680,1304,718,1316,0560,O,1,0,0,0,1,0,0,1,1,0,0,0,68,6,252,293
724,1304,751,1315,113,O,1,0,0,0,1,0,0,1,1,0,0,0,70,6,253,294
757,1304,766,1315,à,O,0,0,0,0,0,0,1,0,0,0,0,0,70,6,254,294
772,1305,836,1319,compter,O,0,0,0,0,0,0,1,1,0,0,0,0,65,5,255,295
841,1303,861,1315,du,O,0,0,0,0,0,0,1,1,0,0,0,0,69,6,256,296
867,1303,956,1315,06/02/2019,O,0,0,0,0,0,0,0,1,1,0,0,0,69,0,-1,297
69,1324,176,1336,Informations,O,0,0,1,0,0,0,1,1,0,0,0,0,7,7,258,264
183,1324,291,1336,caractérisant,O,0,0,0,0,0,0,1,0,0,0,0,0,7,6,259,265
297,1328,322,1336,vos,O,0,0,0,0,0,0,1,1,0,0,0,0,7,7,260,266
329,1324,436,1340,prélèvements,O,0,0,0,0,0,0,1,0,0,0,0,0,3,7,261,267
443,1324,491,1336,SEPA,O,0,0,0,1,0,0,1,1,0,0,0,0,7,7,262,269
498,1327,502,1335,:,O,0,1,0,0,0,0,0,1,0,0,0,0,8,0,-1,269
123,1350,127,1352,-,O,0,1,0,0,0,0,0,1,0,0,0,0,17,7,264,270
134,1343,213,1355,Identifiant,O,0,0,1,0,0,0,1,1,0,0,0,0,7,7,265,271
220,1343,294,1355,Créancier,O,0,0,1,0,0,0,1,0,0,0,0,0,7,6,266,272
300,1343,345,1355,SEPA,O,0,0,0,1,0,0,1,1,0,0,0,0,7,6,267,274
351,1343,393,1358,(ICS),O,0,0,0,1,0,0,0,1,0,0,0,0,4,7,268,275
400,1347,402,1355,:,O,0,1,0,0,0,0,0,1,0,0,0,0,7,8,269,275
410,1343,546,1355,FR91ZZ7194409,O,0,0,0,1,0,0,0,1,1,0,0,0,7,0,-1,277
123,1369,128,1371,-,O,0,1,0,0,0,0,0,1,0,0,0,0,14,6,271,279
134,1362,212,1374,Référence,O,0,0,1,0,0,0,1,0,0,0,0,0,10,6,272,280
218,1362,275,1378,Unique,O,0,0,1,0,0,0,1,1,0,0,0,0,6,5,273,282
280,1362,298,1374,de,O,0,0,0,0,0,0,1,1,0,0,0,0,10,5,274,282
303,1362,361,1374,Mandat,O,0,0,1,0,0,0,1,1,0,0,0,0,0,5,275,283
366,1362,423,1377,(RUM),O,0,0,0,1,0,0,0,1,0,0,0,0,7,7,276,284
430,1372,432,1374,:,O,0,1,0,0,0,0,0,1,0,0,0,0,10,7,277,286
439,1362,536,1374,3096286002,O,1,0,0,0,1,0,0,1,1,0,0,0,10,0,-1,286
70,1385,120,1393,CLAUSE,O,0,0,0,1,0,0,1,1,0,0,0,0,7,5,279,303
125,1385,141,1393,DE,O,0,0,0,1,0,0,1,1,0,0,0,0,7,5,280,304
146,1384,206,1393,RESERVE,O,0,0,0,1,0,0,1,1,0,0,0,0,7,5,281,304
211,1385,228,1393,DE,O,0,0,0,1,0,0,1,1,0,0,0,0,20,5,282,310
233,1384,305,1393,PROPRIETE,O,0,0,0,1,0,0,1,1,0,0,0,0,20,1,283,311
306,1374,311,1402,:,O,0,1,0,0,0,0,0,1,0,0,0,0,13,5,284,314
316,1384,397,1393,conformément,O,0,0,0,0,0,0,1,0,0,0,0,0,20,4,285,315
401,1386,420,1393,aux,O,0,0,0,0,0,0,1,1,0,0,0,0,22,5,286,316
425,1384,484,1393,Conditions,O,0,0,1,0,0,0,1,1,0,0,0,0,19,5,287,317
489,1384,544,1395,générales,O,0,0,0,0,0,0,1,0,0,0,0,0,18,5,288,319
549,1385,562,1392,de,O,0,0,0,0,0,0,1,1,0,0,0,0,21,5,289,321
567,1385,596,1392,"vente,",O,0,0,0,0,0,0,0,1,0,0,0,0,21,9,290,321
605,1384,641,1393,Natixis,O,0,0,1,0,0,0,1,1,0,0,0,0,19,5,291,323
646,1386,658,1393,se,O,0,0,0,0,0,0,1,1,0,0,0,0,20,4,292,324
662,1386,704,1392,réserve,O,0,0,0,0,0,0,1,0,0,0,0,0,20,4,293,325
708,1384,717,1392,la,O,0,0,0,0,0,0,1,1,0,0,0,0,21,4,294,327
721,1385,771,1394,propriété,O,0,0,0,0,0,0,1,0,0,0,0,0,19,4,295,328
775,1384,794,1392,des,O,0,0,0,0,0,0,1,1,0,0,0,0,21,5,296,329
799,1384,878,1392,marchandises,O,0,0,0,0,0,0,1,1,0,0,0,0,20,4,297,330
882,1384,915,1394,objets,O,0,0,0,0,0,0,1,1,0,0,0,0,18,4,298,332
919,1384,938,1392,des,O,0,0,0,0,0,0,1,1,0,0,0,0,21,5,299,333
943,1384,991,1394,présents,O,0,0,0,0,0,0,1,0,0,0,0,0,18,4,300,334
995,1383,1029,1392,"débits,",O,0,0,0,0,0,0,0,0,0,0,0,0,22,7,301,336
1036,1383,1076,1394,jusqu'à,O,0,0,0,0,0,0,0,0,0,0,0,0,20,5,302,338
1081,1384,1102,1392,leur,O,0,0,0,0,0,0,1,1,0,0,0,0,20,0,-1,339
70,1400,122,1410,paiement,O,0,0,0,0,0,0,1,1,0,0,0,0,3,4,304,305
126,1400,166,1410,intégral,O,0,0,0,0,0,0,1,0,0,0,0,0,3,0,-1,308
70,1413,85,1421,En,O,0,0,1,0,0,0,1,1,0,0,0,0,5,4,306,340
89,1415,108,1421,cas,O,0,0,0,0,0,0,1,1,0,0,0,0,5,4,307,340
112,1413,126,1421,de,O,0,0,0,0,0,0,1,1,0,0,0,0,5,4,308,340
130,1413,162,1421,retard,O,0,0,0,0,0,0,1,1,0,0,0,0,5,4,309,341
166,1413,180,1421,de,O,0,0,0,0,0,0,1,1,0,0,0,0,5,4,310,341
184,1413,236,1423,"paiement,",O,0,0,0,0,0,0,0,1,0,0,0,0,3,8,311,343
244,1413,253,1421,le,O,0,0,0,0,0,0,1,1,0,0,0,0,5,4,312,344
257,1413,286,1421,client,O,0,0,0,0,0,0,1,1,0,0,0,0,5,4,313,345
290,1415,303,1421,se,O,0,0,0,0,0,0,1,1,0,0,0,0,5,4,314,345
307,1415,335,1421,verra,O,0,0,0,0,0,0,1,1,0,0,0,0,5,4,315,345
339,1413,391,1423,appliquer,O,0,0,0,0,0,0,1,1,0,0,0,0,3,4,316,346
395,1415,415,1421,une,O,0,0,0,0,0,0,1,1,0,0,0,0,5,5,317,347
420,1412,464,1423,pénalité,O,0,0,0,0,0,0,1,0,0,0,0,0,3,4,318,348
468,1413,481,1421,de,O,0,0,0,0,0,0,1,1,0,0,0,0,6,5,319,350
486,1413,518,1421,retard,O,0,0,0,0,0,0,1,1,0,0,0,0,18,4,320,364
522,1413,546,1421,d'un,O,0,0,0,0,0,0,0,1,0,0,0,0,18,4,321,364
550,1413,595,1421,montant,O,0,0,0,0,0,0,1,1,0,0,0,0,17,4,322,366
599,1413,622,1423,égal,O,0,0,0,0,0,0,1,0,0,0,0,0,15,5,323,369
627,1412,633,1421,à,O,0,0,0,0,0,0,1,0,0,0,0,0,17,4,324,369
637,1413,660,1421,trois,O,1,0,0,0,0,0,1,1,0,0,0,0,18,4,325,370
664,1412,683,1421,fois,O,0,0,0,0,0,0,1,1,0,0,0,0,18,4,326,370
687,1413,696,1420,le,O,0,0,0,0,0,0,1,1,0,0,0,0,18,5,327,371
701,1413,723,1421,taux,O,0,0,0,0,0,0,1,1,0,0,0,0,17,5,328,371
728,1413,772,1421,d'intérêt,O,0,0,0,0,0,0,0,0,0,0,0,0,19,4,329,372
776,1413,802,1423,"légal,",O,0,0,0,0,0,0,0,0,0,0,0,0,0,8,330,-1
810,1412,856,1421,calculée,O,0,0,0,0,0,0,1,0,0,0,0,0,0,5,331,-1
861,1414,878,1421,sur,O,0,0,0,0,0,0,1,1,0,0,0,0,0,4,332,-1
882,1412,891,1421,le,O,0,0,0,0,0,0,1,1,0,0,0,0,0,4,333,-1
895,1413,940,1421,montant,O,0,0,0,0,0,0,1,1,0,0,0,0,0,4,334,-1
944,1412,957,1421,de,O,0,0,0,0,0,0,1,1,0,0,0,0,0,5,335,-1
962,1412,970,1421,la,O,0,0,0,0,0,0,1,1,0,0,0,0,0,5,336,-1
975,1414,1017,1421,somme,O,0,0,0,0,0,0,1,1,0,0,0,0,0,4,337,-1
1021,1413,1044,1422,"due,",O,0,0,0,0,0,0,0,1,0,0,0,0,0,5,338,-1
1049,1414,1075,1421,ainsi,O,0,0,0,0,0,0,1,1,0,0,0,0,0,4,339,-1
1079,1412,1116,1422,qu'une,O,0,0,0,0,0,0,0,1,0,0,0,0,0,0,-1,-1
70,1426,124,1434,indemnité,O,0,0,0,0,0,0,1,0,0,0,0,0,5,5,341,351
129,1426,181,1434,forfaitaire,O,0,0,0,0,0,0,1,1,0,0,0,0,-5,-13,353,353
185,1428,210,1436,pour,O,0,0,0,0,0,0,1,1,0,0,0,0,3,4,343,354
214,1426,238,1434,frais,O,0,0,0,0,0,0,1,1,0,0,0,0,5,4,344,354
242,1426,255,1434,de,O,0,0,0,0,0,0,1,1,0,0,0,0,20,5,345,378
260,1426,336,1434,recouvrement,O,0,0,0,0,0,0,1,1,0,0,0,0,-5,-33,357,357
340,1426,362,1434,d'un,O,0,0,0,0,0,0,0,1,0,0,0,0,5,5,347,359
367,1426,412,1434,montant,O,0,0,0,0,0,0,1,1,0,0,0,0,7,4,348,362
416,1426,429,1434,de,O,0,0,0,0,0,0,1,1,0,0,0,0,4,5,349,363
434,1426,447,1434,40,O,1,0,0,0,1,0,0,1,1,0,0,0,4,4,350,363
451,1427,482,1434,euros.,O,0,0,0,0,0,0,0,1,0,0,0,0,4,0,-1,363
70,1439,108,1447,Natixis,O,0,0,1,0,0,0,1,1,0,0,0,0,7,5,352,373
113,1439,164,1447,Intertires,O,0,0,1,0,0,0,1,1,0,0,0,0,9,4,353,374
168,1429,174,1457,-,O,0,1,0,0,0,0,0,1,0,0,0,0,14,2,354,399
176,1439,229,1449,Héliopôle,O,0,0,1,0,0,0,1,0,0,0,0,0,5,4,355,376
233,1439,247,1448,de,O,0,0,0,0,0,0,1,1,0,0,0,0,7,4,356,377
251,1439,299,1447,Gramont,O,0,0,1,0,0,0,1,1,0,0,0,0,7,4,357,378
303,1429,309,1457,-,O,0,1,0,0,0,0,0,1,0,0,0,0,-1,2,358,380
311,1439,329,1447,Bat.,O,0,0,1,0,0,0,0,1,0,0,0,0,9,8,359,380
337,1439,345,1447,D,O,0,0,1,1,0,0,1,1,0,0,0,0,0,5,360,-1
350,1443,352,1445,-,O,0,1,0,0,0,0,0,1,0,0,0,0,9,5,361,381
357,1438,373,1448,"33,",O,1,0,0,0,0,0,0,1,1,0,0,0,6,4,362,381
377,1441,418,1447,avenue,O,0,0,0,0,0,0,1,1,0,0,0,0,7,5,363,382
423,1438,470,1449,Georges,O,0,0,1,0,0,0,1,1,0,0,0,0,5,5,364,384
475,1439,532,1449,Pompidou,O,0,0,1,0,0,0,1,1,0,0,0,0,5,5,365,386
537,1443,540,1444,-,O,0,1,0,0,0,0,0,1,0,0,0,0,10,4,366,388
544,1438,560,1447,BP,O,0,0,0,1,0,0,1,1,0,0,0,0,-3,5,367,389
565,1438,599,1447,63254,O,1,0,0,0,1,0,0,1,1,0,0,0,7,5,368,390
604,1443,607,1444,-,O,0,1,0,0,0,0,0,1,0,0,0,0,10,5,369,392
612,1438,645,1447,31132,O,1,0,0,0,1,0,0,1,1,0,0,0,7,5,370,392
650,1439,685,1447,Balma,O,0,0,1,0,0,0,1,1,0,0,0,0,7,4,371,394
689,1438,724,1447,Cedex,O,0,0,1,0,0,0,1,1,0,0,0,0,0,5,372,-1
729,1440,768,1447,France,O,0,0,1,0,0,0,1,1,0,0,0,0,0,0,-1,-1
70,1454,112,1463,Société,O,0,0,1,0,0,0,1,0,0,0,0,0,6,4,374,395
116,1456,167,1464,anonyme,O,0,0,0,0,0,0,1,1,0,0,0,0,-5,-24,397,397
172,1456,185,1463,au,O,0,0,0,0,0,0,1,1,0,0,0,0,8,4,376,399
189,1454,226,1464,capital,O,0,0,0,0,0,0,1,1,0,0,0,0,7,4,377,399
230,1455,244,1463,de,O,0,0,0,0,0,0,1,1,0,0,0,0,6,4,378,400
248,1454,269,1462,280,O,1,0,0,0,1,0,0,1,1,0,0,0,7,4,379,401
273,1454,293,1463,800,O,1,0,0,0,1,0,0,1,1,0,0,0,6,4,380,401
297,1456,328,1463,euros.,O,0,0,0,0,0,0,0,1,0,0,0,0,6,21,381,402
349,1454,378,1463,IREN,O,0,0,0,1,0,0,1,1,0,0,0,0,6,4,382,403
382,1454,403,1463,718,O,1,0,0,0,1,0,0,1,1,0,0,0,6,4,383,404
407,1454,427,1463,503,O,1,0,0,0,1,0,0,1,1,0,0,0,6,5,384,404
432,1454,452,1462,386,O,1,0,0,0,1,0,0,1,1,0,0,0,7,5,385,405
457,1454,482,1462,RCS,O,0,0,0,1,0,0,1,1,0,0,0,0,0,5,386,-1
487,1454,515,1462,Paris,O,0,0,1,0,0,0,1,1,0,0,0,0,0,5,387,-1
520,1459,523,1460,-,O,0,1,0,0,0,0,0,1,0,0,0,0,0,4,388,-1
527,1454,552,1462,TVA,O,0,0,0,1,0,0,1,1,0,0,0,0,0,3,389,-1
555,1444,560,1472,.,O,0,1,0,0,0,0,0,1,0,0,0,0,0,3,390,-1
563,1454,579,1462,FR,O,0,0,0,1,0,0,1,1,0,0,0,0,0,5,391,-1
584,1454,596,1462,32,O,1,0,0,0,1,0,0,1,1,0,0,0,0,6,392,-1
602,1454,621,1462,718,O,1,0,0,0,1,0,0,1,1,0,0,0,0,5,393,-1
626,1454,646,1462,503,O,1,0,0,0,1,0,0,1,1,0,0,0,0,4,394,-1
650,1454,670,1462,386,O,1,0,0,0,1,0,0,1,1,0,0,0,0,0,-1,-1
70,1469,102,1480,Siège,O,0,0,1,0,0,0,1,0,0,0,0,0,0,4,396,-1
106,1470,138,1478,social,O,0,0,0,0,0,0,1,1,0,0,0,0,0,5,397,-1
143,1459,146,1487,:,O,0,1,0,0,0,0,0,1,0,0,0,0,0,3,398,-1
149,1469,166,1478,"30,",O,1,0,0,0,0,0,0,1,1,0,0,0,0,4,399,-1
170,1471,211,1478,avenue,O,0,0,0,0,0,0,1,1,0,0,0,0,0,5,400,-1
216,1469,249,1478,Pierre,O,0,0,1,0,0,0,1,1,0,0,0,0,0,5,401,-1
254,1469,298,1478,Mendès,O,0,0,1,0,0,0,1,0,0,0,0,0,0,4,402,-1
302,1469,320,1478,Frat,O,0,0,1,0,0,0,1,1,0,0,0,0,0,33,403,-1
353,1469,387,1478,75013,O,1,0,0,0,1,0,0,1,1,0,0,0,0,5,404,-1
392,1469,419,1478,Paris,O,0,0,1,0,0,0,1,1,0,0,0,0,0,5,405,-1
424,1469,463,1478,France,O,0,0,1,0,0,0,1,1,0,0,0,0,0,0,-1,-1
