xmin,ymin,xmax,ymax,Object,label,like_num,is_punct,is_title,is_upper,is_digit,is_currency,is_alpha,is_ascii,hasNumbers,hascurrency,like_email,like_url,dh,dv,v_hor,v_vert
703,38,773,67,=>,O,0,0,0,0,0,0,0,1,0,0,0,0,-4,0,-1,4
634,63,654,85,e,LOGO,0,0,0,0,0,0,1,1,0,0,0,0,0,3,4,-1
497,53,608,94,bouyg,LOGO,0,0,0,0,0,0,1,1,0,0,0,0,136,5,3,16
613,89,623,95,ve,LOGO,0,0,0,0,0,0,1,1,0,0,0,0,0,34,4,-1
657,63,792,118,"""20",O,0,0,0,0,0,0,0,1,1,0,0,0,69,0,-1,5
773,187,800,199,Fin,O,0,0,1,0,0,0,1,1,0,0,0,0,9,8,6,8
808,187,943,203,d’engagement,O,0,0,0,0,0,0,0,0,0,0,0,0,4,8,7,9
951,190,953,199,:,O,0,1,0,0,0,0,0,1,0,0,0,0,31,0,-1,23
773,208,814,221,Date,O,0,0,1,0,0,0,1,1,0,0,0,0,9,7,9,20
821,207,878,221,échue,O,0,0,0,0,0,0,1,0,0,0,0,0,9,0,-1,21
81,230,178,242,Utilisateur,O,0,0,1,0,0,0,1,1,0,0,0,0,8,7,11,25
185,230,207,242,de,O,0,0,0,0,0,0,1,1,0,0,0,0,8,8,12,26
215,230,229,242,la,O,0,0,0,0,0,0,1,1,0,0,0,0,8,8,13,26
237,230,282,246,ligne,O,0,0,0,0,0,0,1,1,0,0,0,0,4,8,14,26
290,233,293,242,:,O,0,1,0,0,0,0,0,1,0,0,0,0,8,146,15,26
439,230,512,242,Numéro,O,0,0,1,0,0,0,1,0,0,0,0,0,9,8,16,27
520,230,541,242,de,O,0,0,0,0,0,0,1,1,0,0,0,0,9,9,17,30
550,230,564,242,la,O,0,0,0,0,0,0,1,1,0,0,0,0,9,8,18,31
572,230,616,246,ligne,O,0,0,0,0,0,0,1,1,0,0,0,0,0,9,19,-1
625,233,628,242,:,O,0,1,0,0,0,0,0,1,0,0,0,0,0,144,20,-1
772,230,843,242,Annexe,O,0,0,1,0,0,0,1,1,0,0,0,0,9,8,21,32
851,230,872,242,de,O,0,0,0,0,0,0,1,1,0,0,0,0,9,9,22,32
881,230,895,242,la,O,0,0,0,0,0,0,1,1,0,0,0,0,9,7,23,32
902,230,968,242,facture,O,0,0,0,0,0,0,1,1,0,0,0,0,42,8,24,34
976,233,979,242,:,O,0,1,0,0,0,0,0,1,0,0,0,0,42,0,-1,34
80,250,164,264,AHCENE,O,0,0,0,1,0,0,1,1,0,0,0,0,59,7,26,36
171,250,316,264,OUGUENOUNE,O,0,0,0,1,0,0,1,1,0,0,0,0,59,122,27,37
438,251,459,264,06,O,1,0,0,0,1,0,0,1,1,0,0,0,95,7,28,46
466,251,487,264,58,O,1,0,0,0,1,0,0,1,1,0,0,0,0,7,29,-1
494,251,515,264,20,O,1,0,0,0,1,0,0,1,1,0,0,0,0,7,30,-1
522,251,543,264,94,O,1,0,0,0,1,0,0,1,1,0,0,0,0,6,31,-1
549,251,571,264,93,O,1,0,0,0,1,0,0,1,1,0,0,0,0,202,32,-1
773,251,927,264,11276489710319,NUMBER,1,0,0,0,1,0,0,1,1,0,0,0,21,0,-1,33
862,285,911,297,TVA,O,0,0,0,1,0,0,1,1,0,0,0,0,115,39,34,60
950,284,989,297,€HT,O,0,0,0,1,0,0,0,0,0,1,0,0,31,33,35,40
1022,283,1099,300,€TTC(*),O,0,0,0,1,0,0,0,0,0,1,0,0,23,0,-1,41
73,323,112,337,Vos,O,0,0,1,0,0,0,1,1,0,0,0,0,22,8,37,42
120,323,207,337,services,O,0,0,0,0,0,0,1,1,0,0,0,0,22,9,38,43
216,323,320,341,Bouygues,O,0,0,1,0,0,0,1,1,0,0,0,0,18,8,39,43
328,323,416,337,Telecom,O,0,0,1,0,0,0,1,1,0,0,0,0,22,542,40,44
958,328,997,341,"34,74",O,1,0,0,0,0,0,0,1,1,0,0,0,71,48,41,61
1045,323,1099,339,"41,69",O,1,0,0,0,0,0,0,1,1,0,0,0,20,0,-1,47
85,359,124,373,Vos,O,0,0,1,0,0,0,1,1,0,0,0,0,22,8,43,48
132,359,280,376,"abonnements,",O,0,0,0,0,0,0,0,1,0,0,0,0,18,8,44,51
288,359,361,373,forfaits,O,0,0,0,0,0,0,1,1,0,0,0,0,21,9,45,53
370,360,388,373,et,O,0,0,0,0,0,0,1,1,0,0,0,0,22,8,46,55
396,359,473,377,options,O,0,0,0,0,0,0,1,1,0,0,0,0,91,573,47,73
1046,359,1099,376,"38,69",O,1,0,0,0,0,0,0,1,1,0,0,0,38,0,-1,62
86,395,120,405,Pour,O,0,0,1,0,0,0,1,1,0,0,0,0,8,7,49,56
127,395,138,405,le,O,0,0,0,0,0,0,1,1,0,0,0,0,8,7,50,56
145,397,180,405,mois,O,0,0,0,0,0,0,1,1,0,0,0,0,8,6,51,57
186,394,193,405,à,O,0,0,0,0,0,0,1,0,0,0,0,0,8,7,52,57
200,394,262,407,venir(du,O,0,0,0,0,0,0,0,1,0,0,0,0,6,7,53,58
269,394,308,405,06/03,O,1,0,0,0,0,0,0,1,1,0,0,0,8,6,54,58
314,397,331,405,au,O,0,0,0,0,0,0,1,1,0,0,0,0,8,6,55,59
337,395,381,407,05/04),O,0,0,0,0,0,0,0,1,1,0,0,0,61,0,-1,71
102,413,152,425,Forfait,O,0,0,1,0,0,0,1,1,0,0,0,0,9,6,57,63
158,413,200,425,client,O,0,0,0,0,0,0,1,1,0,0,0,0,9,6,58,64
206,413,285,425,Sensation,O,0,0,1,0,0,0,1,1,0,0,0,0,9,7,59,64
292,413,335,425,70Go,O,0,0,1,0,0,0,0,1,1,0,0,0,43,544,60,70
879,412,918,424,"20,00",O,1,0,0,0,0,0,0,1,1,0,0,0,9,40,61,65
958,412,998,425,"35,83",O,1,0,0,0,0,0,0,1,1,0,0,0,8,58,62,66
1056,414,1100,428,"42,99",O,1,0,0,0,0,0,0,1,1,0,0,0,7,0,-1,67
102,434,162,446,Remise,O,0,0,1,0,0,0,1,1,0,0,0,0,22,6,64,68
168,434,242,446,exclusive,O,0,0,0,0,0,0,1,1,0,0,0,0,22,637,65,69
879,433,918,446,"20,00",O,1,0,0,0,0,0,0,1,1,0,0,0,0,44,66,-1
962,433,997,446,"-3,58",O,1,0,0,0,0,0,0,1,1,0,0,0,0,63,67,-1
1060,435,1100,449,"-4,30",O,1,0,0,0,0,0,0,1,1,0,0,0,19,0,-1,74
85,468,124,482,Vos,O,0,0,1,0,0,0,1,1,0,0,0,0,21,8,69,75
132,468,306,482,communications,O,0,0,0,0,0,0,1,1,0,0,0,0,21,8,70,75
314,468,345,486,(du,O,0,0,0,0,0,0,0,1,0,0,0,0,35,9,71,84
354,468,407,482,06/02,O,1,0,0,0,0,0,0,1,1,0,0,0,39,9,72,86
416,472,439,482,au,O,0,0,0,0,0,0,1,1,0,0,0,0,39,9,73,87
448,468,508,486,05/03),O,0,0,0,0,0,0,0,1,1,0,0,0,35,551,74,87
1059,468,1099,485,"3,00",O,1,0,0,0,0,0,0,1,1,0,0,0,0,0,-1,-1
85,503,177,516,décomptées,O,0,0,0,0,0,0,1,0,0,0,0,0,5,7,76,80
184,503,201,513,de,O,0,0,0,0,0,0,1,1,0,0,0,0,8,6,77,81
207,506,233,513,vos,O,0,0,0,0,0,0,1,1,0,0,0,0,8,6,78,81
239,503,292,513,forfaits,O,0,0,0,0,0,0,1,1,0,0,0,0,8,0,-1,82
86,526,88,528,+,O,0,0,0,0,0,0,0,1,0,0,0,0,0,14,80,-1
102,521,183,536,(15:18:24),O,0,0,0,0,0,0,0,1,1,0,0,0,8,6,81,89
189,521,228,533,dans,O,0,0,0,0,0,0,1,1,0,0,0,0,11,6,82,90
234,521,247,533,le,O,0,0,0,0,0,0,1,1,0,0,0,0,11,6,83,91
253,521,297,533,cadre,O,0,0,0,0,0,0,1,1,0,0,0,0,11,6,84,92
303,521,322,533,de,O,0,0,0,0,0,0,1,1,0,0,0,0,11,7,85,93
329,524,356,533,vos,O,0,0,0,0,0,0,1,1,0,0,0,0,14,5,86,94
361,521,416,536,Appels,O,0,0,1,0,0,0,1,1,0,0,0,0,4,7,87,96
423,521,481,533,illimités,O,0,0,0,0,0,0,1,0,0,0,0,0,11,6,88,98
487,521,541,533,24h/24,O,0,0,0,0,0,0,0,1,1,0,0,0,11,0,-1,99
102,544,183,559,(03:02:40),O,0,0,0,0,0,0,0,1,1,0,0,0,8,6,90,102
189,544,227,556,dans,O,0,0,0,0,0,0,1,1,0,0,0,0,11,7,91,104
234,544,247,556,le,O,0,0,0,0,0,0,1,1,0,0,0,0,11,6,92,104
253,544,297,556,cadre,O,0,0,0,0,0,0,1,1,0,0,0,0,11,6,93,105
303,544,322,556,de,O,0,0,0,0,0,0,1,1,0,0,0,0,33,6,94,117
328,547,356,556,vos,O,0,0,0,0,0,0,1,1,0,0,0,0,14,7,95,108
363,544,381,556,10,O,1,0,0,0,1,0,0,1,1,0,0,0,56,5,96,128
386,540,392,564,h,O,0,0,0,0,0,0,1,1,0,0,0,0,3,10,97,109
402,547,435,556,vers,O,0,0,0,0,0,0,1,1,0,0,0,0,11,7,98,109
442,544,504,559,l'Algérie,O,0,0,0,0,0,0,0,0,0,0,0,0,8,7,99,110
511,544,559,559,(Fixes,O,0,0,1,0,0,0,0,1,0,0,0,0,8,6,100,111
565,544,665,559,uniquement),O,0,0,0,0,0,0,0,1,0,0,0,0,53,0,-1,132
86,572,88,574,-,O,0,1,0,0,0,0,0,1,0,0,0,0,139,14,102,151
102,567,134,582,(651,O,0,0,0,0,0,0,0,1,1,0,0,0,7,9,103,113
143,567,196,582,unités),O,0,0,0,0,0,0,0,0,0,0,0,0,7,6,104,113
202,567,241,579,dans,O,0,0,0,0,0,0,1,1,0,0,0,0,10,6,105,114
247,567,260,579,le,O,0,0,0,0,0,0,1,1,0,0,0,0,10,6,106,116
266,567,310,579,cadre,O,0,0,0,0,0,0,1,1,0,0,0,0,10,6,107,116
316,567,335,579,de,O,0,0,0,0,0,0,1,1,0,0,0,0,33,7,108,127
342,570,369,579,vos,O,0,0,0,0,0,0,1,1,0,0,0,0,11,6,109,118
375,567,460,579,SMS/MMS,O,0,0,0,1,0,0,0,1,0,0,0,0,10,7,110,119
467,567,525,579,illimités,O,0,0,0,0,0,0,1,0,0,0,0,0,10,6,111,120
531,567,585,579,24h/24,O,0,0,0,0,0,0,0,1,1,0,0,0,33,0,-1,131
86,594,88,596,+,O,0,0,0,0,0,0,0,1,0,0,0,0,52,14,113,135
102,589,183,604,(00:14:20),O,0,0,0,0,0,0,0,1,1,0,0,0,8,6,114,121
189,589,228,601,dans,O,0,0,0,0,0,0,1,1,0,0,0,0,11,6,115,124
234,589,247,601,le,O,0,0,0,0,0,0,1,1,0,0,0,0,11,6,116,124
253,589,297,601,cadre,O,0,0,0,0,0,0,1,1,0,0,0,0,11,6,117,125
303,589,322,601,de,O,0,0,0,0,0,0,1,1,0,0,0,0,11,7,118,126
329,590,368,601,votre,O,0,0,0,0,0,0,1,1,0,0,0,0,11,7,119,128
375,589,467,604,Messagerie,O,0,0,1,0,0,0,1,1,0,0,0,0,8,6,120,129
473,589,524,601,vocale,O,0,0,0,0,0,0,1,1,0,0,0,0,11,0,-1,130
102,612,127,627,(10,O,0,0,0,0,0,0,0,1,1,0,0,0,18,6,122,136
133,612,156,624,Go,O,0,0,1,0,0,0,1,1,0,0,0,0,21,6,123,136
162,612,197,627,501),O,0,0,0,0,0,0,0,1,1,0,0,0,18,6,124,136
203,612,242,624,dans,O,0,0,0,0,0,0,1,1,0,0,0,0,24,6,125,137
248,612,261,624,le,O,0,0,0,0,0,0,1,1,0,0,0,0,24,6,126,138
267,612,311,624,cadre,O,0,0,0,0,0,0,1,1,0,0,0,0,21,6,127,139
317,612,336,624,de,O,0,0,0,0,0,0,1,1,0,0,0,0,21,6,128,139
342,612,382,624,votre,O,0,0,0,0,0,0,1,1,0,0,0,0,21,7,129,140
389,612,449,624,Internet,O,0,0,1,0,0,0,1,1,0,0,0,0,21,6,130,142
455,612,533,627,décompté,O,0,0,0,0,0,0,1,0,0,0,0,0,37,6,131,149
539,612,558,624,de,O,0,0,0,0,0,0,1,1,0,0,0,0,0,6,132,-1
564,612,604,624,votre,O,0,0,0,0,0,0,1,1,0,0,0,0,0,6,133,-1
610,612,655,624,forfait,O,0,0,0,0,0,0,1,1,0,0,0,0,0,6,134,-1
661,612,726,627,principal,O,0,0,0,0,0,0,1,1,0,0,0,0,0,0,-1,-1
85,648,102,655,en,O,0,0,0,0,0,0,1,1,0,0,0,0,58,6,136,151
108,645,210,658,dépassement,O,0,0,0,0,0,0,1,0,0,0,0,0,6,6,137,145
216,648,233,655,ou,O,0,0,0,0,0,0,1,1,0,0,0,0,9,7,138,147
240,648,268,655,non,O,0,0,0,0,0,0,1,1,0,0,0,0,9,7,139,147
275,645,337,655,incluses,O,0,0,0,0,0,0,1,1,0,0,0,0,9,6,140,147
343,645,379,655,dans,O,0,0,0,0,0,0,1,1,0,0,0,0,12,6,141,148
385,648,411,655,vos,O,0,0,0,0,0,0,1,1,0,0,0,0,9,6,142,149
417,645,470,655,forfaits,O,0,0,0,0,0,0,1,1,0,0,0,0,9,0,-1,149
879,663,918,675,"20,00",O,1,0,0,0,0,0,0,1,1,0,0,0,0,49,144,-1
967,663,997,674,"2,50",O,1,0,0,0,0,0,0,1,1,0,0,0,45,69,150,157
102,664,183,679,(00:03:00),O,0,0,0,0,0,0,0,1,1,0,0,0,34,6,146,152
189,664,208,676,de,O,0,0,0,0,0,0,1,1,0,0,0,0,37,7,147,152
215,664,345,676,communications,O,0,0,0,0,0,0,1,1,0,0,0,0,37,6,148,153
351,667,384,676,vers,O,0,0,0,0,0,0,1,1,0,0,0,0,37,6,149,155
390,664,495,676,l'international,O,0,0,0,0,0,0,0,1,0,0,0,0,37,384,143,156
1066,664,1100,678,"3,00",O,1,0,0,0,0,0,0,1,1,0,0,0,35,0,-1,158
73,713,112,727,Vos,O,0,0,1,0,0,0,1,1,0,0,0,0,23,9,152,159
121,713,207,727,services,O,0,0,0,0,0,0,1,1,0,0,0,0,23,8,153,160
215,713,288,727,fournis,O,0,0,0,0,0,0,1,1,0,0,0,0,23,9,154,161
297,717,330,731,par,O,0,0,0,0,0,0,1,1,0,0,0,0,19,7,155,161
337,713,373,727,des,O,0,0,0,0,0,0,1,1,0,0,0,0,23,8,156,162
381,713,426,727,tiers,O,0,0,0,0,0,0,1,1,0,0,0,0,23,542,157,163
968,719,997,729,117,O,1,0,0,0,1,0,0,1,1,0,0,0,74,62,158,177
1059,713,1097,730,"1,41",O,1,0,0,0,0,0,0,1,1,0,0,0,20,0,-1,166
85,750,124,764,Vos,O,0,0,1,0,0,0,1,1,0,0,0,0,21,8,160,167
132,750,219,764,services,O,0,0,0,0,0,0,1,1,0,0,0,0,21,9,161,168
228,750,329,768,ponctuels,O,0,0,0,0,0,0,1,1,0,0,0,0,17,9,162,170
338,750,369,768,(du,O,0,0,0,0,0,0,0,1,0,0,0,0,35,9,163,175
378,750,432,764,06/02,O,1,0,0,0,0,0,0,1,1,0,0,0,68,8,164,188
440,754,463,764,au,O,0,0,0,0,0,0,1,1,0,0,0,0,68,9,165,188
472,750,533,768,05/03),O,0,0,0,0,0,0,0,1,1,0,0,0,64,526,166,188
1059,750,1097,766,"1,41",O,1,0,0,0,0,0,0,1,1,0,0,0,38,0,-1,178
85,785,137,798,Appels,O,0,0,1,0,0,0,1,1,0,0,0,0,5,6,168,172
143,785,151,795,à,O,0,0,0,0,0,0,1,0,0,0,0,0,8,5,169,172
156,785,237,795,tarification,O,0,0,0,0,0,0,1,1,0,0,0,0,8,7,170,173
244,785,304,798,majorée,O,0,0,0,0,0,0,1,0,0,0,0,0,5,0,-1,174
86,808,88,810,+,O,0,0,0,0,0,0,0,1,0,0,0,0,22,14,172,179
102,803,183,818,(00:19:04),O,0,0,0,0,0,0,0,1,1,0,0,0,14,6,173,180
189,803,208,815,de,O,0,0,0,0,0,0,1,1,0,0,0,0,17,7,174,182
215,803,287,815,Numéros,O,0,0,1,0,0,0,1,0,0,0,0,0,17,6,175,185
293,803,364,818,spéciaux,O,0,0,0,0,0,0,1,0,0,0,0,0,14,515,176,186
879,803,918,815,"20,00",O,1,0,0,0,0,0,0,1,1,0,0,0,0,50,177,-1
968,803,997,813,117,O,1,0,0,0,1,0,0,1,1,0,0,0,0,70,178,-1
1067,804,1098,818,"1,41",O,1,0,0,0,0,0,0,1,1,0,0,0,70,0,-1,212
81,832,105,840,Pour,O,0,0,1,0,0,0,1,1,0,0,0,0,48,4,180,207
109,832,137,842,gérer,O,0,0,0,0,0,0,1,0,0,0,0,0,18,4,181,193
141,834,159,840,vos,O,0,0,0,0,0,0,1,1,0,0,0,0,20,4,182,193
163,832,198,840,achats,O,0,0,0,0,0,0,1,1,0,0,0,0,20,4,183,194
202,833,211,840,et,O,0,0,0,0,0,0,1,1,0,0,0,0,20,4,184,195
215,834,233,840,vos,O,0,0,0,0,0,0,1,1,0,0,0,0,20,5,185,196
238,832,310,840,abonnements,O,0,0,0,0,0,0,1,1,0,0,0,0,20,4,186,196
314,832,380,840,rendez-vous,O,0,0,0,0,0,0,0,1,0,0,0,0,20,4,187,199
384,834,400,840,sur,O,0,0,0,0,0,0,1,1,0,0,0,0,20,4,188,200
404,832,498,842,bouyguestelecom,O,0,0,0,0,0,0,1,1,0,0,0,0,18,5,189,201
503,832,512,841,"fr,",O,0,0,0,0,0,0,0,1,0,0,0,0,21,5,190,204
517,832,560,842,rubrique,O,0,0,0,0,0,0,1,1,0,0,0,0,18,4,191,205
564,832,591,840,“Mon,O,0,0,1,0,0,0,0,0,0,0,0,0,0,4,192,-1
595,832,639,842,compte”,O,0,0,0,0,0,0,0,0,0,0,0,0,0,0,-1,-1
116,860,165,868,montants,O,0,0,0,0,0,0,1,1,0,0,0,0,23,4,194,208
169,860,191,868,TTC,O,0,0,0,1,0,0,1,1,0,0,0,0,23,5,195,208
196,860,218,868,sont,O,0,0,0,0,0,0,1,1,0,0,0,0,21,4,196,209
222,860,265,868,"arrondis,",O,0,0,0,0,0,0,0,1,0,0,0,0,21,8,197,209
273,860,292,868,leur,O,0,0,0,0,0,0,1,1,0,0,0,0,20,4,198,210
296,862,335,868,somme,O,0,0,0,0,0,0,1,1,0,0,0,0,24,4,199,211
339,860,362,870,peut,O,0,0,0,0,0,0,1,1,0,0,0,0,0,4,200,-1
366,860,403,868,différer,O,0,0,0,0,0,0,1,0,0,0,0,0,0,4,201,-1
407,860,420,868,de,O,0,0,0,0,0,0,1,1,0,0,0,0,0,4,202,-1
424,860,448,868,celle,O,0,0,0,0,0,0,1,1,0,0,0,0,0,4,203,-1
452,862,488,870,reprise,O,0,0,0,0,0,0,1,1,0,0,0,0,0,4,204,-1
492,862,509,868,sur,O,0,0,0,0,0,0,1,1,0,0,0,0,0,4,205,-1
513,860,521,868,la,O,0,0,0,0,0,0,1,1,0,0,0,0,0,4,206,-1
525,860,562,868,facture.,O,0,0,0,0,0,0,0,1,0,0,0,0,0,0,-1,-1
81,888,131,902,Total,O,0,0,1,0,0,0,1,1,0,0,0,0,0,9,208,-1
140,891,188,905,pour,O,0,0,0,0,0,0,1,1,0,0,0,0,0,7,209,-1
195,889,245,902,cette,O,0,0,0,0,0,0,1,1,0,0,0,0,0,9,210,-1
254,888,303,906,ligne,O,0,0,0,0,0,0,1,1,0,0,0,0,0,10,211,-1
313,892,315,902,:,O,0,1,0,0,0,0,0,1,0,0,0,0,0,730,212,-1
1045,888,1099,904,"43,10",TOTAL,1,0,0,0,0,0,0,1,1,0,0,0,0,0,-1,-1
1106,1470,1142,1483,Page,O,0,0,1,0,0,0,1,1,0,0,0,0,0,6,214,-1
1148,1470,1178,1480,5/16,O,1,0,0,0,0,0,0,1,1,0,0,0,0,0,-1,-1
