xmin,ymin,xmax,ymax,Object,label,like_num,is_punct,is_title,is_upper,is_digit,is_currency,is_alpha,is_ascii,hasNumbers,hascurrency,like_email,like_url,dh,dv,v_hor,v_vert
25,51,59,64,Vos,O,0,0,1,0,0,0,1,1,0,0,0,0,9,7,1,3
66,51,160,64,références,O,0,0,0,0,0,0,1,0,0,0,0,0,9,8,2,3
168,55,170,57,:,O,0,1,0,0,0,0,0,1,0,0,0,0,38,0,-1,8
26,73,114,86,Utilisateur,O,0,0,1,0,0,0,1,1,0,0,0,0,9,6,4,7
120,73,142,86,de,O,0,0,0,0,0,0,1,1,0,0,0,0,9,7,5,8
149,73,163,86,la,O,0,0,0,0,0,0,1,1,0,0,0,0,9,7,6,8
170,73,211,90,ligne,O,0,0,0,0,0,0,1,1,0,0,0,0,5,0,-1,8
25,95,109,108,AHCENE,O,0,0,0,1,0,0,1,1,0,0,0,0,9,7,8,9
116,95,261,108,OUGUENOUNE,O,0,0,0,1,0,0,1,1,0,0,0,0,9,0,-1,11
26,117,96,130,Numéro,O,0,0,1,0,0,0,1,0,0,0,0,0,9,7,10,12
103,117,124,130,de,O,0,0,0,0,0,0,1,1,0,0,0,0,9,7,11,15
131,117,172,133,ligne,O,0,0,0,0,0,0,1,1,0,0,0,0,6,0,-1,16
26,139,46,151,06,O,1,0,0,0,1,0,0,1,1,0,0,0,0,8,13,-1
54,139,72,151,51,O,1,0,0,0,1,0,0,1,1,0,0,0,78,10,14,32
82,139,100,151,99,O,1,0,0,0,1,0,0,1,1,0,0,0,78,10,15,33
110,139,128,151,46,O,1,0,0,0,1,0,0,1,1,0,0,0,78,10,16,33
138,139,158,151,18,O,1,0,0,0,1,0,0,1,1,0,0,0,78,0,-1,33
395,181,429,196,Dét,O,0,0,1,0,0,0,1,0,0,0,0,0,33,32,18,35
461,181,485,196,de,O,0,0,0,0,0,0,1,1,0,0,0,0,137,7,19,88
492,182,546,196,votre,O,0,0,0,0,0,0,1,1,0,0,0,0,0,6,20,-1
552,181,626,196,facture,O,0,0,0,0,0,0,1,1,0,0,0,0,99,7,21,57
633,181,658,196,du,O,0,0,0,0,0,0,1,1,0,0,0,0,26,9,22,25
667,181,678,196,6,DATE,1,0,0,0,1,0,0,1,1,0,0,0,26,7,23,25
685,185,736,196,mars,DATE,0,0,0,0,0,0,1,1,0,0,0,0,26,8,24,26
744,181,792,196,2019,DATE,1,0,0,0,1,0,0,1,1,0,0,0,26,0,-1,27
614,222,672,232,Internet,O,0,0,1,0,0,0,1,1,0,0,0,0,12,5,26,36
677,222,752,235,décompté,O,0,0,0,0,0,0,1,0,0,0,0,0,9,6,27,37
758,222,775,232,de,O,0,0,0,0,0,0,1,1,0,0,0,0,12,5,28,40
780,222,819,232,votre,O,0,0,0,0,0,0,1,1,0,0,0,0,12,5,29,41
824,222,870,232,forfait,O,0,0,0,0,0,0,1,1,0,0,0,0,12,5,30,43
875,222,941,235,principal,O,0,0,0,0,0,0,1,1,0,0,0,0,9,203,31,44
1144,222,1174,234,"0,00",O,1,0,0,0,0,0,0,1,1,0,0,0,31,0,-1,51
40,229,83,244,Vos,O,0,0,1,0,0,0,1,1,0,0,0,0,15,9,33,45
92,229,186,244,services,O,0,0,0,0,0,0,1,1,0,0,0,0,15,10,34,46
196,229,310,249,Bouygues,O,0,0,1,0,0,0,1,1,0,0,0,0,34,9,35,56
319,229,415,244,Telecom,O,0,0,1,0,0,0,1,1,0,0,0,0,89,0,-1,86
617,244,660,255,Rappel,O,0,0,1,0,0,0,1,1,0,0,0,0,10,14,37,47
674,244,695,253,ko,O,0,0,0,0,0,0,1,1,0,0,0,0,0,5,38,-1
700,246,707,250,=,O,0,0,0,0,0,0,0,1,0,0,0,0,0,6,39,-1
713,244,742,253,1024,O,1,0,0,0,1,0,0,1,1,0,0,0,0,5,40,-1
747,244,787,254,"octets,",O,0,0,0,0,0,0,0,1,0,0,0,0,0,7,41,-1
794,244,819,253,1Mo,O,0,0,1,0,0,0,0,1,1,0,0,0,0,5,42,-1
824,246,831,250,=,O,0,0,0,0,0,0,0,1,0,0,0,0,0,6,43,-1
837,244,866,253,1024,O,1,0,0,0,1,0,0,1,1,0,0,0,0,6,44,-1
872,244,886,253,ko,O,0,0,0,0,0,0,1,1,0,0,0,0,0,0,-1,-1
40,259,75,272,Vos,O,0,0,1,0,0,0,1,1,0,0,0,0,12,8,46,53
83,259,241,272,communications,O,0,0,0,0,0,0,1,1,0,0,0,0,11,374,47,56
615,265,643,274,Date,O,0,0,1,0,0,0,1,1,0,0,0,0,21,278,48,57
921,265,968,274,Volume,O,0,0,1,0,0,0,1,1,0,0,0,0,21,18,52,59
1098,265,1127,274,Coat,O,0,0,1,0,0,0,1,1,0,0,0,0,0,5,50,-1
1132,265,1140,274,€,O,0,0,0,0,0,1,0,0,0,1,0,0,0,4,51,-1
1144,265,1176,274,TTC*,O,0,0,0,1,0,0,0,1,0,0,0,0,21,0,-1,62
986,265,1016,277,Pays,O,0,0,1,0,0,0,1,1,0,0,0,0,18,82,49,61
40,284,138,298,décomptées,O,0,0,0,0,0,0,1,0,0,0,0,0,14,6,54,70
144,284,163,295,de,O,0,0,0,0,0,0,1,1,0,0,0,0,16,6,55,73
169,287,196,295,vos,O,0,0,0,0,0,0,1,1,0,0,0,0,16,7,56,74
203,283,256,295,forfaits,O,0,0,0,0,0,0,1,1,0,0,0,0,16,0,-1,74
611,295,644,304,15/02,O,1,0,0,0,0,0,0,1,1,0,0,0,5,263,58,64
907,295,929,304,175,O,1,0,0,0,1,0,0,1,1,0,0,0,5,5,59,65
934,295,952,304,Mo,O,0,0,1,0,0,0,1,1,0,0,0,0,5,5,60,66
957,295,979,304,749,O,1,0,0,0,1,0,0,1,1,0,0,0,5,7,61,67
986,295,1028,304,France,O,0,0,1,0,0,0,1,1,0,0,0,0,5,110,62,68
1138,295,1172,306,"0,000",O,1,0,0,0,0,0,0,1,1,0,0,0,3,0,-1,69
574,312,604,324,"0,00",O,1,0,0,0,0,0,0,1,1,0,0,0,9,7,64,89
611,309,644,318,16/02,O,1,0,0,0,0,0,0,1,1,0,0,0,6,267,65,76
911,309,925,318,16,O,1,0,0,0,1,0,0,1,1,0,0,0,6,5,66,77
930,309,949,318,Mo,O,0,0,1,0,0,0,1,1,0,0,0,0,6,4,67,78
953,309,974,318,291,O,1,0,0,0,1,0,0,1,1,0,0,0,6,12,68,79
986,309,1028,318,France,O,0,0,1,0,0,0,1,1,0,0,0,0,6,110,69,80
1138,309,1172,320,"0,000",O,1,0,0,0,0,0,0,1,1,0,0,0,4,0,-1,81
44,312,60,322,10,O,1,0,0,0,1,0,0,1,1,0,0,0,11,6,71,82
66,312,74,322,h,O,0,0,0,0,0,0,1,1,0,0,0,0,11,6,72,82
80,314,112,322,vers,O,0,0,0,0,0,0,1,1,0,0,0,0,11,6,73,83
118,311,179,325,l'Algérie,O,0,0,0,0,0,0,0,0,0,0,0,0,0,6,74,-1
185,311,230,325,(Fixes,O,0,0,1,0,0,0,0,1,0,0,0,0,8,7,75,84
237,311,332,325,uniquement),O,0,0,0,0,0,0,0,1,0,0,0,0,8,242,63,85
611,324,644,333,17/02,O,1,0,0,0,0,0,0,1,1,0,0,0,5,266,77,90
910,324,925,333,23,O,1,0,0,0,1,0,0,1,1,0,0,0,6,5,78,91
930,324,949,333,Mo,O,0,0,1,0,0,0,1,1,0,0,0,0,5,4,79,92
953,324,976,333,655,O,1,0,0,0,1,0,0,1,1,0,0,0,5,10,80,93
986,324,1028,333,France,O,0,0,1,0,0,0,1,1,0,0,0,0,5,110,81,94
1138,324,1172,334,"0,000",O,1,0,0,0,0,0,0,1,1,0,0,0,4,0,-1,101
44,333,73,342,Date,O,0,0,1,0,0,0,1,1,0,0,0,0,36,16,83,116
89,333,126,342,Heure,O,0,0,1,0,0,0,1,1,0,0,0,0,36,56,84,117
182,333,231,342,Numéro,O,0,0,1,0,0,0,1,0,0,0,0,0,5,54,85,95
285,333,322,342,Durée,O,0,0,1,0,0,0,1,0,0,0,0,0,5,35,86,96
357,333,394,342,Durée,O,0,0,1,0,0,0,1,0,0,0,0,0,5,22,87,97
416,333,446,345,Pays,O,0,0,1,0,0,0,1,1,0,0,0,0,33,4,88,121
450,333,484,342,Visité,O,0,0,1,0,0,0,1,0,0,0,0,0,5,90,89,98
574,333,603,342,Coût,O,0,0,1,0,0,0,1,0,0,0,0,0,5,0,-1,100
611,338,644,348,18/02,O,1,0,0,0,0,0,0,1,1,0,0,0,5,263,91,104
907,339,929,348,145,O,1,0,0,0,1,0,0,1,1,0,0,0,5,5,92,105
934,338,952,348,Mo,O,0,0,1,0,0,0,1,1,0,0,0,0,5,5,93,106
957,338,979,348,450,O,1,0,0,0,1,0,0,1,1,0,0,0,5,7,94,107
986,338,1028,348,France,O,0,0,1,0,0,0,1,1,0,0,0,0,5,110,101,108
183,347,226,359,Appelé,O,0,0,1,0,0,0,1,0,0,0,0,0,19,60,96,118
286,347,324,357,Réelle,O,0,0,1,0,0,0,1,0,0,0,0,0,6,25,97,102
349,347,403,357,Facturée,O,0,0,1,0,0,0,1,0,0,0,0,0,6,51,98,103
454,347,484,359,Pays,O,0,0,1,0,0,0,1,1,0,0,0,0,0,4,99,-1
488,348,532,359,Appelé,O,0,0,1,0,0,0,1,0,0,0,0,0,33,30,100,129
562,347,605,357,€TTC*,O,0,0,0,1,0,0,0,0,0,1,0,0,21,0,-1,122
1138,338,1172,349,"0,000",O,1,0,0,0,0,0,0,1,1,0,0,0,4,0,-1,109
274,363,334,372,hh:mm:ss.,O,0,0,0,0,0,0,0,1,0,0,0,0,6,11,103,119
345,363,405,372,hh:mm:ss.,O,0,0,0,0,0,0,0,1,0,0,0,0,6,205,110,120
611,353,644,362,19/02,O,1,0,0,0,0,0,0,1,1,0,0,0,5,266,105,110
910,353,925,362,80,O,1,0,0,0,1,0,0,1,1,0,0,0,5,5,106,111
930,353,949,362,Mo,O,0,0,1,0,0,0,1,1,0,0,0,0,5,4,107,112
953,353,976,362,417,O,1,0,0,0,1,0,0,1,1,0,0,0,5,10,108,113
986,353,1028,362,France,O,0,0,1,0,0,0,1,1,0,0,0,0,5,110,109,114
1138,353,1172,363,"0,000",O,1,0,0,0,0,0,0,1,1,0,0,0,4,0,-1,115
610,367,644,377,20/02,O,1,0,0,0,0,0,0,1,1,0,0,0,5,266,111,123
910,367,925,377,52,O,1,0,0,0,1,0,0,1,1,0,0,0,5,5,112,124
930,367,949,377,Mo,O,0,0,1,0,0,0,1,1,0,0,0,0,5,4,113,125
953,367,976,377,476,O,1,0,0,0,1,0,0,1,1,0,0,0,5,10,114,126
986,367,1028,377,France,O,0,0,1,0,0,0,1,1,0,0,0,0,5,110,115,127
1138,367,1172,378,"0,000",O,1,0,0,0,0,0,0,1,1,0,0,0,4,0,-1,128
40,378,74,387,07/02,O,1,0,0,0,0,0,0,1,1,0,0,0,21,7,117,136
81,378,132,387,19:28:31,O,0,0,0,0,0,0,0,1,1,0,0,0,21,38,118,137
170,378,238,387,002132392,O,1,0,0,0,1,0,0,1,1,0,0,0,21,40,119,138
278,378,332,387,00:05:04,O,0,0,0,0,0,0,0,1,1,0,0,0,21,14,120,139
346,378,400,387,00:05:04,O,0,0,0,0,0,0,0,1,1,0,0,0,21,16,121,140
416,378,458,387,France,O,0,0,1,0,0,0,1,1,0,0,0,0,21,110,122,141
568,378,602,388,"0,000",O,1,0,0,0,0,0,0,1,1,0,0,0,20,8,123,142
610,382,644,391,21/02,O,1,0,0,0,0,0,0,1,1,0,0,0,5,263,124,130
907,382,928,391,124,O,1,0,0,0,1,0,0,1,1,0,0,0,5,6,125,131
934,382,952,391,Mo,O,0,0,1,0,0,0,1,1,0,0,0,0,5,5,126,132
957,382,979,391,063,O,1,0,0,0,1,0,0,1,1,0,0,0,5,7,127,133
986,382,1028,391,France,O,0,0,1,0,0,0,1,1,0,0,0,0,5,110,128,134
1138,382,1172,393,"0,000",O,1,0,0,0,0,0,0,1,1,0,0,0,3,0,-1,135
484,392,527,404,Algérie,O,0,0,1,0,0,0,1,0,0,0,0,0,18,83,130,149
610,396,644,406,22/02,O,1,0,0,0,0,0,0,1,1,0,0,0,5,263,131,143
907,396,926,406,131,O,1,0,0,0,1,0,0,1,1,0,0,0,5,8,132,144
934,396,952,406,Mo,O,0,0,1,0,0,0,1,1,0,0,0,0,5,5,133,145
957,396,979,406,496,O,1,0,0,0,1,0,0,1,1,0,0,0,5,7,134,146
986,396,1028,406,France,O,0,0,1,0,0,0,1,1,0,0,0,0,5,110,135,147
1138,396,1172,407,"0,000",O,1,0,0,0,0,0,0,1,1,0,0,0,4,0,-1,148
41,408,74,417,10/02,O,1,0,0,0,0,0,0,1,1,0,0,0,20,7,137,156
81,408,134,417,13:39:27,O,0,0,0,0,0,0,0,1,1,0,0,0,20,36,138,157
170,408,238,417,002132392,O,1,0,0,0,1,0,0,1,1,0,0,0,20,40,139,158
278,408,332,417,00:34:20,O,0,0,0,0,0,0,0,1,1,0,0,0,20,14,140,159
346,408,400,417,00:34:20,O,0,0,0,0,0,0,0,1,1,0,0,0,20,16,141,160
416,408,458,417,France,O,0,0,1,0,0,0,1,1,0,0,0,0,20,110,142,161
568,408,602,418,"0,000",O,1,0,0,0,0,0,0,1,1,0,0,0,19,8,143,162
610,411,644,420,23/02,O,1,0,0,0,0,0,0,1,1,0,0,0,6,270,144,150
914,411,921,420,9,O,1,0,0,0,1,0,0,1,1,0,0,0,6,5,145,151
926,411,945,420,Mo,O,0,0,1,0,0,0,1,1,0,0,0,0,6,4,146,152
949,411,972,420,977,O,1,0,0,0,1,0,0,1,1,0,0,0,6,14,147,153
986,411,1028,420,France,O,0,0,1,0,0,0,1,1,0,0,0,0,6,110,148,154
1138,411,1172,422,"0,000",O,1,0,0,0,0,0,0,1,1,0,0,0,4,0,-1,155
484,422,527,434,Algérie,O,0,0,1,0,0,0,1,0,0,0,0,0,19,83,150,169
610,426,644,435,24/02,O,1,0,0,0,0,0,0,1,1,0,0,0,5,263,151,163
907,426,928,435,126,O,1,0,0,0,1,0,0,1,1,0,0,0,5,6,152,164
934,426,952,435,Mo,O,0,0,1,0,0,0,1,1,0,0,0,0,5,5,153,165
957,426,979,435,929,O,1,0,0,0,1,0,0,1,1,0,0,0,5,7,154,166
986,426,1028,435,France,O,0,0,1,0,0,0,1,1,0,0,0,0,5,110,155,167
1138,426,1172,436,"0,000",O,1,0,0,0,0,0,0,1,1,0,0,0,4,0,-1,168
41,437,74,447,10/02,O,1,0,0,0,0,0,0,1,1,0,0,0,20,7,157,176
81,437,134,447,19:34:56,O,0,0,0,0,0,0,0,1,1,0,0,0,20,36,158,177
170,437,239,447,002132395,O,1,0,0,0,1,0,0,1,1,0,0,0,20,39,159,178
278,437,332,447,00:09:37,O,0,0,0,0,0,0,0,1,1,0,0,0,20,14,160,179
346,437,400,447,00:09:37,O,0,0,0,0,0,0,0,1,1,0,0,0,20,16,161,180
416,437,458,447,France,O,0,0,1,0,0,0,1,1,0,0,0,0,20,110,162,181
568,437,602,448,"0,000",O,1,0,0,0,0,0,0,1,1,0,0,0,19,8,163,182
610,440,644,449,25/02,O,1,0,0,0,0,0,0,1,1,0,0,0,6,262,164,170
906,440,926,449,331,O,1,0,0,0,1,0,0,1,1,0,0,0,6,8,165,171
934,440,952,449,Mo,O,0,0,1,0,0,0,1,1,0,0,0,0,6,5,166,172
957,440,979,449,466,O,1,0,0,0,1,0,0,1,1,0,0,0,6,7,167,173
986,440,1028,449,France,O,0,0,1,0,0,0,1,1,0,0,0,0,6,110,168,174
1138,440,1172,450,"0,000",O,1,0,0,0,0,0,0,1,1,0,0,0,5,0,-1,175
484,453,527,464,Algérie,O,0,0,1,0,0,0,1,0,0,0,0,0,18,83,170,189
610,455,644,464,26/02,O,1,0,0,0,0,0,0,1,1,0,0,0,5,266,171,183
910,455,925,464,28,O,1,0,0,0,1,0,0,1,1,0,0,0,5,5,172,184
930,455,949,464,Mo,O,0,0,1,0,0,0,1,1,0,0,0,0,5,5,173,185
954,455,976,464,734,O,1,0,0,0,1,0,0,1,1,0,0,0,5,10,174,186
986,455,1028,464,France,O,0,0,1,0,0,0,1,1,0,0,0,0,5,110,175,187
1138,455,1172,465,"0,000",O,1,0,0,0,0,0,0,1,1,0,0,0,4,0,-1,188
41,467,74,477,11/02,O,1,0,0,0,0,0,0,1,1,0,0,0,21,7,177,196
81,467,134,477,12:38:47,O,0,0,0,0,0,0,0,1,1,0,0,0,21,36,178,197
170,467,238,477,002132392,O,1,0,0,0,1,0,0,1,1,0,0,0,21,40,179,198
278,467,332,477,00:04:52,O,0,0,0,0,0,0,0,1,1,0,0,0,21,14,180,199
346,467,400,477,00:04:52,O,0,0,0,0,0,0,0,1,1,0,0,0,21,16,181,200
416,467,458,477,France,O,0,0,1,0,0,0,1,1,0,0,0,0,21,110,182,201
568,467,602,478,"0,000",O,1,0,0,0,0,0,0,1,1,0,0,0,20,8,183,202
610,469,644,479,27102,O,1,0,0,0,1,0,0,1,1,0,0,0,4,266,184,190
910,469,925,479,30,O,1,0,0,0,1,0,0,1,1,0,0,0,4,5,185,191
930,469,949,479,Mo,O,0,0,1,0,0,0,1,1,0,0,0,0,4,4,186,192
953,469,974,479,601,O,1,0,0,0,1,0,0,1,1,0,0,0,4,12,187,193
986,469,1028,479,France,O,0,0,1,0,0,0,1,1,0,0,0,0,4,110,188,194
1138,469,1172,480,"0,000",O,1,0,0,0,0,0,0,1,1,0,0,0,3,0,-1,195
484,482,527,494,Algérie,O,0,0,1,0,0,0,1,0,0,0,0,0,18,91,190,209
618,483,644,493,8/02,O,1,0,0,0,0,0,0,1,1,0,0,0,5,262,191,203
906,483,928,493,382,O,1,0,0,0,1,0,0,1,1,0,0,0,5,6,192,204
934,483,952,493,Mo,O,0,0,1,0,0,0,1,1,0,0,0,0,5,6,193,205
958,483,979,493,157,O,1,0,0,0,1,0,0,1,1,0,0,0,5,7,194,206
986,483,1028,493,France,O,0,0,1,0,0,0,1,1,0,0,0,0,5,110,195,207
1138,483,1172,494,"0,000",O,1,0,0,0,0,0,0,1,1,0,0,0,4,0,-1,208
41,498,74,507,11/02,O,1,0,0,0,0,0,0,1,1,0,0,0,20,7,197,216
81,498,134,507,12:43:55,O,0,0,0,0,0,0,0,1,1,0,0,0,20,36,198,217
170,498,238,507,002132392,O,1,0,0,0,1,0,0,1,1,0,0,0,20,40,199,218
278,498,332,507,00:02:03,O,0,0,0,0,0,0,0,1,1,0,0,0,20,14,200,219
346,498,400,507,00:02:03,O,0,0,0,0,0,0,0,1,1,0,0,0,20,16,201,220
416,498,458,507,France,O,0,0,1,0,0,0,1,1,0,0,0,0,20,110,202,221
568,498,602,508,"0,000",O,1,0,0,0,0,0,0,1,1,0,0,0,19,8,203,222
610,498,645,508,01/03,O,1,0,0,0,0,0,0,1,1,0,0,0,5,261,204,210
906,498,929,508,239,O,1,0,0,0,1,0,0,1,1,0,0,0,5,5,205,211
934,498,952,508,Mo,O,0,0,1,0,0,0,1,1,0,0,0,0,5,5,206,212
957,498,979,508,325,O,1,0,0,0,1,0,0,1,1,0,0,0,5,7,207,213
986,498,1028,508,France,O,0,0,1,0,0,0,1,1,0,0,0,0,5,110,208,214
1138,498,1172,509,"0,000",O,1,0,0,0,0,0,0,1,1,0,0,0,4,0,-1,215
484,512,527,524,Algérie,O,0,0,1,0,0,0,1,0,0,0,0,0,18,83,210,235
610,513,645,522,02/03,O,1,0,0,0,0,0,0,1,1,0,0,0,5,261,211,223
906,513,928,522,367,O,1,0,0,0,1,0,0,1,1,0,0,0,5,6,212,224
934,513,952,522,Mo,O,0,0,1,0,0,0,1,1,0,0,0,0,5,5,213,225
957,513,979,522,560,O,1,0,0,0,1,0,0,1,1,0,0,0,5,7,214,226
986,513,1028,522,France,O,0,0,1,0,0,0,1,1,0,0,0,0,5,110,215,227
1138,513,1172,524,"0,000",O,1,0,0,0,0,0,0,1,1,0,0,0,3,0,-1,228
41,527,74,536,16/02,O,1,0,0,0,0,0,0,1,1,0,0,0,21,7,217,236
81,527,134,536,12:08:07,O,0,0,0,0,0,0,0,1,1,0,0,0,21,36,218,237
170,527,238,536,002132392,O,1,0,0,0,1,0,0,1,1,0,0,0,21,40,219,238
278,527,332,536,00:31:04,O,0,0,0,0,0,0,0,1,1,0,0,0,21,14,220,239
346,527,400,536,00:31:04,O,0,0,0,0,0,0,0,1,1,0,0,0,21,16,221,240
416,527,458,536,France,O,0,0,1,0,0,0,1,1,0,0,0,0,21,110,222,241
568,527,602,538,"0,000",O,1,0,0,0,0,0,0,1,1,0,0,0,19,8,223,242
610,527,645,536,03/03,O,1,0,0,0,0,0,0,1,1,0,0,0,6,261,224,229
906,527,928,536,897,O,1,0,0,0,1,0,0,1,1,0,0,0,6,6,225,230
934,527,952,536,Mo,O,0,0,1,0,0,0,1,1,0,0,0,0,6,5,226,231
957,527,979,536,977,O,1,0,0,0,1,0,0,1,1,0,0,0,6,7,227,232
986,527,1028,536,France,O,0,0,1,0,0,0,1,1,0,0,0,0,6,110,228,233
1138,527,1172,538,"0,000",O,1,0,0,0,0,0,0,1,1,0,0,0,4,0,-1,234
610,542,645,551,04/03,O,1,0,0,0,0,0,0,1,1,0,0,0,6,261,230,243
906,542,928,551,597,O,1,0,0,0,1,0,0,1,1,0,0,0,6,6,231,244
934,542,952,551,Mo,O,0,0,1,0,0,0,1,1,0,0,0,0,6,5,232,245
957,542,979,551,327,O,1,0,0,0,1,0,0,1,1,0,0,0,6,7,233,246
986,542,1028,551,France,O,0,0,1,0,0,0,1,1,0,0,0,0,6,110,234,247
1138,542,1172,552,"0,000",O,1,0,0,0,0,0,0,1,1,0,0,0,5,0,-1,248
484,542,527,554,Algérie,O,0,0,1,0,0,0,1,0,0,0,0,0,18,83,229,249
41,557,74,567,17/02,O,1,0,0,0,0,0,0,1,1,0,0,0,20,7,237,250
81,557,134,567,19:07:49,O,0,0,0,0,0,0,0,1,1,0,0,0,20,36,238,251
170,557,238,567,002132392,O,1,0,0,0,1,0,0,1,1,0,0,0,20,40,239,252
278,557,330,567,00:01:31,O,0,0,0,0,0,0,0,1,1,0,0,0,20,16,240,253
346,557,399,567,00:01:31,O,0,0,0,0,0,0,0,1,1,0,0,0,20,17,241,254
416,557,458,567,France,O,0,0,1,0,0,0,1,1,0,0,0,0,20,110,242,255
568,557,602,568,"0,000",O,1,0,0,0,0,0,0,1,1,0,0,0,19,8,243,256
610,557,645,566,05/03,O,1,0,0,0,0,0,0,1,1,0,0,0,22,261,244,257
906,557,928,566,320,O,1,0,0,0,1,0,0,1,1,0,0,0,19,6,245,262
934,557,952,566,Mo,O,0,0,1,0,0,0,1,1,0,0,0,0,22,5,246,263
957,557,979,566,755,O,1,0,0,0,1,0,0,1,1,0,0,0,19,7,247,264
986,557,1028,566,France,O,0,0,1,0,0,0,1,1,0,0,0,0,19,110,248,264
1138,557,1172,567,"0,000",O,1,0,0,0,0,0,0,1,1,0,0,0,62,0,-1,285
484,572,527,584,Algérie,O,0,0,1,0,0,0,1,0,0,0,0,0,18,0,-1,265
41,587,74,597,17/02,O,1,0,0,0,0,0,0,1,1,0,0,0,20,7,251,274
81,587,134,597,19:10:28,O,0,0,0,0,0,0,0,1,1,0,0,0,20,36,252,275
170,587,238,597,002132392,O,1,0,0,0,1,0,0,1,1,0,0,0,20,40,253,276
278,587,332,597,00:03:17,O,0,0,0,0,0,0,0,1,1,0,0,0,20,14,254,277
346,587,400,597,00:03:17,O,0,0,0,0,0,0,0,1,1,0,0,0,20,16,255,278
416,587,458,597,France,O,0,0,1,0,0,0,1,1,0,0,0,0,20,110,256,279
568,587,602,598,"0,000",O,1,0,0,0,0,0,0,1,1,0,0,0,19,9,257,280
611,588,629,596,en,O,0,0,0,0,0,0,1,1,0,0,0,0,12,7,258,266
636,585,743,599,dépassement,O,0,0,0,0,0,0,1,0,0,0,0,0,9,7,259,267
750,588,768,596,ou,O,0,0,0,0,0,0,1,1,0,0,0,0,12,7,260,269
775,588,803,596,non,O,0,0,0,0,0,0,1,1,0,0,0,0,12,8,261,269
811,585,874,596,incluses,O,0,0,0,0,0,0,1,1,0,0,0,0,12,7,262,269
881,585,919,596,dans,O,0,0,0,0,0,0,1,1,0,0,0,0,12,6,263,270
925,588,952,596,vos,O,0,0,0,0,0,0,1,1,0,0,0,0,76,6,264,302
958,585,1011,596,forfaits,O,0,0,0,0,0,0,1,1,0,0,0,0,12,0,-1,272
484,602,527,614,Algérie,O,0,0,1,0,0,0,1,0,0,0,0,0,18,84,266,281
611,608,639,617,Plus,O,0,0,1,0,0,0,1,1,0,0,0,0,12,5,267,282
644,608,689,617,d'infos,O,0,0,0,0,0,0,0,1,0,0,0,0,12,5,268,282
694,610,715,617,sur,O,0,0,0,0,0,0,1,1,0,0,0,0,12,5,269,282
720,608,853,620,bouyguestelecom.fr,O,0,0,0,0,0,0,0,1,0,0,0,1,9,5,270,284
858,608,914,620,rubrique,O,0,0,0,0,0,0,1,1,0,0,0,0,9,34,271,284
948,608,963,617,ifs,O,0,0,0,0,0,0,1,1,0,0,0,0,55,5,272,302
968,608,980,617,et,O,0,0,0,0,0,0,1,1,0,0,0,0,70,4,273,314
984,608,1054,617,conditions’,O,0,0,0,0,0,0,0,0,0,0,0,0,55,0,-1,303
41,617,74,626,18/02,O,1,0,0,0,0,0,0,1,1,0,0,0,21,6,275,286
80,617,134,626,20:35:25,O,0,0,0,0,0,0,0,1,1,0,0,0,21,36,276,287
170,617,239,626,002132395,O,1,0,0,0,1,0,0,1,1,0,0,0,21,39,277,288
278,617,332,626,00:01:24,O,0,0,0,0,0,0,0,1,1,0,0,0,21,14,278,289
346,617,400,626,00:01:24,O,0,0,0,0,0,0,0,1,1,0,0,0,21,16,279,290
416,617,458,626,France,O,0,0,1,0,0,0,1,1,0,0,0,0,21,110,280,291
568,617,602,627,"0,000",O,1,0,0,0,0,0,0,1,1,0,0,0,20,0,-1,292
484,632,527,644,Algérie,O,0,0,1,0,0,0,1,0,0,0,0,0,18,86,282,297
613,629,740,640,communications,O,0,0,0,0,0,0,1,1,0,0,0,0,13,6,283,294
746,632,778,640,vers,O,0,0,0,0,0,0,1,1,0,0,0,0,13,6,284,296
784,629,887,640,l'international,O,0,0,0,0,0,0,0,1,0,0,0,0,32,258,285,301
1145,629,1174,642,"1,00",O,1,0,0,0,0,0,0,1,1,0,0,0,30,0,-1,305
41,647,74,656,18/02,O,1,0,0,0,0,0,0,1,1,0,0,0,21,6,287,306
80,647,134,656,20:37:12,O,0,0,0,0,0,0,0,1,1,0,0,0,21,36,288,307
170,647,239,656,002132395,O,1,0,0,0,1,0,0,1,1,0,0,0,21,39,289,308
278,647,332,656,00:01:19,O,0,0,0,0,0,0,0,1,1,0,0,0,21,14,290,309
346,647,400,656,00:01:19,O,0,0,0,0,0,0,0,1,1,0,0,0,21,16,291,310
416,647,458,656,France,O,0,0,1,0,0,0,1,1,0,0,0,0,21,110,292,311
568,647,602,658,"0,000",O,1,0,0,0,0,0,0,1,1,0,0,0,19,0,-1,312
613,656,621,666,y,O,0,0,0,0,0,0,1,1,0,0,0,0,6,6,294,298
627,653,688,666,compris,O,0,0,0,0,0,0,1,1,0,0,0,0,6,7,295,298
695,653,715,663,les,O,0,0,0,0,0,0,1,1,0,0,0,0,54,6,296,329
721,653,798,663,DOM-TOM,O,0,0,0,1,0,0,0,1,0,0,0,0,9,0,-1,300
484,662,527,674,Algérie,O,0,0,1,0,0,0,1,0,0,0,0,0,18,0,-1,316
615,672,643,681,Date,O,0,0,1,0,0,0,1,1,0,0,0,0,36,16,299,328
659,672,696,681,Heure,O,0,0,1,0,0,0,1,1,0,0,0,0,36,56,300,329
752,672,801,681,Numéro,O,0,0,1,0,0,0,1,0,0,0,0,0,6,55,301,317
856,672,892,681,Durée,O,0,0,1,0,0,0,1,0,0,0,0,0,6,35,302,313
927,672,964,681,Durée,O,0,0,1,0,0,0,1,0,0,0,0,0,6,22,303,314
986,672,1016,684,Pays,O,0,0,1,0,0,0,1,1,0,0,0,0,33,4,304,333
1020,672,1054,681,Visité,O,0,0,1,0,0,0,1,0,0,0,0,0,6,90,305,318
1144,672,1173,681,Coat,O,0,0,1,0,0,0,1,1,0,0,0,0,6,0,-1,315
41,677,74,686,18/02,O,1,0,0,0,0,0,0,1,1,0,0,0,21,6,307,320
80,677,134,686,20:38:48,O,0,0,0,0,0,0,0,1,1,0,0,0,21,36,308,321
170,677,239,686,002132395,O,1,0,0,0,1,0,0,1,1,0,0,0,21,39,309,322
278,677,332,686,00:10:52,O,0,0,0,0,0,0,0,1,1,0,0,0,21,14,310,323
346,677,400,686,00:10:52,O,0,0,0,0,0,0,0,1,1,0,0,0,21,16,311,324
416,677,458,686,France,O,0,0,1,0,0,0,1,1,0,0,0,0,21,110,312,325
568,677,602,688,"0,000",O,1,0,0,0,0,0,0,1,1,0,0,0,19,384,303,326
856,687,895,696,Réelle,O,0,0,1,0,0,0,1,0,0,0,0,0,21,24,314,331
919,687,973,696,Facturée,O,0,0,1,0,0,0,1,0,0,0,0,0,5,51,318,327
1132,687,1176,696,ETTC*,O,0,0,0,1,0,0,0,1,0,0,0,0,21,0,-1,334
484,692,527,704,Algérie,O,0,0,1,0,0,0,1,0,0,0,0,0,18,226,317,335
753,687,796,698,Appelé,O,0,0,1,0,0,0,1,0,0,0,0,0,19,60,313,330
1024,687,1054,699,Pays,O,0,0,1,0,0,0,1,1,0,0,0,0,0,4,319,-1
1058,687,1102,698,Appelé,O,0,0,1,0,0,0,1,0,0,0,0,0,34,30,315,336
41,707,74,716,19/02,O,1,0,0,0,0,0,0,1,1,0,0,0,21,6,321,337
80,707,134,716,21:16:03,O,0,0,0,0,0,0,0,1,1,0,0,0,21,36,322,338
170,707,238,716,002132392,O,1,0,0,0,1,0,0,1,1,0,0,0,21,40,323,339
278,707,332,716,00:13:57,O,0,0,0,0,0,0,0,1,1,0,0,0,21,14,324,340
346,707,400,716,00:13:57,O,0,0,0,0,0,0,0,1,1,0,0,0,21,16,325,341
416,707,458,716,France,O,0,0,1,0,0,0,1,1,0,0,0,0,21,110,326,342
568,707,602,717,"0,000",O,1,0,0,0,0,0,0,1,1,0,0,0,20,0,-1,343
915,701,975,711,hh:mm:ss,O,0,0,0,0,0,0,0,1,0,0,0,0,6,0,-1,332
610,717,644,726,07/02,O,1,0,0,0,0,0,0,1,1,0,0,0,36,7,329,352
651,717,704,726,11:39:10,O,0,0,0,0,0,0,0,1,1,0,0,0,36,40,330,352
744,717,805,726,21356165,O,1,0,0,0,1,0,0,1,1,0,0,0,36,43,331,354
848,717,902,726,00:00:13,O,0,0,0,0,0,0,0,1,1,0,0,0,0,15,332,-1
917,717,971,726,00:01:00,O,0,0,0,0,0,0,0,1,1,0,0,0,0,15,333,-1
986,717,1028,726,France,O,0,0,1,0,0,0,1,1,0,0,0,0,78,111,334,371
1139,717,1172,728,"1,000",O,1,0,0,0,0,0,0,1,1,0,0,0,34,0,-1,355
484,722,527,734,Algérie,O,0,0,1,0,0,0,1,0,0,0,0,0,17,612,334,344
1054,732,1097,743,Algérie,O,0,0,1,0,0,0,1,0,0,0,0,0,0,0,-1,-1
41,737,74,746,19/02,O,1,0,0,0,0,0,0,1,1,0,0,0,21,6,338,345
80,737,134,746,21:30:00,O,0,0,0,0,0,0,0,1,1,0,0,0,21,36,339,346
170,737,238,746,002132392,O,1,0,0,0,1,0,0,1,1,0,0,0,21,40,340,347
278,737,332,746,00:05:04,O,0,0,0,0,0,0,0,1,1,0,0,0,21,14,341,348
346,737,400,746,00:05:04,O,0,0,0,0,0,0,0,1,1,0,0,0,21,16,342,349
416,737,458,746,France,O,0,0,1,0,0,0,1,1,0,0,0,0,21,110,343,350
568,737,602,747,"0,000",O,1,0,0,0,0,0,0,1,1,0,0,0,20,452,336,351
484,751,527,763,Algérie,O,0,0,1,0,0,0,1,0,0,0,0,0,19,0,-1,356
40,767,74,776,21/02,O,1,0,0,0,0,0,0,1,1,0,0,0,20,6,346,361
80,767,134,776,20:14:25,O,0,0,0,0,0,0,0,1,1,0,0,0,20,36,347,362
170,767,238,776,002132392,O,1,0,0,0,1,0,0,1,1,0,0,0,20,40,348,363
278,767,332,776,00:21:50,O,0,0,0,0,0,0,0,1,1,0,0,0,20,14,349,364
346,767,400,776,00:21:50,O,0,0,0,0,0,0,0,1,1,0,0,0,20,16,350,365
416,767,458,776,France,O,0,0,1,0,0,0,1,1,0,0,0,0,20,110,351,366
568,767,602,778,"0,000",O,1,0,0,0,0,0,0,1,1,0,0,0,18,92,353,367
613,762,689,772,SMS/MMS,O,0,0,0,1,0,0,0,1,0,0,0,0,13,5,353,358
694,764,727,772,vers,O,0,0,0,0,0,0,1,1,0,0,0,0,13,14,354,359
741,762,836,772,international,O,0,0,0,0,0,0,1,1,0,0,0,0,13,309,355,360
1145,762,1174,774,"1,20",O,1,0,0,0,0,0,0,1,1,0,0,0,30,0,-1,372
484,782,527,793,Algérie,O,0,0,1,0,0,0,1,0,0,0,0,0,19,100,358,373
613,788,621,798,y,O,0,0,0,0,0,0,1,1,0,0,0,0,6,6,358,368
627,785,688,798,compris,O,0,0,0,0,0,0,1,1,0,0,0,0,6,7,359,368
695,785,715,795,les,O,0,0,0,0,0,0,1,1,0,0,0,0,54,6,360,390
721,785,798,795,DOM-TOM,O,0,0,0,1,0,0,0,1,0,0,0,0,9,0,-1,370
40,796,74,806,23/02,O,1,0,0,0,0,0,0,1,1,0,0,0,20,7,362,374
81,796,132,806,14:05:21,O,0,0,0,0,0,0,0,1,1,0,0,0,20,38,363,375
170,796,238,806,002132392,O,1,0,0,0,1,0,0,1,1,0,0,0,20,40,364,376
278,796,332,806,00:18:23,O,0,0,0,0,0,0,0,1,1,0,0,0,20,14,365,377
346,796,400,806,00:18:23,O,0,0,0,0,0,0,0,1,1,0,0,0,21,16,366,378
416,796,458,806,France,O,0,0,1,0,0,0,1,1,0,0,0,0,20,110,367,379
568,796,602,807,"0,000",O,1,0,0,0,0,0,0,1,1,0,0,0,20,0,-1,380
615,804,643,813,Date,O,0,0,1,0,0,0,1,1,0,0,0,0,21,16,369,383
659,804,696,813,Heure,O,0,0,1,0,0,0,1,1,0,0,0,0,21,54,370,384
750,804,799,813,Numéro,O,0,0,1,0,0,0,1,0,0,0,0,0,6,187,371,381
986,804,1016,816,Pays,O,0,0,1,0,0,0,1,1,0,0,0,0,18,128,372,386
1144,804,1173,813,Coat,O,0,0,1,0,0,0,1,1,0,0,0,0,6,0,-1,382
484,812,527,824,Algérie,O,0,0,1,0,0,0,1,0,0,0,0,0,17,0,-1,388
40,826,74,836,23/02,O,1,0,0,0,0,0,0,1,1,0,0,0,21,6,375,394
80,826,134,836,20:19:04,O,0,0,0,0,0,0,0,1,1,0,0,0,21,36,376,395
170,826,238,836,002132392,O,1,0,0,0,1,0,0,1,1,0,0,0,21,40,377,396
278,826,332,836,01:00:00,O,0,0,0,0,0,0,0,1,1,0,0,0,21,14,378,397
346,827,400,836,01:00:00,O,0,0,0,0,0,0,0,1,1,0,0,0,21,16,379,398
416,826,458,836,France,O,0,0,1,0,0,0,1,1,0,0,0,0,21,110,380,399
568,827,602,837,"0,000",O,1,0,0,0,0,0,0,1,1,0,0,0,20,0,-1,400
753,819,796,831,Appelé,O,0,0,1,0,0,0,1,0,0,0,0,0,3,336,382,385
1132,819,1176,829,€TTC*,O,0,0,0,1,0,0,0,0,0,1,0,0,5,0,-1,387
610,834,644,844,07/02,O,1,0,0,0,0,0,0,1,1,0,0,0,5,8,384,389
652,834,702,844,11:32:31,O,0,0,0,0,0,0,0,1,1,0,0,0,5,42,385,390
744,834,805,844,21356165,O,1,0,0,0,1,0,0,1,1,0,0,0,5,181,386,391
986,834,1028,844,France,O,0,0,1,0,0,0,1,1,0,0,0,0,5,110,387,392
1138,834,1172,845,"0,300",O,1,0,0,0,0,0,0,1,1,0,0,0,4,0,-1,393
484,841,527,853,Algérie,O,0,0,1,0,0,0,1,0,0,0,0,0,18,0,-1,406
611,849,644,858,14/02,O,1,0,0,0,0,0,0,1,1,0,0,0,5,6,390,401
650,849,704,858,09:06:57,O,0,0,0,0,0,0,0,1,1,0,0,0,5,32,391,402
736,849,812,858,0021377274,O,1,0,0,0,1,0,0,1,1,0,0,0,5,174,392,403
986,849,1028,858,France,O,0,0,1,0,0,0,1,1,0,0,0,0,5,110,393,404
1138,849,1172,860,"0,300",O,1,0,0,0,0,0,0,1,1,0,0,0,3,0,-1,405
40,857,74,866,23/02,O,1,0,0,0,0,0,0,1,1,0,0,0,20,6,395,412
80,857,134,866,21:19:25,O,0,0,0,0,0,0,0,1,1,0,0,0,20,36,396,413
170,857,238,866,002132392,O,1,0,0,0,1,0,0,1,1,0,0,0,20,40,397,414
278,857,332,866,00:04:14,O,0,0,0,0,0,0,0,1,1,0,0,0,20,14,398,415
346,857,400,866,00:04:14,O,0,0,0,0,0,0,0,1,1,0,0,0,20,16,399,416
416,857,458,866,France,O,0,0,1,0,0,0,1,1,0,0,0,0,20,110,400,417
568,857,602,867,"0,000",O,1,0,0,0,0,0,0,1,1,0,0,0,19,0,-1,418
610,863,644,872,23/02,O,1,0,0,0,0,0,0,1,1,0,0,0,6,6,402,407
650,863,704,872,20:38:03,O,0,0,0,0,0,0,0,1,1,0,0,0,6,40,403,408
744,863,805,872,21356165,O,1,0,0,0,1,0,0,1,1,0,0,0,6,181,404,409
986,863,1028,872,France,O,0,0,1,0,0,0,1,1,0,0,0,0,6,110,405,410
1138,863,1172,874,0:300,O,0,0,0,0,0,0,0,1,1,0,0,0,4,0,-1,411
484,871,527,883,Algérie,O,0,0,1,0,0,0,1,0,0,0,0,0,19,83,407,419
610,878,645,887,03/03,O,1,0,0,0,0,0,0,1,1,0,0,0,19,6,408,427
651,878,704,887,18:43:18,O,0,0,0,0,0,0,0,1,1,0,0,0,19,40,409,427
744,878,805,887,21355560,O,1,0,0,0,1,0,0,1,1,0,0,0,24,181,410,429
986,878,1028,887,France,O,0,0,1,0,0,0,1,1,0,0,0,0,0,110,411,-1
1138,878,1172,888,"0,300",O,1,0,0,0,0,0,0,1,1,0,0,0,18,0,-1,431
40,886,74,896,24/02,O,1,0,0,0,0,0,0,1,1,0,0,0,20,7,413,420
81,886,134,896,16:28:48,O,0,0,0,0,0,0,0,1,1,0,0,0,20,36,414,421
170,886,238,896,002132392,O,1,0,0,0,1,0,0,1,1,0,0,0,20,40,415,422
278,886,332,896,00:15:08,O,0,0,0,0,0,0,0,1,1,0,0,0,20,14,416,423
346,886,400,896,00:15:08,O,0,0,0,0,0,0,0,1,1,0,0,0,20,16,417,424
416,886,458,896,France,O,0,0,1,0,0,0,1,1,0,0,0,0,20,110,418,425
568,886,602,897,"0,000",O,1,0,0,0,0,0,0,1,1,0,0,0,19,0,-1,426
484,902,527,913,Algérie,O,0,0,1,0,0,0,1,0,0,0,0,0,18,84,427,432
40,916,74,926,25/02,O,1,0,0,0,0,0,0,1,1,0,0,0,20,7,421,433
81,916,134,926,19:58:43,O,0,0,0,0,0,0,0,1,1,0,0,0,20,36,422,434
170,916,238,926,002132392,O,1,0,0,0,1,0,0,1,1,0,0,0,20,40,423,435
278,916,332,926,00:05:10,O,0,0,0,0,0,0,0,1,1,0,0,0,20,14,424,436
346,916,400,926,00:05:10,O,0,0,0,0,0,0,0,1,1,0,0,0,20,16,425,437
416,916,458,926,France,O,0,0,1,0,0,0,1,1,0,0,0,0,20,110,426,438
568,916,602,927,0000,O,1,0,0,0,1,0,0,1,1,0,0,0,19,9,427,439
611,906,675,924,Total,O,0,0,1,0,0,0,1,1,0,0,0,0,0,11,428,-1
686,906,716,924,de,O,0,0,0,0,0,0,1,1,0,0,0,0,0,10,429,-1
726,911,773,924,vos,O,0,0,0,0,0,0,1,1,0,0,0,0,0,10,430,-1
783,907,997,924,consommations,O,0,0,0,0,0,0,1,1,0,0,0,0,0,114,431,-1
1111,906,1163,928,"2,20",TOTAL,1,0,0,0,0,0,0,1,1,0,0,0,0,0,-1,-1
484,931,527,943,Algérie,O,0,0,1,0,0,0,1,0,0,0,0,0,18,0,-1,440
40,946,74,956,25/02,O,1,0,0,0,0,0,0,1,1,0,0,0,20,6,434,441
80,946,134,956,20:04:09,O,0,0,0,0,0,0,0,1,1,0,0,0,20,36,435,442
170,946,238,956,002132392,O,1,0,0,0,1,0,0,1,1,0,0,0,20,40,436,443
278,946,332,956,00:10:19,O,0,0,0,0,0,0,0,1,1,0,0,0,20,14,437,444
346,946,400,956,00:10:19,O,0,0,0,0,0,0,0,1,1,0,0,0,20,16,438,445
416,946,458,956,France,O,0,0,1,0,0,0,1,1,0,0,0,0,20,110,439,446
568,946,602,957,"0,000",O,1,0,0,0,0,0,0,1,1,0,0,0,19,0,-1,447
484,961,527,973,Algérie,O,0,0,1,0,0,0,1,0,0,0,0,0,18,0,-1,448
40,976,74,985,28/02,O,1,0,0,0,0,0,0,1,1,0,0,0,21,6,442,449
80,976,132,985,21:24:41,O,0,0,0,0,0,0,0,1,1,0,0,0,21,38,443,450
170,976,238,985,002132392,O,1,0,0,0,1,0,0,1,1,0,0,0,21,40,444,451
278,976,332,985,00:05:19,O,0,0,0,0,0,0,0,1,1,0,0,0,21,14,445,452
346,976,400,985,00:05:19,O,0,0,0,0,0,0,0,1,1,0,0,0,21,16,446,453
416,976,458,985,France,O,0,0,1,0,0,0,1,1,0,0,0,0,21,110,447,454
568,976,602,987,"0,000",O,1,0,0,0,0,0,0,1,1,0,0,0,19,0,-1,455
484,991,527,1003,Algérie,O,0,0,1,0,0,0,1,0,0,0,0,0,18,0,-1,456
40,1006,74,1015,28/02,O,1,0,0,0,0,0,0,1,1,0,0,0,21,6,450,457
80,1006,134,1015,21:30:00,O,0,0,0,0,0,0,0,1,1,0,0,0,21,36,451,458
170,1006,238,1015,002132392,O,1,0,0,0,1,0,0,1,1,0,0,0,21,40,452,459
278,1006,332,1015,00:02:39,O,0,0,0,0,0,0,0,1,1,0,0,0,21,14,453,460
346,1006,400,1015,00:02:39,O,0,0,0,0,0,0,0,1,1,0,0,0,21,16,454,461
416,1006,458,1015,France,O,0,0,1,0,0,0,1,1,0,0,0,0,21,110,455,462
568,1006,602,1017,"0,000",O,1,0,0,0,0,0,0,1,1,0,0,0,19,0,-1,463
484,1021,527,1033,Algérie,O,0,0,1,0,0,0,1,0,0,0,0,0,18,0,-1,464
40,1036,74,1046,01/03,O,1,0,0,0,0,0,0,1,1,0,0,0,20,7,458,465
81,1036,132,1046,14:55:51,O,0,0,0,0,0,0,0,1,1,0,0,0,20,38,459,466
170,1036,238,1046,002132392,O,1,0,0,0,1,0,0,1,1,0,0,0,20,40,460,467
278,1036,332,1046,00:04:16,O,0,0,0,0,0,0,0,1,1,0,0,0,20,14,461,468
346,1036,400,1046,00:04:16,O,0,0,0,0,0,0,0,1,1,0,0,0,20,16,462,469
416,1036,458,1046,France,O,0,0,1,0,0,0,1,1,0,0,0,0,20,110,463,470
568,1036,602,1047,"0,000",O,1,0,0,0,0,0,0,1,1,0,0,0,19,0,-1,471
484,1051,527,1063,Algérie,O,0,0,1,0,0,0,1,0,0,0,0,0,18,0,-1,472
40,1066,74,1075,01/03,O,1,0,0,0,0,0,0,1,1,0,0,0,21,7,466,473
81,1066,134,1075,17:49:48,O,0,0,0,0,0,0,0,1,1,0,0,0,21,36,467,474
170,1066,238,1075,002132392,O,1,0,0,0,1,0,0,1,1,0,0,0,21,40,468,475
278,1066,332,1075,00:03:27,O,0,0,0,0,0,0,0,1,1,0,0,0,21,14,469,476
346,1066,400,1075,00:03:27,O,0,0,0,0,0,0,0,1,1,0,0,0,21,16,470,477
416,1066,458,1075,France,O,0,0,1,0,0,0,1,1,0,0,0,0,21,110,471,478
568,1066,602,1076,"0,000",O,1,0,0,0,0,0,0,1,1,0,0,0,20,0,-1,479
484,1081,527,1093,Algérie,O,0,0,1,0,0,0,1,0,0,0,0,0,18,0,-1,480
40,1096,74,1105,01/03,O,1,0,0,0,0,0,0,1,1,0,0,0,21,7,474,481
81,1096,134,1105,17:53:42,O,0,0,0,0,0,0,0,1,1,0,0,0,21,36,475,482
170,1096,238,1105,002132392,O,1,0,0,0,1,0,0,1,1,0,0,0,21,40,476,483
278,1096,330,1105,00:01:31,O,0,0,0,0,0,0,0,1,1,0,0,0,21,16,477,484
346,1096,399,1105,00:01:31,O,0,0,0,0,0,0,0,1,1,0,0,0,21,17,478,485
416,1096,458,1105,France,O,0,0,1,0,0,0,1,1,0,0,0,0,21,110,479,486
568,1096,602,1106,"0,000",O,1,0,0,0,0,0,0,1,1,0,0,0,20,0,-1,487
484,1111,527,1122,Algérie,O,0,0,1,0,0,0,1,0,0,0,0,0,19,0,-1,488
40,1126,74,1135,02/03,O,1,0,0,0,0,0,0,1,1,0,0,0,20,7,482,489
81,1126,134,1135,10:46:25,O,0,0,0,0,0,0,0,1,1,0,0,0,20,36,483,490
170,1126,238,1135,002132392,O,1,0,0,0,1,0,0,1,1,0,0,0,20,40,484,491
278,1126,332,1135,00:25:23,O,0,0,0,0,0,0,0,1,1,0,0,0,20,14,485,492
346,1126,400,1135,00:25:23,O,0,0,0,0,0,0,0,1,1,0,0,0,20,16,486,493
416,1126,458,1135,France,O,0,0,1,0,0,0,1,1,0,0,0,0,20,110,487,494
568,1126,602,1137,"0,000",O,1,0,0,0,0,0,0,1,1,0,0,0,18,0,-1,495
484,1141,527,1153,Algérie,O,0,0,1,0,0,0,1,0,0,0,0,0,18,0,-1,496
40,1155,74,1165,02/03,O,1,0,0,0,0,0,0,1,1,0,0,0,21,7,490,497
81,1155,134,1165,15:25:13,O,0,0,0,0,0,0,0,1,1,0,0,0,21,36,491,498
170,1155,238,1165,002132392,O,1,0,0,0,1,0,0,1,1,0,0,0,21,40,492,499
278,1155,332,1165,00:01:43,O,0,0,0,0,0,0,0,1,1,0,0,0,21,14,493,500
346,1155,400,1165,00:01:43,O,0,0,0,0,0,0,0,1,1,0,0,0,21,16,494,501
416,1155,458,1165,France,O,0,0,1,0,0,0,1,1,0,0,0,0,21,110,495,502
568,1155,602,1166,"0,000",O,1,0,0,0,0,0,0,1,1,0,0,0,20,0,-1,503
484,1171,527,1183,Algérie,O,0,0,1,0,0,0,1,0,0,0,0,0,17,0,-1,504
40,1186,74,1195,03/03,O,1,0,0,0,0,0,0,1,1,0,0,0,36,6,498,505
80,1186,134,1195,20:43:20,O,0,0,0,0,0,0,0,1,1,0,0,0,35,36,499,506
170,1186,238,1195,002132392,O,1,0,0,0,1,0,0,1,1,0,0,0,36,40,500,507
278,1186,332,1195,00:12:05,O,0,0,0,0,0,0,0,1,1,0,0,0,35,14,501,509
346,1186,401,1195,00:12:05,O,0,0,0,0,0,0,0,1,1,0,0,0,36,15,502,510
416,1186,458,1195,France,O,0,0,1,0,0,0,1,1,0,0,0,0,78,110,503,526
568,1186,602,1196,"0,000",O,1,0,0,0,0,0,0,1,1,0,0,0,35,0,-1,511
484,1200,527,1212,Algérie,O,0,0,1,0,0,0,1,0,0,0,0,0,252,0,-1,591
43,1231,102,1241,Internet,O,0,0,1,0,0,0,1,1,0,0,0,0,11,5,506,512
107,1230,182,1244,décompté,O,0,0,0,0,0,0,1,0,0,0,0,0,8,5,507,513
187,1231,205,1241,de,O,0,0,0,0,0,0,1,1,0,0,0,0,11,5,508,516
210,1231,249,1241,votre,O,0,0,0,0,0,0,1,1,0,0,0,0,11,5,509,517
254,1230,300,1241,forfait,O,0,0,0,0,0,0,1,1,0,0,0,0,11,5,510,519
305,1231,371,1244,principal,O,0,0,0,0,0,0,1,1,0,0,0,0,8,203,511,520
574,1231,604,1243,"0,00",O,1,0,0,0,0,0,0,1,1,0,0,0,30,0,-1,525
47,1252,90,1263,Rappel,O,0,0,1,0,0,0,1,1,0,0,0,0,10,14,513,521
104,1252,125,1261,ko,O,0,0,0,0,0,0,1,1,0,0,0,0,0,5,514,-1
130,1254,137,1258,=,O,0,0,0,0,0,0,0,1,0,0,0,0,0,6,515,-1
143,1252,172,1261,1024,O,1,0,0,0,1,0,0,1,1,0,0,0,0,5,516,-1
177,1252,217,1262,"octets,",O,0,0,0,0,0,0,0,1,0,0,0,0,0,7,517,-1
224,1252,249,1261,1Mo,O,0,0,1,0,0,0,0,1,1,0,0,0,0,5,518,-1
254,1254,261,1258,=,O,0,0,0,0,0,0,0,1,0,0,0,0,0,6,519,-1
267,1252,296,1261,1024,O,1,0,0,0,1,0,0,1,1,0,0,0,0,6,520,-1
302,1252,315,1261,ko,O,0,0,0,0,0,0,1,1,0,0,0,0,0,0,-1,-1
44,1273,73,1283,Date,O,0,0,1,0,0,0,1,1,0,0,0,0,20,277,522,527
350,1274,398,1283,Volume,O,0,0,1,0,0,0,1,1,0,0,0,0,20,18,526,529
528,1273,557,1283,Coat,O,0,0,1,0,0,0,1,1,0,0,0,0,181,5,524,591
562,1273,569,1283,€,O,0,0,0,0,0,1,0,0,0,1,0,0,0,5,525,-1
574,1273,606,1283,TTC*,O,0,0,0,1,0,0,0,1,0,0,0,0,20,0,-1,532
416,1273,446,1285,Pays,O,0,0,1,0,0,0,1,1,0,0,0,0,18,82,523,531
40,1303,74,1312,06/02,O,1,0,0,0,0,0,0,1,1,0,0,0,6,262,528,533
336,1303,358,1312,260,O,1,0,0,0,1,0,0,1,1,0,0,0,6,6,529,534
364,1303,382,1312,Mo,O,0,0,1,0,0,0,1,1,0,0,0,0,6,5,530,535
387,1303,409,1312,608,O,1,0,0,0,1,0,0,1,1,0,0,0,6,7,531,536
416,1303,458,1312,France,O,0,0,1,0,0,0,1,1,0,0,0,0,6,110,532,537
568,1303,602,1314,"0,000",O,1,0,0,0,0,0,0,1,1,0,0,0,4,0,-1,538
40,1318,74,1327,07/02,O,1,0,0,0,0,0,0,1,1,0,0,0,5,267,534,539
341,1318,355,1327,15,O,1,0,0,0,1,0,0,1,1,0,0,0,5,5,535,540
360,1318,378,1327,Mo,O,0,0,1,0,0,0,1,1,0,0,0,0,5,6,536,541
384,1318,406,1327,582,O,1,0,0,0,1,0,0,1,1,0,0,0,5,10,537,542
416,1318,458,1327,France,O,0,0,1,0,0,0,1,1,0,0,0,0,5,110,538,543
568,1318,602,1328,"0,000",O,1,0,0,0,0,0,0,1,1,0,0,0,4,0,-1,544
40,1332,74,1342,08/02,O,1,0,0,0,0,0,0,1,1,0,0,0,5,266,540,545
340,1332,355,1342,26,O,1,0,0,0,1,0,0,1,1,0,0,0,5,5,541,546
360,1332,378,1342,Mo,O,0,0,1,0,0,0,1,1,0,0,0,0,5,5,542,547
383,1332,406,1342,594,O,1,0,0,0,1,0,0,1,1,0,0,0,5,10,543,548
416,1332,458,1342,France,O,0,0,1,0,0,0,1,1,0,0,0,0,5,110,544,549
568,1332,602,1343,"0,000",O,1,0,0,0,0,0,0,1,1,0,0,0,4,0,-1,550
40,1347,74,1356,09/02,O,1,0,0,0,0,0,0,1,1,0,0,0,5,266,546,551
340,1347,355,1356,95,O,1,0,0,0,1,0,0,1,1,0,0,0,5,5,547,552
360,1347,378,1356,Mo,O,0,0,1,0,0,0,1,1,0,0,0,0,5,5,548,553
383,1347,406,1356,702,O,1,0,0,0,1,0,0,1,1,0,0,0,5,10,549,554
416,1347,458,1356,France,O,0,0,1,0,0,0,1,1,0,0,0,0,5,110,550,555
568,1347,602,1357,"0,000",O,1,0,0,0,0,0,0,1,1,0,0,0,4,0,-1,556
41,1361,74,1371,10/02,O,1,0,0,0,0,0,0,1,1,0,0,0,5,270,552,557
344,1361,351,1371,6,O,1,0,0,0,1,0,0,1,1,0,0,0,5,5,553,558
356,1361,374,1371,Mo,O,0,0,1,0,0,0,1,1,0,0,0,0,5,5,554,559
379,1361,402,1371,990,O,1,0,0,0,1,0,0,1,1,0,0,0,5,14,555,560
416,1361,458,1371,France,O,0,0,1,0,0,0,1,1,0,0,0,0,5,110,556,561
568,1361,602,1372,"0,000",O,1,0,0,0,0,0,0,1,1,0,0,0,4,0,-1,562
41,1376,74,1385,11/02,O,1,0,0,0,0,0,0,1,1,0,0,0,5,266,558,563
340,1376,355,1385,47,O,1,0,0,0,1,0,0,1,1,0,0,0,5,5,559,564
360,1376,378,1385,Mo,O,0,0,1,0,0,0,1,1,0,0,0,0,5,5,560,565
383,1376,406,1385,306,O,1,0,0,0,1,0,0,1,1,0,0,0,5,10,561,566
416,1376,458,1385,France,O,0,0,1,0,0,0,1,1,0,0,0,0,5,110,562,567
568,1376,602,1387,"0,000",O,1,0,0,0,0,0,0,1,1,0,0,0,3,0,-1,568
41,1390,74,1400,12/02,O,1,0,0,0,0,0,0,1,1,0,0,0,5,263,564,569
337,1390,357,1400,191,O,1,0,0,0,1,0,0,1,1,0,0,0,5,7,565,570
364,1390,382,1400,Mo,O,0,0,1,0,0,0,1,1,0,0,0,0,5,5,566,571
387,1390,409,1400,515,O,1,0,0,0,1,0,0,1,1,0,0,0,5,7,567,572
416,1390,458,1400,France,O,0,0,1,0,0,0,1,1,0,0,0,0,5,110,568,573
568,1390,602,1401,"0,000",O,1,0,0,0,0,0,0,1,1,0,0,0,4,0,-1,574
41,1405,74,1414,13/02,O,1,0,0,0,0,0,0,1,1,0,0,0,6,263,570,575
337,1405,358,1414,158,O,1,0,0,0,1,0,0,1,1,0,0,0,6,6,571,576
364,1405,382,1414,Mo,O,0,0,1,0,0,0,1,1,0,0,0,0,6,4,572,577
386,1405,409,1414,493,O,1,0,0,0,1,0,0,1,1,0,0,0,6,7,573,578
416,1405,458,1414,France,O,0,0,1,0,0,0,1,1,0,0,0,0,6,110,574,579
568,1405,602,1416,"0,000",O,1,0,0,0,0,0,0,1,1,0,0,0,4,0,-1,580
41,1420,74,1429,14/02,O,1,0,0,0,0,0,0,1,1,0,0,0,42,266,576,581
340,1420,355,1429,43,O,1,0,0,0,1,0,0,1,1,0,0,0,45,5,577,587
360,1420,378,1429,Mo,O,0,0,1,0,0,0,1,1,0,0,0,0,45,5,578,587
383,1420,406,1429,078,O,1,0,0,0,1,0,0,1,1,0,0,0,43,10,579,588
416,1420,458,1429,France,O,0,0,1,0,0,0,1,1,0,0,0,0,42,110,580,589
568,1420,602,1430,"0,000",O,1,0,0,0,0,0,0,1,1,0,0,0,41,0,-1,592
27,1471,58,1482,*Les,O,0,0,1,0,0,0,0,1,0,0,0,0,0,6,582,-1
64,1472,129,1482,montants,O,0,0,0,0,0,0,1,1,0,0,0,0,0,6,583,-1
135,1471,195,1482,unitaires,O,0,0,0,0,0,0,1,1,0,0,0,0,0,5,584,-1
200,1472,230,1482,sont,O,0,0,0,0,0,0,1,1,0,0,0,0,0,5,585,-1
235,1471,296,1483,"arrondis,",O,0,0,0,0,0,0,0,1,0,0,0,0,0,7,586,-1
303,1471,329,1482,leur,O,0,0,0,0,0,0,1,1,0,0,0,0,0,5,587,-1
334,1474,386,1482,somme,O,0,0,0,0,0,0,1,1,0,0,0,0,0,5,588,-1
391,1472,422,1484,peut,O,0,0,0,0,0,0,1,1,0,0,0,0,0,5,589,-1
427,1471,477,1482,différer,O,0,0,0,0,0,0,1,0,0,0,0,0,0,5,590,-1
482,1471,498,1482,du,O,0,0,0,0,0,0,1,1,0,0,0,0,0,7,591,-1
505,1464,556,1492,montant,O,0,0,0,0,0,0,1,1,0,0,0,0,0,10,592,-1
566,1471,596,1482,total,O,0,0,0,0,0,0,1,1,0,0,0,0,0,0,-1,-1
