xmin,ymin,xmax,ymax,Object,label,like_num,is_punct,is_title,is_upper,is_digit,is_currency,is_alpha,is_ascii,hasNumbers,hascurrency,like_email,like_url,dh,dv,v_hor,v_vert
868,21,871,65,|,O,0,0,0,0,0,0,0,1,0,0,0,0,15,55,1,6
926,21,930,65,|,O,0,0,0,0,0,0,0,1,0,0,0,0,70,54,2,19
984,21,988,65,|,O,0,0,0,0,0,0,0,1,0,0,0,0,15,54,3,9
1042,21,1046,65,|,O,0,0,0,0,0,0,0,1,0,0,0,0,15,0,-1,10
505,37,571,94,E,O,0,0,1,1,0,0,1,1,0,0,0,0,1,56,5,12
627,37,687,93,5,O,1,0,0,0,1,0,0,1,1,0,0,0,9,139,6,15
826,80,875,96,"Paris,",O,0,0,1,0,0,0,0,1,0,0,0,0,39,9,7,18
884,80,898,94,le,O,0,0,0,0,0,0,1,1,0,0,0,0,41,8,8,18
906,80,926,94,19,DATE,1,0,0,0,1,0,0,1,1,0,0,0,41,8,9,18
934,80,990,94,MARS,DATE,0,0,0,1,0,0,1,1,0,0,0,0,41,37,10,19
1027,80,1070,94,2019,DATE,1,0,0,0,1,0,0,1,1,0,0,0,72,0,-1,25
533,102,549,112,rté,COMPANY_NAME,0,0,0,0,0,0,1,0,0,0,0,0,10,4,12,16
553,95,559,122,+,COMPANY_NAME,0,0,0,0,0,0,0,1,0,0,0,0,0,5,13,16
564,99,587,117,Égalité,COMPANY_NAME,0,0,1,0,0,0,1,0,0,0,0,0,5,25,14,16
612,95,617,122,+,COMPANY_NAME,0,0,0,0,0,0,0,1,0,0,0,0,0,5,15,17
622,102,673,112,Fraterni,COMPANY_NAME,0,0,1,0,0,0,1,1,0,0,0,0,10,0,-1,17
505,122,597,135,REPUBLIQUE,COMPANY_NAME,0,0,0,1,0,0,1,1,0,0,0,0,0,7,17,-1
604,122,682,135,FRANÇAISE,COMPANY_NAME,0,0,0,1,0,0,1,0,0,0,0,0,0,0,-1,-1
854,135,917,155,AVIS,O,0,0,0,1,0,0,1,1,0,0,0,0,11,11,19,23
928,135,982,155,DES,O,0,0,0,1,0,0,1,1,0,0,0,0,11,0,-1,25
99,147,211,176,OFII,LOGO,0,0,0,1,0,0,1,1,0,0,0,0,-5,747,25,21
115,171,146,199,prançae,O,0,0,0,0,0,0,1,0,0,0,0,0,-5,-25,26,26
153,171,160,199,ox,O,0,0,0,0,0,0,1,1,0,0,0,0,15,638,23,28
798,166,920,186,SOMMES,O,0,0,0,1,0,0,1,1,0,0,0,0,27,8,24,30
928,167,947,185,A,O,0,0,1,1,0,0,1,1,0,0,0,0,10,11,25,27
958,166,1050,185,PAYER,O,0,0,0,1,0,0,1,1,0,0,0,0,28,0,-1,32
121,194,124,198,Fe,O,0,0,1,0,0,0,1,1,0,0,0,0,16,29,22,28
935,195,952,206,ur,O,0,0,0,0,0,0,1,1,0,0,0,0,7,0,-1,32
110,214,181,231,Agence,O,0,0,1,0,0,0,1,1,0,0,0,0,4,8,29,34
189,214,289,231,comptable,O,0,0,0,0,0,0,1,1,0,0,0,0,4,474,30,36
763,213,864,226,l'embauche,O,0,0,0,0,0,0,0,1,0,0,0,0,0,7,31,-1
871,213,907,226,d'un,O,0,0,0,0,0,0,0,1,0,0,0,0,10,7,32,37
914,213,1004,226,travailleur,O,0,0,0,0,0,0,1,1,0,0,0,0,7,6,33,38
1010,213,1084,230,étranger,O,0,0,0,0,0,0,1,0,0,0,0,0,104,0,-1,54
110,235,136,250,"44,",COMPANY_ADDRESS,1,0,0,0,0,0,0,1,1,0,0,0,4,9,35,39
145,237,172,248,rue,COMPANY_ADDRESS,0,0,0,0,0,0,1,1,0,0,0,0,6,8,36,39
180,235,243,251,Bargue,COMPANY_ADDRESS,0,0,1,0,0,0,1,1,0,0,0,0,4,635,37,40
878,236,898,247,en,O,0,0,0,0,0,0,1,1,0,0,0,0,83,9,38,51
907,233,968,247,France,O,0,0,1,0,0,0,1,1,0,0,0,0,83,0,-1,51
111,254,165,268,75732,COMPANY_ADDRESS,1,0,0,0,1,0,0,1,1,0,0,0,6,8,40,44
173,255,231,268,PARIS,COMPANY_ADDRESS,0,0,0,1,0,0,1,1,0,0,0,0,6,8,41,44
239,254,307,267,CEDEX,COMPANY_ADDRESS,0,0,0,1,0,0,1,1,0,0,0,0,7,8,42,44
315,254,335,267,15,COMPANY_ADDRESS,1,0,0,0,1,0,0,1,1,0,0,0,7,0,-1,44
626,273,648,282,888,O,1,0,0,0,1,0,0,1,1,0,0,0,12,0,-1,45
111,274,327,291,recettes-amiable@ofii.fr,O,0,0,0,0,0,0,0,1,0,0,1,0,0,299,43,-1
626,294,718,307,A.D.B.I.,CLIENT_NAME,0,0,1,1,0,0,0,1,0,0,0,0,8,0,-1,46
627,315,637,329,8,CLIENT_ADDRESS,1,0,0,0,1,0,0,1,1,0,0,0,51,14,47,55
651,316,685,329,RUE,CLIENT_ADDRESS,0,0,0,1,0,0,1,1,0,0,0,0,51,15,48,55
700,315,781,329,ROSSINI,CLIENT_ADDRESS,0,0,0,1,0,0,1,1,0,0,0,0,51,0,-1,56
971,332,991,353,p,O,0,0,0,0,0,0,1,1,0,0,0,0,-14,-8,52,52
1070,339,1130,365,PA!,O,0,0,0,1,0,0,0,1,0,0,0,0,146,0,-1,81
837,330,944,379,Pane,O,0,0,1,0,0,0,1,1,0,0,0,0,129,27,49,77
983,339,988,342,D,O,0,0,1,1,0,0,1,1,0,0,0,0,0,53,54,-1
1013,344,1020,353,9,O,1,0,0,0,1,0,0,1,1,0,0,0,0,21,54,-1
1041,334,1078,374,o,O,0,0,0,0,0,0,1,1,0,0,0,0,137,-8,50,81
627,380,686,392,75009,CLIENT_ADDRESS,1,0,0,0,1,0,0,1,1,0,0,0,116,14,56,72
700,380,758,393,PARIS,CLIENT_ADDRESS,0,0,0,1,0,0,1,1,0,0,0,0,118,0,-1,73
112,472,185,485,"Madame,",O,0,0,1,0,0,0,0,1,0,0,0,0,22,8,58,59
193,472,270,486,"Monsieur,",O,0,0,1,0,0,0,0,1,0,0,0,0,21,0,-1,62
112,507,130,517,Le,O,0,0,1,0,0,0,1,1,0,0,0,0,7,7,60,82
137,507,175,518,code,O,0,0,0,0,0,0,1,1,0,0,0,0,6,6,61,82
181,507,200,518,de,O,0,0,0,0,0,0,1,1,0,0,0,0,6,8,62,82
208,507,266,518,l'entrée,O,0,0,0,0,0,0,0,0,0,0,0,0,6,6,63,84
272,507,286,518,et,O,0,0,0,0,0,0,1,1,0,0,0,0,6,7,64,84
293,507,311,518,du,O,0,0,0,0,0,0,1,1,0,0,0,0,6,8,65,84
319,507,369,521,séjour,O,0,0,0,0,0,0,1,0,0,0,0,0,3,6,66,85
375,507,402,518,des,O,0,0,0,0,0,0,1,1,0,0,0,0,7,8,67,86
410,507,486,522,étrangers,O,0,0,0,0,0,0,1,0,0,0,0,0,3,7,68,86
493,508,507,519,et,O,0,0,0,0,0,0,1,1,0,0,0,0,6,7,69,88
514,508,532,519,du,O,0,0,0,0,0,0,1,1,0,0,0,0,6,8,70,89
540,508,575,519,droit,O,0,0,0,0,0,0,1,1,0,0,0,0,6,7,71,90
582,508,633,519,d'asile,O,0,0,0,0,0,0,0,1,0,0,0,0,6,7,72,90
640,508,694,522,prévoit,O,0,0,0,0,0,0,1,0,0,0,0,0,4,7,73,91
701,511,718,519,en,O,0,0,0,0,0,0,1,1,0,0,0,0,7,8,74,93
726,511,754,519,son,O,0,0,0,0,0,0,1,1,0,0,0,0,7,8,75,93
762,508,810,519,article,O,0,0,0,0,0,0,1,1,0,0,0,0,7,7,76,94
817,508,826,520,L,O,0,0,1,1,0,0,1,1,0,0,0,0,24,7,77,117
833,508,889,520,311-15,O,0,0,0,0,0,0,0,1,1,0,0,0,6,7,78,96
896,511,925,523,que,O,0,0,0,0,0,0,1,1,0,0,0,0,6,6,79,97
931,509,962,520,tout,O,0,0,0,0,0,0,1,1,0,0,0,0,6,7,80,98
969,509,1053,523,employeur,O,0,0,0,0,0,0,1,1,0,0,0,0,3,7,81,99
1060,511,1082,523,qui,O,0,0,0,0,0,0,1,1,0,0,0,0,3,0,-1,101
112,524,195,535,embauche,O,0,0,0,0,0,0,1,1,0,0,0,0,7,7,83,102
202,527,220,535,un,O,1,0,0,0,0,0,1,1,0,0,0,0,10,8,84,103
228,524,308,536,travailleur,O,0,0,0,0,0,0,1,1,0,0,0,0,6,7,85,104
315,524,382,540,étranger,O,0,0,0,0,0,0,1,0,0,0,0,0,3,7,86,106
389,525,455,540,"acquitte,",O,0,0,0,0,0,0,0,1,0,0,0,0,3,9,87,108
464,525,493,537,lors,O,0,0,0,0,0,0,1,1,0,0,0,0,9,7,88,109
500,525,519,537,de,O,0,0,0,0,0,0,1,1,0,0,0,0,7,7,89,110
526,525,538,537,la,O,0,0,0,0,0,0,1,1,0,0,0,0,9,8,90,111
546,525,618,540,première,O,0,0,0,0,0,0,1,0,0,0,0,0,3,7,91,112
625,526,675,537,entrée,O,0,0,0,0,0,0,1,0,0,0,0,0,7,7,92,114
682,528,700,537,en,O,0,0,0,0,0,0,1,1,0,0,0,0,45,7,93,130
707,526,763,537,France,O,0,0,1,0,0,0,1,1,0,0,0,0,7,7,94,115
770,526,789,537,de,O,0,0,0,0,0,0,1,1,0,0,0,0,7,7,95,116
796,526,819,537,cet,O,0,0,0,0,0,0,1,1,0,0,0,0,7,6,96,117
825,526,893,541,étranger,O,0,0,0,0,0,0,1,0,0,0,0,0,3,6,97,117
899,529,918,537,ou,O,0,0,0,0,0,0,1,1,0,0,0,0,7,8,98,118
926,526,954,537,lors,O,0,0,0,0,0,0,1,1,0,0,0,0,7,7,99,119
961,526,980,537,de,O,0,0,0,0,0,0,1,1,0,0,0,0,7,7,100,120
987,529,1004,537,sa,O,0,0,0,0,0,0,1,1,0,0,0,0,7,9,101,120
1013,526,1083,541,première,O,0,0,0,0,0,0,1,0,0,0,0,0,3,0,-1,120
112,542,193,554,admission,O,0,0,0,0,0,0,1,1,0,0,0,0,27,7,103,121
200,545,219,555,au,O,0,0,0,0,0,0,1,1,0,0,0,0,26,7,104,121
226,542,276,558,séjour,O,0,0,0,0,0,0,1,0,0,0,0,0,26,6,105,122
282,545,300,555,en,O,0,0,0,0,0,0,1,1,0,0,0,0,26,7,106,123
307,543,360,558,qualité,O,0,0,0,0,0,0,1,0,0,0,0,0,23,7,107,123
367,543,386,555,de,O,0,0,0,0,0,0,1,1,0,0,0,0,26,6,108,124
392,543,449,558,"salarié,",O,0,0,0,0,0,0,0,0,0,0,0,0,23,9,109,125
458,546,487,555,une,O,0,0,0,0,0,0,1,1,0,0,0,0,26,5,110,125
492,544,526,555,taxe,O,0,0,0,0,0,0,1,1,0,0,0,0,27,6,111,126
532,546,551,555,au,O,0,0,0,0,0,0,1,1,0,0,0,0,27,8,112,127
559,543,598,559,profit,O,0,0,0,0,0,0,1,1,0,0,0,0,23,8,113,127
606,544,624,556,de,O,0,0,0,0,0,0,1,1,0,0,0,0,26,7,114,127
631,544,686,556,l'Office,O,0,0,0,0,0,0,0,1,0,0,0,0,26,7,115,128
693,544,761,559,Français,O,0,0,1,0,0,0,1,0,0,0,0,0,23,7,116,130
768,544,787,556,de,O,0,0,0,0,0,0,1,1,0,0,0,0,44,7,117,153
794,544,898,559,l'Immigration,O,0,0,0,0,0,0,0,1,0,0,0,0,23,7,118,133
905,544,919,556,et,O,0,0,0,0,0,0,1,1,0,0,0,0,26,6,119,135
925,544,944,556,de,O,0,0,0,0,0,0,1,1,0,0,0,0,26,7,120,136
951,544,1044,560,l'Intégration,O,0,0,0,0,0,0,0,0,0,0,0,0,22,0,-1,136
111,581,232,593,Conformément,O,0,0,1,0,0,0,1,0,0,0,0,0,6,7,122,140
239,584,267,593,aux,O,0,0,0,0,0,0,1,1,0,0,0,0,7,7,123,142
274,581,331,593,articles,O,0,0,0,0,0,0,1,1,0,0,0,0,6,7,124,143
338,581,407,595,"L311-15,",O,0,0,1,1,0,0,0,1,1,0,0,0,4,9,125,145
416,581,501,593,D311-18-2,O,0,0,1,1,0,0,0,1,1,0,0,0,7,7,126,148
508,582,522,593,et,O,0,0,0,0,0,0,1,1,0,0,0,0,9,7,127,149
529,582,614,593,D311-18-3,O,0,0,1,1,0,0,0,1,1,0,0,0,7,7,128,150
621,582,639,593,du,O,0,0,0,0,0,0,1,1,0,0,0,0,7,8,129,150
647,582,685,594,code,O,0,0,0,0,0,0,1,1,0,0,0,0,6,7,130,151
692,582,711,594,de,O,0,0,0,0,0,0,1,1,0,0,0,0,6,7,131,152
718,582,775,594,l'entrée,O,0,0,0,0,0,0,0,0,0,0,0,0,6,7,132,152
782,582,796,594,et,O,0,0,0,0,0,0,1,1,0,0,0,0,6,7,133,153
803,582,821,594,du,O,0,0,0,0,0,0,1,1,0,0,0,0,9,7,134,154
828,582,878,597,séjour,O,0,0,0,0,0,0,1,0,0,0,0,0,3,6,135,155
884,582,912,594,des,O,0,0,0,0,0,0,1,1,0,0,0,0,6,7,136,155
919,582,995,597,étrangers,O,0,0,0,0,0,0,1,0,0,0,0,0,3,7,137,157
1002,583,1016,594,et,O,0,0,0,0,0,0,1,1,0,0,0,0,62,6,138,177
1022,582,1040,594,du,O,0,0,0,0,0,0,1,1,0,0,0,0,7,8,139,159
1048,583,1083,594,droit,O,0,0,0,0,0,0,1,1,0,0,0,0,7,0,-1,159
111,599,165,613,"d'asile,",O,0,0,0,0,0,0,0,1,0,0,0,0,7,11,141,160
176,599,188,611,le,O,0,0,0,0,0,0,1,1,0,0,0,0,47,10,142,163
198,600,264,611,montant,O,0,0,0,0,0,0,1,1,0,0,0,0,44,9,143,164
273,599,291,611,de,O,0,0,0,0,0,0,1,1,0,0,0,0,62,10,144,183
301,599,313,611,la,O,0,0,0,0,0,0,1,1,0,0,0,0,44,9,145,166
322,599,356,611,taxe,O,0,0,0,0,0,0,1,1,0,0,0,0,44,9,146,166
365,599,373,611,à,O,0,0,0,0,0,0,1,0,0,0,0,0,80,9,147,205
382,600,422,611,votre,O,0,0,0,0,0,0,1,1,0,0,0,0,44,9,148,168
431,600,490,615,"charge,",O,0,0,0,0,0,0,0,1,0,0,0,0,40,11,149,169
501,602,536,615,pour,O,0,0,0,0,0,0,1,1,0,0,0,0,40,10,150,170
546,600,637,612,l'embauche,O,0,0,0,0,0,0,0,1,0,0,0,0,43,9,151,171
646,600,665,612,du,O,0,0,0,0,0,0,1,1,0,0,0,0,43,9,152,173
674,600,754,612,travailleur,O,0,0,0,0,0,0,1,1,0,0,0,0,43,9,153,173
763,600,791,612,cité,O,0,0,0,0,0,0,1,0,0,0,0,0,44,9,154,174
800,603,818,612,en,O,0,0,0,0,0,0,1,1,0,0,0,0,44,10,155,174
828,600,907,614,"référence,",O,0,0,0,0,0,0,0,0,0,0,0,0,42,11,156,175
918,601,941,612,est,O,0,0,0,0,0,0,1,1,0,0,0,0,62,9,157,198
950,600,977,612,fixé,O,0,0,0,0,0,0,1,0,0,0,0,0,44,10,158,177
987,600,995,612,à,O,0,0,0,0,0,0,1,0,0,0,0,0,44,24,159,177
1019,601,1083,615,"1421,00",O,1,0,0,0,0,0,0,1,1,0,0,0,41,0,-1,178
111,620,155,630,euros.,O,0,0,0,0,0,0,0,1,0,0,0,0,25,0,-1,161
111,655,129,666,Je,O,0,0,1,0,0,0,1,1,0,0,0,0,7,7,162,179
136,658,174,667,vous,O,0,0,0,0,0,0,1,1,0,0,0,0,9,9,163,180
183,658,211,670,prie,O,0,0,0,0,0,0,1,1,0,0,0,0,3,9,164,181
220,655,239,667,de,O,0,0,0,0,0,0,1,1,0,0,0,0,6,8,165,182
247,655,279,667,bien,O,0,0,0,0,0,0,1,1,0,0,0,0,6,8,166,183
287,655,342,667,vouloir,O,0,0,0,0,0,0,1,1,0,0,0,0,6,8,167,184
350,658,367,667,en,O,0,0,0,0,0,0,1,1,0,0,0,0,6,9,168,185
376,655,446,667,effectuer,O,0,0,0,0,0,0,1,1,0,0,0,0,6,8,169,186
454,655,467,667,le,O,0,0,0,0,0,0,1,1,0,0,0,0,6,8,170,187
475,655,549,670,paiement,O,0,0,0,0,0,0,1,1,0,0,0,0,3,8,171,188
557,655,599,667,selon,O,0,0,0,0,0,0,1,1,0,0,0,0,6,10,172,190
609,655,630,667,les,O,0,0,0,0,0,0,1,1,0,0,0,0,6,8,173,190
638,655,722,667,différentes,O,0,0,0,0,0,0,1,0,0,0,0,0,6,9,174,192
731,656,809,667,modalités,O,0,0,0,0,0,0,1,0,0,0,0,0,6,8,175,193
817,656,836,667,de,O,0,0,0,0,0,0,1,1,0,0,0,0,7,9,176,196
845,656,925,671,règlement,O,0,0,0,0,0,0,1,0,0,0,0,0,3,9,177,196
934,656,1010,671,indiquées,O,0,0,0,0,0,0,1,0,0,0,0,0,3,8,178,198
1018,656,1083,671,ci-après,O,0,0,0,0,0,0,0,0,0,0,0,0,3,0,-1,201
111,673,149,684,dans,O,0,0,0,0,0,0,1,1,0,0,0,0,7,8,180,202
157,676,175,684,un,O,1,0,0,0,0,0,1,1,0,0,0,0,7,8,181,202
183,673,221,684,délai,O,0,0,0,0,0,0,1,0,0,0,0,0,7,8,182,202
229,673,248,684,de,O,0,0,0,0,0,0,1,1,0,0,0,0,7,6,183,202
254,673,300,685,trente,O,1,0,0,0,0,0,1,1,0,0,0,0,6,6,184,203
306,673,346,688,jours,O,0,0,0,0,0,0,1,1,0,0,0,0,3,8,185,205
354,673,362,685,à,O,0,0,0,0,0,0,1,0,0,0,0,0,6,9,186,205
371,673,437,688,compter,O,0,0,0,0,0,0,1,1,0,0,0,0,3,6,187,206
443,673,462,685,de,O,0,0,0,0,0,0,1,1,0,0,0,0,6,8,188,207
470,673,482,685,la,O,0,0,0,0,0,0,1,1,0,0,0,0,6,8,189,208
490,673,524,685,date,O,0,0,0,0,0,0,1,1,0,0,0,0,6,8,190,208
532,673,618,685,d'émission,O,0,0,0,0,0,0,0,0,0,0,0,0,6,8,191,209
626,674,644,685,du,O,0,0,0,0,0,0,1,1,0,0,0,0,80,9,192,232
653,673,713,688,présent,O,0,0,0,0,0,0,1,0,0,0,0,0,3,7,193,211
720,673,751,685,avis,O,0,0,0,0,0,0,1,1,0,0,0,0,7,8,194,212
759,677,782,689,qui,O,0,0,0,0,0,0,1,1,0,0,0,0,3,8,195,213
790,674,813,685,est,O,0,0,0,0,0,0,1,1,0,0,0,0,6,8,196,214
821,674,889,689,indiquée,O,0,0,0,0,0,0,1,0,0,0,0,0,2,7,197,214
896,677,914,685,en,O,0,0,0,0,0,0,1,1,0,0,0,0,7,8,198,215
922,674,957,685,haut,O,0,0,0,0,0,0,1,1,0,0,0,0,7,7,199,215
964,674,972,685,à,O,0,0,0,0,0,0,1,0,0,0,0,0,10,8,200,216
980,674,1025,685,droite.,O,0,0,0,0,0,0,0,1,0,0,0,0,7,13,201,217
1038,674,1083,685,Toute,O,0,0,1,0,0,0,1,1,0,0,0,0,7,0,-1,218
111,691,241,706,correspondance,O,0,0,0,0,0,0,1,1,0,0,0,0,3,7,203,219
248,691,271,703,est,O,0,0,0,0,0,0,1,1,0,0,0,0,6,8,204,221
279,691,287,703,à,O,0,0,0,0,0,0,1,0,0,0,0,0,6,8,205,222
295,691,388,703,transmettre,O,0,0,0,0,0,0,1,1,0,0,0,0,6,7,206,222
395,691,403,703,à,O,0,0,0,0,0,0,1,0,0,0,0,0,6,9,207,224
412,691,464,706,l'agent,O,0,0,0,0,0,0,0,1,0,0,0,0,3,8,208,224
472,691,556,706,comptable,O,0,0,0,0,0,0,1,1,0,0,0,0,59,8,209,230
564,691,582,703,de,O,0,0,0,0,0,0,1,1,0,0,0,0,141,8,210,249
590,691,631,703,l'OFII,O,0,0,0,0,0,0,0,1,0,0,0,0,62,10,211,232
641,691,675,703,dont,O,0,0,0,0,0,0,1,1,0,0,0,0,62,8,212,232
683,692,754,703,l'adresse,O,0,0,0,0,0,0,0,1,0,0,0,0,62,8,213,233
762,692,785,703,est,O,0,0,0,0,0,0,1,1,0,0,0,0,62,8,214,234
793,691,860,707,indiquée,O,0,0,0,0,0,0,1,0,0,0,0,0,95,8,215,235
868,692,944,703,ci-dessus,O,0,0,0,0,0,0,0,1,0,0,0,0,99,8,216,236
952,695,970,703,en,O,0,0,0,0,0,0,1,1,0,0,0,0,99,9,217,237
979,692,1053,707,rappelant,O,0,0,0,0,0,0,1,1,0,0,0,0,137,9,218,241
1062,692,1083,704,les,O,0,0,0,0,0,0,1,1,0,0,0,0,0,0,-1,-1
112,709,196,721,références,O,0,0,0,0,0,0,1,0,0,0,0,0,43,7,220,225
203,709,221,721,du,O,0,0,0,0,0,0,1,1,0,0,0,0,43,7,221,226
228,709,258,721,titre,O,0,0,0,0,0,0,1,1,0,0,0,0,43,7,222,227
265,709,332,724,(numéro,O,0,0,0,0,0,0,0,0,0,0,0,0,40,7,223,227
339,709,353,721,et,O,0,0,0,0,0,0,1,1,0,0,0,0,43,7,224,228
360,709,443,725,millésime).,O,0,0,0,0,0,0,0,0,0,0,0,0,39,672,270,228
111,764,173,776,Veuillez,O,0,0,1,0,0,0,1,1,0,0,0,0,85,7,226,242
180,764,235,780,"agréer,",O,0,0,0,0,0,0,0,0,0,0,0,0,88,9,227,245
244,764,317,779,"Madame,",O,0,0,1,0,0,0,0,1,0,0,0,0,47,9,228,238
326,764,403,779,"Monsieur,",O,0,0,1,0,0,0,0,1,0,0,0,0,47,8,229,238
411,765,504,780,l'expression,O,0,0,0,0,0,0,0,1,0,0,0,0,0,8,230,-1
512,765,531,777,de,O,0,0,0,0,0,0,1,1,0,0,0,0,0,6,231,-1
537,768,570,777,mes,O,0,0,0,0,0,0,1,1,0,0,0,0,84,7,232,248
577,765,665,777,salutations,O,0,0,0,0,0,0,1,1,0,0,0,0,67,7,233,249
672,765,693,777,les,O,0,0,0,0,0,0,1,1,0,0,0,0,0,8,234,-1
701,765,782,777,meilleures.,O,0,0,0,0,0,0,0,1,0,0,0,0,67,342,267,239
783,802,895,814,L'ordonnateur,O,0,0,0,0,0,0,0,1,0,0,0,0,15,6,236,240
901,802,919,814,de,O,0,0,0,0,0,0,1,1,0,0,0,0,0,7,237,-1
926,802,967,814,l'OFII,O,0,0,0,0,0,0,0,1,0,0,0,0,0,148,265,-1
281,826,391,849,Références,O,0,0,1,0,0,0,1,0,0,0,0,0,12,359,239,246
750,844,758,848,=,O,0,0,0,0,0,0,0,1,0,0,0,0,0,252,241,-1
812,829,856,846,idati,O,0,0,0,0,0,0,1,1,0,0,0,0,96,259,264,282
1010,844,1018,848,=,O,0,0,0,0,0,0,0,1,0,0,0,0,0,97,264,-1
116,861,131,870,N°,O,0,0,1,1,0,0,0,0,0,0,0,0,27,5,243,253
136,861,150,870,du,O,0,0,0,0,0,0,1,1,0,0,0,0,27,5,244,254
155,862,178,870,titre,O,0,0,0,0,0,0,1,1,0,0,0,0,27,5,245,254
183,868,185,870,:,O,0,1,0,0,0,0,0,1,0,0,0,0,27,160,246,254
345,861,418,877,0019305/19,O,1,0,0,0,0,0,0,1,1,0,0,0,16,93,247,256
511,860,512,865,|,O,0,0,0,0,0,0,0,1,0,0,0,0,0,17,248,-1
529,861,555,877,Dato,O,0,0,1,0,0,0,1,1,0,0,0,0,23,2,249,257
557,844,644,877,ATViaDate,O,0,0,0,0,0,0,1,1,0,0,0,0,23,6,250,258
650,862,678,873,Emp,O,0,0,1,0,0,0,1,1,0,0,0,0,27,80,251,261
758,862,826,871,17/10/2016,O,0,0,0,0,0,0,0,1,1,0,0,0,23,297,263,262
510,878,511,887,|,O,0,0,0,0,0,0,0,1,0,0,0,0,0,612,263,-1
116,897,131,907,N°,O,0,0,1,1,0,0,0,0,0,0,0,0,32,5,254,273
136,897,202,910,Employeur,O,0,0,1,0,0,0,1,1,0,0,0,0,19,5,255,275
207,905,209,907,:,O,0,1,0,0,0,0,0,1,0,0,0,0,32,314,257,276
356,893,407,902,1298661,O,1,0,0,0,1,0,0,1,1,0,0,0,37,363,262,277
523,900,558,908,Nature,O,0,0,1,0,0,0,1,1,0,0,0,0,31,4,258,278
562,900,575,908,de,O,0,0,0,0,0,0,1,1,0,0,0,0,81,4,259,286
579,900,629,908,rAT/Moti,O,0,0,0,0,0,0,0,1,0,0,0,0,32,4,260,280
633,901,646,908,du,O,0,0,0,0,0,0,1,1,0,0,0,0,81,4,261,289
650,900,683,910,séjour,O,0,0,0,0,0,0,1,0,0,0,0,0,0,440,263,-1
770,894,813,903,Salarié,O,0,0,1,0,0,0,1,0,0,0,0,0,36,310,263,281
1123,851,1134,915,S0-LL-6002,O,0,0,0,1,0,0,0,1,1,0,0,0,0,0,-1,-1
1115,842,1143,849,-,O,0,1,0,0,0,0,0,1,0,0,0,0,2,0,-1,263
1115,807,1143,835,20100,O,1,0,0,0,1,0,0,1,1,0,0,0,7,0,-1,264
1115,781,1143,801,VELL,O,0,0,0,1,0,0,1,1,0,0,0,0,6,0,-1,265
1124,770,1134,775,-,O,0,1,0,0,0,0,0,1,0,0,0,0,6,0,-1,266
1124,755,1134,765,IH,O,0,0,0,1,0,0,1,1,0,0,0,0,5,0,-1,267
1124,738,1134,742,-,O,0,1,0,0,0,0,0,1,0,0,0,0,13,0,-1,268
1115,711,1143,735,1140,O,1,0,0,0,1,0,0,1,1,0,0,0,3,0,-1,269
1040,929,1100,940,"1421,00",O,1,0,0,0,0,0,0,1,1,0,0,0,0,-8,272,-1
1092,921,1104,949,€,O,0,0,0,0,0,1,0,0,0,1,0,0,-20,0,-1,271
116,939,131,948,N°,O,0,0,1,1,0,0,0,0,0,0,0,0,41,5,274,285
136,939,150,948,de,O,0,0,0,0,0,0,1,1,0,0,0,0,41,6,275,285
156,929,201,957,dossier,O,0,0,0,0,0,0,1,1,0,0,0,0,146,6,276,293
207,939,230,948,OFIL,O,0,0,0,1,0,0,1,1,0,0,0,0,0,106,277,-1
336,939,426,948,730218002091,O,1,0,0,0,1,0,0,1,1,0,0,0,21,103,278,283
529,939,566,948,Durée,O,0,0,1,0,0,0,1,0,0,0,0,0,41,4,279,286
570,939,584,948,du,O,0,0,0,0,0,0,1,1,0,0,0,0,41,6,280,287
590,940,632,948,contrat,O,0,0,0,0,0,0,1,1,0,0,0,0,41,127,281,287
759,939,789,948,>=12,O,0,0,0,0,0,0,0,1,1,0,0,0,41,6,282,290
795,942,824,949,mois,O,0,0,0,0,0,0,1,1,0,0,0,0,40,268,272,290
307,969,391,978,MOUSSAOUI,O,0,0,0,1,0,0,1,1,0,0,0,0,0,5,284,-1
396,969,456,978,MASSINE,O,0,0,0,1,0,0,1,1,0,0,0,0,0,0,-1,-1
116,989,159,998,Salarié,O,0,0,1,0,0,0,1,0,0,0,0,0,20,369,286,292
528,989,571,998,Salaire,O,0,0,1,0,0,0,1,1,0,0,0,0,0,6,287,-1
577,989,611,1001,(base,O,0,0,0,0,0,0,0,1,0,0,0,0,0,5,288,-1
616,989,630,998,35,O,1,0,0,0,1,0,0,1,1,0,0,0,0,5,289,-1
635,989,646,1000,h),O,0,0,0,0,0,0,0,1,0,0,0,0,104,115,290,295
761,989,810,1000,"2583,00",O,1,0,0,0,0,0,0,1,1,0,0,0,104,5,291,295
815,989,822,998,€,O,0,0,0,0,0,1,0,0,0,1,0,0,0,0,-1,-1
109,1018,127,1027,Lo,O,0,0,1,0,0,0,1,1,0,0,0,0,76,0,-1,293
110,1103,379,1104,D,O,0,0,1,1,0,0,1,1,0,0,0,0,70,52,294,299
431,1103,470,1104,Le,O,0,0,1,0,0,0,1,1,0,0,0,0,70,0,-1,303
604,1104,1089,1105,222,O,1,0,0,0,1,0,0,1,1,0,0,0,46,0,-1,298
523,1147,575,1159,Délais,O,0,0,1,0,0,0,1,0,0,0,0,0,16,7,297,305
582,1148,598,1159,et,O,0,0,0,0,0,0,1,1,0,0,0,0,16,7,298,307
605,1151,670,1165,recours,O,0,0,0,0,0,0,1,1,0,0,0,0,10,0,-1,307
125,1174,213,1189,Lorsqu'une,O,0,0,0,0,0,0,0,1,0,0,0,0,3,9,300,315
222,1174,304,1189,opposition,O,0,0,0,0,0,0,1,1,0,0,0,0,4,11,301,317
315,1174,323,1186,à,O,0,0,0,0,0,0,1,0,0,0,0,0,7,10,302,317
333,1174,370,1186,l'état,O,0,0,0,0,0,0,0,0,0,0,0,0,7,9,303,318
379,1174,462,1186,exécutoire,O,0,0,0,0,0,0,1,0,0,0,0,0,7,9,304,319
471,1175,519,1186,relève,O,0,0,0,0,0,0,1,0,0,0,0,0,7,9,305,320
528,1175,547,1186,de,O,0,0,0,0,0,0,1,1,0,0,0,0,7,9,306,321
556,1175,568,1186,la,O,0,0,0,0,0,0,1,1,0,0,0,0,7,10,307,322
578,1175,677,1190,compétence,O,0,0,0,0,0,0,1,0,0,0,0,0,3,9,308,323
686,1175,714,1187,des,O,0,0,0,0,0,0,1,1,0,0,0,0,28,8,309,343
722,1175,798,1187,tribunaux,O,0,0,0,0,0,0,1,1,0,0,0,0,7,9,310,326
807,1175,919,1189,"administratifs,",O,0,0,0,0,0,0,0,1,0,0,0,0,5,12,311,327
931,1176,937,1187,il,O,0,0,0,0,0,0,1,1,0,0,0,0,10,10,312,328
947,1176,1014,1187,convient,O,0,0,0,0,0,0,1,1,0,0,0,0,7,9,313,329
1023,1176,1042,1188,de,O,0,0,0,0,0,0,1,1,0,0,0,0,6,9,314,330
1051,1179,1068,1188,se,O,0,0,0,0,0,0,1,1,0,0,0,0,6,0,-1,330
125,1192,207,1204,conformer,O,0,0,0,0,0,0,1,1,0,0,0,0,7,12,316,331
219,1196,248,1204,aux,O,0,0,0,0,0,0,1,1,0,0,0,0,7,12,317,331
260,1193,340,1208,dispositifs,O,0,0,0,0,0,0,1,1,0,0,0,0,3,14,318,334
354,1193,372,1204,du,O,0,0,0,0,0,0,1,1,0,0,0,0,7,14,319,335
386,1193,435,1205,decret,O,0,0,0,0,0,0,1,1,0,0,0,0,10,13,320,336
448,1193,513,1205,N°65-29,O,0,0,1,1,0,0,0,0,1,0,0,0,10,13,321,337
526,1193,545,1205,du,O,0,0,0,0,0,0,1,1,0,0,0,0,10,14,322,340
559,1193,575,1205,11,O,1,0,0,0,1,0,0,1,1,0,0,0,10,14,323,340
589,1193,644,1209,janvier,O,0,0,0,0,0,0,1,1,0,0,0,0,3,14,324,341
658,1193,695,1205,1965,O,1,0,0,0,1,0,0,1,1,0,0,0,10,14,325,342
709,1196,731,1209,qui,O,0,0,0,0,0,0,1,1,0,0,0,0,3,14,326,344
745,1194,799,1209,prévoit,O,0,0,0,0,0,0,1,0,0,0,0,0,3,13,327,344
812,1194,904,1206,notamment,O,0,0,0,0,0,0,1,1,0,0,0,0,7,13,328,347
917,1197,946,1209,que,O,0,0,0,0,0,0,1,1,0,0,0,0,4,12,329,349
958,1194,977,1206,"""la",O,0,0,0,0,0,0,0,1,0,0,0,0,10,12,330,350
989,1194,1068,1210,juridiction,O,0,0,0,0,0,0,1,1,0,0,0,0,3,0,-1,351
125,1211,239,1223,administrative,O,0,0,0,0,0,0,1,1,0,0,0,0,7,6,332,353
245,1214,264,1223,ne,O,0,0,0,0,0,0,1,1,0,0,0,0,7,6,333,355
270,1212,304,1227,peut,O,0,0,0,0,0,0,1,1,0,0,0,0,3,7,334,357
311,1211,342,1223,être,O,0,0,0,0,0,0,1,0,0,0,0,0,7,6,335,357
348,1211,394,1224,saisie,O,0,0,0,0,0,0,1,1,0,0,0,0,6,6,336,357
400,1215,429,1227,que,O,0,0,0,0,0,0,1,1,0,0,0,0,3,7,337,359
436,1215,462,1227,par,O,0,0,0,0,0,0,1,1,0,0,0,0,3,5,338,360
467,1215,500,1224,voie,O,0,0,0,0,0,0,1,1,0,0,0,0,6,7,339,360
507,1212,525,1224,de,O,0,0,0,0,0,0,1,1,0,0,0,0,7,7,340,361
532,1215,591,1224,recours,O,0,0,0,0,0,0,1,1,0,0,0,0,7,7,341,361
598,1212,645,1224,formé,O,0,0,0,0,0,0,1,0,0,0,0,0,25,8,342,371
653,1215,678,1227,par,O,0,0,0,0,0,0,1,1,0,0,0,0,23,7,343,372
685,1215,713,1224,une,O,0,0,0,0,0,0,1,1,0,0,0,0,26,6,344,373
719,1212,790,1227,"décision,",O,0,0,0,0,0,0,0,0,0,0,0,0,23,8,345,374
798,1213,812,1225,et,O,0,0,0,0,0,0,1,1,0,0,0,0,27,7,346,375
819,1215,840,1227,"ce,",O,0,0,0,0,0,0,0,1,0,0,0,0,23,8,347,376
848,1213,886,1225,dans,O,0,0,0,0,0,0,1,1,0,0,0,0,27,8,348,377
894,1213,915,1225,les,O,0,0,0,0,0,0,1,1,0,0,0,0,25,7,349,378
922,1213,960,1225,deux,O,1,0,0,0,0,0,1,1,0,0,0,0,25,7,350,378
967,1216,1004,1225,mois,O,0,0,0,0,0,0,1,1,0,0,0,0,0,8,351,-1
1012,1213,1020,1225,à,O,0,0,0,0,0,0,1,0,0,0,0,0,0,7,352,-1
1027,1213,1069,1228,partir,O,0,0,0,0,0,0,1,1,0,0,0,0,0,0,-1,-1
125,1230,143,1242,de,O,0,0,0,0,0,0,1,1,0,0,0,0,7,7,354,362
150,1230,163,1242,la,O,0,0,0,0,0,0,1,1,0,0,0,0,6,7,355,363
170,1230,257,1242,notification,O,0,0,0,0,0,0,1,1,0,0,0,0,6,7,356,363
264,1233,282,1242,ou,O,0,0,0,0,0,0,1,1,0,0,0,0,7,8,357,365
290,1230,377,1245,publication,O,0,0,0,0,0,0,1,1,0,0,0,0,4,7,358,366
384,1230,403,1242,de,O,0,0,0,0,0,0,1,1,0,0,0,0,7,7,359,367
410,1230,422,1242,la,O,0,0,0,0,0,0,1,1,0,0,0,0,7,7,360,368
429,1230,495,1242,décision,O,0,0,0,0,0,0,1,0,0,0,0,0,7,7,361,368
502,1231,582,1246,"attaquée"".",O,0,0,0,0,0,0,0,0,0,0,0,0,3,0,-1,370
125,1249,143,1260,Le,O,0,0,1,0,0,0,1,1,0,0,0,0,69,7,363,383
150,1248,210,1264,présent,O,0,0,0,0,0,0,1,0,0,0,0,0,65,5,364,384
215,1249,246,1260,titre,O,0,0,0,0,0,0,1,1,0,0,0,0,69,7,365,384
253,1249,287,1264,peut,O,0,0,0,0,0,0,1,1,0,0,0,0,65,6,366,386
293,1249,324,1261,être,O,0,0,0,0,0,0,1,0,0,0,0,0,68,6,367,387
330,1249,398,1261,contesté,O,0,0,0,0,0,0,1,0,0,0,0,0,68,7,368,388
405,1249,458,1261,devant,O,0,0,0,0,0,0,1,1,0,0,0,0,71,8,369,390
466,1249,478,1261,le,O,0,0,0,0,0,0,1,1,0,0,0,0,46,5,370,379
483,1249,543,1261,tribunal,O,0,0,0,0,0,0,1,1,0,0,0,0,46,8,371,379
551,1249,652,1261,administratif,O,0,0,0,0,0,0,1,1,0,0,0,0,46,6,372,380
658,1250,696,1261,dans,O,0,0,0,0,0,0,1,1,0,0,0,0,46,7,373,382
703,1250,724,1261,les,O,0,0,0,0,0,0,1,1,0,0,0,0,46,7,374,382
731,1250,769,1261,deux,O,1,0,0,0,0,0,1,1,0,0,0,0,46,7,375,382
776,1252,813,1261,mois,O,0,0,0,0,0,0,1,1,0,0,0,0,69,7,376,397
820,1250,839,1261,de,O,0,0,0,0,0,0,1,1,0,0,0,0,69,7,377,399
846,1252,863,1261,sa,O,0,0,0,0,0,0,1,1,0,0,0,0,69,8,378,399
871,1250,958,1262,notification.,O,0,0,0,0,0,0,0,1,0,0,0,0,85,0,-1,409
444,1307,528,1319,Comment,O,0,0,1,0,0,0,1,1,0,0,0,0,10,6,380,391
534,1307,612,1319,effectuer,O,0,0,0,0,0,0,1,1,0,0,0,0,11,6,381,392
618,1308,663,1319,votre,O,0,0,0,0,0,0,1,1,0,0,0,0,11,7,382,395
670,1307,749,1322,paiement,O,0,0,0,0,0,0,1,1,0,0,0,0,8,0,-1,396
125,1329,152,1340,Par,O,0,0,1,0,0,0,1,1,0,0,0,0,6,6,384,400
158,1329,228,1340,virement,O,0,0,0,0,0,0,1,1,0,0,0,0,6,7,385,402
235,1332,260,1340,sur,O,0,0,0,0,0,0,1,1,0,0,0,0,6,6,386,403
266,1329,279,1340,le,O,0,0,0,0,0,0,1,1,0,0,0,0,6,6,387,403
285,1329,344,1344,compte,O,0,0,0,0,0,0,1,1,0,0,0,0,3,7,388,404
351,1329,370,1340,de,O,0,0,0,0,0,0,1,1,0,0,0,0,7,6,389,404
376,1329,421,1344,dépôt,O,0,0,0,0,0,0,1,0,0,0,0,0,3,6,390,405
427,1332,446,1340,au,O,0,0,0,0,0,0,1,1,0,0,0,0,26,6,391,417
452,1329,500,1341,trésor,O,0,0,0,0,0,0,1,0,0,0,0,0,25,6,392,418
506,1330,556,1341,ouvert,O,0,0,0,0,0,0,1,1,0,0,0,0,63,6,393,432
562,1332,581,1341,au,O,0,0,0,0,0,0,1,1,0,0,0,0,63,7,394,432
588,1332,622,1341,nom,O,0,0,0,0,0,0,1,1,0,0,0,0,63,8,395,433
630,1330,649,1341,de,O,0,0,0,0,0,0,1,1,0,0,0,0,63,6,396,434
655,1330,707,1344,l'agent,O,0,0,0,0,0,0,0,1,0,0,0,0,0,7,397,-1
714,1330,798,1344,comptable,O,0,0,0,0,0,0,1,1,0,0,0,0,3,7,398,406
805,1330,823,1341,de,O,0,0,0,0,0,0,1,1,0,0,0,0,2,7,399,407
830,1330,871,1341,l'OFII,O,0,0,0,0,0,0,0,1,0,0,0,0,6,0,-1,408
125,1346,153,1358,RIB,O,0,0,0,1,0,0,1,1,0,0,0,0,7,19,402,410
161,1357,163,1359,:,O,0,1,0,0,0,0,0,1,0,0,0,0,6,9,402,410
172,1346,218,1359,10071,O,1,0,0,0,1,0,0,1,1,0,0,0,6,9,403,412
227,1346,277,1359,75000,O,1,0,0,0,1,0,0,1,1,0,0,0,6,6,404,413
283,1347,391,1359,00001000271,O,1,0,0,0,1,0,0,1,1,0,0,0,6,9,405,414
400,1347,419,1359,43,O,1,0,0,0,1,0,0,1,1,0,0,0,7,280,406,416
699,1347,803,1360,Domiciliation,O,0,0,1,0,0,0,1,1,0,0,0,0,2,6,407,421
809,1343,818,1368,:,O,0,1,0,0,0,0,0,1,0,0,0,0,-2,2,408,422
820,1347,897,1360,TPPARIS,O,0,0,0,1,0,0,1,1,0,0,0,0,6,8,409,422
905,1347,941,1360,RGF,O,0,0,0,1,0,0,1,1,0,0,0,0,0,0,-1,-1
125,1365,165,1377,IBAN,O,0,0,0,1,0,0,1,1,0,0,0,0,7,8,411,423
173,1368,175,1370,:,O,0,1,0,0,0,0,0,1,0,0,0,0,33,8,412,425
183,1365,226,1377,FR76,O,0,0,0,1,0,0,0,1,1,0,0,0,26,8,413,425
234,1365,272,1377,1007,O,1,0,0,0,1,0,0,1,1,0,0,0,26,8,414,426
280,1365,318,1377,1750,O,1,0,0,0,1,0,0,1,1,0,0,0,26,7,415,427
325,1365,364,1378,0000,O,1,0,0,0,1,0,0,1,1,0,0,0,25,7,416,427
371,1366,410,1378,0010,O,1,0,0,0,1,0,0,1,1,0,0,0,26,7,417,429
417,1366,456,1378,0027,O,1,0,0,0,1,0,0,1,1,0,0,0,26,9,418,430
465,1366,492,1378,143,O,1,0,0,0,1,0,0,1,1,0,0,0,26,205,419,431
697,1366,739,1378,Code,O,0,0,1,0,0,0,1,1,0,0,0,0,0,7,420,-1
746,1366,774,1378,BIC,O,0,0,0,1,0,0,1,1,0,0,0,0,0,5,421,-1
779,1362,787,1386,:,O,0,1,0,0,0,0,0,1,0,0,0,0,0,5,422,-1
792,1366,884,1378,TRPUFRP1,O,0,0,0,1,0,0,0,1,1,0,0,0,0,0,-1,-1
125,1384,150,1396,ou,O,0,0,0,0,0,0,1,1,0,0,0,0,7,0,-1,424
125,1403,152,1415,Par,O,0,0,1,0,0,0,1,1,0,0,0,0,0,6,425,-1
158,1403,217,1418,chèque,O,0,0,0,0,0,0,1,0,0,0,0,0,0,7,426,-1
224,1403,292,1415,bancaire,O,0,0,0,0,0,0,1,1,0,0,0,0,0,7,427,-1
299,1403,345,1415,libellé,O,0,0,0,0,0,0,1,0,0,0,0,0,0,7,428,-1
352,1404,360,1415,à,O,0,0,0,0,0,0,1,0,0,0,0,0,0,8,429,-1
368,1404,416,1415,l'ordre,O,0,0,0,0,0,0,0,1,0,0,0,0,0,7,430,-1
423,1404,442,1415,de,O,0,0,0,0,0,0,1,1,0,0,0,0,0,7,431,-1
449,1404,500,1419,l'agent,O,0,0,0,0,0,0,0,1,0,0,0,0,0,7,432,-1
507,1404,591,1419,comptable,O,0,0,0,0,0,0,1,1,0,0,0,0,0,7,433,-1
598,1404,616,1415,de,O,0,0,0,0,0,0,1,1,0,0,0,0,0,7,434,-1
623,1404,664,1416,l'OFII,O,0,0,0,0,0,0,0,1,0,0,0,0,0,0,-1,-1
