xmin,ymin,xmax,ymax,Object,label,like_num,is_punct,is_title,is_upper,is_digit,is_currency,is_alpha,is_ascii,hasNumbers,hascurrency,like_email,like_url,dh,dv,v_hor,v_vert
869,22,872,66,|,O,0,0,0,0,0,0,0,1,0,0,0,0,15,55,1,4
927,22,1046,66,[TT],O,0,0,0,1,0,0,0,1,0,0,0,0,15,0,-1,7
507,36,573,92,E,O,0,0,1,1,0,0,1,1,0,0,0,0,-1,54,3,10
627,36,689,92,5,O,1,0,0,0,1,0,0,1,1,0,0,0,11,138,4,13
827,81,875,97,"Paris,",O,0,0,1,0,0,0,0,1,0,0,0,0,40,9,5,18
884,81,898,95,le,O,0,0,0,0,0,0,1,1,0,0,0,0,42,7,6,18
905,81,926,95,20,DATE,1,0,0,0,1,0,0,1,1,0,0,0,42,8,7,18
934,81,991,95,MARS,DATE,0,0,0,1,0,0,1,1,0,0,0,0,42,36,8,19
1027,81,1070,95,2019,DATE,1,0,0,0,1,0,0,1,1,0,0,0,73,0,-1,24
507,99,551,110,Liberté,COMPANY_NAME,0,0,1,0,0,0,1,0,0,0,0,0,10,5,10,16
556,91,561,120,+,COMPANY_NAME,0,0,0,0,0,0,0,1,0,0,0,0,0,15,11,16
576,100,597,116,Egalité,COMPANY_NAME,0,0,1,0,0,0,1,0,0,0,0,0,4,17,12,16
614,91,619,120,+,COMPANY_NAME,0,0,0,0,0,0,0,1,0,0,0,0,0,14,13,17
633,103,686,110,Fraternité,COMPANY_NAME,0,0,1,0,0,0,1,0,0,0,0,0,10,0,-1,17
101,87,169,134,nt,O,0,0,0,0,0,0,1,1,0,0,0,0,11,20,15,20
189,87,211,133,i,O,0,0,0,0,0,0,1,1,0,0,0,0,-16,295,16,21
506,120,598,134,REPUBLIQUE,COMPANY_NAME,0,0,0,1,0,0,1,1,0,0,0,0,0,7,17,-1
605,120,683,134,FRANCAISE,COMPANY_NAME,0,0,0,1,0,0,1,1,0,0,0,0,0,0,-1,-1
854,137,917,157,AVIS,O,0,0,0,1,0,0,1,1,0,0,0,0,10,11,19,22
928,137,983,157,DES,O,0,0,0,1,0,0,1,1,0,0,0,0,11,0,-1,23
100,145,166,174,OF,LOGO,0,0,0,1,0,0,1,1,0,0,0,0,16,20,21,25
186,117,212,173,1,LOGO,1,0,0,0,1,0,0,1,1,0,0,0,41,294,16,28
799,167,920,187,SOMMES,O,0,0,0,1,0,0,1,1,0,0,0,0,27,8,23,29
928,168,947,187,A,O,0,0,1,1,0,0,1,1,0,0,0,0,10,11,24,26
958,168,1050,187,PAYER,O,0,0,0,1,0,0,1,1,0,0,0,0,27,0,-1,32
128,190,195,196,DENTS,O,0,0,0,1,0,0,1,1,0,0,0,0,18,0,-1,27
923,197,952,207,our,O,0,0,0,0,0,0,1,1,0,0,0,0,8,0,-1,31
110,214,182,231,Agence,O,0,0,1,0,0,0,1,1,0,0,0,0,4,7,28,33
189,214,289,231,comptable,O,0,0,0,0,0,0,1,1,0,0,0,0,4,474,29,35
763,214,864,227,l'embauche,O,0,0,0,0,0,0,0,1,0,0,0,0,90,7,30,51
871,215,907,228,d'un,O,0,0,0,0,0,0,0,1,0,0,0,0,9,7,31,36
914,215,1004,228,travailleur,O,0,0,0,0,0,0,1,1,0,0,0,0,6,6,32,37
1010,214,1084,231,étranger,O,0,0,0,0,0,0,1,0,0,0,0,0,103,0,-1,45
110,235,136,250,"44,",COMPANY_ADDRESS,1,0,0,0,0,0,0,1,1,0,0,0,4,9,34,38
145,237,172,247,rue,COMPANY_ADDRESS,0,0,0,0,0,0,1,1,0,0,0,0,7,8,35,38
180,235,243,251,Bargue,COMPANY_ADDRESS,0,0,1,0,0,0,1,1,0,0,0,0,3,635,36,39
878,237,898,247,en,O,0,0,0,0,0,0,1,1,0,0,0,0,70,9,37,51
907,234,968,247,France,O,0,0,1,0,0,0,1,1,0,0,0,0,57,0,-1,46
111,254,165,268,75732,COMPANY_ADDRESS,1,0,0,0,1,0,0,1,1,0,0,0,7,8,39,43
173,254,231,268,PARIS,COMPANY_ADDRESS,0,0,0,1,0,0,1,1,0,0,0,0,7,8,40,43
239,254,307,268,CEDEX,COMPANY_ADDRESS,0,0,0,1,0,0,1,1,0,0,0,0,7,8,41,43
315,254,335,268,15,COMPANY_ADDRESS,1,0,0,0,1,0,0,1,1,0,0,0,7,0,-1,43
626,274,648,283,414,O,1,0,0,0,1,0,0,1,1,0,0,0,13,0,-1,44
111,275,327,292,recettes-amiable@ofii.fr,O,0,0,0,0,0,0,0,1,0,0,1,0,0,299,42,-1
626,296,718,309,A.D.B.I.,CLIENT_NAME,0,0,1,1,0,0,0,1,0,0,0,0,8,0,-1,48
1036,334,1043,345,‘y,O,0,0,0,0,0,0,0,0,0,0,0,0,0,77,79,-1
926,304,953,349,Yo,O,0,0,1,0,0,0,1,1,0,0,0,0,161,20,47,76
973,311,1013,356,29,O,1,0,0,0,1,0,0,1,1,0,0,0,154,23,45,77
627,317,637,330,8,CLIENT_ADDRESS,1,0,0,0,1,0,0,1,1,0,0,0,51,14,49,52
651,317,685,330,RUE,CLIENT_ADDRESS,0,0,0,1,0,0,1,1,0,0,0,0,51,15,50,52
700,317,781,331,ROSSINI,CLIENT_ADDRESS,0,0,0,1,0,0,1,1,0,0,0,0,50,40,51,53
821,317,904,362,pore,O,0,0,0,0,0,0,1,1,0,0,0,0,148,22,46,73
627,381,685,394,75009,CLIENT_ADDRESS,1,0,0,0,1,0,0,1,1,0,0,0,115,15,53,69
700,381,758,394,PARIS,CLIENT_ADDRESS,0,0,0,1,0,0,1,1,0,0,0,0,118,362,79,70
111,472,184,486,"Madame,",O,0,0,1,0,0,0,0,1,0,0,0,0,21,9,55,56
193,473,270,486,"Monsieur,",O,0,0,1,0,0,0,0,1,0,0,0,0,21,0,-1,59
111,507,129,518,Le,O,0,0,1,0,0,0,1,1,0,0,0,0,7,7,57,80
136,507,174,518,code,O,0,0,0,0,0,0,1,1,0,0,0,0,7,7,58,80
181,507,200,518,de,O,0,0,0,0,0,0,1,1,0,0,0,0,7,7,59,80
207,507,265,519,l'entrée,O,0,0,0,0,0,0,0,0,0,0,0,0,6,6,60,82
271,508,285,519,et,O,0,0,0,0,0,0,1,1,0,0,0,0,6,7,61,82
292,508,311,519,du,O,0,0,0,0,0,0,1,1,0,0,0,0,6,7,62,82
318,508,368,522,séjour,O,0,0,0,0,0,0,1,0,0,0,0,0,3,6,63,83
374,508,402,520,des,O,0,0,0,0,0,0,1,1,0,0,0,0,6,7,64,84
409,508,485,523,étrangers,O,0,0,0,0,0,0,1,0,0,0,0,0,3,8,65,84
493,509,507,520,et,O,0,0,0,0,0,0,1,1,0,0,0,0,7,6,66,86
513,509,532,520,du,O,0,0,0,0,0,0,1,1,0,0,0,0,7,8,67,87
540,509,575,521,droit,O,0,0,0,0,0,0,1,1,0,0,0,0,6,7,68,88
582,509,632,521,d'asile,O,0,0,0,0,0,0,0,1,0,0,0,0,6,7,69,88
639,509,694,524,prévoit,O,0,0,0,0,0,0,1,0,0,0,0,0,3,6,70,89
700,512,718,521,en,O,0,0,0,0,0,0,1,1,0,0,0,0,6,8,71,91
726,512,753,521,son,O,0,0,0,0,0,0,1,1,0,0,0,0,6,8,72,91
761,509,810,521,article,O,0,0,0,0,0,0,1,1,0,0,0,0,6,11,73,92
821,510,825,521,L,O,0,0,1,1,0,0,1,1,0,0,0,0,25,7,74,115
832,510,888,521,311-15,O,0,0,0,0,0,0,0,1,1,0,0,0,6,7,75,94
895,513,924,525,que,O,0,0,0,0,0,0,1,1,0,0,0,0,6,6,76,95
930,510,961,522,tout,O,0,0,0,0,0,0,1,1,0,0,0,0,6,7,77,96
968,510,1052,525,employeur,O,0,0,0,0,0,0,1,1,0,0,0,0,3,7,78,97
1059,513,1081,525,qui,O,0,0,0,0,0,0,1,1,0,0,0,0,3,0,-1,99
1120,336,1183,434,Ti,O,0,0,1,0,0,0,1,1,0,0,0,0,306,0,-1,260
111,525,195,537,embauche,O,0,0,0,0,0,0,1,1,0,0,0,0,6,7,81,100
202,528,220,537,un,O,1,0,0,0,0,0,1,1,0,0,0,0,10,7,82,101
227,525,307,537,travailleur,O,0,0,0,0,0,0,1,1,0,0,0,0,7,7,83,102
314,525,381,541,étranger,O,0,0,0,0,0,0,1,0,0,0,0,0,3,7,84,104
388,526,454,541,"acquitte,",O,0,0,0,0,0,0,0,1,0,0,0,0,4,10,85,106
464,526,492,538,lors,O,0,0,0,0,0,0,1,1,0,0,0,0,10,7,86,107
499,527,518,538,de,O,0,0,0,0,0,0,1,1,0,0,0,0,8,7,87,108
525,527,538,538,la,O,0,0,0,0,0,0,1,1,0,0,0,0,10,7,88,109
545,527,617,542,premiére,O,0,0,0,0,0,0,1,0,0,0,0,0,3,7,89,110
624,527,674,539,entrée,O,0,0,0,0,0,0,1,0,0,0,0,0,7,7,90,112
681,530,699,539,en,O,0,0,0,0,0,0,1,1,0,0,0,0,44,8,91,128
707,527,762,539,France,O,0,0,1,0,0,0,1,1,0,0,0,0,7,7,92,113
769,527,788,539,de,O,0,0,0,0,0,0,1,1,0,0,0,0,7,7,93,114
795,528,818,539,cet,O,0,0,0,0,0,0,1,1,0,0,0,0,7,7,94,115
825,527,892,543,étranger,O,0,0,0,0,0,0,1,0,0,0,0,0,3,7,95,115
899,531,917,540,ou,O,0,0,0,0,0,0,1,1,0,0,0,0,7,8,96,116
925,528,953,540,lors,O,0,0,0,0,0,0,1,1,0,0,0,0,6,7,97,117
960,528,979,540,de,O,0,0,0,0,0,0,1,1,0,0,0,0,6,7,98,118
986,531,1003,540,sa,O,0,0,0,0,0,0,1,1,0,0,0,0,6,9,99,118
1012,528,1083,544,premiére,O,0,0,0,0,0,0,1,0,0,0,0,0,2,0,-1,118
111,543,192,556,admission,O,0,0,0,0,0,0,1,1,0,0,0,0,26,7,101,119
199,547,218,556,au,O,0,0,0,0,0,0,1,1,0,0,0,0,26,7,102,119
225,544,275,560,séjour,O,0,0,0,0,0,0,1,0,0,0,0,0,25,6,103,120
281,547,298,556,en,O,0,0,0,0,0,0,1,1,0,0,0,0,26,8,104,121
306,544,359,560,qualité,O,0,0,0,0,0,0,1,0,0,0,0,0,22,7,105,121
366,545,385,557,de,O,0,0,0,0,0,0,1,1,0,0,0,0,25,6,106,122
391,545,448,559,"salarié,",O,0,0,0,0,0,0,0,0,0,0,0,0,23,9,107,123
457,548,486,557,une,O,0,0,0,0,0,0,1,1,0,0,0,0,25,6,108,123
492,546,525,557,taxe,O,0,0,0,0,0,0,1,1,0,0,0,0,26,6,109,124
531,548,550,557,au,O,0,0,0,0,0,0,1,1,0,0,0,0,26,8,110,125
558,545,598,561,profit,O,0,0,0,0,0,0,1,1,0,0,0,0,22,6,111,125
604,546,623,558,de,O,0,0,0,0,0,0,1,1,0,0,0,0,25,7,112,125
630,546,685,558,l'Office,O,0,0,0,0,0,0,0,1,0,0,0,0,25,7,113,126
692,546,760,561,Français,O,0,0,1,0,0,0,1,0,0,0,0,0,22,7,114,128
767,546,786,558,de,O,0,0,0,0,0,0,1,1,0,0,0,0,44,7,115,152
793,546,897,562,l'Immigration,O,0,0,0,0,0,0,0,1,0,0,0,0,22,7,116,131
904,547,918,558,et,O,0,0,0,0,0,0,1,1,0,0,0,0,26,6,117,133
924,546,943,558,de,O,0,0,0,0,0,0,1,1,0,0,0,0,26,7,118,134
950,546,1047,562,I'Intégration.,O,0,0,1,0,0,0,0,0,0,0,0,0,22,0,-1,134
110,582,232,594,Conformément,O,0,0,1,0,0,0,1,0,0,0,0,0,6,6,120,139
238,585,266,594,aux,O,0,0,0,0,0,0,1,1,0,0,0,0,7,7,121,141
273,582,330,594,articles,O,0,0,0,0,0,0,1,1,0,0,0,0,6,7,122,142
337,582,407,597,"L311-15,",O,0,0,1,1,0,0,0,1,1,0,0,0,4,8,123,144
415,582,500,595,D311-18-2,O,0,0,1,1,0,0,0,1,1,0,0,0,6,7,124,147
507,583,521,595,et,O,0,0,0,0,0,0,1,1,0,0,0,0,9,7,125,148
528,583,613,595,D311-18-3,O,0,0,1,1,0,0,0,1,1,0,0,0,6,7,126,149
620,583,639,595,du,O,0,0,0,0,0,0,1,1,0,0,0,0,6,7,127,149
646,583,685,595,code,O,0,0,0,0,0,0,1,1,0,0,0,0,7,6,128,150
691,583,710,595,de,O,0,0,0,0,0,0,1,1,0,0,0,0,7,7,129,151
717,583,774,595,l'entrée,O,0,0,0,0,0,0,0,0,0,0,0,0,7,7,130,151
781,584,795,595,et,O,0,0,0,0,0,0,1,1,0,0,0,0,7,7,131,152
802,584,820,595,du,O,0,0,0,0,0,0,1,1,0,0,0,0,10,7,132,153
827,584,877,599,séjour,O,0,0,0,0,0,0,1,0,0,0,0,0,3,6,133,154
883,584,911,596,des,O,0,0,0,0,0,0,1,1,0,0,0,0,6,7,134,154
918,584,994,599,étrangers,O,0,0,0,0,0,0,1,0,0,0,0,0,4,7,135,155
1001,585,1015,596,et,O,0,0,0,0,0,0,1,1,0,0,0,0,61,6,136,175
1021,585,1039,596,du,O,0,0,0,0,0,0,1,1,0,0,0,0,7,8,137,158
1047,585,1082,596,droit,O,0,0,0,0,0,0,1,1,0,0,0,0,7,0,-1,158
110,622,154,630,euros.,O,0,0,0,0,0,0,0,1,0,0,0,0,25,0,-1,159
110,600,164,614,"d'asile,",O,0,0,0,0,0,0,0,1,0,0,0,0,8,11,140,138
175,600,188,612,le,O,0,0,0,0,0,0,1,1,0,0,0,0,43,9,141,161
197,601,263,612,montant,O,0,0,0,0,0,0,1,1,0,0,0,0,43,9,142,161
272,600,291,612,de,O,0,0,0,0,0,0,1,1,0,0,0,0,62,9,143,181
300,601,312,612,la,O,0,0,0,0,0,0,1,1,0,0,0,0,44,9,144,164
321,601,355,612,taxe,O,0,0,0,0,0,0,1,1,0,0,0,0,44,9,145,164
364,601,372,613,à,O,0,0,0,0,0,0,1,0,0,0,0,0,79,10,146,203
382,601,421,613,votre,O,0,0,0,0,0,0,1,1,0,0,0,0,43,10,147,166
431,601,489,616,"charge,",O,0,0,0,0,0,0,0,1,0,0,0,0,40,11,148,167
500,604,536,616,pour,O,0,0,0,0,0,0,1,1,0,0,0,0,41,9,149,168
545,601,637,613,l'embauche,O,0,0,0,0,0,0,0,1,0,0,0,0,43,9,150,169
646,602,664,613,du,O,0,0,0,0,0,0,1,1,0,0,0,0,43,9,151,171
673,602,754,614,travailleur,O,0,0,0,0,0,0,1,1,0,0,0,0,42,8,152,171
762,602,790,614,cité,O,0,0,0,0,0,0,1,0,0,0,0,0,43,9,153,172
799,605,817,614,en,O,0,0,0,0,0,0,1,1,0,0,0,0,43,11,154,172
828,602,906,617,"référence,",O,0,0,0,0,0,0,0,0,0,0,0,0,40,12,155,174
918,603,940,614,est,O,0,0,0,0,0,0,1,1,0,0,0,0,61,9,156,196
949,603,976,614,fixé,O,0,0,0,0,0,0,1,0,0,0,0,0,43,10,157,175
986,603,994,614,à,O,0,0,0,0,0,0,1,0,0,0,0,0,43,24,158,175
1018,603,1082,617,"1375,00",O,1,0,0,0,0,0,0,1,1,0,0,0,41,0,-1,176
110,655,128,667,Je,O,0,0,1,0,0,0,1,1,0,0,0,0,6,7,160,177
135,658,173,667,vous,O,0,0,0,0,0,0,1,1,0,0,0,0,9,9,161,178
182,655,211,670,prie,O,0,0,0,0,0,0,1,1,0,0,0,0,3,8,162,179
219,655,237,667,de,O,0,0,0,0,0,0,1,1,0,0,0,0,6,9,163,180
246,655,278,667,bien,O,0,0,0,0,0,0,1,1,0,0,0,0,7,8,164,181
286,656,340,667,vouloir,O,0,0,0,0,0,0,1,1,0,0,0,0,10,8,165,182
348,659,366,667,en,O,0,0,0,0,0,0,1,1,0,0,0,0,6,9,166,183
375,656,445,667,effectuer,O,0,0,0,0,0,0,1,1,0,0,0,0,7,8,167,184
453,656,465,667,le,O,0,0,0,0,0,0,1,1,0,0,0,0,7,9,168,185
474,657,548,671,paiement,O,0,0,0,0,0,0,1,1,0,0,0,0,3,8,169,186
556,656,598,668,selon,O,0,0,0,0,0,0,1,1,0,0,0,0,6,10,170,188
608,656,629,668,les,O,0,0,0,0,0,0,1,1,0,0,0,0,6,8,171,188
637,656,721,668,différentes,O,0,0,0,0,0,0,1,0,0,0,0,0,7,9,172,190
730,657,808,669,modalités,O,0,0,0,0,0,0,1,0,0,0,0,0,6,9,173,193
817,657,835,669,de,O,0,0,0,0,0,0,1,1,0,0,0,0,6,9,174,194
844,657,924,672,règlement,O,0,0,0,0,0,0,1,0,0,0,0,0,3,9,175,194
933,657,1009,673,indiquées,O,0,0,0,0,0,0,1,0,0,0,0,0,2,8,176,196
1017,658,1081,673,ci-après,O,0,0,0,0,0,0,0,0,0,0,0,0,3,0,-1,199
110,673,148,685,dans,O,0,0,0,0,0,0,1,1,0,0,0,0,7,9,178,200
157,676,174,685,un,O,1,0,0,0,0,0,1,1,0,0,0,0,7,9,179,200
183,673,220,685,délai,O,0,0,0,0,0,0,1,0,0,0,0,0,7,8,180,200
228,673,247,685,de,O,0,0,0,0,0,0,1,1,0,0,0,0,7,6,181,200
253,674,299,685,trente,O,1,0,0,0,0,0,1,1,0,0,0,0,7,6,182,201
305,677,345,689,jours,O,0,0,0,0,0,0,1,1,0,0,0,0,3,8,183,203
353,673,361,685,à,O,0,0,0,0,0,0,1,0,0,0,0,0,7,9,184,203
370,674,436,689,compter,O,0,0,0,0,0,0,1,1,0,0,0,0,3,6,185,204
442,674,461,686,de,O,0,0,0,0,0,0,1,1,0,0,0,0,6,8,186,205
469,674,481,686,la,O,0,0,0,0,0,0,1,1,0,0,0,0,7,8,187,206
489,674,523,686,date,O,0,0,0,0,0,0,1,1,0,0,0,0,7,8,188,206
531,674,617,686,d'émission,O,0,0,0,0,0,0,0,0,0,0,0,0,7,8,189,207
625,675,643,686,du,O,0,0,0,0,0,0,1,1,0,0,0,0,81,9,190,230
652,675,712,690,présent,O,0,0,0,0,0,0,1,0,0,0,0,0,3,7,191,209
719,678,750,687,avis,O,0,0,0,0,0,0,1,1,0,0,0,0,6,8,192,210
758,678,781,690,qui,O,0,0,0,0,0,0,1,1,0,0,0,0,4,8,193,211
789,675,812,687,est,O,0,0,0,0,0,0,1,1,0,0,0,0,6,8,194,212
820,675,888,690,indiquée,O,0,0,0,0,0,0,1,0,0,0,0,0,3,7,195,212
895,678,913,687,en,O,0,0,0,0,0,0,1,1,0,0,0,0,7,8,196,213
921,675,956,687,haut,O,0,0,0,0,0,0,1,1,0,0,0,0,7,7,197,213
963,675,971,687,à,O,0,0,0,0,0,0,1,0,0,0,0,0,10,8,198,214
979,676,1024,688,droite.,O,0,0,0,0,0,0,0,1,0,0,0,0,6,13,199,215
1037,676,1082,688,Toute,O,0,0,1,0,0,0,1,1,0,0,0,0,6,0,-1,216
110,692,240,707,correspondance,O,0,0,0,0,0,0,1,1,0,0,0,0,3,7,201,217
247,692,270,704,est,O,0,0,0,0,0,0,1,1,0,0,0,0,6,8,202,219
278,692,286,704,à,O,0,0,0,0,0,0,1,0,0,0,0,0,6,7,203,220
293,692,387,704,transmettre,O,0,0,0,0,0,0,1,1,0,0,0,0,6,7,204,220
394,692,402,704,à,O,0,0,0,0,0,0,1,0,0,0,0,0,7,9,205,222
411,692,463,708,l'agent,O,0,0,0,0,0,0,0,1,0,0,0,0,3,8,206,222
471,693,555,708,comptable,O,0,0,0,0,0,0,1,1,0,0,0,0,58,8,207,228
563,693,581,705,de,O,0,0,0,0,0,0,1,1,0,0,0,0,0,8,208,-1
589,693,631,705,l'OFII,O,0,0,0,0,0,0,0,1,0,0,0,0,62,9,209,230
640,693,674,705,dont,O,0,0,0,0,0,0,1,1,0,0,0,0,62,9,210,230
683,693,753,705,l'adresse,O,0,0,0,0,0,0,0,1,0,0,0,0,62,8,211,231
761,694,784,705,est,O,0,0,0,0,0,0,1,1,0,0,0,0,62,8,212,232
792,693,859,709,indiquée,O,0,0,0,0,0,0,1,0,0,0,0,0,94,8,213,233
867,694,943,706,ci-dessus,O,0,0,0,0,0,0,0,1,0,0,0,0,98,8,214,234
951,697,969,706,en,O,0,0,0,0,0,0,1,1,0,0,0,0,98,9,215,235
978,694,1052,709,rappelant,O,0,0,0,0,0,0,1,1,0,0,0,0,0,8,216,-1
1060,694,1082,706,les,O,0,0,0,0,0,0,1,1,0,0,0,0,0,0,-1,-1
111,710,195,722,références,O,0,0,0,0,0,0,1,0,0,0,0,0,43,7,218,223
202,710,220,722,du,O,0,0,0,0,0,0,1,1,0,0,0,0,43,7,219,224
227,710,257,722,titre,O,0,0,0,0,0,0,1,1,0,0,0,0,43,7,220,225
264,710,331,725,(numéro,O,0,0,0,0,0,0,0,0,0,0,0,0,40,7,221,225
338,711,352,722,et,O,0,0,0,0,0,0,1,1,0,0,0,0,43,7,222,226
359,711,442,726,millésime).,O,0,0,0,0,0,0,0,0,0,0,0,0,39,0,-1,226
110,765,172,777,Veuillez,O,0,0,1,0,0,0,1,1,0,0,0,0,85,7,224,238
179,765,234,781,"agréer,",O,0,0,0,0,0,0,0,0,0,0,0,0,120,9,225,247
243,765,316,780,"Madame,",O,0,0,1,0,0,0,0,1,0,0,0,0,48,9,226,236
325,765,401,780,"Monsieur,",O,0,0,1,0,0,0,0,1,0,0,0,0,48,9,227,236
410,766,503,781,l'expression,O,0,0,0,0,0,0,0,1,0,0,0,0,0,8,228,-1
511,766,529,778,de,O,0,0,0,0,0,0,1,1,0,0,0,0,0,7,229,-1
536,769,569,778,mes,O,0,0,0,0,0,0,1,1,0,0,0,0,85,7,230,242
576,767,663,779,salutations,O,0,0,0,0,0,0,1,1,0,0,0,0,84,8,231,243
671,767,692,779,les,O,0,0,0,0,0,0,1,1,0,0,0,0,0,8,232,-1
700,767,785,779,meilleures.,O,0,0,0,0,0,0,0,1,0,0,0,0,0,328,259,-1
782,803,893,815,L'ordonnateur,O,0,0,0,0,0,0,0,1,0,0,0,0,16,5,234,237
898,804,918,833,ge,O,0,0,0,0,0,0,1,1,0,0,0,0,0,7,235,-1
925,804,966,833,nor,O,0,0,0,0,0,0,1,1,0,0,0,0,0,147,257,-1
280,828,370,850,Référence,O,0,0,1,0,0,0,1,0,0,0,0,0,119,411,237,273
781,831,866,850,iquidatioi,O,0,0,0,0,0,0,1,1,0,0,0,0,45,247,256,254
115,862,130,871,N°,O,0,0,1,1,0,0,0,0,0,0,0,0,27,5,239,245
135,862,149,871,du,O,0,0,0,0,0,0,1,1,0,0,0,0,27,5,240,246
154,862,177,871,titre,O,0,0,0,0,0,0,1,1,0,0,0,0,27,167,241,246
344,862,417,872,0020824/19,O,1,0,0,0,0,0,0,1,1,0,0,0,22,110,242,248
527,863,556,873,Date,O,0,0,1,0,0,0,1,1,0,0,0,0,28,4,243,249
560,863,643,873,AT/Visa/Date,O,0,0,0,0,0,0,0,1,0,0,0,0,28,5,244,250
648,863,676,875,Emp,O,0,0,1,0,0,0,1,1,0,0,0,0,26,446,255,253
115,898,130,908,N°,O,0,0,1,1,0,0,0,0,0,0,0,0,32,5,246,263
135,898,201,910,Employeur,O,0,0,1,0,0,0,1,1,0,0,0,0,30,5,247,264
206,901,208,908,:,O,0,1,0,0,0,0,0,1,0,0,0,0,32,313,249,266
355,894,405,903,1298661,O,1,0,0,0,1,0,0,1,1,0,0,0,37,364,254,267
521,901,557,909,Nature,O,0,0,1,0,0,0,1,1,0,0,0,0,31,4,250,268
561,901,574,909,de,O,0,0,0,0,0,0,1,1,0,0,0,0,81,4,251,280
578,901,628,909,l'AT/Motf,O,0,0,0,0,0,0,0,1,0,0,0,0,32,4,252,270
632,901,644,909,du,O,0,0,0,0,0,0,1,1,0,0,0,0,81,5,253,283
649,901,682,911,séjour,O,0,0,0,0,0,0,1,0,0,0,0,0,0,440,255,-1
769,895,812,904,Salarié,O,0,0,1,0,0,0,1,0,0,0,0,0,37,310,255,271
1122,780,1133,916,S0-LL-6002,O,0,0,0,1,0,0,0,1,1,0,0,0,-134,0,-1,258
1113,845,1141,850,-,O,0,1,0,0,0,0,0,1,0,0,0,0,0,-19,255,-1
1113,808,1141,839,ZOLOO,O,0,0,0,1,0,0,1,1,0,0,0,0,6,-19,255,256
1113,782,1141,804,VAL,O,0,0,0,1,0,0,1,1,0,0,0,0,4,-19,255,257
1113,773,1141,778,-,O,0,1,0,0,0,0,0,1,0,0,0,0,2,0,-1,255
1113,740,1141,745,-,O,0,1,0,0,0,0,0,1,0,0,0,0,28,0,-1,259
1038,931,1098,943,"1375,00",O,1,0,0,0,0,0,0,1,1,0,0,0,0,-8,262,-1
1090,922,1102,950,€,O,0,0,0,0,0,1,0,0,0,1,0,0,-19,0,-1,261
115,940,129,949,N°,O,0,0,1,1,0,0,0,0,0,0,0,0,40,6,264,278
135,940,149,949,de,O,0,0,0,0,0,0,1,1,0,0,0,0,40,5,265,278
154,940,200,949,dossier,O,0,0,0,0,0,0,1,1,0,0,0,0,0,4,266,-1
204,940,229,949,OFII,O,0,0,0,1,0,0,1,1,0,0,0,0,0,106,267,-1
335,940,426,949,740217004372,O,1,0,0,0,1,0,0,1,1,0,0,0,20,101,268,274
527,940,565,949,Durée,O,0,0,1,0,0,0,1,0,0,0,0,0,41,4,269,280
569,940,583,949,du,O,0,0,0,0,0,0,1,1,0,0,0,0,41,5,270,281
588,941,631,950,contrat,O,0,0,0,0,0,0,1,1,0,0,0,0,40,127,271,281
758,941,788,950,>=12,O,0,0,0,0,0,0,0,1,1,0,0,0,40,6,272,284
794,944,823,950,mois,O,0,0,0,0,0,0,1,1,0,0,0,0,40,267,262,284
283,969,321,978,OKAT,O,0,0,0,1,0,0,1,1,0,0,0,0,0,5,274,-1
326,969,363,978,LYLIA,O,0,0,0,1,0,0,1,1,0,0,0,0,0,5,275,-1
368,969,438,978,ISMAHENE,O,0,0,0,1,0,0,1,1,0,0,0,0,0,5,276,-1
443,970,478,979,ABLA,O,0,0,0,1,0,0,1,1,0,0,0,0,0,0,-1,-1
509,982,510,987,|,O,0,0,0,0,0,0,0,1,0,0,0,0,7,0,-1,279
115,989,158,998,Salarié,O,0,0,1,0,0,0,1,0,0,0,0,0,0,351,279,-1
509,994,510,998,|,O,0,0,0,0,0,0,0,1,0,0,0,0,0,17,280,-1
527,990,570,999,Salaire,O,0,0,1,0,0,0,1,1,0,0,0,0,247,5,281,363
575,990,609,1001,(base,O,0,0,0,0,0,0,0,1,0,0,0,0,103,5,282,286
614,990,629,999,35,O,1,0,0,0,1,0,0,1,1,0,0,0,247,5,283,363
634,990,645,1001,h),O,0,0,0,0,0,0,0,1,0,0,0,0,245,115,284,363
760,990,809,1001,"2500,00",O,1,0,0,0,0,0,0,1,1,0,0,0,0,4,285,-1
813,990,821,1000,€,O,0,0,0,0,0,1,0,0,0,1,0,0,0,0,-1,-1
291,1104,595,1105,D,O,0,0,1,1,0,0,1,1,0,0,0,0,42,0,-1,288
260,1163,274,1164,_,O,0,1,0,0,0,0,0,1,0,0,0,0,11,0,-1,292
522,1147,574,1160,Délais,O,0,0,1,0,0,0,1,0,0,0,0,0,16,7,289,297
581,1148,597,1160,et,O,0,0,0,0,0,0,1,1,0,0,0,0,16,6,290,299
603,1151,669,1160,recours,O,0,0,0,0,0,0,1,1,0,0,0,0,16,0,-1,299
124,1175,212,1191,Lorsqu'une,O,0,0,0,0,0,0,0,1,0,0,0,0,3,9,292,307
221,1175,303,1191,opposition,O,0,0,0,0,0,0,1,1,0,0,0,0,3,10,293,309
313,1175,321,1187,à,O,0,0,0,0,0,0,1,0,0,0,0,0,7,10,294,309
331,1175,369,1188,l'état,O,0,0,0,0,0,0,0,0,0,0,0,0,6,9,295,310
378,1175,460,1188,exécutoire,O,0,0,0,0,0,0,1,0,0,0,0,0,7,10,296,311
470,1176,517,1188,relève,O,0,0,0,0,0,0,1,0,0,0,0,0,7,10,297,312
527,1176,545,1188,de,O,0,0,0,0,0,0,1,1,0,0,0,0,7,10,298,313
555,1176,567,1188,la,O,0,0,0,0,0,0,1,1,0,0,0,0,7,10,299,314
577,1176,676,1192,compétence,O,0,0,0,0,0,0,1,0,0,0,0,0,3,9,300,316
685,1176,712,1189,des,O,0,0,0,0,0,0,1,1,0,0,0,0,28,9,301,335
721,1176,796,1189,tribunaux,O,0,0,0,0,0,0,1,1,0,0,0,0,6,9,302,318
805,1177,918,1191,"administratifs,",O,0,0,0,0,0,0,0,1,0,0,0,0,5,11,303,319
929,1177,935,1189,il,O,0,0,0,0,0,0,1,1,0,0,0,0,10,10,304,320
945,1177,1013,1189,convient,O,0,0,0,0,0,0,1,1,0,0,0,0,7,8,305,321
1021,1177,1040,1189,de,O,0,0,0,0,0,0,1,1,0,0,0,0,7,9,306,322
1049,1180,1067,1189,se,O,0,0,0,0,0,0,1,1,0,0,0,0,7,0,-1,322
123,1194,206,1206,conformer,O,0,0,0,0,0,0,1,1,0,0,0,0,6,12,308,323
218,1197,246,1206,aux,O,0,0,0,0,0,0,1,1,0,0,0,0,6,13,309,323
259,1194,339,1209,dispositifs,O,0,0,0,0,0,0,1,1,0,0,0,0,4,13,310,325
352,1194,370,1206,du,O,0,0,0,0,0,0,1,1,0,0,0,0,10,14,311,327
384,1195,433,1207,decret,O,0,0,0,0,0,0,1,1,0,0,0,0,9,13,312,328
446,1195,512,1207,N°65-29,O,0,0,1,1,0,0,0,0,1,0,0,0,6,13,313,330
525,1195,543,1207,du,O,0,0,0,0,0,0,1,1,0,0,0,0,9,15,314,332
558,1195,573,1207,11,O,1,0,0,0,1,0,0,1,1,0,0,0,9,14,315,332
587,1198,642,1210,janvier,O,0,0,0,0,0,0,1,1,0,0,0,0,3,14,316,333
656,1195,694,1207,1965,O,1,0,0,0,1,0,0,1,1,0,0,0,10,13,317,334
707,1195,730,1210,qui,O,0,0,0,0,0,0,1,1,0,0,0,0,4,14,318,336
744,1195,798,1210,prévoit,O,0,0,0,0,0,0,1,0,0,0,0,0,4,13,319,336
811,1196,902,1208,notamment,O,0,0,0,0,0,0,1,1,0,0,0,0,6,13,320,339
915,1199,944,1211,que,O,0,0,0,0,0,0,1,1,0,0,0,0,3,12,321,341
956,1196,975,1208,“la,O,0,0,0,0,0,0,0,0,0,0,0,0,6,13,322,342
988,1196,1066,1211,juridiction,O,0,0,0,0,0,0,1,1,0,0,0,0,3,0,-1,343
123,1212,237,1224,administrative,O,0,0,0,0,0,0,1,1,0,0,0,0,7,7,324,345
244,1216,262,1224,ne,O,0,0,0,0,0,0,1,1,0,0,0,0,7,7,325,347
269,1213,303,1228,peut,O,0,0,0,0,0,0,1,1,0,0,0,0,3,6,326,349
309,1213,340,1225,être,O,0,0,0,0,0,0,1,0,0,0,0,0,6,6,327,349
346,1216,392,1225,saisie,O,0,0,0,0,0,0,1,1,0,0,0,0,6,7,328,349
399,1216,427,1228,que,O,0,0,0,0,0,0,1,1,0,0,0,0,4,7,329,351
434,1216,460,1228,par,O,0,0,0,0,0,0,1,1,0,0,0,0,4,6,330,352
466,1213,498,1225,voie,O,0,0,0,0,0,0,1,1,0,0,0,0,7,7,331,352
505,1213,524,1225,de,O,0,0,0,0,0,0,1,1,0,0,0,0,7,7,332,353
531,1216,590,1225,recours,O,0,0,0,0,0,0,1,1,0,0,0,0,7,7,333,353
597,1213,644,1225,formé,O,0,0,0,0,0,0,1,0,0,0,0,0,21,7,334,363
651,1217,676,1228,par,O,0,0,0,0,0,0,1,1,0,0,0,0,22,7,335,364
683,1217,711,1226,une,O,0,0,0,0,0,0,1,1,0,0,0,0,24,7,336,365
718,1214,788,1228,"décision,",O,0,0,0,0,0,0,0,0,0,0,0,0,22,8,337,366
796,1214,810,1226,et,O,0,0,0,0,0,0,1,1,0,0,0,0,27,7,338,367
817,1217,838,1228,"ce,",O,0,0,0,0,0,0,0,1,0,0,0,0,22,9,339,368
847,1214,885,1226,dans,O,0,0,0,0,0,0,1,1,0,0,0,0,24,7,340,370
892,1214,913,1226,les,O,0,0,0,0,0,0,1,1,0,0,0,0,24,8,341,370
921,1214,958,1226,deux,O,1,0,0,0,0,0,1,1,0,0,0,0,24,7,342,370
965,1214,1003,1226,mois,O,0,0,0,0,0,0,1,1,0,0,0,0,0,7,343,-1
1010,1214,1018,1226,à,O,0,0,0,0,0,0,1,0,0,0,0,0,0,7,344,-1
1025,1215,1067,1229,partir,O,0,0,0,0,0,0,1,1,0,0,0,0,0,0,-1,-1
123,1231,142,1243,de,O,0,0,0,0,0,0,1,1,0,0,0,0,7,7,346,354
149,1231,161,1243,la,O,0,0,0,0,0,0,1,1,0,0,0,0,7,8,347,355
169,1231,255,1243,notification,O,0,0,0,0,0,0,1,1,0,0,0,0,7,8,348,355
263,1234,281,1243,ou,O,0,0,0,0,0,0,1,1,0,0,0,0,7,8,349,357
289,1231,375,1246,publication,O,0,0,0,0,0,0,1,1,0,0,0,0,4,7,350,358
382,1232,401,1243,de,O,0,0,0,0,0,0,1,1,0,0,0,0,7,7,351,359
408,1232,420,1243,la,O,0,0,0,0,0,0,1,1,0,0,0,0,7,7,352,360
427,1232,493,1243,décision,O,0,0,0,0,0,0,1,0,0,0,0,0,7,8,353,360
501,1232,581,1247,"attaquée"".",O,0,0,0,0,0,0,0,0,0,0,0,0,3,0,-1,362
124,1250,142,1262,Le,O,0,0,1,0,0,0,1,1,0,0,0,0,67,7,355,375
149,1250,208,1265,présent,O,0,0,0,0,0,0,1,0,0,0,0,0,64,6,356,376
214,1250,244,1262,titre,O,0,0,0,0,0,0,1,1,0,0,0,0,67,7,357,376
251,1250,285,1265,peut,O,0,0,0,0,0,0,1,1,0,0,0,0,65,7,358,378
292,1250,322,1262,être,O,0,0,0,0,0,0,1,0,0,0,0,0,68,6,359,379
328,1250,396,1262,contesté,O,0,0,0,0,0,0,1,0,0,0,0,0,68,7,360,380
403,1250,457,1262,devant,O,0,0,0,0,0,0,1,1,0,0,0,0,71,7,361,382
464,1250,476,1262,le,O,0,0,0,0,0,0,1,1,0,0,0,0,46,6,362,371
482,1250,542,1262,tribunal,O,0,0,0,0,0,0,1,1,0,0,0,0,46,7,363,371
549,1246,650,1276,administratif,O,0,0,0,0,0,0,1,1,0,0,0,0,32,6,364,372
656,1250,694,1262,dans,O,0,0,0,0,0,0,1,1,0,0,0,0,46,8,365,374
702,1250,723,1263,les,O,0,0,0,0,0,0,1,1,0,0,0,0,45,7,366,374
730,1250,767,1263,deux,O,1,0,0,0,0,0,1,1,0,0,0,0,45,7,367,374
774,1253,812,1263,mois,O,0,0,0,0,0,0,1,1,0,0,0,0,68,7,368,389
819,1250,837,1263,de,O,0,0,0,0,0,0,1,1,0,0,0,0,68,7,369,391
844,1254,861,1263,sa,O,0,0,0,0,0,0,1,1,0,0,0,0,68,8,370,391
869,1250,960,1263,notification.,O,0,0,0,0,0,0,0,1,0,0,0,0,86,0,-1,401
442,1308,527,1319,Comment,O,0,0,1,0,0,0,1,1,0,0,0,0,11,6,372,383
533,1308,611,1319,effectuer,O,0,0,0,0,0,0,1,1,0,0,0,0,12,5,373,384
616,1308,661,1319,votre,O,0,0,0,0,0,0,1,1,0,0,0,0,12,7,374,387
668,1308,747,1323,paiement,O,0,0,0,0,0,0,1,1,0,0,0,0,8,0,-1,388
123,1329,151,1341,Par,O,0,0,1,0,0,0,1,1,0,0,0,0,7,6,376,392
157,1329,227,1341,virement,O,0,0,0,0,0,0,1,1,0,0,0,0,3,6,377,393
233,1332,258,1341,sur,O,0,0,0,0,0,0,1,1,0,0,0,0,7,6,378,395
264,1330,277,1341,le,O,0,0,0,0,0,0,1,1,0,0,0,0,7,6,379,395
283,1330,343,1345,compte,O,0,0,0,0,0,0,1,1,0,0,0,0,3,7,380,396
350,1330,368,1341,de,O,0,0,0,0,0,0,1,1,0,0,0,0,7,6,381,396
374,1330,419,1345,dépôt,O,0,0,0,0,0,0,1,0,0,0,0,0,3,7,382,397
426,1333,444,1342,au,O,0,0,0,0,0,0,1,1,0,0,0,0,25,7,383,409
451,1330,498,1342,trésor,O,0,0,0,0,0,0,1,0,0,0,0,0,25,6,384,410
504,1331,554,1342,ouvert,O,0,0,0,0,0,0,1,1,0,0,0,0,62,7,385,424
561,1333,579,1342,au,O,0,0,0,0,0,0,1,1,0,0,0,0,62,8,386,424
587,1333,621,1342,nom,O,0,0,0,0,0,0,1,1,0,0,0,0,62,7,387,425
628,1331,647,1342,de,O,0,0,0,0,0,0,1,1,0,0,0,0,62,7,388,426
654,1331,706,1346,l'agent,O,0,0,0,0,0,0,0,1,0,0,0,0,0,6,389,-1
712,1331,796,1345,comptable,O,0,0,0,0,0,0,1,1,0,0,0,0,4,7,390,398
803,1331,821,1342,de,O,0,0,0,0,0,0,1,1,0,0,0,0,10,7,391,399
828,1331,869,1342,l'OFII,O,0,0,0,0,0,0,0,1,0,0,0,0,7,0,-1,400
123,1348,161,1360,RIB,O,0,0,0,1,0,0,1,1,0,0,0,0,6,-6,393,402
155,1344,163,1368,:,O,0,1,0,0,0,0,0,1,0,0,0,0,-20,7,394,392
170,1348,216,1360,10071,O,1,0,0,0,1,0,0,1,1,0,0,0,6,10,395,404
226,1348,275,1360,75000,O,1,0,0,0,1,0,0,1,1,0,0,0,6,7,396,405
282,1348,390,1360,00001000271,O,1,0,0,0,1,0,0,1,1,0,0,0,6,9,397,406
399,1348,418,1360,43,O,1,0,0,0,1,0,0,1,1,0,0,0,7,280,398,408
698,1349,801,1361,Domiciliation,O,0,0,1,0,0,0,1,1,0,0,0,0,6,8,399,411
809,1352,811,1361,:,O,0,1,0,0,0,0,0,1,0,0,0,0,7,8,400,414
819,1349,895,1361,TPPARIS,O,0,0,0,1,0,0,1,1,0,0,0,0,7,8,401,414
903,1349,940,1362,RGF,O,0,0,0,1,0,0,1,1,0,0,0,0,0,0,-1,-1
124,1366,163,1378,IBAN,O,0,0,0,1,0,0,1,1,0,0,0,0,6,8,403,415
171,1376,173,1378,:,O,0,1,0,0,0,0,0,1,0,0,0,0,26,9,404,417
182,1366,224,1378,FR76,O,0,0,0,1,0,0,0,1,1,0,0,0,26,9,405,417
233,1366,270,1378,1007,O,1,0,0,0,1,0,0,1,1,0,0,0,26,9,406,418
279,1366,317,1378,1750,O,1,0,0,0,1,0,0,1,1,0,0,0,26,6,407,419
323,1367,363,1378,0000,O,1,0,0,0,1,0,0,1,1,0,0,0,26,7,408,419
370,1367,409,1378,0010,O,1,0,0,0,1,0,0,1,1,0,0,0,26,6,409,421
415,1367,455,1379,0027,O,1,0,0,0,1,0,0,1,1,0,0,0,25,8,410,422
463,1367,491,1379,143,O,1,0,0,0,1,0,0,1,1,0,0,0,25,204,411,423
695,1367,737,1379,Code,O,0,0,1,0,0,0,1,1,0,0,0,0,0,7,412,-1
744,1368,773,1379,BIC,O,0,0,0,1,0,0,1,1,0,0,0,0,0,7,413,-1
780,1377,782,1379,:,O,0,1,0,0,0,0,0,1,0,0,0,0,0,8,414,-1
790,1368,882,1379,TRPUFRP1,O,0,0,0,1,0,0,0,1,1,0,0,0,0,0,-1,-1
123,1384,148,1396,ou,O,0,0,0,0,0,0,1,1,0,0,0,0,8,0,-1,416
123,1404,150,1416,Par,O,0,0,1,0,0,0,1,1,0,0,0,0,0,7,417,-1
157,1404,215,1419,chèque,O,0,0,0,0,0,0,1,0,0,0,0,0,0,7,418,-1
222,1404,291,1416,bancaire,O,0,0,0,0,0,0,1,1,0,0,0,0,0,6,419,-1
297,1404,343,1416,libellé,O,0,0,0,0,0,0,1,0,0,0,0,0,0,7,420,-1
350,1404,358,1416,à,O,0,0,0,0,0,0,1,0,0,0,0,0,0,8,421,-1
366,1404,414,1416,l'ordre,O,0,0,0,0,0,0,0,1,0,0,0,0,0,7,422,-1
421,1404,440,1416,de,O,0,0,0,0,0,0,1,1,0,0,0,0,0,7,423,-1
447,1404,498,1420,l'agent,O,0,0,0,0,0,0,0,1,0,0,0,0,0,7,424,-1
505,1404,589,1420,comptable,O,0,0,0,0,0,0,1,1,0,0,0,0,0,7,425,-1
596,1404,615,1416,de,O,0,0,0,0,0,0,1,1,0,0,0,0,0,7,426,-1
622,1404,663,1416,l'OFII,O,0,0,0,0,0,0,0,1,0,0,0,0,0,0,-1,-1
