xmin,ymin,xmax,ymax,Object,label,like_num,is_punct,is_title,is_upper,is_digit,is_currency,is_alpha,is_ascii,hasNumbers,hascurrency,like_email,like_url,dh,dv,v_hor,v_vert
120,40,157,54,ISE,O,0,0,0,1,0,0,1,1,0,0,0,0,67,4,1,12
161,40,227,54,PARIS,O,0,0,0,1,0,0,1,1,0,0,0,0,11,4,2,4
231,40,259,54,LA,O,0,0,0,1,0,0,1,1,0,0,0,0,11,5,3,4
264,40,369,54,DEFENSE,O,0,0,0,1,0,0,1,1,0,0,0,0,12,0,-1,5
190,65,249,78,Grande,O,0,0,1,0,0,0,1,1,0,0,0,0,14,4,5,8
253,66,300,78,Arche,O,0,0,1,0,0,0,1,1,0,0,0,0,14,0,-1,9
156,93,163,104,1,COMPANY_ADDRESS,1,0,0,0,1,0,0,1,1,0,0,0,17,6,7,12
169,93,221,109,parvis,COMPANY_ADDRESS,0,0,0,0,0,0,1,1,0,0,0,0,12,6,8,13
227,92,244,104,de,COMPANY_ADDRESS,0,0,0,0,0,0,1,1,0,0,0,0,17,7,9,13
251,92,265,104,la,COMPANY_ADDRESS,0,0,0,0,0,0,1,1,0,0,0,0,17,6,10,14
271,92,333,109,Défense,COMPANY_ADDRESS,0,0,1,0,0,0,1,0,0,0,0,0,12,0,-1,15
830,106,834,112,"j,",O,0,0,0,0,0,0,0,1,0,0,0,0,0,0,-1,-1
134,121,179,133,92044,COMPANY_ADDRESS,1,0,0,0,1,0,0,1,1,0,0,0,79,6,13,20
185,121,240,132,PARIS,COMPANY_ADDRESS,0,0,0,1,0,0,1,1,0,0,0,0,80,6,14,21
246,121,269,132,LA,COMPANY_ADDRESS,0,0,0,1,0,0,1,1,0,0,0,0,80,6,15,21
275,121,357,133,DEFENSE,COMPANY_ADDRESS,0,0,0,1,0,0,1,1,0,0,0,0,79,0,-1,21
870,136,1145,170,ASCENCIA®,LOGO,0,0,0,1,0,0,0,0,0,0,0,0,3,0,-1,17
870,173,1013,198,business,LOGO,0,0,0,0,0,0,1,1,0,0,0,0,81,15,18,26
1028,173,1132,198,school,LOGO,0,0,0,0,0,0,1,1,0,0,0,0,0,0,-1,-1
30,212,142,238,Facture,O,0,0,1,0,0,0,1,1,0,0,0,0,34,8,20,22
150,212,181,238,N°,O,0,0,1,1,0,0,0,0,0,0,0,0,32,8,21,24
189,212,351,238,P03191555,NUMBER,0,0,1,1,0,0,0,1,1,0,0,0,123,0,-1,32
55,272,91,284,Date,O,0,0,1,0,0,0,1,1,0,0,0,0,73,8,23,30
99,275,101,284,:,O,0,1,0,0,0,0,0,1,0,0,0,0,73,23,24,30
124,270,187,283,20/03/19,TOTAL,0,0,0,0,0,0,0,1,1,0,0,0,77,0,-1,31
840,280,894,292,ADBI,CLIENT_NAME,0,0,0,1,0,0,1,1,0,0,0,0,49,6,26,28
900,279,952,292,SARL,CLIENT_NAME,0,0,0,1,0,0,1,1,0,0,0,0,48,0,-1,29
827,341,836,352,8,CLIENT_ADDRESS,1,0,0,0,1,0,0,1,1,0,0,0,0,5,28,-1
841,341,879,352,RUE,CLIENT_ADDRESS,0,0,0,1,0,0,1,1,0,0,0,0,32,5,29,36
884,340,961,352,ROSSINI,CLIENT_ADDRESS,0,0,0,1,0,0,1,1,0,0,0,0,32,0,-1,37
30,357,148,368,BENEFICIAIRE,O,0,0,0,1,0,0,1,1,0,0,0,0,16,6,31,34
154,360,157,368,:,O,0,1,0,0,0,0,0,1,0,0,0,0,33,8,32,40
165,361,247,371,KERSULEC,O,0,0,0,1,0,0,1,1,0,0,0,0,33,6,33,41
253,361,335,371,"MATTHIEU,",O,0,0,0,1,0,0,0,1,0,0,0,0,54,0,-1,46
29,384,46,394,N°,O,0,0,1,1,0,0,0,0,0,0,0,0,7,6,35,38
52,384,122,395,DOSSIER,O,0,0,0,1,0,0,1,1,0,0,0,0,6,722,36,39
844,384,890,396,75009,CLIENT_ADDRESS,1,0,0,0,1,0,0,1,1,0,0,0,0,5,37,-1
895,384,949,395,PARIS,CLIENT_ADDRESS,0,0,0,1,0,0,1,1,0,0,0,0,0,0,-1,-1
30,401,63,411,BON,O,0,0,0,1,0,0,1,1,0,0,0,0,16,6,39,42
69,401,90,411,DE,O,0,0,0,1,0,0,1,1,0,0,0,0,16,5,40,42
95,401,195,411,COMMANDE,O,0,0,0,1,0,0,1,1,0,0,0,0,16,7,41,43
202,404,205,411,:,O,0,1,0,0,0,0,0,1,0,0,0,0,16,0,-1,44
26,427,99,438,PERIODE,O,0,0,0,1,0,0,1,1,0,0,0,0,10,6,43,48
105,427,126,437,DE,O,0,0,0,1,0,0,1,1,0,0,0,0,11,6,44,48
132,427,250,438,FACTURATION,O,0,0,0,1,0,0,1,1,0,0,0,0,11,8,45,49
258,430,261,438,:,O,0,1,0,0,0,0,0,1,0,0,0,0,32,15,46,57
276,425,334,436,Annuelle,O,0,0,1,0,0,0,1,1,0,0,0,0,11,0,-1,50
26,449,43,459,N°,O,0,0,1,1,0,0,0,0,0,0,0,0,11,6,48,54
49,448,150,459,FORMATION,O,0,0,0,1,0,0,1,1,0,0,0,0,11,5,49,54
155,449,242,459,CONTINUE,O,0,0,0,1,0,0,1,1,0,0,0,0,11,36,50,56
278,447,290,457,11,O,1,0,0,0,1,0,0,1,1,0,0,0,13,7,51,58
297,447,312,457,92,O,1,0,0,0,1,0,0,1,1,0,0,0,13,8,52,59
320,447,358,457,16628,O,1,0,0,0,1,0,0,1,1,0,0,0,13,5,53,59
363,447,379,457,92,O,1,0,0,0,1,0,0,1,1,0,0,0,13,0,-1,59
29,470,111,481,AGISSANT,O,0,0,0,1,0,0,1,1,0,0,0,0,66,6,55,64
117,470,161,481,POUR,O,0,0,0,1,0,0,1,1,0,0,0,0,117,6,56,72
167,470,187,481,LE,O,0,0,0,1,0,0,1,1,0,0,0,0,66,6,57,65
193,470,263,481,COMPTE,O,0,0,0,1,0,0,1,1,0,0,0,0,66,7,58,65
270,470,290,481,DE,O,0,0,0,1,0,0,1,1,0,0,0,0,0,7,59,-1
297,470,420,481,L'ENTREPRISE:,O,0,0,0,1,0,0,0,1,0,0,0,0,0,29,60,-1
449,468,487,479,ADBI,O,0,0,0,1,0,0,1,1,0,0,0,0,0,5,61,-1
492,468,533,479,SARL,O,0,0,0,1,0,0,1,1,0,0,0,0,0,0,-1,-1
700,535,728,546,Nbr,O,0,0,1,0,0,0,1,1,0,0,0,0,10,0,-1,71
1132,546,1138,551,*,O,0,1,0,0,0,0,0,1,0,0,0,0,46,0,-1,86
41,547,110,558,Référence,O,0,0,1,0,0,0,1,0,0,0,0,0,40,67,65,72
177,547,259,561,Désignation,O,0,0,1,0,0,0,1,0,0,0,0,0,38,527,66,73
786,547,803,557,Px,O,0,0,1,0,0,0,1,1,0,0,0,0,0,5,67,-1
808,548,862,558,unitaire,O,0,0,0,0,0,0,1,1,0,0,0,0,40,37,68,84
899,547,949,558,Remise,O,0,0,1,0,0,0,1,1,0,0,0,0,0,51,69,-1
1000,547,1060,557,Montant,O,0,0,1,0,0,0,1,1,0,0,0,0,0,5,70,-1
1065,547,1088,557,HT,O,0,0,0,1,0,0,1,1,0,0,0,0,41,44,63,85
688,556,734,567,heures,O,0,0,0,0,0,0,1,1,0,0,0,0,0,0,-1,-1
29,598,165,612,B2_GAVRC_CP_20,O,0,0,0,1,0,0,0,1,1,0,0,0,118,15,73,90
180,599,221,609,TITRE,O,0,0,0,1,0,0,1,1,0,0,0,0,5,8,74,87
229,599,264,609,RNCP,O,0,0,0,1,0,0,1,1,0,0,0,0,5,7,75,87
271,599,314,609,NIV.I,O,0,0,0,1,0,0,0,1,0,0,0,0,5,11,76,87
325,598,368,609,"GEST,",O,0,0,0,1,0,0,0,1,0,0,0,0,0,7,77,-1
375,599,394,609,DE,O,0,0,0,1,0,0,1,1,0,0,0,0,0,7,78,-1
401,599,465,609,L'ADMIN.,O,0,0,0,1,0,0,0,1,0,0,0,0,0,11,79,-1
476,598,505,609,DES,O,0,0,0,1,0,0,1,1,0,0,0,0,0,6,80,-1
511,598,549,608,VTES,O,0,0,0,1,0,0,1,1,0,0,0,0,0,6,81,-1
555,598,574,608,ET,O,0,0,0,1,0,0,1,1,0,0,0,0,0,5,82,-1
579,598,657,608,RELATION,O,0,0,0,1,0,0,1,1,0,0,0,0,0,63,83,-1
720,598,756,609,"52,50",O,1,0,0,0,0,0,0,1,1,0,0,0,0,89,84,-1
845,598,879,610,"14,00",O,1,0,0,0,0,0,0,1,1,0,0,0,0,178,85,-1
1057,598,1101,610,"735,00",O,1,0,0,0,0,0,0,1,1,0,0,0,119,23,86,102
1124,597,1151,608,v20,O,0,0,0,0,0,0,0,1,1,0,0,0,0,0,-1,-1
177,614,296,625,COMMERCIALE,O,0,0,0,1,0,0,1,1,0,0,0,0,11,0,-1,88
177,636,243,647,FEVRIER,O,0,0,0,1,0,0,1,1,0,0,0,0,83,5,89,91
248,636,281,647,2019,O,1,0,0,0,1,0,0,1,1,0,0,0,83,0,-1,92
27,730,63,740,Code,O,0,0,1,0,0,0,1,1,0,0,0,0,26,116,91,105
179,730,213,741,Base,O,0,0,1,0,0,0,1,1,0,0,0,0,25,51,92,106
264,730,301,741,Taux,O,0,0,1,0,0,0,1,1,0,0,0,0,25,51,93,107
352,740,355,741,-,O,0,1,0,0,0,0,0,1,0,0,0,0,0,6,94,-1
361,730,422,741,Montant,O,0,0,1,0,0,0,1,1,0,0,0,0,25,85,95,108
507,729,544,740,Total,O,0,0,1,0,0,0,1,1,0,0,0,0,25,96,96,109
640,729,707,743,Escompte,O,0,0,1,0,0,0,1,1,0,0,0,0,22,61,97,110
768,729,805,740,‘Total,O,0,0,1,0,0,0,0,0,0,0,0,0,0,5,98,-1
810,729,843,740,PEC,O,0,0,0,1,0,0,1,1,0,0,0,0,25,73,99,111
916,729,978,742,Acompte,O,0,0,1,0,0,0,1,1,0,0,0,0,23,6,100,112
984,738,989,739,—,O,0,1,0,0,0,0,0,0,0,0,0,0,0,31,101,-1
1020,737,1025,739,ks,O,0,0,0,0,0,0,1,1,0,0,0,0,0,19,102,-1
1044,729,1078,740,NET,O,0,0,0,1,0,0,1,1,0,0,0,0,0,4,103,-1
1082,729,1093,739,A,O,0,0,1,1,0,0,1,1,0,0,0,0,0,5,104,-1
1098,728,1153,739,PAYER,O,0,0,0,1,0,0,1,1,0,0,0,0,25,0,-1,113
27,766,54,776,V20,O,0,0,1,1,0,0,0,1,1,0,0,0,55,114,106,114
168,766,212,777,"735,00",O,1,0,0,0,0,0,0,1,1,0,0,0,53,66,107,115
278,766,299,776,0%,O,0,0,0,0,0,0,0,1,1,0,0,0,0,81,108,-1
380,766,423,777,147.00,O,1,0,0,0,0,0,0,1,1,0,0,0,53,103,109,116
526,765,570,777,"735,00",O,1,0,0,0,0,0,0,1,1,0,0,0,0,108,110,-1
678,765,706,777,"0,00",O,1,0,0,0,0,0,0,1,1,0,0,0,0,91,111,-1
797,765,842,776,"882,00",O,1,0,0,0,0,0,0,1,1,0,0,0,0,108,112,-1
950,765,978,777,"0,00",O,1,0,0,0,0,0,0,1,1,0,0,0,0,127,113,-1
1105,764,1150,777,"882,00",TOTAL,1,0,0,0,0,0,0,1,1,0,0,0,0,0,-1,-1
39,831,76,841,Total,O,0,0,1,0,0,0,1,1,0,0,0,0,0,92,115,-1
168,830,212,843,"735,00",O,1,0,0,0,0,0,0,1,1,0,0,0,129,168,116,119
380,830,423,843,"147,00",O,1,0,0,0,0,0,0,1,1,0,0,0,0,0,-1,-1
56,972,139,983,Conditions,O,0,0,1,0,0,0,1,1,0,0,0,0,36,6,118,121
145,972,162,983,de,O,0,0,0,0,0,0,1,1,0,0,0,0,0,6,119,-1
168,972,244,986,règlement,O,0,0,0,0,0,0,1,0,0,0,0,0,0,7,120,-1
251,975,254,983,:,O,0,1,0,0,0,0,0,1,0,0,0,0,0,0,-1,-1
43,1019,135,1031,Echéancier,O,0,0,1,0,0,0,1,0,0,0,0,0,0,6,122,-1
141,1022,143,1031,:,O,0,1,0,0,0,0,0,1,0,0,0,0,0,209,123,-1
352,1018,409,1028,20/03/19,O,0,0,0,0,0,0,0,1,1,0,0,0,0,15,124,-1
424,1017,468,1028,"882,00",O,1,0,0,0,0,0,0,1,1,0,0,0,0,0,-1,-1
86,1186,128,1197,Toutes,O,0,0,1,0,0,0,1,1,0,0,0,0,22,6,126,170
134,1189,186,1197,sommes,O,0,0,0,0,0,0,1,1,0,0,0,0,21,5,127,172
191,1189,214,1196,non,O,0,0,0,0,0,0,1,1,0,0,0,0,23,6,128,173
220,1186,265,1199,réglées,O,0,0,0,0,0,0,1,0,0,0,0,0,3,5,129,152
270,1186,277,1196,à,O,0,0,0,0,0,0,1,0,0,0,0,0,6,5,130,153
282,1186,348,1196,l'échéance,O,0,0,0,0,0,0,0,0,0,0,0,0,6,5,131,154
353,1187,392,1196,seront,O,0,0,0,0,0,0,1,1,0,0,0,0,7,5,132,155
397,1186,412,1196,de,O,0,0,0,0,0,0,1,1,0,0,0,0,6,5,133,156
417,1186,448,1199,plein,O,0,0,0,0,0,0,1,1,0,0,0,0,3,6,134,156
454,1186,484,1196,droit,O,0,0,0,0,0,0,1,1,0,0,0,0,6,5,135,158
489,1186,564,1199,productives,O,0,0,0,0,0,0,1,1,0,0,0,0,3,5,136,158
569,1186,621,1196,d'intérêt,O,0,0,0,0,0,0,0,0,0,0,0,0,6,6,137,160
627,1186,633,1196,à,O,0,0,0,0,0,0,1,0,0,0,0,0,5,5,138,161
638,1187,691,1199,compter,O,0,0,0,0,0,0,1,1,0,0,0,0,2,5,139,161
696,1186,711,1196,du,O,0,0,0,0,0,0,1,1,0,0,0,0,9,4,140,163
715,1189,742,1199,jour,O,0,0,0,0,0,0,1,1,0,0,0,0,6,5,141,163
747,1185,761,1195,de,O,0,0,0,0,0,0,1,1,0,0,0,0,6,6,142,164
767,1185,832,1195,l'échéance,O,0,0,0,0,0,0,0,0,0,0,0,0,6,5,143,165
837,1188,852,1195,au,O,0,0,0,0,0,0,1,1,0,0,0,0,8,5,144,166
857,1187,884,1195,taux,O,0,0,0,0,0,0,1,1,0,0,0,0,8,7,145,166
891,1185,914,1195,fixé,O,0,0,0,0,0,0,1,0,0,0,0,0,6,5,146,168
919,1188,926,1195,à,O,0,0,0,0,0,0,1,0,0,0,0,0,9,7,147,169
933,1185,949,1195,1.5,O,1,0,0,0,0,0,0,1,1,0,0,0,9,6,148,169
955,1185,994,1199,"%,par",O,0,0,0,0,0,0,0,1,0,0,0,0,18,5,149,188
999,1188,1029,1195,mois,O,0,0,0,0,0,0,1,1,0,0,0,0,22,5,150,189
1034,1185,1049,1195,de,O,0,0,0,0,0,0,1,1,0,0,0,0,22,5,151,189
1054,1185,1091,1195,retard.,O,0,0,0,0,0,0,0,1,0,0,0,0,0,0,-1,-1
223,1202,254,1213,Tout,O,0,0,1,0,0,0,1,1,0,0,0,0,7,5,153,174
259,1202,296,1212,retard,O,0,0,0,0,0,0,1,1,0,0,0,0,8,5,154,174
301,1202,315,1212,de,O,0,0,0,0,0,0,1,1,0,0,0,0,8,6,155,175
321,1203,380,1215,paiement,O,0,0,0,0,0,0,1,1,0,0,0,0,6,5,156,176
385,1202,437,1212,entraîne,O,0,0,0,0,0,0,1,0,0,0,0,0,9,5,157,178
442,1202,456,1212,l'e,O,0,0,0,0,0,0,0,1,0,0,0,0,8,13,158,179
469,1202,515,1215,igibilité,O,0,0,0,0,0,0,1,0,0,0,0,0,3,5,159,180
520,1202,553,1212,d'une,O,0,0,0,0,0,0,0,1,0,0,0,0,6,6,160,180
559,1202,624,1212,indemnité,O,0,0,0,0,0,0,1,0,0,0,0,0,6,5,161,182
629,1201,647,1212,for!,O,0,0,0,0,0,0,0,1,0,0,0,0,6,30,162,182
677,1205,693,1212,ire,O,0,0,0,0,0,0,1,1,0,0,0,0,0,5,163,-1
698,1205,727,1215,pour,O,0,0,0,0,0,0,1,1,0,0,0,0,3,6,164,183
733,1201,760,1212,frais,O,0,0,0,0,0,0,1,1,0,0,0,0,6,6,165,183
766,1201,780,1212,de,O,0,0,0,0,0,0,1,1,0,0,0,0,6,5,166,183
785,1203,873,1212,recouvrement,O,0,0,0,0,0,0,1,1,0,0,0,0,6,6,167,185
879,1201,893,1211,de,O,0,0,0,0,0,0,1,1,0,0,0,0,6,4,168,187
897,1201,913,1212,40,O,1,0,0,0,1,0,0,1,1,0,0,0,5,5,169,187
918,1204,952,1212,euros.,O,0,0,0,0,0,0,0,1,0,0,0,0,5,0,-1,187
110,1219,122,1229,Si,O,0,0,1,0,0,0,1,1,0,0,0,0,0,6,171,-1
128,1219,144,1229,les,O,0,0,0,0,0,0,1,1,0,0,0,0,0,7,172,-1
151,1218,178,1229,frais,O,0,0,0,0,0,0,1,1,0,0,0,0,31,5,173,190
183,1219,197,1229,de,O,0,0,0,0,0,0,1,1,0,0,0,0,31,6,174,190
203,1220,291,1229,recouvrement,O,0,0,0,0,0,0,1,1,0,0,0,0,31,5,175,190
296,1220,322,1229,sont,O,0,0,0,0,0,0,1,1,0,0,0,0,31,6,176,192
328,1221,395,1232,supérieurs,O,0,0,0,0,0,0,1,0,0,0,0,0,28,5,177,194
400,1222,406,1228,à,O,0,0,0,0,0,0,1,0,0,0,0,0,32,5,178,194
411,1221,425,1229,ce,O,0,0,0,0,0,0,1,1,0,0,0,0,31,5,179,194
430,1220,482,1229,montant,O,0,0,0,0,0,0,1,1,0,0,0,0,31,7,180,196
489,1218,556,1229,"forfaitaire,",O,0,0,0,0,0,0,0,1,0,0,0,0,52,6,181,200
562,1221,584,1228,une,O,0,0,0,0,0,0,1,1,0,0,0,0,53,6,182,201
590,1218,681,1228,indemnisation,O,0,0,0,0,0,0,1,1,0,0,0,0,0,6,183,-1
687,1218,790,1231,complémentaire,O,0,0,0,0,0,0,1,0,0,0,0,0,62,5,184,210
795,1221,821,1228,sera,O,0,0,0,0,0,0,1,1,0,0,0,0,53,5,185,202
826,1218,852,1229,"dûe,",O,0,0,0,0,0,0,0,0,0,0,0,0,52,6,186,202
858,1221,877,1228,sur,O,0,0,0,0,0,0,1,1,0,0,0,0,53,5,187,202
882,1217,960,1231,présentation,O,0,0,0,0,0,0,1,0,0,0,0,0,62,6,188,212
966,1217,973,1228,d,O,0,0,0,0,0,0,1,1,0,0,0,0,0,17,189,-1
990,1217,1065,1231,justificatifs.,O,0,0,0,0,0,0,0,1,0,0,0,0,0,0,-1,-1
167,1260,231,1269,Identifiant,O,0,0,1,0,0,0,1,1,0,0,0,0,12,5,191,203
236,1260,288,1269,national,O,0,0,0,0,0,0,1,1,0,0,0,0,47,5,192,214
293,1260,308,1269,de,O,0,0,0,0,0,0,1,1,0,0,0,0,12,6,193,197
314,1261,362,1271,compte,O,0,0,0,0,0,0,1,1,0,0,0,0,45,5,194,215
367,1260,423,1269,bancaire,O,0,0,0,0,0,0,1,1,0,0,0,0,12,5,195,198
428,1265,432,1267,-,O,0,1,0,0,0,0,0,1,0,0,0,0,15,5,196,199
437,1260,461,1269,RIB,O,0,0,0,1,0,0,1,1,0,0,0,0,13,0,-1,199
270,1281,320,1290,Guichet,O,0,0,1,0,0,0,1,1,0,0,0,0,4,59,198,205
379,1281,392,1290,N°,O,0,0,1,1,0,0,0,0,0,0,0,0,4,7,199,206
399,1282,447,1290,compte,O,0,0,0,0,0,0,1,1,0,0,0,0,4,47,200,206
494,1281,515,1290,cé,O,0,0,0,0,0,0,1,0,0,0,0,0,4,32,201,207
547,1281,592,1290,Devise,O,0,0,1,0,0,0,1,1,0,0,0,0,4,198,202,208
790,1281,872,1290,Domiciliation,O,0,0,1,0,0,0,1,1,0,0,0,0,3,0,-1,211
177,1281,227,1293,Banque,O,0,0,1,0,0,0,1,1,0,0,0,0,1,43,197,204
182,1294,222,1303,30066,O,1,0,0,0,1,0,0,1,1,0,0,0,13,54,205,213
276,1294,315,1303,10930,O,1,0,0,0,1,0,0,1,1,0,0,0,13,53,206,214
368,1294,456,1303,00020076201,O,1,0,0,0,1,0,0,1,1,0,0,0,13,41,207,217
497,1294,512,1303,03,O,1,0,0,0,1,0,0,1,1,0,0,0,34,43,208,222
555,1294,585,1303,EUR,O,0,0,0,1,0,0,1,1,0,0,0,0,46,114,209,233
699,1294,723,1303,Cic,O,0,0,1,0,0,0,1,1,0,0,0,0,88,6,210,240
729,1293,773,1303,PARIS,O,0,0,0,1,0,0,1,1,0,0,0,0,33,6,211,223
779,1293,853,1303,REAUMUR,O,0,0,0,1,0,0,1,1,0,0,0,0,33,6,212,224
859,1293,962,1309,ENTREPRISES,O,0,0,0,1,0,0,1,1,0,0,0,0,27,0,-1,226
167,1316,231,1325,Identifiant,O,0,0,1,0,0,0,1,1,0,0,0,0,25,5,214,227
236,1316,316,1325,international,O,0,0,0,0,0,0,1,1,0,0,0,0,12,5,215,218
321,1316,337,1325,de,O,0,0,0,0,0,0,1,1,0,0,0,0,12,5,216,219
342,1317,391,1327,compte,O,0,0,0,0,0,0,1,1,0,0,0,0,10,5,217,219
396,1316,452,1324,bancaire,O,0,0,0,0,0,0,1,1,0,0,0,0,13,0,-1,221
243,1337,277,1346,1BAN,O,0,0,0,1,0,0,0,1,1,0,0,0,4,5,219,228
282,1337,368,1347,(International,O,0,0,1,0,0,0,0,1,0,0,0,0,3,6,220,229
374,1337,406,1346,Bank,O,0,0,1,0,0,0,1,1,0,0,0,0,4,5,221,230
411,1337,465,1346,Account,O,0,0,1,0,0,0,1,1,0,0,0,0,4,5,222,231
470,1337,527,1347,Number),O,0,0,1,0,0,0,0,1,0,0,0,0,3,218,223,232
745,1336,768,1345,BIC,O,0,0,0,1,0,0,1,1,0,0,0,0,68,5,224,253
773,1336,811,1346,(Bank,O,0,0,1,0,0,0,0,1,0,0,0,0,3,6,225,234
817,1336,873,1345,identifier,O,0,0,0,0,0,0,1,1,0,0,0,0,4,4,226,234
877,1336,917,1346,Code),O,0,0,1,0,0,0,0,1,0,0,0,0,0,0,-1,-1
185,1350,220,1359,FR76,O,0,0,0,1,0,0,0,1,1,0,0,0,0,30,228,-1
250,1350,282,1358,3006,O,1,0,0,0,1,0,0,1,1,0,0,0,0,30,229,-1
312,1350,345,1358,6109,O,1,0,0,0,1,0,0,1,1,0,0,0,33,30,230,235
375,1350,407,1358,3000,O,1,0,0,0,1,0,0,1,1,0,0,0,33,30,231,237
437,1350,469,1358,0200,O,1,0,0,0,1,0,0,1,1,0,0,0,33,31,232,237
500,1350,531,1358,7620,O,1,0,0,0,1,0,0,1,1,0,0,0,33,31,233,238
562,1349,585,1358,103,O,1,0,0,0,1,0,0,1,1,0,0,0,33,208,234,238
793,1349,869,1358,CMCIFRPP,O,0,0,0,1,0,0,1,1,0,0,0,0,0,0,-1,-1
331,1391,338,1399,N°,O,0,0,1,1,0,0,0,0,0,0,0,0,0,9,236,-1
347,1391,374,1399,Siret,O,0,0,1,0,0,0,1,1,0,0,0,0,0,4,237,-1
378,1391,478,1399,:50123141900034,O,0,0,0,0,0,0,0,1,1,0,0,0,14,25,238,244
503,1391,581,1399,NAF.:8589A,O,0,0,0,1,0,0,0,1,1,0,0,0,3,14,239,247
595,1391,608,1399,N°,O,0,0,1,1,0,0,0,0,0,0,0,0,14,4,240,249
612,1391,727,1399,Intracommunautaire,O,0,0,1,0,0,0,1,1,0,0,0,0,14,5,241,249
732,1393,734,1395,:,O,0,1,0,0,0,0,0,1,0,0,0,0,18,0,-1,253
955,1404,991,1418,Page,O,0,0,1,0,0,0,1,1,0,0,0,0,0,51,243,-1
1042,1404,1046,1414,1,O,1,0,0,0,1,0,0,1,1,0,0,0,0,0,-1,-1
423,1413,447,1422,RCS,O,0,0,0,1,0,0,1,1,0,0,0,0,0,4,245,-1
451,1413,465,1421,de,O,0,0,0,0,0,0,1,1,0,0,0,0,0,4,246,-1
469,1413,518,1421,Nanterre,O,0,0,1,0,0,0,1,1,0,0,0,0,13,6,247,255
524,1402,527,1430,:,O,0,1,0,0,0,0,0,1,0,0,0,0,4,3,248,255
530,1413,591,1421,501231419,O,1,0,0,0,1,0,0,1,1,0,0,0,13,7,249,256
598,1413,644,1421,S.A.R.L.,O,0,0,1,1,0,0,0,1,0,0,0,0,13,4,250,259
648,1415,662,1421,au,O,0,0,0,0,0,0,1,1,0,0,0,0,13,4,251,260
666,1413,706,1423,Capital,O,0,0,1,0,0,0,1,1,0,0,0,0,11,4,252,261
710,1413,724,1421,de,O,0,0,0,0,0,0,1,1,0,0,0,0,0,5,253,-1
729,1413,779,1421,100.000€,O,0,0,0,0,0,0,0,0,1,1,0,0,0,176,242,-1
466,1436,487,1444,Tel:,O,0,0,1,0,0,0,0,1,0,0,0,0,9,10,255,263
497,1434,526,1443,0155,O,1,0,0,0,1,0,0,1,1,0,0,0,12,5,256,264
531,1434,578,1443,230808,O,1,0,0,0,1,0,0,1,1,0,0,0,10,13,257,265
591,1435,611,1443,Fax,O,0,0,1,0,0,0,1,1,0,0,0,0,10,5,258,265
616,1437,618,1443,:,O,0,1,0,0,0,0,0,1,0,0,0,0,10,6,259,265
624,1434,635,1443,01,O,1,0,0,0,1,0,0,1,1,0,0,0,10,6,260,265
641,1434,653,1442,55,O,1,0,0,0,1,0,0,1,1,0,0,0,11,5,261,265
658,1434,688,1442,2308,O,1,0,0,0,1,0,0,1,1,0,0,0,11,4,262,265
692,1434,705,1442,83,O,1,0,0,0,1,0,0,1,1,0,0,0,0,0,-1,-1
469,1453,503,1461,E-mail,O,0,0,0,0,0,0,0,1,0,0,0,0,0,5,264,-1
508,1455,510,1457,:,O,0,1,0,0,0,0,0,1,0,0,0,0,0,5,265,-1
515,1453,688,1464,facturation@ascencia-bs.com,O,0,0,0,0,0,0,0,1,0,0,1,0,0,0,-1,-1
