xmin,ymin,xmax,ymax,Object,label,like_num,is_punct,is_title,is_upper,is_digit,is_currency,is_alpha,is_ascii,hasNumbers,hascurrency,like_email,like_url,dh,dv,v_hor,v_vert
77,78,393,155,(TDM,LOGO,0,0,0,1,0,0,0,1,0,0,0,0,5,0,-1,1
143,160,333,165,nt,O,0,0,0,0,0,0,1,1,0,0,0,0,81,32,2,4
365,161,405,165,—,O,0,1,0,0,0,0,0,0,0,0,0,0,0,0,-1,-1
78,246,170,259,FACTURE,O,0,0,0,1,0,0,1,1,0,0,0,0,0,6,4,-1
176,246,198,259,N°,O,0,0,1,1,0,0,0,0,0,0,0,0,0,8,5,-1
206,246,286,259,19-00-171,NUMBER,0,0,0,0,0,0,0,1,1,0,0,0,184,356,6,35
642,246,706,258,A.D.B.I,CLIENT_NAME,0,0,1,1,0,0,0,1,0,0,0,0,27,0,-1,7
642,285,651,297,8,CLIENT_ADDRESS,1,0,0,0,1,0,0,1,1,0,0,0,27,7,8,10
658,285,697,297,RUE,CLIENT_ADDRESS,0,0,0,1,0,0,1,1,0,0,0,0,27,7,9,10
704,285,780,297,ROSSINI,CLIENT_ADDRESS,0,0,0,1,0,0,1,1,0,0,0,0,27,0,-1,11
642,324,692,337,75009,CLIENT_ADDRESS,1,0,0,0,1,0,0,1,1,0,0,0,22,7,11,13
699,324,754,337,PARIS,CLIENT_ADDRESS,0,0,0,1,0,0,1,1,0,0,0,0,22,0,-1,13
642,364,662,376,Le,O,0,0,1,0,0,0,1,1,0,0,0,0,83,3,13,38
665,359,730,396,"Raincy,",O,0,0,1,0,0,0,0,1,0,0,0,0,63,7,14,38
737,363,750,376,le,O,0,0,0,0,0,0,1,1,0,0,0,0,0,7,15,-1
757,363,818,376,31Mars,DATE,0,0,1,0,0,0,0,1,1,0,0,0,82,6,16,39
824,363,864,376,2019,DATE,1,0,0,0,1,0,0,1,1,0,0,0,82,0,-1,39
79,403,198,416,PARRAINEZ,O,0,0,0,1,0,0,1,1,0,0,0,0,11,8,18,26
206,404,216,414,N,O,0,0,1,1,0,0,1,1,0,0,0,0,29,14,19,35
230,407,233,412,),O,0,1,0,0,0,0,0,1,0,0,0,0,14,52,20,27
285,404,317,415,ENT,O,0,0,0,1,0,0,1,1,0,0,0,0,11,15,21,28
332,404,344,415,RE,O,0,0,0,1,0,0,1,1,0,0,0,0,0,17,22,-1
361,404,377,415,oR,O,0,0,0,0,0,0,1,1,0,0,0,0,8,12,23,29
389,405,403,415,SE,O,0,0,0,1,0,0,1,1,0,0,0,0,8,19,24,29
422,404,430,416,A,O,0,0,1,1,0,0,1,1,0,0,0,0,7,8,25,29
438,404,501,415,VOTRE,O,0,0,0,1,0,0,1,1,0,0,0,0,1,0,-1,31
80,427,201,438,ENTOURAGE,O,0,0,0,1,0,0,1,1,0,0,0,0,11,15,27,34
216,426,240,439,ET,O,0,0,0,1,0,0,1,1,0,0,0,0,8,7,28,36
247,426,334,439,GAGNEZ,O,0,0,0,1,0,0,1,1,0,0,0,0,126,6,29,52
340,423,440,442,JUSQU’,O,0,0,0,1,0,0,0,0,0,0,0,0,123,-26,30,54
414,416,423,449,À,O,0,0,1,1,0,0,1,0,0,0,0,0,-26,10,31,29
433,416,445,449,1,O,1,0,0,0,1,0,0,1,1,0,0,0,-26,6,32,29
451,426,502,438,MOIS,O,0,0,0,1,0,0,1,1,0,0,0,0,126,0,-1,57
79,450,105,462,DE,O,0,0,0,1,0,0,1,1,0,0,0,0,103,7,34,51
112,449,208,462,FACTURE,O,0,0,0,1,0,0,1,1,0,0,0,0,103,-1,35,51
207,443,217,470,!,O,0,1,0,0,0,0,0,1,0,0,0,0,95,10,36,52
227,447,237,455,*!,O,0,1,0,0,0,0,0,1,0,0,0,0,110,0,-1,52
543,459,647,470,REFERENCE,O,0,0,0,1,0,0,1,1,0,0,0,0,38,5,38,40
652,459,738,472,CONTRAT,O,0,0,0,1,0,0,1,1,0,0,0,0,35,11,39,42
749,458,933,470,MEPLCX-2017.09.19-11,O,0,0,0,1,0,0,0,1,1,0,0,0,37,0,-1,43
542,508,620,520,PERIODE,O,0,0,0,1,0,0,1,1,0,0,0,0,21,5,41,45
625,508,650,520,DU,O,0,0,0,1,0,0,1,1,0,0,0,0,20,6,42,46
656,507,738,519,01/03/2019,O,0,0,0,0,0,0,0,1,1,0,0,0,21,7,43,46
745,507,769,519,AU,O,0,0,0,1,0,0,1,1,0,0,0,0,21,11,44,49
780,507,862,519,31/03/2019,O,0,0,0,0,0,0,0,1,1,0,0,0,21,0,-1,50
543,541,591,552,DATE,O,0,0,0,1,0,0,1,1,0,0,0,0,12,6,46,58
597,540,713,552,D’ECHEANCE,O,0,0,0,1,0,0,0,0,0,0,0,0,12,6,47,58
719,550,722,552,:,O,0,1,0,0,0,0,0,1,0,0,0,0,0,6,48,-1
728,540,743,552,01,O,1,0,0,0,1,0,0,1,1,0,0,0,0,8,49,-1
751,540,788,551,Avril,O,0,0,1,0,0,0,1,1,0,0,0,0,0,6,50,-1
794,540,830,551,2019,O,1,0,0,0,1,0,0,1,1,0,0,0,0,0,-1,-1
60,565,149,578,ADRESSE,O,0,0,0,1,0,0,1,1,0,0,0,0,67,7,52,62
156,565,325,578,D’INTERVENTION,O,0,0,0,1,0,0,0,0,0,0,0,0,66,8,53,65
333,569,337,577,:,O,0,1,0,0,0,0,0,1,0,0,0,0,68,8,54,67
345,565,408,577,A.D.B.I,CLIENT_ADDRESS,0,0,1,1,0,0,0,1,0,0,0,0,67,7,55,68
415,565,425,577,8,CLIENT_ADDRESS,1,0,0,0,1,0,0,1,1,0,0,0,0,6,56,-1
431,565,472,577,RUE,CLIENT_ADDRESS,0,0,0,1,0,0,1,1,0,0,0,0,67,7,57,69
479,564,561,577,ROSSINI,CLIENT_ADDRESS,0,0,0,1,0,0,1,1,0,0,0,0,27,7,58,61
568,564,618,577,75009,CLIENT_ADDRESS,1,0,0,0,1,0,0,1,1,0,0,0,27,6,59,61
624,564,684,577,PARIS,CLIENT_ADDRESS,0,0,0,1,0,0,1,1,0,0,0,0,27,6,60,61
690,571,697,574,-,CLIENT_ADDRESS,0,1,0,0,0,0,0,1,0,0,0,0,0,0,-1,-1
515,604,653,617,DESIGNATION,O,0,0,0,1,0,0,1,1,0,0,0,0,27,0,-1,71
59,645,114,658,Contrat,O,0,0,1,0,0,0,1,1,0,0,0,0,7,5,63,72
119,645,193,659,Nettoyage,O,0,0,1,0,0,0,1,1,0,0,0,0,6,6,64,73
199,646,212,656,et,O,0,0,0,0,0,0,1,1,0,0,0,0,9,5,65,73
217,644,250,656,mise,O,0,0,0,0,0,0,1,1,0,0,0,0,9,6,66,73
256,648,272,656,en,O,0,0,0,0,0,0,1,1,0,0,0,0,9,6,67,73
278,645,338,659,propreté,O,0,0,0,0,0,0,1,0,0,0,0,0,6,6,68,74
344,644,417,656,bimensuel,O,0,0,0,0,0,0,1,1,0,0,0,0,2,7,69,78
424,644,440,656,de,O,0,0,0,0,0,0,1,1,0,0,0,0,9,6,70,80
446,646,483,656,votre,O,0,0,0,0,0,0,1,1,0,0,0,0,9,6,71,81
489,644,541,656,bureau.,O,0,0,0,0,0,0,0,1,0,0,0,0,8,0,-1,82
60,665,146,677,Prestation(s),O,0,0,0,0,0,0,0,1,0,0,0,0,101,11,73,88
157,665,281,680,supplémentaire(s,O,0,0,0,0,0,0,0,0,0,0,0,0,98,23,74,89
304,665,331,676,PS2,O,0,0,0,1,0,0,0,1,1,0,0,0,65,21,76,85
339,675,342,677,:,O,0,1,0,0,0,0,0,1,0,0,0,0,64,21,77,85
352,672,358,673,-,O,0,1,0,0,0,0,0,1,0,0,0,0,68,5,77,85
363,665,401,677,PS3,O,0,0,0,1,0,0,0,1,1,0,0,0,64,-6,78,85
395,658,403,686,:,O,0,1,0,0,0,0,0,1,0,0,0,0,-21,8,79,77
411,672,417,673,-,O,0,1,0,0,0,0,0,1,0,0,0,0,68,6,80,85
423,665,452,676,PS4,O,0,0,0,1,0,0,0,1,1,0,0,0,102,5,81,94
457,665,496,676,ONE,O,0,0,0,1,0,0,1,1,0,0,0,0,102,6,82,94
502,664,539,676,SHO’,O,0,0,0,1,0,0,0,0,0,0,0,0,104,44,83,96
583,674,585,676,:,O,0,1,0,0,0,0,0,1,0,0,0,0,102,7,84,97
592,664,649,676,AVOIR,O,0,0,0,1,0,0,1,1,0,0,0,0,0,0,-1,-1
312,741,434,752,DESIGNATION,O,0,0,0,1,0,0,1,1,0,0,0,0,26,411,86,93
845,740,936,751,MONTANT,O,0,0,0,1,0,0,1,1,0,0,0,0,26,5,87,98
941,740,973,750,HT.,O,0,0,0,1,0,0,0,1,0,0,0,0,27,0,-1,99
64,778,150,790,CONTRAT,O,0,0,0,1,0,0,1,1,0,0,0,0,27,28,89,100
178,778,252,793,Nettoyage,O,0,0,1,0,0,0,1,1,0,0,0,0,0,5,90,-1
257,780,270,790,et,O,0,0,0,0,0,0,1,1,0,0,0,0,0,6,91,-1
276,778,309,790,mise,O,0,0,0,0,0,0,1,1,0,0,0,0,0,6,92,-1
315,782,331,790,en,O,0,0,0,0,0,0,1,1,0,0,0,0,0,6,93,-1
337,778,397,793,propreté,O,0,0,0,0,0,0,1,0,0,0,0,0,0,6,94,-1
403,778,476,790,bimensuel,O,0,0,0,0,0,0,1,1,0,0,0,0,0,6,95,-1
482,778,499,789,de,O,0,0,0,0,0,0,1,1,0,0,0,0,0,6,96,-1
505,780,542,789,votre,O,0,0,0,0,0,0,1,1,0,0,0,0,0,5,97,-1
547,778,600,789,bureau.,O,0,0,0,0,0,0,0,1,0,0,0,0,0,285,98,-1
885,777,932,790,"173,20",O,1,0,0,0,0,0,0,1,1,0,0,0,0,5,99,-1
937,777,946,789,€,O,0,0,0,0,0,1,0,0,0,1,0,0,0,0,-1,-1
103,817,110,828,2,O,1,0,0,0,1,0,0,1,1,0,0,0,26,0,-1,101
103,854,111,866,3,O,1,0,0,0,1,0,0,1,1,0,0,0,0,0,-1,-1
494,1014,585,1026,MONTANT,O,0,0,0,1,0,0,1,1,0,0,0,0,35,5,103,108
590,1014,649,1026,TOTAL,O,0,0,0,1,0,0,1,1,0,0,0,0,35,6,104,110
655,1014,687,1025,H.T.,O,0,0,1,1,0,0,0,1,0,0,0,0,36,193,105,111
880,1013,929,1027,"173,20",O,1,0,0,0,0,0,0,1,1,0,0,0,33,4,106,112
933,1013,943,1024,€,O,0,0,0,0,0,1,0,0,0,1,0,0,36,0,-1,113
399,1062,489,1074,MONTANT,O,0,0,0,1,0,0,1,1,0,0,0,0,68,5,108,126
494,1061,553,1073,TOTAL,O,0,0,0,1,0,0,1,1,0,0,0,0,30,5,109,114
558,1061,609,1073,T.V.A.,O,0,0,1,1,0,0,0,1,0,0,0,0,29,6,110,115
615,1061,662,1075,"(20,00",O,0,0,0,0,0,0,0,1,1,0,0,0,27,5,111,115
667,1061,688,1075,%),O,0,1,0,0,0,0,0,1,0,0,0,0,27,202,112,116
890,1060,931,1074,"34,64",O,1,0,0,0,0,0,0,1,1,0,0,0,27,4,113,117
935,1060,944,1072,€,O,0,0,0,0,0,1,0,0,0,1,0,0,29,0,-1,118
479,1103,570,1114,MONTANT,O,0,0,0,1,0,0,1,1,0,0,0,0,28,5,115,127
575,1102,635,1114,TOTAL,O,0,0,0,1,0,0,1,1,0,0,0,0,28,5,116,128
640,1102,687,1114,T.T.C.,O,0,0,1,1,0,0,0,1,0,0,0,0,28,196,117,129
883,1101,933,1115,"207,84",TOTAL,1,0,0,0,0,0,0,1,1,0,0,0,26,5,118,135
938,1101,947,1113,€,O,0,0,0,0,0,1,0,0,0,1,0,0,28,0,-1,135
51,1143,130,1158,Règlement,O,0,0,1,0,0,0,1,0,0,0,0,0,6,5,120,137
135,1146,158,1158,par,O,0,0,0,0,0,0,1,1,0,0,0,0,6,10,121,138
168,1143,219,1158,chèque,O,0,0,0,0,0,0,1,0,0,0,0,0,6,5,122,138
224,1143,232,1154,à,O,0,0,0,0,0,0,1,0,0,0,0,0,10,5,123,138
237,1143,286,1154,l'ordre,O,0,0,0,0,0,0,0,1,0,0,0,0,10,5,124,139
291,1142,308,1154,de,O,0,0,0,0,0,0,1,1,0,0,0,0,10,4,125,139
312,1143,388,1154,TENDEM,O,0,0,0,1,0,0,1,1,0,0,0,0,10,6,126,140
394,1142,485,1154,PROPRETE,O,0,0,0,1,0,0,1,1,0,0,0,0,6,6,127,143
491,1142,542,1156,(TDM),O,0,0,0,1,0,0,0,1,0,0,0,0,4,6,128,143
548,1142,594,1153,SARL,O,0,0,0,1,0,0,1,1,0,0,0,0,10,11,129,145
605,1142,683,1157,Règlement,O,0,0,1,0,0,0,1,0,0,0,0,0,-1,5,130,146
688,1145,711,1156,par,O,0,0,0,0,0,0,1,1,0,0,0,0,6,5,131,148
716,1141,781,1153,virement,O,0,0,0,0,0,0,1,1,0,0,0,0,9,5,132,150
786,1141,794,1153,à,O,0,0,0,0,0,0,1,0,0,0,0,0,9,5,133,150
799,1141,848,1152,l’ordre,O,0,0,0,0,0,0,0,0,0,0,0,0,10,5,134,151
853,1141,870,1152,de,O,0,0,0,0,0,0,1,1,0,0,0,0,11,5,135,153
875,1141,950,1152,TENDEM,O,0,0,0,1,0,0,1,1,0,0,0,0,11,7,136,153
957,1140,1006,1152,SARL:,O,0,0,0,1,0,0,0,1,0,0,0,0,9,0,-1,155
51,1164,129,1178,BANQUE,O,0,0,0,1,0,0,1,1,0,0,0,0,7,5,138,158
134,1164,241,1176,POPULAIRE,O,0,0,0,1,0,0,1,1,0,0,0,0,8,11,139,162
252,1164,306,1175,RIVES,O,0,0,0,1,0,0,1,1,0,0,0,0,9,6,140,163
312,1164,336,1175,DE,O,0,0,0,1,0,0,1,1,0,0,0,0,9,6,141,164
342,1164,396,1175,PARIS,O,0,0,0,1,0,0,1,1,0,0,0,0,9,6,142,165
402,1164,441,1175,Code,O,0,0,1,0,0,0,1,1,0,0,0,0,9,6,143,167
447,1160,556,1175,Établissement,O,0,0,1,0,0,0,1,0,0,0,0,0,9,6,144,168
562,1166,565,1174,:,O,0,1,0,0,0,0,0,1,0,0,0,0,45,8,145,183
573,1163,627,1174,10207,O,1,0,0,0,1,0,0,1,1,0,0,0,45,-4,146,184
623,1156,631,1184,/,O,0,1,0,0,0,0,0,1,0,0,0,0,-21,1,147,145
632,1162,672,1174,Code,O,0,0,1,0,0,0,1,1,0,0,0,0,45,5,148,186
677,1162,739,1174,Guichet,O,0,0,1,0,0,0,1,1,0,0,0,0,45,6,149,188
745,1165,748,1174,:,O,0,1,0,0,0,0,0,1,0,0,0,0,45,7,150,189
755,1162,806,1174,00139/,O,0,0,0,0,0,0,0,1,1,0,0,0,44,5,151,190
811,1162,831,1173,N°,O,0,0,1,1,0,0,0,0,0,0,0,0,45,5,152,190
836,1162,854,1173,de,O,0,0,0,0,0,0,1,1,0,0,0,0,45,5,153,191
859,1163,915,1176,compte,O,0,0,0,0,0,0,1,1,0,0,0,0,45,6,154,192
921,1165,925,1173,:,O,0,1,0,0,0,0,0,1,0,0,0,0,48,6,155,193
931,1161,1032,1173,22213150619,O,1,0,0,0,1,0,0,1,1,0,0,0,45,5,156,194
1037,1161,1042,1172,/,O,0,1,0,0,0,0,0,1,0,0,0,0,46,5,157,196
1047,1161,1072,1172,Clé,O,0,0,1,0,0,0,1,0,0,0,0,0,46,0,-1,196
51,1185,83,1196,RIB,O,0,0,0,1,0,0,1,1,0,0,0,0,25,6,159,169
89,1188,92,1196,:,O,0,1,0,0,0,0,0,1,0,0,0,0,25,6,160,170
98,1185,121,1196,97.,O,1,0,0,0,0,0,0,1,1,0,0,0,25,24,161,170
145,1185,189,1196,IBAN,O,0,0,0,1,0,0,1,1,0,0,0,0,25,11,162,172
200,1184,242,1196,FR76,O,0,0,0,1,0,0,0,1,1,0,0,0,24,7,163,173
249,1184,283,1196,1020,O,1,0,0,0,1,0,0,1,1,0,0,0,24,6,164,174
289,1184,322,1196,7001,O,1,0,0,0,1,0,0,1,1,0,0,0,24,7,165,174
329,1184,365,1196,3922,O,1,0,0,0,1,0,0,1,1,0,0,0,23,10,166,175
375,1184,409,1195,2131,O,1,0,0,0,1,0,0,1,1,0,0,0,25,8,167,177
417,1184,451,1195,5061,O,1,0,0,0,1,0,0,1,1,0,0,0,25,7,168,179
458,1184,485,1195,997,O,1,0,0,0,1,0,0,1,1,0,0,0,24,0,-1,180
51,1221,72,1230,Pas,O,0,0,1,0,0,0,1,1,0,0,0,0,7,4,170,198
76,1221,144,1232,d’escompte,O,0,0,0,0,0,0,0,0,0,0,0,0,5,4,171,200
148,1223,177,1232,pour,O,0,0,0,0,0,0,1,1,0,0,0,0,-5,-7,201,201
181,1221,191,1229,le,O,0,0,0,0,0,0,1,1,0,0,0,0,8,4,173,202
195,1220,251,1232,paiement,O,0,0,0,0,0,0,1,1,0,0,0,0,5,4,174,203
255,1220,306,1231,"anticipé,",O,0,0,0,0,0,0,0,0,0,0,0,0,5,5,175,206
311,1219,350,1229,intérêt,O,0,0,0,0,0,0,1,0,0,0,0,0,7,4,176,206
354,1220,368,1229,de,O,0,0,0,0,0,0,1,1,0,0,0,0,80,5,177,235
373,1220,409,1229,retard,O,0,0,0,0,0,0,1,1,0,0,0,0,39,6,178,220
415,1223,418,1229,:,O,0,1,0,0,0,0,0,1,0,0,0,0,39,5,179,220
423,1220,451,1229,deux,O,1,0,0,0,0,0,1,1,0,0,0,0,39,5,180,220
456,1219,476,1229,fois,O,0,0,0,0,0,0,1,1,0,0,0,0,38,4,181,222
480,1220,494,1229,de,O,0,0,0,0,0,0,1,1,0,0,0,0,38,5,182,222
499,1219,547,1228,l'intérêt,O,0,0,0,0,0,0,0,0,0,0,0,0,39,4,183,223
551,1219,582,1231,légal.,O,0,0,0,0,0,0,0,0,0,0,0,0,36,5,184,223
587,1219,603,1228,En,O,0,0,1,0,0,0,1,1,0,0,0,0,39,5,185,224
608,1222,626,1228,cas,O,0,0,0,0,0,0,1,1,0,0,0,0,39,4,186,224
630,1219,644,1228,de,O,0,0,0,0,0,0,1,1,0,0,0,0,39,5,187,224
649,1219,686,1228,retard,O,0,0,0,0,0,0,1,1,0,0,0,0,39,5,188,225
691,1219,705,1228,de,O,0,0,0,0,0,0,1,1,0,0,0,0,39,4,189,207
709,1219,768,1230,"paiement,",O,0,0,0,0,0,0,0,1,0,0,0,0,37,4,190,207
772,1218,833,1227,indemnité,O,0,0,0,0,0,0,1,0,0,0,0,0,39,4,191,210
837,1218,870,1227,forfait,O,0,0,0,0,0,0,1,1,0,0,0,0,39,17,192,212
887,1221,899,1227,ire,O,0,0,0,0,0,0,1,1,0,0,0,0,39,4,193,212
903,1221,932,1229,pour,O,0,0,0,0,0,0,1,1,0,0,0,0,37,4,194,212
936,1218,963,1227,frais,O,0,0,0,0,0,0,1,1,0,0,0,0,0,4,195,-1
967,1218,981,1232,de,O,0,0,0,0,0,0,1,1,0,0,0,0,0,5,196,-1
986,1218,1069,1226,recouyrement,O,0,0,0,0,0,0,1,1,0,0,0,0,0,5,197,-1
1074,1220,1076,1226,:,O,0,1,0,0,0,0,0,1,0,0,0,0,0,0,-1,-1
51,1237,65,1246,40,O,1,0,0,0,1,0,0,1,1,0,0,0,23,4,199,213
69,1240,104,1246,euros.,O,0,0,0,0,0,0,0,1,0,0,0,0,22,5,200,214
109,1237,176,1246,Paiement,O,0,0,1,0,0,0,1,1,0,0,0,0,22,-6,201,215
170,1227,176,1255,à,O,0,0,0,0,0,0,1,0,0,0,0,0,-18,4,202,200
180,1237,194,1245,30,O,1,0,0,0,1,0,0,1,1,0,0,0,69,3,203,229
197,1237,229,1248,jours,O,0,0,0,0,0,0,1,1,0,0,0,0,20,4,204,216
233,1237,259,1245,date,O,0,0,0,0,0,0,1,1,0,0,0,0,23,4,205,217
263,1237,277,1245,de,O,0,0,0,0,0,0,1,1,0,0,0,0,23,4,206,218
281,1236,330,1245,factures,O,0,0,0,0,0,0,1,1,0,0,0,0,23,0,-1,219
695,1267,721,1275,NCE,O,0,0,0,1,0,0,1,1,0,0,0,0,0,5,208,-1
726,1267,744,1275,OU,O,0,0,0,1,0,0,1,1,0,0,0,0,0,6,209,-1
750,1267,766,1275,LE,O,0,0,0,1,0,0,1,1,0,0,0,0,0,5,210,-1
771,1266,815,1275,MOTIF,O,0,0,0,1,0,0,1,1,0,0,0,0,0,4,211,-1
819,1266,836,1274,DE,O,0,0,0,1,0,0,1,1,0,0,0,0,0,5,212,-1
841,1266,931,1274,L'OPERATION,O,0,0,0,1,0,0,0,1,0,0,0,0,0,0,-1,-1
51,1269,87,1277,POUR,O,0,0,0,1,0,0,1,1,0,0,0,0,32,7,214,226
94,1268,116,1277,TOUT,O,0,0,0,1,0,0,1,1,0,0,0,0,33,17,215,227
133,1268,177,1277,VIREMI,O,0,0,0,1,0,0,1,1,0,0,0,0,33,19,216,228
196,1268,205,1276,"(T,",O,0,0,1,1,0,0,0,1,0,0,0,0,38,8,217,229
213,1268,256,1276,MERCI,O,0,0,0,1,0,0,1,1,0,0,0,0,34,6,218,231
262,1268,279,1276,DE,O,0,0,0,1,0,0,1,1,0,0,0,0,34,18,219,232
297,1268,346,1276,EPORTE!,O,0,0,0,1,0,0,0,1,0,0,0,0,33,45,220,234
391,1268,440,1276,UMERO,O,0,0,0,1,0,0,1,1,0,0,0,0,0,5,221,-1
445,1268,462,1276,DE,O,0,0,0,1,0,0,1,1,0,0,0,0,0,4,222,-1
466,1267,509,1276,VOTRE,O,0,0,0,1,0,0,1,1,0,0,0,0,0,8,223,-1
517,1267,579,1277,FACTURE,O,0,0,0,1,0,0,1,1,0,0,0,0,0,5,224,-1
584,1267,636,1275,COMME,O,0,0,0,1,0,0,1,1,0,0,0,0,0,6,225,-1
642,1267,675,1275,REF!,O,0,0,0,1,0,0,0,1,0,0,0,0,0,20,207,-1
59,1309,62,1316,',O,0,1,0,0,0,0,0,1,0,0,0,0,0,8,227,-1
70,1310,108,1323,Voir,O,0,0,1,0,0,0,1,1,0,0,0,0,88,6,228,236
114,1310,148,1323,Con:,O,0,0,1,0,0,0,0,1,0,0,0,0,88,32,229,236
180,1314,208,1323,ions,O,0,0,0,0,0,0,1,1,0,0,0,0,88,6,230,237
214,1314,234,1322,au,O,0,0,0,0,0,0,1,1,0,0,0,0,89,7,231,237
241,1310,260,1322,06,O,1,0,0,0,1,0,0,1,1,0,0,0,89,8,232,238
268,1310,285,1322,12,O,1,0,0,0,1,0,0,1,1,0,0,0,89,7,233,239
292,1310,311,1322,47,O,1,0,0,0,1,0,0,1,1,0,0,0,89,7,234,239
318,1309,337,1322,58,O,1,0,0,0,1,0,0,1,1,0,0,0,89,6,235,239
343,1309,362,1322,96,O,1,0,0,0,1,0,0,1,1,0,0,0,121,0,-1,258
80,1411,146,1420,TENDEM,O,0,0,0,1,0,0,1,1,0,0,0,0,24,9,237,253
155,1411,235,1420,PROPRETE,O,0,0,0,1,0,0,1,1,0,0,0,0,23,9,238,255
244,1411,262,1420,ET,O,0,0,0,1,0,0,1,1,0,0,0,0,23,9,239,256
271,1411,347,1420,SERVICES,O,0,0,0,1,0,0,1,1,0,0,0,0,23,9,240,257
356,1411,433,1420,ASSOCIES,O,0,0,0,1,0,0,1,1,0,0,0,0,23,19,241,259
452,1410,478,1419,Sarl,O,0,0,1,0,0,0,1,1,0,0,0,0,24,9,242,260
487,1413,501,1419,au,O,0,0,0,0,0,0,1,1,0,0,0,0,24,9,243,260
510,1410,555,1422,capital,O,0,0,0,0,0,0,1,1,0,0,0,0,21,9,244,260
564,1410,579,1419,de,O,0,0,0,0,0,0,1,1,0,0,0,0,23,9,245,262
588,1410,629,1419,7622€,O,0,0,0,0,0,0,0,0,1,1,0,0,23,8,246,262
637,1410,687,1419,N°Siret,O,0,0,1,0,0,0,0,0,0,0,0,0,23,10,247,262
697,1409,814,1419,53934406900015,O,1,0,0,0,1,0,0,1,1,0,0,0,22,9,248,264
823,1414,827,1416,-,O,0,1,0,0,0,0,0,1,0,0,0,0,25,8,249,264
835,1409,995,1418,RCS-BOBIGNY.CODE,O,0,0,0,1,0,0,0,1,0,0,0,0,23,9,250,264
1004,1409,1033,1417,APE,O,0,0,0,1,0,0,1,1,0,0,0,0,24,9,251,266
1042,1408,1073,1417,8122,O,1,0,0,0,1,0,0,1,1,0,0,0,24,9,252,266
1082,1408,1091,1417,Z,O,0,0,1,1,0,0,1,1,0,0,0,0,24,0,-1,266
80,1444,86,1452,9,O,1,0,0,0,1,0,0,1,1,0,0,0,0,12,254,-1
98,1444,153,1452,Avenue,O,0,0,1,0,0,0,1,1,0,0,0,0,0,11,255,-1
164,1443,212,1452,Thiers,O,0,0,1,0,0,0,1,1,0,0,0,0,0,11,256,-1
223,1443,268,1452,93340,O,1,0,0,0,1,0,0,1,1,0,0,0,0,11,257,-1
279,1443,298,1452,LE,O,0,0,0,1,0,0,1,1,0,0,0,0,0,11,258,-1
309,1443,374,1452,RAINCY,O,0,0,0,1,0,0,1,1,0,0,0,0,0,11,259,-1
385,1443,408,1452,Tél,O,0,0,1,0,0,0,1,0,0,0,0,0,0,17,260,-1
425,1443,542,1452,01.43.01.76.50,O,1,0,0,0,0,0,0,1,1,0,0,0,0,11,261,-1
553,1443,557,1451,/,O,0,1,0,0,0,0,0,1,0,0,0,0,0,10,262,-1
567,1442,684,1451,06.12.47.58.96,O,1,0,0,0,0,0,0,1,1,0,0,0,0,11,263,-1
695,1442,728,1451,Mail,O,0,0,1,0,0,0,1,1,0,0,0,0,0,24,264,-1
752,1441,927,1453,de.tendem@email.com,O,0,0,0,0,0,0,0,1,0,0,1,0,0,11,265,-1
938,1441,942,1450,/,O,0,1,0,0,0,0,0,1,0,0,0,0,0,11,266,-1
953,1441,1090,1452,WWW.tendemnet,O,0,0,0,0,0,0,0,1,0,0,0,0,0,0,-1,-1
