xmin,ymin,xmax,ymax,Object,label,like_num,is_punct,is_title,is_upper,is_digit,is_currency,is_alpha,is_ascii,hasNumbers,hascurrency,like_email,like_url,dh,dv,v_hor,v_vert
58,53,109,64,TOTAL,COMPANY_NAME,0,0,0,1,0,0,1,1,0,0,0,0,6,6,1,3
115,53,211,64,MARKETING,COMPANY_NAME,0,0,0,1,0,0,1,1,0,0,0,0,6,7,2,5
218,53,283,64,FRANCE,COMPANY_NAME,0,0,0,1,0,0,1,1,0,0,0,0,6,0,-1,7
58,70,99,80,S.A.S.,O,0,0,1,1,0,0,0,1,0,0,0,0,7,11,4,13
110,73,126,80,au,O,0,0,0,0,0,0,1,1,0,0,0,0,9,7,5,14
133,70,179,83,capital,O,0,0,0,0,0,0,1,1,0,0,0,0,4,7,6,15
186,70,202,80,de,O,0,0,0,0,0,0,1,1,0,0,0,0,7,7,7,16
209,70,234,80,390,O,1,0,0,0,1,0,0,1,1,0,0,0,7,7,8,17
241,70,267,80,553,O,1,0,0,0,1,0,0,1,1,0,0,0,7,6,9,18
273,70,299,80,839,O,1,0,0,0,1,0,0,1,1,0,0,0,7,6,10,20
305,73,344,80,euros,O,0,0,0,0,0,0,1,1,0,0,0,0,7,572,11,21
916,61,1006,81,Votre,O,0,0,1,0,0,0,1,1,0,0,0,0,7,12,12,29
1018,61,1142,81,Facture,O,0,0,1,0,0,0,1,1,0,0,0,0,11,0,-1,31
58,87,84,97,562,COMPANY_ADDRESS,1,0,0,0,1,0,0,1,1,0,0,0,6,6,14,22
90,89,142,97,avenue,COMPANY_ADDRESS,0,0,0,0,0,0,1,1,0,0,0,0,6,6,15,23
148,87,165,97,du,COMPANY_ADDRESS,0,0,0,0,0,0,1,1,0,0,0,0,6,7,16,24
172,87,203,97,Parc,COMPANY_ADDRESS,0,0,1,0,0,0,1,1,0,0,0,0,6,6,17,25
209,87,226,97,de,COMPANY_ADDRESS,0,0,0,0,0,0,1,1,0,0,0,0,6,6,18,26
232,87,255,97,l'Ile,COMPANY_ADDRESS,0,0,0,0,0,0,0,1,0,0,0,0,6,6,19,26
261,92,265,94,-,COMPANY_ADDRESS,0,1,0,0,0,0,0,1,0,0,0,0,9,7,20,27
272,87,316,97,92000,COMPANY_ADDRESS,1,0,0,0,1,0,0,1,1,0,0,0,6,6,21,27
322,87,410,97,NANTERRE,COMPANY_ADDRESS,0,0,0,1,0,0,1,1,0,0,0,0,93,570,29,49
58,103,107,114,SIREN,O,0,0,0,1,0,0,1,1,0,0,0,0,6,6,23,32
113,103,137,114,531,O,1,0,0,0,1,0,0,1,1,0,0,0,6,8,24,34
145,103,171,114,680,O,1,0,0,0,1,0,0,1,1,0,0,0,6,6,25,34
177,103,203,114,445,O,1,0,0,0,1,0,0,1,1,0,0,0,6,7,26,34
210,103,243,114,RCS,O,0,0,0,1,0,0,1,1,0,0,0,0,6,7,27,34
250,103,311,114,Nanterre,O,0,0,1,0,0,0,1,1,0,0,0,0,56,669,29,42
882,92,979,108,FRANCE,O,0,0,0,1,0,0,1,1,0,0,0,0,47,1,29,38
980,88,991,118,-,O,0,1,0,0,0,0,0,1,0,0,0,0,37,12,30,38
1003,92,1028,108,N°,O,0,0,1,1,0,0,0,0,0,0,0,0,47,9,31,38
1037,92,1143,108,F9892336,NUMBER,0,0,1,1,0,0,0,1,1,0,0,0,47,0,-1,39
58,120,74,130,N°,O,0,0,1,1,0,0,0,0,0,0,0,0,19,8,33,35
82,120,103,130,DE,O,0,0,0,1,0,0,1,1,0,0,0,0,19,5,34,35
108,120,265,130,TVA:FR22531680445,O,0,0,0,1,0,0,0,1,1,0,0,0,19,0,-1,37
59,149,108,163,Pour,O,0,0,1,0,0,0,1,1,0,0,0,0,7,7,36,40
115,153,166,163,nous,O,0,0,0,0,0,0,1,1,0,0,0,0,7,6,37,41
172,149,248,166,joindre,O,0,0,0,0,0,0,1,1,0,0,0,0,4,295,43,41
950,155,1017,170,Feuillet,O,0,0,1,0,0,0,1,1,0,0,0,0,31,84,39,56
1101,155,1141,170,1/3,O,1,0,0,0,0,0,0,1,1,0,0,0,8,0,-1,44
58,170,116,182,TOTAL,COMPANY_NAME,0,0,0,1,0,0,1,1,0,0,0,0,8,7,41,45
123,170,230,182,MARKETING,COMPANY_NAME,0,0,0,1,0,0,1,1,0,0,0,0,8,7,42,46
237,170,311,182,FRANCE,COMPANY_NAME,0,0,0,1,0,0,1,1,0,0,0,0,8,0,-1,47
543,157,657,176,TOTAL,LOGO,0,0,0,1,0,0,1,1,0,0,0,0,141,293,38,73
1069,178,1143,197,Original,O,0,0,1,0,0,0,1,1,0,0,0,0,4,0,-1,57
58,190,114,202,Cartes,O,0,0,1,0,0,0,1,1,0,0,0,0,6,7,46,50
121,190,166,202,Pétrol,O,0,0,1,0,0,0,1,0,0,0,0,0,6,21,47,51
187,190,278,202,res/Ventes,O,0,0,0,0,0,0,0,1,0,0,0,0,6,7,48,54
285,190,344,202,locales,O,0,0,0,0,0,0,1,1,0,0,0,0,85,7,49,69
351,190,377,202,GR,O,0,0,0,1,0,0,1,1,0,0,0,0,0,692,44,-1
58,208,87,220,562,COMPANY_ADDRESS,1,0,0,0,1,0,0,1,1,0,0,0,8,11,51,58
98,208,158,220,Avenue,COMPANY_ADDRESS,0,0,1,0,0,0,1,1,0,0,0,0,8,6,52,59
164,208,182,220,du,COMPANY_ADDRESS,0,0,0,0,0,0,1,1,0,0,0,0,8,8,53,59
190,211,223,223,parc,COMPANY_ADDRESS,0,0,0,0,0,0,1,1,0,0,0,0,5,6,54,59
229,208,248,220,de,COMPANY_ADDRESS,0,0,0,0,0,0,1,1,0,0,0,0,67,6,55,69
254,208,279,220,l'Ile,COMPANY_ADDRESS,0,0,0,0,0,0,0,1,0,0,0,0,67,721,56,69
1000,201,1023,215,Le,O,0,0,1,0,0,0,1,1,0,0,0,0,0,8,57,-1
1031,201,1142,215,31/03/2019,DATE,0,0,0,0,0,0,0,1,1,0,0,0,0,0,-1,-1
58,228,108,239,92029,COMPANY_ADDRESS,1,0,0,0,1,0,0,1,1,0,0,0,7,7,59,60
115,228,213,239,NANTERRE,COMPANY_ADDRESS,0,0,0,1,0,0,1,1,0,0,0,0,7,0,-1,61
59,246,99,258,MME,O,0,0,0,1,0,0,1,1,0,0,0,0,7,7,61,63
106,246,148,261,Lydie,O,0,0,1,0,0,0,1,1,0,0,0,0,4,6,62,65
154,246,228,258,LEVIEUX,O,0,0,0,1,0,0,1,1,0,0,0,0,7,0,-1,65
58,265,82,277,Tél,O,0,0,1,0,0,0,1,0,0,0,0,0,10,8,64,66
90,269,93,277,:,O,0,1,0,0,0,0,0,1,0,0,0,0,10,7,65,66
100,265,223,277,+33184948484,O,1,0,0,0,0,0,0,1,1,0,0,0,10,0,-1,67
59,287,112,299,Notre,O,0,0,1,0,0,0,1,1,0,0,0,0,19,7,67,70
119,287,155,299,site,O,0,0,0,0,0,0,1,1,0,0,0,0,19,8,68,71
163,290,167,299,:,O,0,1,0,0,0,0,0,1,0,0,0,0,19,7,69,71
174,287,324,302,www.gr.total.fr,O,0,0,0,0,0,0,0,1,0,0,0,1,16,0,-1,71
58,318,117,331,Votre,O,0,0,1,0,0,0,1,1,0,0,0,0,8,9,71,74
126,318,230,331,référence,O,0,0,0,0,0,0,1,0,0,0,0,0,8,8,72,75
238,318,299,331,client,O,0,0,0,0,0,0,1,1,0,0,0,0,8,330,73,77
629,317,678,328,ADBI,COMPANY_NAME,0,0,0,1,0,0,1,1,0,0,0,0,7,0,-1,78
59,339,77,351,N°,O,0,0,1,1,0,0,0,0,0,0,0,0,7,6,75,83
83,339,164,351,87263392,O,1,0,0,0,1,0,0,1,1,0,0,0,27,6,76,85
170,346,175,347,-,O,0,1,0,0,0,0,0,1,0,0,0,0,31,7,77,86
182,339,271,351,D001/D001,O,0,0,1,1,0,0,0,1,1,0,0,0,64,359,78,95
630,335,755,347,OUGUENOUNE,O,0,0,0,1,0,0,1,1,0,0,0,0,5,14,79,80
769,335,844,347,AHCENE,O,0,0,0,1,0,0,1,1,0,0,0,0,0,0,-1,-1
631,352,640,366,8,CLIENT_ADDRESS,1,0,0,0,1,0,0,1,1,0,0,0,4,16,81,87
656,354,692,366,RUE,CLIENT_ADDRESS,0,0,0,1,0,0,1,1,0,0,0,0,4,15,82,87
707,353,792,366,ROSSINI,CLIENT_ADDRESS,0,0,0,1,0,0,1,1,0,0,0,0,6,0,-1,88
57,358,100,370,ADBI,COMPANY_NAME,0,0,0,1,0,0,1,1,0,0,0,0,8,531,80,84
58,378,67,390,8,CLIENT_ADDRESS,1,0,0,0,1,0,0,1,1,0,0,0,6,7,85,89
74,378,110,390,RUE,CLIENT_ADDRESS,0,0,0,1,0,0,1,1,0,0,0,0,6,7,86,89
117,378,189,390,ROSSINI,CLIENT_ADDRESS,0,0,0,1,0,0,1,1,0,0,0,0,6,442,87,90
631,370,691,385,75009,CLIENT_ADDRESS,1,0,0,0,1,0,0,1,1,0,0,0,0,17,88,-1
708,372,768,384,PARIS,CLIENT_ADDRESS,0,0,0,1,0,0,1,1,0,0,0,0,0,0,-1,-1
58,396,108,408,75009,CLIENT_ADDRESS,1,0,0,0,1,0,0,1,1,0,0,0,7,7,90,91
115,396,166,408,PARIS,CLIENT_ADDRESS,0,0,0,1,0,0,1,1,0,0,0,0,7,0,-1,93
59,415,77,427,N°,O,0,0,1,1,0,0,0,0,0,0,0,0,0,6,92,-1
83,415,102,427,de,O,0,0,0,0,0,0,1,1,0,0,0,0,0,6,93,-1
108,415,142,427,TVA,O,0,0,0,1,0,0,1,1,0,0,0,0,0,7,94,-1
149,425,151,427,:,O,0,1,0,0,0,0,0,1,0,0,0,0,0,7,95,-1
158,415,293,427,FR27805321650,O,0,0,0,1,0,0,0,1,1,0,0,0,0,0,-1,-1
875,569,900,579,Les,O,0,0,1,0,0,0,1,1,0,0,0,0,25,6,97,108
906,569,973,579,montants,O,0,0,0,0,0,0,1,1,0,0,0,0,0,6,98,-1
979,569,1010,579,sont,O,0,0,0,0,0,0,1,1,0,0,0,0,25,5,99,109
1015,569,1080,582,exprimés,O,0,0,0,0,0,0,1,0,0,0,0,0,79,6,100,120
1086,571,1103,579,en,O,0,0,0,0,0,0,1,1,0,0,0,0,25,6,101,110
1109,569,1143,579,EUR,O,0,0,0,1,0,0,1,1,0,0,0,0,25,0,-1,110
64,604,137,615,Produits,O,0,0,1,0,0,0,1,1,0,0,0,0,63,7,103,122
144,604,161,615,et,O,0,0,0,0,0,0,1,1,0,0,0,0,63,7,104,123
168,604,242,615,services,O,0,0,0,0,0,0,1,1,0,0,0,0,63,7,105,123
249,604,355,615,consommés,O,0,0,0,0,0,0,1,0,0,0,0,0,63,241,106,125
596,604,626,615,até,O,0,0,0,0,0,0,1,0,0,0,0,0,46,100,107,117
726,604,797,615,Montant,O,0,0,1,0,0,0,1,1,0,0,0,0,9,71,108,111
868,604,911,615,Taux,O,0,0,1,0,0,0,1,1,0,0,0,0,9,43,109,112
954,604,1026,615,Montant,O,0,0,1,0,0,0,1,1,0,0,0,0,9,42,110,113
1068,604,1140,615,Montant,O,0,0,1,0,0,0,1,1,0,0,0,0,9,0,-1,114
773,624,797,634,HT,O,0,0,0,1,0,0,1,1,0,0,0,0,27,78,112,118
875,624,912,634,TVA,O,0,0,0,1,0,0,1,1,0,0,0,0,27,77,113,119
989,624,1026,634,TVA,O,0,0,0,1,0,0,1,1,0,0,0,0,27,78,114,120
1104,624,1139,634,TTC,O,0,0,0,1,0,0,1,1,0,0,0,0,27,0,-1,121
406,661,456,672,Gazole,O,0,0,1,0,0,0,1,1,0,0,0,0,0,7,116,-1
463,661,518,672,Premier,O,1,0,1,0,0,0,1,1,0,0,0,0,37,74,117,129
592,661,631,672,51.35,O,1,0,0,0,0,0,0,1,1,0,0,0,0,132,118,-1
763,661,802,672,67.47,O,1,0,0,0,0,0,0,1,1,0,0,0,6,61,119,126
863,661,917,672,20.00%,O,0,0,0,0,0,0,0,1,1,0,0,0,37,76,120,131
993,661,1031,672,13.49,O,1,0,0,0,0,0,0,1,1,0,0,0,6,74,121,127
1105,661,1145,672,80.96,O,1,0,0,0,0,0,0,1,1,0,0,0,6,0,-1,128
63,678,108,689,Total,O,0,0,1,0,0,0,1,1,0,0,0,0,38,8,123,134
116,678,200,689,Essences,O,0,0,1,0,0,0,1,1,0,0,0,0,38,8,124,135
208,678,220,689,&,O,0,1,0,0,0,0,0,1,0,0,0,0,71,8,125,141
228,678,287,689,Gazole,O,0,0,1,0,0,0,1,1,0,0,0,0,71,468,126,142
755,678,803,689,67.47,O,1,0,0,0,0,0,0,1,1,0,0,0,20,181,127,130
984,678,1031,689,13.49,O,1,0,0,0,0,0,0,1,1,0,0,0,20,66,128,132
1097,678,1145,689,80.96,O,1,0,0,0,0,0,0,1,1,0,0,0,20,0,-1,133
464,709,517,723,Parking,O,0,0,1,0,0,0,1,1,0,0,0,0,131,247,130,162
764,709,802,720,12.42,O,1,0,0,0,0,0,0,1,1,0,0,0,6,61,131,136
863,709,917,720,20.00%,O,0,0,0,0,0,0,0,1,1,0,0,0,78,84,132,153
1001,709,1031,720,2.48,O,1,0,0,0,0,0,0,1,1,0,0,0,6,75,133,137
1106,709,1145,720,14.90,O,1,0,0,0,0,0,0,1,1,0,0,0,6,0,-1,138
63,727,108,737,Total,O,0,0,1,0,0,0,1,1,0,0,0,0,23,8,135,139
116,727,193,740,Parkings,O,0,0,1,0,0,0,1,1,0,0,0,0,20,562,136,140
755,726,803,737,12.42,O,1,0,0,0,0,0,0,1,1,0,0,0,23,191,137,144
994,726,1031,737,2.48,O,1,0,0,0,0,0,0,1,1,0,0,0,23,67,138,145
1098,726,1145,737,14.90,O,1,0,0,0,0,0,0,1,1,0,0,0,23,0,-1,146
63,760,108,770,Total,O,0,0,1,0,0,0,1,1,0,0,0,0,28,8,140,147
116,760,189,770,Produits,O,0,0,1,0,0,0,1,1,0,0,0,0,28,7,141,147
196,760,213,770,et,O,0,0,0,0,0,0,1,1,0,0,0,0,28,7,142,148
220,760,294,770,services,O,0,0,0,0,0,0,1,1,0,0,0,0,28,7,143,149
301,760,407,770,consommés,O,0,0,0,0,0,0,1,0,0,0,0,0,28,348,144,150
755,760,803,770,79.89,O,1,0,0,0,0,0,0,1,1,0,0,0,28,181,145,152
984,760,1031,771,15.97,O,1,0,0,0,0,0,0,1,1,0,0,0,27,66,146,154
1097,760,1145,770,95.86,O,1,0,0,0,0,0,0,1,1,0,0,0,28,0,-1,155
63,798,185,808,Abonnements,O,0,0,1,0,0,0,1,1,0,0,0,0,64,7,148,167
192,798,209,808,et,O,0,0,0,0,0,0,1,1,0,0,0,0,64,6,149,170
215,798,290,808,services,O,0,0,0,0,0,0,1,1,0,0,0,0,64,7,150,170
297,798,375,808,associés,O,0,0,0,0,0,0,1,0,0,0,0,0,97,221,151,177
596,798,626,809,até,O,0,0,0,0,0,0,1,0,0,0,0,0,0,100,152,-1
726,798,797,808,Montant,O,0,0,1,0,0,0,1,1,0,0,0,0,10,71,153,156
868,798,912,808,Taux,O,0,0,1,0,0,0,1,1,0,0,0,0,10,42,154,157
954,798,1026,808,Montant,O,0,0,1,0,0,0,1,1,0,0,0,0,10,42,155,158
1068,798,1140,808,Montant,O,0,0,1,0,0,0,1,1,0,0,0,0,9,0,-1,159
773,818,797,828,HT,O,0,0,0,1,0,0,1,1,0,0,0,0,26,78,157,163
875,818,912,828,TVA,O,0,0,0,1,0,0,1,1,0,0,0,0,26,77,158,164
989,818,1026,828,TVA,O,0,0,0,1,0,0,1,1,0,0,0,0,26,78,159,165
1104,817,1139,828,TTC,O,0,0,0,1,0,0,1,1,0,0,0,0,26,0,-1,166
397,854,432,865,Frais,O,0,0,1,0,0,0,1,1,0,0,0,0,40,6,161,178
438,854,455,865,de,O,0,0,0,0,0,0,1,1,0,0,0,0,0,7,162,-1
462,854,517,865,Gestion,O,0,0,1,0,0,0,1,1,0,0,0,0,90,256,163,182
773,854,800,865,1.51,O,1,0,0,0,0,0,0,1,1,0,0,0,7,63,164,171
863,854,917,865,20.00%,O,0,0,0,0,0,0,0,1,1,0,0,0,90,83,165,186
1000,854,1031,865,0.30,O,1,0,0,0,0,0,0,1,1,0,0,0,7,84,166,172
1115,854,1143,865,1.81,O,1,0,0,0,0,0,0,1,1,0,0,0,7,0,-1,173
63,872,108,883,Total,O,0,0,1,0,0,0,1,1,0,0,0,0,22,8,168,174
116,872,159,883,Frais,O,0,0,1,0,0,0,1,1,0,0,0,0,22,7,169,175
166,872,186,883,de,O,0,0,0,0,0,0,1,1,0,0,0,0,22,7,170,175
193,872,260,883,Gestion,O,0,0,1,0,0,0,1,1,0,0,0,0,22,517,171,175
777,872,800,883,51,O,1,0,0,0,1,0,0,1,1,0,0,0,22,194,172,179
994,872,1031,883,0.30,O,1,0,0,0,0,0,0,1,1,0,0,0,22,88,173,180
1119,872,1143,883,-81,O,1,0,0,0,0,0,0,1,1,0,0,0,22,0,-1,181
63,905,108,916,Total,O,0,0,1,0,0,0,1,1,0,0,0,0,0,7,175,-1
115,905,237,916,Abonnements,O,0,0,1,0,0,0,1,1,0,0,0,0,0,7,176,-1
244,905,257,916,&,O,0,1,0,0,0,0,0,1,0,0,0,0,0,7,177,-1
264,905,338,916,services,O,0,0,0,0,0,0,1,1,0,0,0,0,0,7,178,-1
345,905,424,916,associés,O,0,0,0,0,0,0,1,0,0,0,0,0,98,353,179,201
777,905,800,916,51,O,1,0,0,0,1,0,0,1,1,0,0,0,76,194,180,197
994,905,1031,916,0.30,O,1,0,0,0,0,0,0,1,1,0,0,0,39,88,181,188
1119,905,1143,916,81,O,1,0,0,0,1,0,0,1,1,0,0,0,39,0,-1,190
496,955,536,963,Cumul,O,0,0,1,0,0,0,1,1,0,0,0,0,0,6,183,-1
542,957,563,965,par,O,0,0,0,0,0,0,1,1,0,0,0,0,0,4,184,-1
567,955,594,963,TVA,O,0,0,0,1,0,0,1,1,0,0,0,0,4,211,185,191
805,955,857,963,Montant,O,0,0,1,0,0,0,1,1,0,0,0,0,29,6,186,197
863,955,881,963,HT.,O,0,0,0,1,0,0,0,1,0,0,0,0,4,46,187,192
927,955,980,963,Montant,O,0,0,1,0,0,0,1,1,0,0,0,0,86,5,188,209
985,955,1012,963,TVA,O,0,0,0,1,0,0,1,1,0,0,0,0,4,47,189,193
1059,955,1112,963,Montant,O,0,0,1,0,0,0,1,1,0,0,0,0,29,5,190,199
1117,955,1143,963,TTC,O,0,0,0,1,0,0,1,1,0,0,0,0,4,0,-1,194
561,967,594,974,"""20.00%",O,0,0,0,0,0,0,0,1,1,0,0,0,0,262,192,-1
856,967,881,974,8140,O,1,0,0,0,1,0,0,1,1,0,0,0,18,108,193,198
989,967,1012,974,1627,O,1,0,0,0,1,0,0,1,1,0,0,0,75,107,194,209
1119,967,1143,974,97.67,O,1,0,0,0,0,0,0,1,1,0,0,0,18,0,-1,200
581,992,653,1003,Montant,O,0,0,1,0,0,0,1,1,0,0,0,0,11,7,196,203
660,992,683,1002,HT,O,0,0,0,1,0,0,1,1,0,0,0,0,12,75,197,203
758,992,830,1003,Montant,O,0,0,1,0,0,0,1,1,0,0,0,0,46,6,198,207
836,992,873,1002,TVA,O,0,0,0,1,0,0,1,1,0,0,0,0,12,148,199,204
1021,992,1093,1003,Montant,O,0,0,1,0,0,0,1,1,0,0,0,0,11,6,200,205
1099,992,1135,1003,TTC,O,0,0,0,1,0,0,1,1,0,0,0,0,11,0,-1,206
328,1014,390,1028,Total,O,0,0,1,0,0,0,1,1,0,0,0,0,0,9,202,-1
399,1014,494,1028,Général,O,0,0,1,0,0,0,1,0,0,0,0,0,0,123,203,-1
617,1014,691,1034,81.40|,O,0,0,0,0,0,0,0,1,1,0,0,0,168,117,204,268
808,1014,872,1028,16.27,O,1,0,0,0,0,0,0,1,1,0,0,0,21,138,205,207
1010,1014,1061,1028,EUR,O,0,0,0,1,0,0,1,1,0,0,0,0,21,8,206,210
1069,1014,1135,1028,97.67,TOTAL,1,0,0,0,0,0,0,1,1,0,0,0,21,0,-1,211
800,1049,894,1063,Règlement,O,0,0,1,0,0,0,1,0,0,0,0,0,23,7,208,212
901,1049,910,1060,à,O,0,0,0,0,0,0,1,0,0,0,0,0,26,28,209,213
938,1049,1013,1060,chéance,O,0,0,0,0,0,0,1,0,0,0,0,0,26,7,210,214
1020,1049,1040,1060,du,O,0,0,0,0,0,0,1,1,0,0,0,0,26,8,211,215
1048,1049,1143,1060,10/04/2019,O,0,0,0,0,0,0,0,1,1,0,0,0,26,0,-1,216
820,1086,897,1100,Règlement,O,0,0,1,0,0,0,1,0,0,0,0,0,20,6,213,225
903,1086,911,1097,à,O,0,0,0,0,0,0,1,0,0,0,0,0,6,6,214,217
917,1086,968,1097,TOTAL,O,0,0,0,1,0,0,1,1,0,0,0,0,6,6,215,217
974,1086,1070,1097,MARKETING,O,0,0,0,1,0,0,1,1,0,0,0,0,6,7,216,219
1077,1086,1142,1097,FRANCE,O,0,0,0,1,0,0,1,1,0,0,0,0,7,0,-1,221
887,1103,952,1114,Pénalités,O,0,0,1,0,0,0,1,0,0,0,0,0,6,7,218,225
959,1106,991,1116,pour,O,0,0,0,0,0,0,1,1,0,0,0,0,4,6,219,227
997,1103,1038,1114,retard,O,0,0,0,0,0,0,1,1,0,0,0,0,6,6,220,227
1044,1103,1061,1114,de,O,0,0,0,0,0,0,1,1,0,0,0,0,8,6,221,228
1067,1104,1133,1116,paiement,O,0,0,0,0,0,0,1,1,0,0,0,0,4,0,-1,229
703,1120,738,1130,Taux,O,0,0,1,0,0,0,1,1,0,0,0,0,6,5,223,231
743,1120,848,1133,correspondant,O,0,0,0,0,0,0,1,1,0,0,0,0,3,6,224,231
854,1122,870,1130,au,O,0,0,0,0,0,0,1,1,0,0,0,0,6,6,225,232
876,1120,907,1130,taux,O,0,0,0,0,0,0,1,1,0,0,0,0,6,4,226,233
911,1120,969,1130,d'intérêt,O,0,0,0,0,0,0,0,0,0,0,0,0,6,6,227,235
975,1120,1036,1133,appliqué,O,0,0,0,0,0,0,1,0,0,0,0,0,3,6,228,236
1042,1122,1065,1133,par,O,0,0,0,0,0,0,1,1,0,0,0,0,3,5,229,237
1070,1120,1081,1130,la,O,0,0,0,0,0,0,1,1,0,0,0,0,6,7,230,237
1088,1120,1143,1133,Banque,O,0,0,1,0,0,0,1,1,0,0,0,0,3,0,-1,237
721,1136,781,1147,Centrale,O,0,0,1,0,0,0,1,1,0,0,0,0,22,7,232,247
788,1136,875,1150,Européenne,O,0,0,1,0,0,0,1,0,0,0,0,0,2,6,233,239
881,1136,889,1147,à,O,0,0,0,0,0,0,1,0,0,0,0,0,5,6,234,241
895,1139,920,1147,son,O,0,0,0,0,0,0,1,1,0,0,0,0,5,7,235,241
927,1136,993,1149,opération,O,0,0,0,0,0,0,1,0,0,0,0,0,3,7,236,242
1000,1136,1017,1147,de,O,0,0,0,0,0,0,1,1,0,0,0,0,5,6,237,244
1023,1136,1125,1147,refinancement,O,0,0,0,0,0,0,1,1,0,0,0,0,5,7,238,245
1132,1136,1142,1147,la,O,0,0,0,0,0,0,1,1,0,0,0,0,6,0,-1,246
785,1152,814,1166,plus,O,0,0,0,0,0,0,1,1,0,0,0,0,3,7,240,247
821,1152,874,1163,récente,O,0,0,0,0,0,0,1,0,0,0,0,0,7,6,241,249
880,1152,929,1166,majoré,O,0,0,0,0,0,0,1,0,0,0,0,0,4,5,242,249
934,1152,951,1163,de,O,0,0,0,0,0,0,1,1,0,0,0,0,39,8,243,275
959,1152,974,1163,10,O,1,0,0,0,1,0,0,1,1,0,0,0,6,7,244,250
981,1152,1023,1166,points,O,0,0,0,0,0,0,1,1,0,0,0,0,3,6,245,250
1029,1152,1046,1163,de,O,0,0,0,0,0,0,1,1,0,0,0,0,6,7,246,251
1053,1153,1143,1166,pourcentage,O,0,0,0,0,0,0,1,1,0,0,0,0,3,0,-1,251
766,1169,801,1180,Frais,O,0,0,1,0,0,0,1,1,0,0,0,0,22,6,248,272
807,1169,824,1180,de,O,0,0,0,0,0,0,1,1,0,0,0,0,22,6,249,272
830,1170,929,1180,recouvrement,O,0,0,0,0,0,0,1,1,0,0,0,0,22,16,250,273
945,1169,1015,1180,Indemnité,O,0,0,1,0,0,0,1,0,0,0,0,0,22,6,251,276
1021,1169,1087,1180,forfaitaire,O,0,0,0,0,0,0,1,1,0,0,0,0,22,7,252,277
1094,1169,1111,1180,de,O,0,0,0,0,0,0,1,1,0,0,0,0,0,5,253,-1
1116,1169,1143,1180,40€,O,0,0,0,0,0,0,0,0,1,1,0,0,0,0,-1,-1
58,1202,94,1213,Cette,O,0,0,1,0,0,0,1,1,0,0,0,0,48,5,255,278
99,1202,144,1213,facture,O,0,0,0,0,0,0,1,1,0,0,0,0,48,5,256,279
149,1205,165,1213,ou,O,0,0,0,0,0,0,1,1,0,0,0,0,48,5,257,279
170,1205,186,1213,ce,O,0,0,0,0,0,0,1,1,0,0,0,0,51,5,258,280
191,1202,231,1213,relevé,O,0,0,0,0,0,0,1,0,0,0,0,0,49,4,259,281
235,1202,255,1213,fait,O,0,0,0,0,0,0,1,1,0,0,0,0,48,4,260,282
259,1202,294,1213,office,O,0,0,0,0,0,0,1,1,0,0,0,0,48,5,261,283
299,1202,315,1213,de,O,0,0,0,0,0,0,1,1,0,0,0,0,48,5,262,283
320,1202,417,1216,pré-notification,O,0,0,0,0,0,0,0,0,0,0,0,0,46,5,263,284
422,1202,438,1213,du,O,0,0,0,0,0,0,1,1,0,0,0,0,48,6,264,285
444,1202,526,1216,prélèvement,O,0,0,0,0,0,0,1,0,0,0,0,0,45,5,265,286
531,1202,571,1213,SEPA,O,0,0,0,1,0,0,1,1,0,0,0,0,49,5,266,288
576,1202,586,1213,le,O,0,0,0,0,0,0,1,1,0,0,0,0,49,5,267,288
591,1205,614,1213,cas,O,0,0,0,0,0,0,1,1,0,0,0,0,49,5,268,288
619,1202,673,1213,échéant,O,0,0,0,0,0,0,1,0,0,0,0,0,48,5,269,289
678,1202,715,1213,utilisé,O,0,0,0,0,0,0,1,0,0,0,0,0,0,6,270,-1
721,1205,751,1216,pour,O,0,0,0,0,0,0,1,1,0,0,0,0,0,4,271,-1
755,1205,779,1213,son,O,0,0,0,0,0,0,1,1,0,0,0,0,0,5,272,-1
784,1202,849,1215,"paiement,",O,0,0,0,0,0,0,0,1,0,0,0,0,0,6,273,-1
855,1202,903,1216,d'après,O,0,0,0,0,0,0,0,0,0,0,0,0,0,6,274,-1
909,1202,919,1213,la,O,0,0,0,0,0,0,1,1,0,0,0,0,0,5,275,-1
924,1202,953,1213,date,O,0,0,0,0,0,0,1,1,0,0,0,0,0,5,276,-1
958,1202,1036,1213,d'échéance,O,0,0,0,0,0,0,0,0,0,0,0,0,0,5,277,-1
1041,1202,1089,1216,prévue.,O,0,0,0,0,0,0,0,0,0,0,0,0,0,0,-1,-1
57,1261,87,1272,TVA,O,0,0,0,1,0,0,1,1,0,0,0,0,6,6,279,290
93,1261,159,1275,acquittée,O,0,0,0,0,0,0,1,0,0,0,0,0,4,6,280,291
165,1264,187,1272,sur,O,0,0,0,0,0,0,1,1,0,0,0,0,9,6,281,292
193,1262,213,1272,les,O,0,0,0,0,0,0,1,1,0,0,0,0,6,6,282,293
219,1261,269,1272,Débits.,O,0,0,1,0,0,0,0,0,0,0,0,0,6,6,283,293
275,1261,321,1272,Aucun,O,0,0,1,0,0,0,1,1,0,0,0,0,6,6,284,295
327,1262,397,1275,escompte,O,0,0,0,0,0,0,1,1,0,0,0,0,3,7,285,296
404,1261,437,1272,n'est,O,0,0,0,0,0,0,0,1,0,0,0,0,6,6,286,298
443,1261,501,1275,pratiqué,O,0,0,0,0,0,0,1,0,0,0,0,0,3,6,287,300
507,1264,539,1275,pour,O,0,0,0,0,0,0,1,1,0,0,0,0,3,6,288,301
545,1262,610,1275,paiement,O,0,0,0,0,0,0,1,1,0,0,0,0,3,6,289,301
616,1261,676,1275,anticipé.,O,0,0,0,0,0,0,0,0,0,0,0,0,3,0,-1,302
58,1278,94,1289,Nous,O,0,0,1,0,0,0,1,1,0,0,0,0,6,6,291,303
100,1279,166,1289,attestons,O,0,0,0,0,0,0,1,1,0,0,0,0,6,7,292,303
173,1281,195,1289,sur,O,0,0,0,0,0,0,1,1,0,0,0,0,6,6,293,305
201,1278,267,1289,l'honneur,O,0,0,0,0,0,0,0,1,0,0,0,0,6,5,294,305
272,1281,298,1291,que,O,0,0,0,0,0,0,1,1,0,0,0,0,4,7,295,307
305,1278,316,1289,le,O,0,0,0,0,0,0,1,1,0,0,0,0,6,6,296,307
322,1278,364,1289,travail,O,0,0,0,0,0,0,1,1,0,0,0,0,6,6,297,308
370,1279,391,1289,est,O,0,0,0,0,0,0,1,1,0,0,0,0,12,7,298,309
398,1278,444,1289,réalisé,O,0,0,0,0,0,0,1,0,0,0,0,0,6,7,299,310
451,1281,484,1289,avec,O,0,0,0,0,0,0,1,1,0,0,0,0,6,6,300,312
490,1278,515,1289,des,O,0,0,0,0,0,0,1,1,0,0,0,0,6,7,301,312
522,1278,577,1289,salariés,O,0,0,0,0,0,0,1,0,0,0,0,0,6,6,302,313
583,1278,652,1291,employés.,O,0,0,0,0,0,0,0,0,0,0,0,0,4,0,-1,315
58,1295,156,1308,régulièrement,O,0,0,0,0,0,0,1,0,0,0,0,0,0,6,304,-1
162,1297,179,1305,au,O,0,0,0,0,0,0,1,1,0,0,0,0,0,6,305,-1
185,1295,230,1308,regard,O,0,0,0,0,0,0,1,1,0,0,0,0,0,7,306,-1
237,1295,262,1305,des,O,0,0,0,0,0,0,1,1,0,0,0,0,0,6,307,-1
268,1295,320,1305,articles,O,0,0,0,0,0,0,1,1,0,0,0,0,0,6,308,-1
326,1295,375,1305,L143.3,O,0,0,1,1,0,0,0,1,1,0,0,0,0,6,309,-1
381,1301,385,1302,-,O,0,1,0,0,0,0,0,1,0,0,0,0,0,7,310,-1
392,1295,440,1305,L143.5,O,0,0,1,1,0,0,0,1,1,0,0,0,0,6,311,-1
446,1296,459,1305,et,O,0,0,0,0,0,0,1,1,0,0,0,0,0,7,312,-1
466,1295,514,1305,L620.3,O,0,0,1,1,0,0,0,1,1,0,0,0,0,6,313,-1
520,1295,537,1305,du,O,0,0,0,0,0,0,1,1,0,0,0,0,0,6,314,-1
543,1295,581,1305,Code,O,0,0,1,0,0,0,1,1,0,0,0,0,0,6,315,-1
587,1295,604,1305,du,O,0,0,0,0,0,0,1,1,0,0,0,0,0,6,316,-1
610,1295,657,1305,Travail,O,0,0,1,0,0,0,1,1,0,0,0,0,0,0,-1,-1
1090,1448,1114,1460,173,O,1,0,0,0,1,0,0,1,1,0,0,0,0,0,-1,-1
