xmin,ymin,xmax,ymax,Object,label,like_num,is_punct,is_title,is_upper,is_digit,is_currency,is_alpha,is_ascii,hasNumbers,hascurrency,like_email,like_url,dh,dv,v_hor,v_vert
112,153,148,172,DS,COMPANY_NAME,0,0,0,1,0,0,1,1,0,0,0,0,11,11,1,2
159,153,380,172,RECRUTEMENT,COMPANY_NAME,0,0,0,1,0,0,1,1,0,0,0,0,11,0,-1,4
110,183,120,196,"1,",COMPANY_ADDRESS,1,0,0,0,0,0,0,1,1,0,0,0,4,7,3,7
127,186,149,194,rue,COMPANY_ADDRESS,0,0,0,0,0,0,1,1,0,0,0,0,6,5,4,7
154,183,171,194,de,COMPANY_ADDRESS,0,0,0,0,0,0,1,1,0,0,0,0,6,6,5,8
177,183,188,194,la,COMPANY_ADDRESS,0,0,0,0,0,0,1,1,0,0,0,0,6,6,6,8
194,183,247,194,Baneza,COMPANY_ADDRESS,0,0,1,0,0,0,1,1,0,0,0,0,6,0,-1,8
108,200,152,211,92230,COMPANY_ADDRESS,1,0,0,0,1,0,0,1,1,0,0,0,8,6,8,9
158,200,250,211,Gennevilliers,COMPANY_ADDRESS,0,0,1,0,0,0,1,1,0,0,0,0,8,0,-1,10
108,219,187,232,Téléphone:,O,0,0,1,0,0,0,0,0,0,0,0,0,5,7,10,11
194,219,300,229,06.86.14.32.40,O,1,0,0,0,0,0,0,1,1,0,0,0,8,0,-1,12
109,237,147,248,Email,O,0,0,1,0,0,0,1,1,0,0,0,0,64,15,12,13
162,237,372,251,sabrine.dhaou.rh@gmail.com,O,0,0,0,0,0,0,0,1,0,0,1,0,61,0,-1,15
109,312,147,322,Notre,O,0,0,1,0,0,0,1,1,0,0,0,0,8,6,14,21
153,311,166,322,n°,O,0,0,0,0,0,0,0,0,0,0,0,0,8,6,15,22
172,312,206,322,TVA:,O,0,0,0,1,0,0,0,1,0,0,0,0,8,7,16,23
213,312,233,322,FR,O,0,0,0,1,0,0,1,1,0,0,0,0,8,6,17,24
239,312,255,322,88,O,1,0,0,0,1,0,0,1,1,0,0,0,8,6,18,25
261,312,287,322,838,O,1,0,0,0,1,0,0,1,1,0,0,0,8,5,19,26
292,312,318,322,409,O,1,0,0,0,1,0,0,1,1,0,0,0,8,6,20,27
324,312,350,322,308,O,1,0,0,0,1,0,0,1,1,0,0,0,8,0,-1,28
108,330,146,341,Votre,O,0,0,1,0,0,0,1,1,0,0,0,0,0,6,22,-1
152,330,165,341,n°,O,0,0,0,0,0,0,0,0,0,0,0,0,0,6,23,-1
171,330,202,341,TVA:,O,0,0,0,1,0,0,0,1,0,0,0,0,0,10,24,-1
212,330,232,341,FR,O,0,0,0,1,0,0,1,1,0,0,0,0,0,6,25,-1
238,330,254,341,27,O,1,0,0,0,1,0,0,1,1,0,0,0,0,6,26,-1
260,330,286,341,650,O,1,0,0,0,1,0,0,1,1,0,0,0,0,5,27,-1
291,330,315,341,821,O,1,0,0,0,1,0,0,1,1,0,0,0,0,8,28,-1
323,330,349,341,650,O,1,0,0,0,1,0,0,1,1,0,0,0,0,0,-1,-1
589,423,622,433,Nom,O,0,0,1,0,0,0,1,1,0,0,0,0,64,5,30,34
627,423,644,433,du,O,0,0,0,0,0,0,1,1,0,0,0,0,64,6,31,35
650,423,687,433,client,O,0,0,0,0,0,0,1,1,0,0,0,0,64,6,32,36
693,425,695,433,:,O,0,1,0,0,0,0,0,1,0,0,0,0,0,10,33,-1
705,423,741,433,ADBI,CLIENT_NAME,0,0,0,1,0,0,1,1,0,0,0,0,64,0,-1,37
589,497,627,508,Date:,O,0,0,1,0,0,0,0,1,0,0,0,0,0,7,35,-1
634,497,650,508,19,DATE,1,0,0,0,1,0,0,1,1,0,0,0,0,6,36,-1
656,497,693,508,Mars,DATE,0,0,1,0,0,0,1,1,0,0,0,0,0,5,37,-1
698,497,733,508,2019,DATE,1,0,0,0,1,0,0,1,1,0,0,0,0,0,-1,-1
423,540,466,551,NOTE,O,0,0,0,1,0,0,1,1,0,0,0,0,97,7,39,49
473,540,596,551,D'HONORAIRES,O,0,0,0,1,0,0,0,1,0,0,0,0,17,0,-1,40
483,568,546,579,°2019/22,O,0,0,0,0,0,0,0,0,1,0,0,0,68,0,-1,50
109,648,136,658,Nos,O,0,0,1,0,0,0,1,1,0,0,0,0,8,6,42,55
142,648,217,658,honoraires,O,0,0,0,0,0,0,1,1,0,0,0,0,8,5,43,56
222,650,239,658,au,O,0,0,0,0,0,0,1,1,0,0,0,0,9,6,44,58
245,648,271,658,titre,O,0,0,0,0,0,0,1,1,0,0,0,0,8,5,45,59
276,648,292,658,du,O,0,0,0,0,0,0,1,1,0,0,0,0,8,7,46,60
299,650,332,658,mois,O,0,0,0,0,0,0,1,1,0,0,0,0,11,5,47,61
337,648,354,658,de,O,0,0,0,0,0,0,1,1,0,0,0,0,11,5,48,61
359,647,404,658,février,O,0,0,0,0,0,0,1,0,0,0,0,0,8,4,49,62
408,648,444,658,2019,O,1,0,0,0,1,0,0,1,1,0,0,0,8,5,50,64
449,647,551,658,conformément,O,0,0,0,0,0,0,1,0,0,0,0,0,8,5,51,65
556,650,573,658,au,O,0,0,0,0,0,0,1,1,0,0,0,0,0,6,52,-1
579,648,628,658,contrat,O,0,0,0,0,0,0,1,1,0,0,0,0,0,5,53,-1
633,648,678,658,conclu,O,0,0,0,0,0,0,1,1,0,0,0,0,0,6,54,-1
684,648,695,658,le,O,0,0,0,0,0,0,1,1,0,0,0,0,0,0,-1,-1
109,666,123,677,31,O,1,0,0,0,1,0,0,1,1,0,0,0,0,8,56,-1
131,666,184,677,octobre,O,0,0,0,0,0,0,1,1,0,0,0,0,0,5,57,-1
189,666,224,677,2018,O,1,0,0,0,1,0,0,1,1,0,0,0,0,5,58,-1
229,667,250,677,est,O,0,0,0,0,0,0,1,1,0,0,0,0,0,5,59,-1
255,666,272,677,de,O,0,0,0,0,0,0,1,1,0,0,0,0,0,7,60,-1
279,666,308,678,"19,5",O,1,0,0,0,0,0,0,1,1,0,0,0,0,9,61,-1
317,669,352,680,jours,O,0,0,0,0,0,0,1,1,0,0,0,0,0,7,62,-1
359,666,383,677,100,O,1,0,0,0,1,0,0,1,1,0,0,0,0,6,63,-1
389,667,410,677,est,O,0,0,0,0,0,0,1,1,0,0,0,0,0,5,64,-1
415,666,432,677,de,O,0,0,0,0,0,0,1,1,0,0,0,0,0,7,65,-1
439,666,472,677,1950,O,1,0,0,0,1,0,0,1,1,0,0,0,0,6,66,-1
478,669,517,677,euros,O,0,0,0,0,0,0,1,1,0,0,0,0,0,0,-1,-1
830,658,835,668,1,O,1,0,0,0,1,0,0,1,1,0,0,0,0,8,68,-1
843,658,891,670,"950,00",O,1,0,0,0,0,0,0,1,1,0,0,0,0,5,69,-1
896,658,904,669,€,O,0,0,0,0,0,1,0,0,0,1,0,0,0,0,-1,-1
589,950,668,960,MONTANT,O,0,0,0,1,0,0,1,1,0,0,0,0,17,5,71,75
673,950,693,960,HT,O,0,0,0,1,0,0,1,1,0,0,0,0,0,23,72,-1
716,950,724,960,€,O,0,0,0,0,0,1,0,0,0,1,0,0,17,119,73,77
843,950,848,960,1,O,1,0,0,0,1,0,0,1,1,0,0,0,40,7,74,82
855,950,904,962,"950,00",O,1,0,0,0,0,0,0,1,1,0,0,0,15,0,-1,78
589,977,620,988,TVA,O,0,0,0,1,0,0,1,1,0,0,0,0,12,5,76,79
625,977,656,988,20%,O,0,0,0,0,0,0,0,1,1,0,0,0,12,59,77,79
715,977,724,988,€,O,0,0,0,0,0,1,0,0,0,1,0,0,12,133,78,81
857,977,905,989,"390,00",O,1,0,0,0,0,0,0,1,1,0,0,0,11,0,-1,83
589,1000,642,1010,TOTAL,O,0,0,0,1,0,0,1,1,0,0,0,0,0,5,80,-1
647,1000,677,1010,TTC,O,0,0,0,1,0,0,1,1,0,0,0,0,99,39,81,108
716,1000,724,1010,€,O,0,0,0,0,0,1,0,0,0,1,0,0,0,118,82,-1
842,1000,850,1010,2,TOTAL,1,0,0,0,1,0,0,1,1,0,0,0,99,6,83,111
856,1000,904,1012,"340,00",TOTAL,1,0,0,0,0,0,0,1,1,0,0,0,97,0,-1,111
108,1074,139,1085,TVA,O,0,0,0,1,0,0,1,1,0,0,0,0,7,5,85,87
144,1077,166,1085,sur,O,0,0,0,0,0,0,1,1,0,0,0,0,7,5,86,87
171,1075,278,1085,encaissements,O,0,0,0,0,0,0,1,1,0,0,0,0,7,0,-1,89
109,1092,162,1103,Facture,O,0,0,1,0,0,0,1,1,0,0,0,0,6,6,88,97
168,1095,198,1103,sera,O,0,0,0,0,0,0,1,1,0,0,0,0,9,6,89,98
204,1092,259,1105,payable,O,0,0,0,0,0,0,1,1,0,0,0,0,4,5,90,99
264,1092,272,1103,à,O,0,0,0,0,0,0,1,0,0,0,0,0,6,6,91,100
278,1092,343,1105,réception,O,0,0,0,0,0,0,1,0,0,0,0,0,4,6,92,101
349,1095,371,1105,par,O,0,0,0,0,0,0,1,1,0,0,0,0,5,7,93,102
378,1092,425,1105,chèque,O,0,0,0,0,0,0,1,0,0,0,0,0,4,9,94,103
434,1095,450,1103,ou,O,0,0,0,0,0,0,1,1,0,0,0,0,6,6,95,103
456,1093,517,1103,virement,O,0,0,0,0,0,0,1,1,0,0,0,0,9,6,96,104
523,1092,583,1103,bancaire,O,0,0,0,0,0,0,1,1,0,0,0,0,6,0,-1,105
109,1109,174,1120,Pénalités,O,0,0,1,0,0,0,1,0,0,0,0,0,8,6,98,112
180,1112,211,1123,pour,O,0,0,0,0,0,0,1,1,0,0,0,0,5,5,99,113
216,1109,257,1120,retard,O,0,0,0,0,0,0,1,1,0,0,0,0,8,6,100,115
263,1109,279,1120,de,O,0,0,0,0,0,0,1,1,0,0,0,0,9,6,101,117
285,1109,351,1123,paiement,O,0,0,0,0,0,0,1,1,0,0,0,0,5,5,102,118
356,1110,400,1120,seront,O,0,0,0,0,0,0,1,1,0,0,0,0,8,5,103,119
405,1109,471,1123,"exigibles,",O,0,0,0,0,0,0,0,1,0,0,0,0,5,6,104,120
477,1112,510,1120,sans,O,0,0,0,0,0,0,1,1,0,0,0,0,8,5,105,122
515,1109,588,1123,qu'aucune,O,0,0,0,0,0,0,0,1,0,0,0,0,5,6,106,122
594,1112,627,1120,mise,O,0,0,0,0,0,0,1,1,0,0,0,0,9,5,107,124
632,1112,649,1120,en,O,0,0,0,0,0,0,1,1,0,0,0,0,9,6,108,124
655,1109,717,1120,demeure,O,0,0,0,0,0,0,1,1,0,0,0,0,8,6,109,125
723,1112,740,1120,ne,O,0,0,0,0,0,0,1,1,0,0,0,0,8,5,110,127
745,1110,770,1120,soit,O,0,0,0,0,0,0,1,1,0,0,0,0,8,5,111,128
775,1109,883,1122,"nécessaire,une",O,0,0,0,0,0,0,0,0,0,0,0,0,6,0,-1,128
109,1128,177,1139,indemnité,O,0,0,0,0,0,0,1,0,0,0,0,0,8,6,113,132
183,1128,200,1139,de,O,0,0,0,0,0,0,1,1,0,0,0,0,43,6,114,135
206,1128,213,1139,3,O,1,0,0,0,1,0,0,1,1,0,0,0,43,5,115,135
218,1128,243,1139,fois,O,0,0,0,0,0,0,1,1,0,0,0,0,40,6,116,136
249,1128,260,1139,le,O,0,0,0,0,0,0,1,1,0,0,0,0,40,5,117,136
265,1129,295,1139,taux,O,0,0,0,0,0,0,1,1,0,0,0,0,40,5,118,136
300,1128,356,1139,d'intérêt,O,0,0,0,0,0,0,0,0,0,0,0,0,59,6,119,141
362,1128,394,1141,légal,O,0,0,0,0,0,0,1,0,0,0,0,0,57,6,120,141
400,1128,432,1139,ainsi,O,0,0,0,0,0,0,1,1,0,0,0,0,59,6,121,142
438,1128,485,1141,qu'une,O,0,0,0,0,0,0,0,1,0,0,0,0,57,6,122,142
491,1128,559,1139,indemnité,O,0,0,0,0,0,0,1,0,0,0,0,0,59,5,123,143
564,1128,581,1139,de,O,0,0,0,0,0,0,1,1,0,0,0,0,0,6,124,-1
587,1129,685,1139,recouvrement,O,0,0,0,0,0,0,1,1,0,0,0,0,0,5,125,-1
690,1128,707,1139,de,O,0,0,0,0,0,0,1,1,0,0,0,0,0,5,126,-1
712,1128,729,1139,40,O,1,0,0,0,1,0,0,1,1,0,0,0,0,5,127,-1
734,1128,743,1139,€,O,0,0,0,0,0,1,0,0,0,1,0,0,0,6,128,-1
749,1128,802,1141,(C.Com,O,0,0,1,0,0,0,0,1,0,0,0,0,0,6,129,-1
808,1128,826,1139,art,O,0,0,0,0,0,0,1,1,0,0,0,0,0,6,130,-1
832,1128,885,1140,"L441-6,",O,0,0,1,1,0,0,0,1,1,0,0,0,0,7,131,-1
892,1128,893,1138,|,O,0,0,0,0,0,0,0,1,0,0,0,0,0,0,-1,-1
108,1147,119,1157,al,O,0,0,0,0,0,0,1,1,0,0,0,0,22,8,133,134
127,1147,151,1157,12).,O,0,0,0,0,0,0,0,1,1,0,0,0,22,0,-1,134
109,1179,186,1193,Règlement,O,0,0,1,0,0,0,1,0,0,0,0,0,5,5,135,137
191,1182,214,1193,par,O,0,0,0,0,0,0,1,1,0,0,0,0,5,5,136,138
219,1179,283,1190,virement:,O,0,0,0,0,0,0,0,1,0,0,0,0,8,0,-1,139
109,1198,163,1211,Banque:,O,0,0,1,0,0,0,0,1,0,0,0,0,5,10,138,144
173,1198,227,1211,Banque,O,0,0,1,0,0,0,1,1,0,0,0,0,5,7,139,146
234,1198,308,1211,Populaires,O,0,0,1,0,0,0,1,1,0,0,0,0,5,6,140,146
314,1204,318,1205,-,O,0,1,0,0,0,0,0,1,0,0,0,0,11,10,141,146
328,1198,382,1211,Agence:,O,0,0,1,0,0,0,0,1,0,0,0,0,24,10,142,152
392,1198,460,1208,BPRIVES,O,0,0,0,1,0,0,1,1,0,0,0,0,27,6,143,154
466,1198,531,1209,SCEAUX,O,0,0,0,1,0,0,1,1,0,0,0,0,0,0,-1,-1
109,1216,143,1227,Swift,O,0,0,1,0,0,0,1,1,0,0,0,0,8,5,145,147
148,1216,189,1227,Code:,O,0,0,1,0,0,0,0,1,0,0,0,0,8,6,146,148
195,1216,318,1227,CCBPFRPPMTG,O,0,0,0,1,0,0,1,1,0,0,0,0,8,0,-1,149
109,1235,149,1246,IBAN:,O,0,0,0,1,0,0,0,1,0,0,0,0,8,7,148,155
156,1235,193,1246,FR76,O,0,0,0,1,0,0,0,1,1,0,0,0,8,7,149,155
200,1235,234,1246,1020,O,1,0,0,0,1,0,0,1,1,0,0,0,8,5,150,156
239,1235,274,1246,7000,O,1,0,0,0,1,0,0,1,1,0,0,0,8,6,151,157
280,1235,314,1246,7122,O,1,0,0,0,1,0,0,1,1,0,0,0,8,6,152,157
320,1235,355,1246,2127,O,1,0,0,0,1,0,0,1,1,0,0,0,0,6,153,-1
361,1235,395,1246,5189,O,1,0,0,0,1,0,0,1,1,0,0,0,110,6,154,163
401,1235,426,1246,906,O,1,0,0,0,1,0,0,1,1,0,0,0,118,0,-1,165
109,1254,192,1264,Bénéficiaire:,O,0,0,1,0,0,0,0,0,0,0,0,0,0,10,156,-1
202,1254,223,1264,DS,O,0,0,0,1,0,0,1,1,0,0,0,0,0,6,157,-1
229,1254,320,1264,Recrutement,O,0,0,1,0,0,0,1,1,0,0,0,0,100,0,-1,158
215,1364,247,1375,SAS,O,0,0,0,1,0,0,1,1,0,0,0,0,0,5,159,-1
252,1367,269,1375,au,O,0,0,0,0,0,0,1,1,0,0,0,0,0,5,160,-1
274,1365,321,1378,capital,O,0,0,0,0,0,0,1,1,0,0,0,0,0,4,161,-1
325,1365,342,1375,de,O,0,0,0,0,0,0,1,1,0,0,0,0,0,6,162,-1
348,1365,374,1375,500,O,1,0,0,0,1,0,0,1,1,0,0,0,8,5,163,175
379,1356,384,1384,€,O,0,0,0,0,0,1,0,0,0,1,0,0,-1,9,164,176
393,1370,397,1372,-,O,0,1,0,0,0,0,0,1,0,0,0,0,11,6,165,176
403,1364,443,1378,Siège,O,0,0,1,0,0,0,1,0,0,0,0,0,5,5,166,177
448,1364,496,1375,Social:,O,0,0,1,0,0,0,0,1,0,0,0,0,8,7,167,178
503,1365,512,1377,"1,",O,1,0,0,0,0,0,0,1,1,0,0,0,6,7,168,179
519,1367,541,1375,rue,O,0,0,0,0,0,0,1,1,0,0,0,0,8,6,169,179
547,1365,564,1375,de,O,0,0,0,0,0,0,1,1,0,0,0,0,8,5,170,181
569,1365,581,1375,la,O,0,0,0,0,0,0,1,1,0,0,0,0,8,5,171,181
586,1365,640,1375,Baneza,O,0,0,1,0,0,0,1,1,0,0,0,0,8,5,172,182
645,1370,650,1372,-,O,0,1,0,0,0,0,0,1,0,0,0,0,11,6,173,183
656,1365,700,1375,92230,O,1,0,0,0,1,0,0,1,1,0,0,0,8,5,174,183
705,1364,797,1375,Gennevilliers,O,0,0,1,0,0,0,1,1,0,0,0,0,0,0,-1,-1
340,1383,366,1394,838,O,1,0,0,0,1,0,0,1,1,0,0,0,0,5,176,-1
371,1383,397,1394,409,O,1,0,0,0,1,0,0,1,1,0,0,0,0,5,177,-1
402,1383,428,1394,308,O,1,0,0,0,1,0,0,1,1,0,0,0,0,5,178,-1
433,1383,467,1394,RCS,O,0,0,0,1,0,0,1,1,0,0,0,0,0,5,179,-1
472,1383,534,1394,Nanterre,O,0,0,1,0,0,0,1,1,0,0,0,0,0,5,180,-1
539,1389,544,1391,-,O,0,1,0,0,0,0,0,1,0,0,0,0,0,5,181,-1
549,1383,586,1394,Code,O,0,0,1,0,0,0,1,1,0,0,0,0,0,5,182,-1
591,1383,628,1394,APE:,O,0,0,0,1,0,0,0,1,0,0,0,0,0,7,183,-1
635,1383,679,1394,7022Z,O,0,0,1,1,0,0,0,1,1,0,0,0,0,0,-1,-1
