xmin,ymin,xmax,ymax,Object,label,like_num,is_punct,is_title,is_upper,is_digit,is_currency,is_alpha,is_ascii,hasNumbers,hascurrency,like_email,like_url,dh,dv,v_hor,v_vert
197,81,312,110,bleau,LOGO,0,0,0,0,0,0,1,1,0,0,0,0,44,0,-1,7
312,121,362,158,Remit,O,0,0,1,0,0,0,1,1,0,0,0,0,-4,5,2,9
367,121,393,158,via,O,0,0,0,0,0,0,1,1,0,0,0,0,-4,8,3,9
401,121,470,158,ACHWWIRE,O,0,0,0,1,0,0,1,1,0,0,0,0,25,5,4,17
475,121,507,158,with,O,0,0,0,0,0,0,1,1,0,0,0,0,81,353,5,36
860,125,1127,146,tH,O,0,0,0,0,0,0,1,1,0,0,0,0,8,0,-1,13
75,154,135,168,Tableau,O,0,0,1,0,0,0,1,1,0,0,0,0,15,7,7,14
142,154,242,170,"International,",O,0,0,1,0,0,0,0,1,0,0,0,0,41,7,8,24
249,154,277,168,U.C.,O,0,0,1,1,0,0,0,1,0,0,0,0,128,41,9,50
318,154,393,171,Currency:,O,0,0,1,0,0,0,0,1,0,0,0,0,12,197,10,16
590,154,613,168,US,O,0,0,0,1,0,0,1,1,0,0,0,0,15,7,11,18
620,154,665,168,Dollar,O,0,0,1,0,0,0,1,1,0,0,0,0,15,6,12,19
671,154,719,171,(USD),O,0,0,0,1,0,0,0,1,0,0,0,0,12,143,13,20
862,154,957,168,7200461751,NUMBER,1,0,0,0,1,0,0,1,1,0,0,0,11,0,-1,22
75,183,104,196,The,COMPANY_ADDRESS,0,0,1,0,0,0,1,1,0,0,0,0,15,6,15,23
110,183,145,196,Oval,COMPANY_ADDRESS,0,0,1,0,0,0,1,1,0,0,0,0,15,173,16,23
318,183,405,200,Beneficiary,O,0,0,1,0,0,0,1,1,0,0,0,0,11,6,17,25
411,183,454,196,Bank:,O,0,0,1,0,0,0,0,1,0,0,0,0,15,137,18,26
591,183,638,196,HSBC,O,0,0,0,1,0,0,1,1,0,0,0,0,15,6,19,27
644,183,684,196,Bank,O,0,0,1,0,0,0,1,1,0,0,0,0,15,5,20,28
689,183,711,199,plc,O,0,0,0,0,0,0,1,1,0,0,0,0,12,6,21,28
717,183,765,196,Dublin,O,0,0,1,0,0,0,1,1,0,0,0,0,15,95,22,28
860,179,1127,203,Es,O,0,0,1,0,0,0,1,1,0,0,0,0,8,0,-1,30
75,211,165,224,Shelbourne,COMPANY_ADDRESS,0,0,1,0,0,0,1,1,0,0,0,0,15,6,24,32
171,211,211,224,Road,COMPANY_ADDRESS,0,0,1,0,0,0,1,1,0,0,0,0,15,107,25,33
318,211,405,227,Beneficiary,O,0,0,1,0,0,0,1,1,0,0,0,0,12,6,26,35
411,211,461,224,Name:,O,0,0,1,0,0,0,0,1,0,0,0,0,15,128,27,35
589,211,650,224,Tableau,O,0,0,1,0,0,0,1,1,0,0,0,0,15,7,28,31
657,211,757,226,"International,",O,0,0,1,0,0,0,0,1,0,0,0,0,13,7,29,31
764,211,796,224,U.C.,O,0,0,1,1,0,0,0,1,0,0,0,0,15,66,30,31
862,211,962,224,29-Mar-2019,DATE,0,0,1,0,0,0,0,1,1,0,0,0,11,0,-1,38
591,239,812,252,IE69HSBC99023135621846,O,0,0,0,1,0,0,0,1,1,0,0,0,15,48,38,44
75,239,165,255,"Ballsbridge,",COMPANY_ADDRESS,0,0,1,0,0,0,0,1,0,0,0,0,12,8,33,39
173,239,220,252,Dublin,COMPANY_ADDRESS,0,0,1,0,0,0,1,1,0,0,0,0,44,6,34,49
226,239,235,252,4,COMPANY_ADDRESS,1,0,0,0,1,0,0,1,1,0,0,0,44,84,35,50
319,239,451,255,IBAN/Beneficiary,O,0,0,0,0,0,0,0,1,0,0,0,0,12,5,36,40
456,239,520,252,Account,O,0,0,1,0,0,0,1,1,0,0,0,0,15,6,37,41
526,239,560,255,(59):,O,0,0,0,0,0,0,0,1,1,0,0,0,12,31,31,43
860,235,1127,259,Es,O,0,0,1,0,0,0,1,1,0,0,0,0,7,0,-1,46
76,267,127,280,Ireland,COMPANY_ADDRESS,0,0,1,0,0,0,1,1,0,0,0,0,16,191,40,47
318,267,433,283,Correspondent,O,0,0,1,0,0,0,1,1,0,0,0,0,107,4,41,58
437,267,475,280,Bank,O,0,0,1,0,0,0,1,1,0,0,0,0,110,4,42,59
479,267,533,280,SWIFT,O,0,0,0,1,0,0,1,1,0,0,0,0,214,4,43,77
537,267,581,283,(54a):,O,0,0,0,0,0,0,0,1,1,0,0,0,211,10,44,77
591,267,677,280,HSBCIE2D,O,0,0,0,1,0,0,0,1,1,0,0,0,214,185,45,78
862,267,898,280,USD,O,0,0,0,1,0,0,1,1,0,0,0,0,7,6,46,51
904,266,981,282,"$1,400.00",O,0,0,0,0,0,0,0,1,1,1,0,0,5,0,-1,52
75,296,129,309,Phone:,O,0,0,1,0,0,0,0,1,0,0,0,0,15,6,48,54
135,296,174,309,+353,O,1,0,0,0,0,0,0,1,1,0,0,0,14,6,49,56
180,296,200,312,(1),O,0,0,0,0,0,0,0,1,1,0,0,0,11,6,50,56
206,296,274,309,2325100,O,1,0,0,0,1,0,0,1,1,0,0,0,14,582,51,56
856,287,891,328,Due,O,0,0,1,0,0,0,1,1,0,0,0,0,-37,-31,53,53
897,287,942,328,Dee,O,0,0,1,0,0,0,1,1,0,0,0,0,-37,0,-1,53
860,291,1127,315,NN,O,0,0,0,1,0,0,1,1,0,0,0,0,9,-230,52,57
74,324,105,336,VAT,O,0,0,0,1,0,0,1,1,0,0,0,0,278,6,55,90
111,324,132,336,ID:,O,0,0,0,1,0,0,0,1,0,0,0,0,278,6,56,90
138,323,235,337,1298520040,O,1,0,0,0,1,0,0,1,1,0,0,0,277,627,57,91
862,324,959,340,28-Apr-2019,O,0,0,1,0,0,0,0,1,1,0,0,0,50,0,-1,60
341,390,400,403,Romain,O,0,0,1,0,0,0,1,1,0,0,0,0,8,6,59,62
406,390,471,403,Guerrier,O,0,0,1,0,0,0,1,1,0,0,0,0,28,398,60,66
869,390,960,403,Mohammed,O,0,0,1,0,0,0,1,1,0,0,0,0,8,7,61,63
967,390,1073,403,LEMRABOTT,O,0,0,0,1,0,0,1,1,0,0,0,0,91,0,-1,79
340,411,380,424,ADBI,CLIENT_NAME,0,0,0,1,0,0,1,1,0,0,0,0,7,488,63,64
868,411,908,424,ADBI,CLIENT_NAME,0,0,0,1,0,0,1,1,0,0,0,0,7,0,-1,67
340,431,349,444,8,CLIENT_ADDRESS,1,0,0,0,1,0,0,1,1,0,0,0,8,6,65,70
355,431,386,444,Rue,CLIENT_ADDRESS,0,0,1,0,0,0,1,1,0,0,0,0,8,7,66,70
393,431,449,444,Rossini,CLIENT_ADDRESS,0,0,1,0,0,0,1,1,0,0,0,0,8,419,67,71
868,431,878,444,8,CLIENT_ADDRESS,1,0,0,0,1,0,0,1,1,0,0,0,8,6,68,72
884,431,915,444,Rue,CLIENT_ADDRESS,0,0,1,0,0,0,1,1,0,0,0,0,8,6,69,72
921,431,977,444,Rossini,CLIENT_ADDRESS,0,0,1,0,0,0,1,1,0,0,0,0,8,0,-1,73
341,452,379,465,Paris,CLIENT_ADDRESS,0,0,1,0,0,0,1,1,0,0,0,0,7,6,71,74
385,452,433,465,75009,CLIENT_ADDRESS,1,0,0,0,1,0,0,1,1,0,0,0,29,436,72,76
869,452,911,467,"Paris,",CLIENT_ADDRESS,0,0,1,0,0,0,0,1,0,0,0,0,5,7,73,75
918,452,966,465,75009,CLIENT_ADDRESS,1,0,0,0,1,0,0,1,1,0,0,0,29,0,-1,79
341,472,393,485,France,CLIENT_ADDRESS,0,0,1,0,0,0,1,1,0,0,0,0,9,476,75,76
869,472,891,485,FR,CLIENT_ADDRESS,0,0,0,1,0,0,1,1,0,0,0,0,9,0,-1,79
244,494,406,532,PaymentTerms,O,0,0,0,0,0,0,1,1,0,0,0,0,-4,43,77,81
449,494,558,532,Order#,O,0,0,1,0,0,0,0,1,0,0,0,0,-4,75,78,83
633,494,773,532,Quote#,O,0,0,1,0,0,0,0,1,0,0,0,0,-4,69,79,85
842,494,1049,532,CustomerVATD,O,0,0,0,0,0,0,1,1,0,0,0,0,-4,0,-1,87
76,528,176,541,PAF4239326,O,0,0,0,1,0,0,0,1,1,0,0,0,73,112,81,90
288,528,314,541,Net,O,0,0,1,0,0,0,1,1,0,0,0,0,73,6,82,92
320,528,338,541,30,O,1,0,0,0,1,0,0,1,1,0,0,0,73,161,83,92
499,528,542,541,Sales,O,0,0,1,0,0,0,1,1,0,0,0,0,73,6,84,94
548,528,593,541,Order,O,0,0,1,0,0,0,1,1,0,0,0,0,73,4,85,95
597,528,675,541,#4239326,O,0,0,0,0,0,0,0,1,1,0,0,0,107,35,86,108
710,528,834,542,Q1903-1517961,O,0,0,1,1,0,0,0,1,1,0,0,0,72,88,87,97
922,528,944,541,FR,O,0,0,0,1,0,0,1,1,0,0,0,0,73,6,88,98
950,528,969,541,27,O,1,0,0,0,1,0,0,1,1,0,0,0,73,5,89,98
974,528,1062,541,805321650,O,1,0,0,0,1,0,0,1,1,0,0,0,73,0,-1,99
70,614,138,651,Product,O,0,0,1,0,0,0,1,1,0,0,0,0,-3,6,91,101
144,614,222,651,Gode,O,0,0,1,0,0,0,1,1,0,0,0,0,-3,51,92,101
273,614,382,651,ProductName,O,0,0,0,0,0,0,1,1,0,0,0,0,-3,11,93,102
393,614,434,651,=,O,0,0,0,0,0,0,0,1,0,0,0,0,-3,36,94,104
470,614,527,651,Period,O,0,0,1,0,0,0,1,1,0,0,0,0,-3,8,95,106
535,614,601,651,«=,O,0,0,0,0,0,0,0,0,0,0,0,0,-3,70,96,108
671,614,718,651,"ty,",O,0,0,0,0,0,0,0,1,0,0,0,0,-3,18,97,109
736,614,820,651,UnitPrice,O,0,0,0,0,0,0,1,1,0,0,0,0,-4,11,98,111
831,614,974,651,=Total,O,0,0,1,0,0,0,0,1,0,0,0,0,-4,2,99,112
976,614,1020,651,Price,O,0,0,1,0,0,0,1,1,0,0,0,0,-4,58,100,112
1078,618,1126,639,|,O,0,0,0,0,0,0,0,1,0,0,0,0,75,0,-1,119
77,648,188,661,1049707.1806,O,1,0,0,0,0,0,0,1,1,0,0,0,0,85,102,-1
273,648,333,665,Training,O,0,0,1,0,0,0,1,1,0,0,0,0,4,6,103,113
339,655,345,657,-,O,0,1,0,0,0,0,0,1,0,0,0,0,11,6,104,114
351,648,414,664,Desktop,O,0,0,1,0,0,0,1,1,0,0,0,0,5,6,105,115
420,648,431,661,&,O,0,1,0,0,0,0,0,1,0,0,0,0,8,39,106,115
470,648,558,661,22-Mar-2019,O,0,0,1,0,0,0,0,1,1,0,0,0,8,18,107,116
576,655,581,657,-,O,0,1,0,0,0,0,0,1,0,0,0,0,0,6,108,-1
587,648,612,661,21-,O,0,0,0,0,0,0,0,1,1,0,0,0,0,57,109,-1
669,648,674,661,1,O,1,0,0,0,1,0,0,1,1,0,0,0,0,65,110,-1
739,648,775,661,USD,O,0,0,0,1,0,0,1,1,0,0,0,0,0,5,111,-1
780,647,858,663,"$1,400.00",O,0,0,0,0,0,0,0,1,1,1,0,0,0,77,112,-1
935,647,1013,663,"$1,400.00",TOTAL,0,0,0,0,0,0,0,1,1,1,0,0,0,0,-1,-1
274,669,314,685,Prep:,O,0,0,1,0,0,0,0,1,0,0,0,0,0,5,114,-1
319,668,361,685,Open,O,0,0,1,0,0,0,1,1,0,0,0,0,0,7,115,-1
368,669,460,685,Registration,O,0,0,1,0,0,0,1,1,0,0,0,0,0,11,116,-1
471,669,545,682,Mar-2020,O,0,0,1,0,0,0,0,1,1,0,0,0,0,0,-1,-1
873,715,942,728,Subtotal,O,0,0,1,0,0,0,1,1,0,0,0,0,20,58,118,120
1000,715,1036,728,USD,O,0,0,0,1,0,0,1,1,0,0,0,0,52,6,119,124
1042,714,1119,730,"$1,400.00",O,0,0,0,0,0,0,0,1,1,1,0,0,17,0,-1,122
914,748,943,761,Tax,O,0,0,1,0,0,0,1,1,0,0,0,0,19,91,121,123
1034,748,1070,761,USD,O,0,0,0,1,0,0,1,1,0,0,0,0,19,6,122,125
1076,747,1119,762,$0.00,O,0,0,0,0,0,0,0,1,1,1,0,0,18,0,-1,125
903,780,942,793,Total,O,0,0,1,0,0,0,1,1,0,0,0,0,19,58,124,127
1000,780,1036,793,USD,O,0,0,0,1,0,0,1,1,0,0,0,0,52,6,125,132
1042,780,1119,795,"$1,400.00",TOTAL,0,0,0,0,0,0,0,1,1,1,0,0,16,0,-1,129
835,812,902,825,Amount,O,0,0,1,0,0,0,1,1,0,0,0,0,20,5,127,130
907,812,943,825,Paid,O,0,0,1,0,0,0,1,1,0,0,0,0,20,91,128,131
1034,812,1070,825,USD,O,0,0,0,1,0,0,1,1,0,0,0,0,19,6,129,133
1076,811,1119,827,$0.00,O,0,0,0,0,0,0,0,1,1,1,0,0,17,0,-1,133
838,845,905,858,Amount,O,0,0,1,0,0,0,1,1,0,0,0,0,126,6,131,157
911,845,943,858,Due,O,0,0,1,0,0,0,1,1,0,0,0,0,126,57,132,158
1000,845,1036,858,USD,O,0,0,0,1,0,0,1,1,0,0,0,0,126,6,133,160
1042,844,1119,860,"$1,400.00",O,0,0,0,0,0,0,0,1,1,1,0,0,124,0,-1,162
80,909,98,922,To,O,0,0,1,0,0,0,1,1,0,0,0,0,62,6,135,142
104,912,131,925,pay,O,0,0,0,0,0,0,1,1,0,0,0,0,59,6,136,142
137,909,154,925,by,O,0,0,0,0,0,0,1,1,0,0,0,0,62,6,137,143
160,909,203,922,credit,O,0,0,0,0,0,0,1,1,0,0,0,0,62,5,138,144
208,909,245,924,"card,",O,0,0,0,0,0,0,0,1,0,0,0,0,63,7,139,145
252,909,303,925,please,O,0,0,0,0,0,0,1,1,0,0,0,0,59,6,140,146
309,909,365,922,contact,O,0,0,0,0,0,0,1,1,0,0,0,0,62,5,141,147
370,908,499,925,ar@tableau.com,O,0,0,0,0,0,0,0,1,0,0,1,0,59,0,-1,148
81,984,134,997,Unless,O,0,0,1,0,0,0,1,1,0,0,0,0,7,6,143,164
140,987,167,1000,you,O,0,0,0,0,0,0,1,1,0,0,0,0,4,7,144,165
174,984,211,997,have,O,0,0,0,0,0,0,1,1,0,0,0,0,7,6,145,165
217,987,226,997,a,O,0,0,0,0,0,0,1,1,0,0,0,0,7,7,146,166
233,984,284,1000,signed,O,0,0,0,0,0,0,1,1,0,0,0,0,4,7,147,166
291,984,375,1000,agreement,O,0,0,0,0,0,0,1,1,0,0,0,0,4,5,148,168
380,984,412,997,with,O,0,0,0,0,0,0,1,1,0,0,0,0,7,5,149,168
417,984,478,997,Tableau,O,0,0,1,0,0,0,1,1,0,0,0,0,7,7,150,168
485,984,561,1000,governing,O,0,0,0,0,0,0,1,1,0,0,0,0,45,7,151,178
568,987,602,1000,your,O,0,0,0,0,0,0,1,1,0,0,0,0,45,6,152,180
608,987,636,997,use,O,0,0,0,0,0,0,1,1,0,0,0,0,48,6,153,180
642,983,657,997,of,O,0,0,0,0,0,0,1,1,0,0,0,0,51,6,154,181
663,983,732,997,Software,O,0,0,1,0,0,0,1,1,0,0,0,0,48,6,155,182
738,984,767,997,and,O,0,0,0,0,0,0,1,1,0,0,0,0,44,6,156,183
773,983,845,999,"Services,",O,0,0,1,0,0,0,0,1,0,0,0,0,46,7,157,184
852,984,869,997,all,O,0,0,0,0,0,0,1,1,0,0,0,0,48,7,158,186
876,984,926,997,orders,O,0,0,0,0,0,0,1,1,0,0,0,0,48,6,159,186
932,987,957,997,are,O,0,0,0,0,0,0,1,1,0,0,0,0,89,6,160,202
963,984,1019,1000,subject,O,0,0,0,0,0,0,1,1,0,0,0,0,86,6,161,203
1025,984,1039,997,to,O,0,0,0,0,0,0,1,1,0,0,0,0,89,6,162,204
1045,984,1069,997,the,O,0,0,0,0,0,0,1,1,0,0,0,0,89,6,163,204
1075,984,1120,997,terms,O,0,0,0,0,0,0,1,1,0,0,0,0,89,0,-1,205
80,1004,108,1017,and,O,0,0,0,0,0,0,1,1,0,0,0,0,28,7,165,169
115,1004,193,1017,conditions,O,0,0,0,0,0,0,1,1,0,0,0,0,28,6,166,170
199,1004,259,1017,outlined,O,0,0,0,0,0,0,1,1,0,0,0,0,28,7,167,171
266,1005,280,1017,at,O,0,0,0,0,0,0,1,1,0,0,0,0,69,6,168,190
286,1004,476,1020,https://tableau.com/eula.,O,0,0,0,0,0,0,0,1,0,0,0,1,25,0,-1,173
80,1045,99,1058,All,O,0,0,1,0,0,0,1,1,0,0,0,0,28,5,170,187
104,1045,190,1058,transaction,O,0,0,0,0,0,0,1,1,0,0,0,0,31,5,171,188
195,1045,228,1058,fees,O,0,0,0,0,0,0,1,1,0,0,0,0,28,6,172,189
234,1046,271,1058,must,O,0,0,0,0,0,0,1,1,0,0,0,0,28,6,173,190
277,1045,295,1058,be,O,0,0,0,0,0,0,1,1,0,0,0,0,28,6,174,190
301,1045,362,1058,covered,O,0,0,0,0,0,0,1,1,0,0,0,0,28,6,175,190
368,1045,386,1061,by,O,0,0,0,0,0,0,1,1,0,0,0,0,25,5,176,191
391,1045,445,1058,sender,O,0,0,0,0,0,0,1,1,0,0,0,0,29,5,177,192
450,1045,478,1058,and,O,0,0,0,0,0,0,1,1,0,0,0,0,28,7,178,193
485,1045,535,1058,should,O,0,0,0,0,0,0,1,1,0,0,0,0,28,7,179,194
542,1045,560,1058,be,O,0,0,0,0,0,0,1,1,0,0,0,0,28,6,180,194
566,1045,634,1061,specified,O,0,0,0,0,0,0,1,1,0,0,0,0,25,7,181,195
641,1048,679,1061,upon,O,0,0,0,0,0,0,1,1,0,0,0,0,25,6,182,196
685,1045,748,1058,initiation,O,0,0,0,0,0,0,1,1,0,0,0,0,28,6,183,198
754,1041,768,1065,of,O,0,0,0,0,0,0,1,1,0,0,0,0,21,8,184,199
776,1045,796,1058,the,O,0,0,0,0,0,0,1,1,0,0,0,0,28,7,185,199
803,1045,835,1058,wire,O,0,0,0,0,0,0,1,1,0,0,0,0,28,5,186,200
840,1045,902,1058,transfer.,O,0,0,0,0,0,0,0,1,0,0,0,0,28,0,-1,201
80,1086,110,1099,The,O,0,0,1,0,0,0,1,1,0,0,0,0,7,8,188,206
118,1089,176,1099,reverse,O,0,0,0,0,0,0,1,1,0,0,0,0,7,8,189,206
184,1086,238,1102,charge,O,0,0,0,0,0,0,1,1,0,0,0,0,4,8,190,209
246,1086,336,1099,mechanism,O,0,0,0,0,0,0,1,1,0,0,0,0,7,8,191,209
344,1086,401,1102,applies,O,0,0,0,0,0,0,1,1,0,0,0,0,45,7,192,214
408,1087,423,1099,to,O,0,0,0,0,0,0,1,1,0,0,0,0,48,8,193,214
431,1086,500,1099,business,O,0,0,0,0,0,0,1,1,0,0,0,0,44,8,194,215
508,1086,590,1099,customers,O,0,0,0,0,0,0,1,1,0,0,0,0,48,8,195,216
598,1086,655,1099,located,O,0,0,0,0,0,0,1,1,0,0,0,0,49,8,196,218
663,1086,676,1099,in,O,0,0,0,0,0,0,1,1,0,0,0,0,48,8,197,219
684,1089,702,1099,an,O,0,0,0,0,0,0,1,1,0,0,0,0,48,9,198,219
711,1086,734,1099,EU,O,0,0,0,1,0,0,1,1,0,0,0,0,48,8,199,219
742,1086,808,1099,member,O,0,0,0,0,0,0,1,1,0,0,0,0,48,7,200,220
815,1086,856,1099,State,O,0,0,1,0,0,0,1,1,0,0,0,0,48,7,201,222
863,1086,904,1099,other,O,0,0,0,0,0,0,1,1,0,0,0,0,48,7,202,223
911,1086,945,1099,than,O,0,0,0,0,0,0,1,1,0,0,0,0,48,9,203,224
954,1086,1012,1099,Ireland.,O,0,0,1,0,0,0,0,1,0,0,0,0,0,8,204,-1
1020,1086,1057,1099,Final,O,0,0,1,0,0,0,1,1,0,0,0,0,0,9,205,-1
1066,1086,1120,1099,invoice,O,0,0,0,0,0,0,1,1,0,0,0,0,0,0,-1,-1
81,1106,144,1119,includes,O,0,0,0,0,0,0,1,1,0,0,0,0,28,5,207,210
149,1106,181,1121,"VAT,",O,0,0,0,1,0,0,0,1,0,0,0,0,26,7,208,211
188,1110,205,1119,as,O,0,0,0,0,0,0,1,1,0,0,0,0,28,6,209,211
211,1106,304,1123,appropriate.,O,0,0,0,0,0,0,0,1,0,0,0,0,24,0,-1,212
80,1147,120,1160,Send,O,0,0,1,0,0,0,1,1,0,0,0,0,28,7,211,225
127,1147,208,1160,remittance,O,0,0,0,0,0,0,1,1,0,0,0,0,28,6,212,227
214,1147,300,1160,information,O,0,0,0,0,0,0,1,1,0,0,0,0,28,5,213,229
305,1148,320,1160,to,O,0,0,0,0,0,0,1,1,0,0,0,0,0,5,214,-1
325,1147,495,1164,ar@tableau.com.,O,0,0,0,0,0,0,0,1,0,0,1,0,0,-34,215,-1
461,1143,493,1168,This,O,0,0,1,0,0,0,1,1,0,0,0,0,-21,8,216,214
501,1147,554,1160,invoice,O,0,0,0,0,0,0,1,1,0,0,0,0,0,6,217,-1
560,1147,572,1160,is,O,0,0,0,0,0,0,1,1,0,0,0,0,0,6,218,-1
578,1148,651,1163,computer,O,0,0,0,0,0,0,1,1,0,0,0,0,0,5,219,-1
656,1147,734,1164,generated,O,0,0,0,0,0,0,1,1,0,0,0,0,0,6,220,-1
740,1147,768,1160,and,O,0,0,0,0,0,0,1,1,0,0,0,0,0,7,221,-1
775,1150,794,1160,no,O,0,0,0,0,0,0,1,1,0,0,0,0,0,5,222,-1
799,1147,871,1164,signature,O,0,0,0,0,0,0,1,1,0,0,0,0,0,6,223,-1
877,1147,888,1160,is,O,0,0,0,0,0,0,1,1,0,0,0,0,0,7,224,-1
895,1147,962,1163,required.,O,0,0,0,0,0,0,0,1,0,0,0,0,0,0,-1,-1
80,1188,129,1201,Thank,O,0,0,1,0,0,0,1,1,0,0,0,0,0,5,226,-1
134,1191,161,1205,you,O,0,0,0,0,0,0,1,1,0,0,0,0,0,6,227,-1
167,1188,187,1201,for,O,0,0,0,0,0,0,1,1,0,0,0,0,0,5,228,-1
192,1191,226,1205,your,O,0,0,0,0,0,0,1,1,0,0,0,0,0,5,229,-1
231,1188,304,1201,business!,O,0,0,0,0,0,0,0,1,0,0,0,0,0,0,-1,-1
