xmin,ymin,xmax,ymax,Object,label,like_num,is_punct,is_title,is_upper,is_digit,is_currency,is_alpha,is_ascii,hasNumbers,hascurrency,like_email,like_url,dh,dv,v_hor,v_vert
80,87,101,137,/,LOGO,0,1,0,0,0,0,0,1,0,0,0,0,12,17,1,2
118,94,253,123,ree,LOGO,0,0,0,0,0,0,1,1,0,0,0,0,26,0,-1,3
82,149,117,161,Free,COMPANY_ADDRESS,0,0,1,0,0,0,1,1,0,0,0,0,9,7,3,5
124,149,183,161,Service,COMPANY_ADDRESS,0,0,1,0,0,0,1,1,0,0,0,0,9,6,4,6
189,149,250,161,Abonné,COMPANY_ADDRESS,0,0,1,0,0,0,1,0,0,0,0,0,9,0,-1,7
81,170,128,182,75371,COMPANY_ADDRESS,1,0,0,0,1,0,0,1,1,0,0,0,0,9,6,-1
137,170,177,182,Paris,COMPANY_ADDRESS,0,0,1,0,0,0,1,1,0,0,0,0,0,6,7,-1
183,170,234,182,Cedex,COMPANY_ADDRESS,0,0,1,0,0,0,1,1,0,0,0,0,0,6,8,-1
240,170,259,182,08,COMPANY_ADDRESS,1,0,0,0,1,0,0,1,1,0,0,0,0,413,9,-1
672,173,692,182,"""85;",O,0,0,0,0,0,0,0,1,1,0,0,0,61,16,10,11
708,173,751,182,"41471""",O,0,0,0,0,0,0,0,1,1,0,0,0,83,0,-1,12
672,243,717,256,ADBI,CLIENT_NAME,0,0,0,1,0,0,1,1,0,0,0,0,9,0,-1,12
672,265,817,278,OUGUENOUNE,O,0,0,0,1,0,0,1,1,0,0,0,0,8,7,13,14
824,265,907,278,AHCENE,O,0,0,0,1,0,0,1,1,0,0,0,0,8,0,-1,16
673,286,715,299,BAT:,CLIENT_ADDRESS,0,0,0,1,0,0,0,1,0,0,0,0,8,7,15,17
722,286,823,302,NA_ESC:,CLIENT_ADDRESS,0,0,0,1,0,0,0,1,0,0,0,0,5,10,16,19
833,286,838,299,1,CLIENT_ADDRESS,1,0,0,0,1,0,0,1,1,0,0,0,0,0,-1,-1
672,307,682,320,8,CLIENT_ADDRESS,1,0,0,0,1,0,0,1,1,0,0,0,9,8,18,20
690,307,730,320,RUE,CLIENT_ADDRESS,0,0,0,1,0,0,1,1,0,0,0,0,9,8,19,20
738,307,818,320,ROSSINI,CLIENT_ADDRESS,0,0,0,1,0,0,1,1,0,0,0,0,9,0,-1,21
672,329,727,342,75009,CLIENT_ADDRESS,1,0,0,0,1,0,0,1,1,0,0,0,128,7,21,31
734,329,793,342,PARIS,CLIENT_ADDRESS,0,0,0,1,0,0,1,1,0,0,0,0,0,0,-1,-1
81,452,151,464,Adresse,O,0,0,1,0,0,0,1,1,0,0,0,0,6,7,23,29
158,452,203,464,email,O,0,0,0,0,0,0,1,1,0,0,0,0,6,6,24,29
209,452,229,464,de,O,0,0,0,0,0,0,1,1,0,0,0,0,6,6,25,29
235,453,299,464,contact,O,0,0,0,0,0,0,1,1,0,0,0,0,111,216,26,47
515,452,554,464,Nom,O,0,0,1,0,0,0,1,1,0,0,0,0,6,6,27,30
560,452,580,464,de,O,0,0,0,0,0,0,1,1,0,0,0,0,6,7,28,30
587,452,660,464,l’abonné,O,0,0,0,0,0,0,0,0,0,0,0,0,6,0,-1,30
81,470,247,486,administratif@adbi.fr,O,0,0,0,0,0,0,0,1,0,0,1,0,19,268,30,32
515,470,644,483,OUGUENOUNE,O,0,0,0,1,0,0,1,1,0,0,0,0,22,6,31,36
650,470,723,483,AHCENE,O,0,0,0,1,0,0,1,1,0,0,0,0,22,0,-1,38
82,505,149,517,Numéro,O,0,0,1,0,0,0,1,0,0,0,0,0,5,6,33,39
155,505,175,517,de,O,0,0,0,0,0,0,1,1,0,0,0,0,5,7,34,39
182,505,222,520,ligne,O,0,0,0,0,0,0,1,1,0,0,0,0,55,62,35,47
284,505,351,517,Id.client,O,0,0,0,0,0,0,0,1,0,0,0,0,5,163,36,40
514,505,585,517,Adresse,O,0,0,1,0,0,0,1,1,0,0,0,0,5,6,37,41
591,505,611,517,de,O,0,0,0,0,0,0,1,1,0,0,0,0,5,8,38,43
619,505,722,517,l'installation,O,0,0,0,0,0,0,0,1,0,0,0,0,0,0,-1,-1
82,522,186,534,FO18994722,O,0,0,0,1,0,0,0,1,1,0,0,0,41,98,40,46
284,522,362,534,18994722,O,1,0,0,0,1,0,0,1,1,0,0,0,41,153,41,47
515,522,524,534,8,CLIENT_ADDRESS,1,0,0,0,1,0,0,1,1,0,0,0,7,7,42,44
531,522,567,534,RUE,CLIENT_ADDRESS,0,0,0,1,0,0,1,1,0,0,0,0,7,7,43,44
574,522,646,534,ROSSINI,CLIENT_ADDRESS,0,0,0,1,0,0,1,1,0,0,0,0,6,0,-1,45
515,541,564,552,75009,CLIENT_ADDRESS,1,0,0,0,1,0,0,1,1,0,0,0,23,7,45,51
571,540,623,552,PARIS,CLIENT_ADDRESS,0,0,0,1,0,0,1,1,0,0,0,0,0,0,-1,-1
82,575,167,591,Facture,O,0,0,1,0,0,0,1,1,0,0,0,0,16,9,47,52
176,575,317,591,n°851011471,NUMBER,0,0,0,0,0,0,0,0,1,0,0,0,16,11,48,54
328,575,355,591,du,O,0,0,0,0,0,0,1,1,0,0,0,0,16,9,49,57
364,575,389,591,02,DATE,1,0,0,0,1,0,0,1,1,0,0,0,16,8,50,58
397,575,482,591,Janvier,DATE,0,0,1,0,0,0,1,1,0,0,0,0,16,7,51,58
489,575,542,591,2019,DATE,1,0,0,0,1,0,0,1,1,0,0,0,0,0,-1,-1
82,607,123,620,Date,O,0,0,1,0,0,0,1,1,0,0,0,0,54,48,53,71
171,610,181,620,te,O,0,0,0,0,0,0,1,1,0,0,0,0,54,8,54,72
189,607,211,620,de,O,0,0,0,0,0,0,1,1,0,0,0,0,54,7,55,73
218,607,305,623,paiement,O,0,0,0,0,0,0,1,1,0,0,0,0,51,7,56,73
312,607,327,620,le,O,0,0,0,0,0,0,1,1,0,0,0,0,76,7,57,76
334,607,355,620,04,O,1,0,0,0,1,0,0,1,1,0,0,0,76,7,58,77
362,607,432,620,Janvier,O,0,0,1,0,0,0,1,1,0,0,0,0,76,7,59,77
439,607,482,620,2019,O,1,0,0,0,1,0,0,1,1,0,0,0,0,526,60,-1
1008,607,1057,620,39.99,O,1,0,0,0,0,0,0,1,1,0,0,0,42,6,61,68
1063,606,1074,620,€,O,0,0,0,0,0,1,0,0,0,1,0,0,42,6,62,69
1080,606,1118,620,TTC,O,0,0,0,1,0,0,1,1,0,0,0,0,42,0,-1,70
609,662,671,673,Montant,O,0,0,1,0,0,0,1,1,0,0,0,0,0,6,64,-1
677,662,710,673,EUR,O,0,0,0,1,0,0,1,1,0,0,0,0,23,5,65,78
715,662,736,673,HT,O,0,0,0,1,0,0,1,1,0,0,0,0,23,85,66,78
821,662,883,673,Montant,O,0,0,1,0,0,0,1,1,0,0,0,0,0,5,67,-1
888,662,920,673,TVA,O,0,0,0,1,0,0,1,1,0,0,0,0,23,63,68,79
983,662,1045,673,Montant,O,0,0,1,0,0,0,1,1,0,0,0,0,0,5,69,-1
1050,662,1083,673,EUR,O,0,0,0,1,0,0,1,1,0,0,0,0,0,5,70,-1
1088,662,1118,673,TTC,O,0,0,0,1,0,0,1,1,0,0,0,0,23,0,-1,80
81,674,162,687,Services,O,0,0,1,0,0,0,1,1,0,0,0,0,9,8,72,74
170,674,192,687,de,O,0,0,0,0,0,0,1,1,0,0,0,0,9,7,73,74
199,674,251,687,FREE,O,0,0,0,1,0,0,1,1,0,0,0,0,9,0,-1,74
101,696,229,711,"Abonnements,",O,0,0,1,0,0,0,0,1,0,0,0,0,6,7,75,81
236,696,296,709,forfaits,O,0,0,0,0,0,0,1,1,0,0,0,0,86,7,76,98
303,696,319,709,et,O,0,0,0,0,0,0,1,1,0,0,0,0,86,6,77,99
325,696,389,712,options,O,0,0,0,0,0,0,1,1,0,0,0,0,83,297,78,99
686,696,732,709,34.51,O,1,0,0,0,0,0,0,1,1,0,0,0,8,147,79,82
879,696,916,709,5.48,O,1,0,0,0,0,0,0,1,1,0,0,0,8,154,80,83
1070,696,1118,709,39.99,O,1,0,0,0,0,0,0,1,1,0,0,0,8,0,-1,84
101,717,250,730,Communications,O,0,0,1,0,0,0,1,1,0,0,0,0,12,447,82,85
697,717,735,730,0.00,O,1,0,0,0,0,0,0,1,1,0,0,0,12,144,83,86
879,717,916,730,0.00,O,1,0,0,0,0,0,0,1,1,0,0,0,12,165,84,87
1081,717,1118,730,0.00,O,1,0,0,0,0,0,0,1,1,0,0,0,12,0,-1,88
81,742,124,755,Total,O,0,0,1,0,0,0,1,1,0,0,0,0,19,562,86,89
686,742,732,755,34.51,O,1,0,0,0,0,0,0,1,1,0,0,0,19,147,87,91
879,742,916,755,5.48,O,1,0,0,0,0,0,0,1,1,0,0,0,19,154,88,92
1070,742,1118,755,39.99,O,1,0,0,0,0,0,0,1,1,0,0,0,19,0,-1,93
81,774,128,787,Total,O,0,0,1,0,0,0,1,1,0,0,0,0,8,6,90,94
134,774,201,787,facture,O,0,0,0,0,0,0,1,1,0,0,0,0,8,485,91,95
686,774,732,787,34.51,O,1,0,0,0,0,0,0,1,1,0,0,0,102,147,92,128
879,774,916,787,5.48,O,1,0,0,0,0,0,0,1,1,0,0,0,8,154,93,100
1070,774,1118,787,39.99,O,1,0,0,0,0,0,0,1,1,0,0,0,125,0,-1,133
81,795,120,808,TVA,O,0,0,0,1,0,0,1,1,0,0,0,0,9,6,95,101
126,795,170,809,5.5%,O,0,0,0,0,0,0,0,1,1,0,0,0,8,8,96,102
178,795,231,812,payée,O,0,0,0,0,0,0,1,0,0,0,0,0,5,7,97,103
238,799,266,808,sur,O,0,0,0,0,0,0,1,1,0,0,0,0,12,6,98,104
272,795,296,808,les,O,0,0,0,0,0,0,1,1,0,0,0,0,9,7,99,105
303,795,436,808,encaissements,O,0,0,0,0,0,0,1,1,0,0,0,0,9,443,100,106
879,795,913,808,0.41,O,1,0,0,0,0,0,0,1,1,0,0,0,9,0,-1,107
94,817,120,830,VA,O,0,0,0,1,0,0,1,1,0,0,0,0,8,7,102,108
127,817,164,830,10%,O,0,0,0,0,0,0,0,1,1,0,0,0,8,8,103,109
172,817,225,834,payée,O,0,0,0,0,0,0,1,0,0,0,0,0,4,7,104,110
232,820,260,830,sur,O,0,0,0,0,0,0,1,1,0,0,0,0,11,6,105,111
266,817,290,830,les,O,0,0,0,0,0,0,1,1,0,0,0,0,8,7,106,112
297,817,431,830,encaissements,O,0,0,0,0,0,0,1,1,0,0,0,0,8,448,107,113
879,817,916,830,0.32,O,1,0,0,0,0,0,0,1,1,0,0,0,8,0,-1,114
81,838,120,851,TVA,O,0,0,0,1,0,0,1,1,0,0,0,0,36,6,109,115
126,838,164,852,20%,O,0,0,0,0,0,0,0,1,1,0,0,0,35,8,110,116
172,838,225,855,payée,O,0,0,0,0,0,0,1,0,0,0,0,0,32,7,111,117
232,841,260,851,sur,O,0,0,0,0,0,0,1,1,0,0,0,0,36,6,112,118
266,838,290,851,les,O,0,0,0,0,0,0,1,1,0,0,0,0,36,7,113,118
297,838,431,851,encaissements,O,0,0,0,0,0,0,1,1,0,0,0,0,36,447,114,119
878,838,916,851,4.75,O,1,0,0,0,0,0,0,1,1,0,0,0,0,0,-1,-1
82,887,106,897,Les,O,0,0,1,0,0,0,1,1,0,0,0,0,15,6,116,129
112,887,177,897,montants,O,0,0,0,0,0,0,1,1,0,0,0,0,15,6,117,129
183,887,242,897,unitaires,O,0,0,0,0,0,0,1,1,0,0,0,0,0,6,118,-1
248,887,283,897,étant,O,0,0,0,0,0,0,1,0,0,0,0,0,0,5,119,-1
288,887,349,899,"arrondis,",O,0,0,0,0,0,0,0,1,0,0,0,0,0,7,120,-1
356,887,382,897,leur,O,0,0,0,0,0,0,1,1,0,0,0,0,0,5,121,-1
387,889,439,897,somme,O,0,0,0,0,0,0,1,1,0,0,0,0,0,6,122,-1
445,887,475,900,peut,O,0,0,0,0,0,0,1,1,0,0,0,0,0,5,123,-1
480,887,530,897,différer,O,0,0,0,0,0,0,1,0,0,0,0,0,0,5,124,-1
535,887,551,897,du,O,0,0,0,0,0,0,1,1,0,0,0,0,0,6,125,-1
557,887,615,897,montant,O,0,0,0,0,0,0,1,1,0,0,0,0,0,5,126,-1
620,887,649,897,total,O,0,0,0,0,0,0,1,1,0,0,0,0,0,6,127,-1
655,887,662,897,à,O,0,0,0,0,0,0,1,0,0,0,0,0,0,7,128,-1
669,889,708,900,payer.,O,0,0,0,0,0,0,0,1,0,0,0,0,0,0,-1,-1
81,912,136,922,Somme,O,0,0,1,0,0,0,1,1,0,0,0,0,0,5,130,-1
141,912,149,922,à,O,0,0,0,0,0,0,1,0,0,0,0,0,0,6,131,-1
155,914,195,925,payer,O,0,0,0,0,0,0,1,1,0,0,0,0,138,822,132,137
1017,912,1056,922,39.99,TOTAL,1,0,0,0,0,0,0,1,1,0,0,0,0,10,133,-1
1066,912,1075,922,€,O,0,0,0,0,0,1,0,0,0,1,0,0,0,13,134,-1
1088,912,1119,922,TTC,O,0,0,0,1,0,0,1,1,0,0,0,0,0,0,-1,-1
91,1063,128,1076,Avis,O,0,0,1,0,0,0,1,1,0,0,0,0,14,7,136,139
135,1063,156,1076,de,O,0,0,0,0,0,0,1,1,0,0,0,0,14,7,137,139
163,1063,273,1079,prélèvement,O,0,0,0,0,0,0,1,0,0,0,0,0,11,6,138,140
279,1063,389,1079,automatique,O,0,0,0,0,0,0,1,1,0,0,0,0,11,0,-1,142
92,1090,148,1101,Montant,O,0,0,1,0,0,0,1,1,0,0,0,0,8,6,140,152
154,1090,170,1101,du,O,0,0,0,0,0,0,1,1,0,0,0,0,11,7,141,153
177,1090,264,1103,prélèvement,O,0,0,0,0,0,0,1,0,0,0,0,0,6,15,142,154
279,1090,318,1101,39.99,O,1,0,0,0,0,0,0,1,1,0,0,0,11,5,143,156
323,1090,332,1101,€,O,0,0,0,0,0,1,0,0,0,1,0,0,8,433,144,157
765,1090,855,1101,Prélèvement,O,0,0,1,0,0,0,1,0,0,0,0,0,50,5,145,182
860,1090,868,1101,à,O,0,0,0,0,0,0,1,0,0,0,0,0,50,6,146,183
874,1091,910,1103,partir,O,0,0,0,0,0,0,1,1,0,0,0,0,75,5,147,200
915,1090,931,1101,du,O,0,0,0,0,0,0,1,1,0,0,0,0,77,7,148,200
938,1093,940,1101,:,O,0,1,0,0,0,0,0,1,0,0,0,0,0,51,149,-1
991,1091,1006,1101,04,O,1,0,0,0,1,0,0,1,1,0,0,0,0,5,150,-1
1011,1091,1060,1101,Janvier,O,0,0,1,0,0,0,1,1,0,0,0,0,0,5,151,-1
1065,1091,1098,1101,2019,O,1,0,0,0,1,0,0,1,1,0,0,0,0,0,-1,-1
92,1109,113,1122,La,O,0,0,1,0,0,0,1,1,0,0,0,0,10,7,153,164
120,1112,189,1122,somme,O,0,0,0,0,0,0,1,1,0,0,0,0,10,7,154,165
196,1109,206,1122,à,O,0,0,0,0,0,0,1,0,0,0,0,0,10,8,155,167
214,1112,266,1125,payer,O,0,0,0,0,0,0,1,1,0,0,0,0,10,7,156,168
273,1112,312,1122,sera,O,0,0,0,0,0,0,1,1,0,0,0,0,28,8,157,176
320,1109,400,1125,prélevée,O,0,0,0,0,0,0,1,0,0,0,0,0,53,7,158,190
407,1112,438,1122,sur,O,0,0,0,0,0,0,1,1,0,0,0,0,57,7,159,191
445,1109,459,1122,le,O,0,0,0,0,0,0,1,1,0,0,0,0,10,7,160,169
466,1109,537,1125,compte,O,0,0,0,0,0,0,1,1,0,0,0,0,25,7,161,177
544,1109,619,1126,désigné,O,0,0,0,0,0,0,1,0,0,0,0,0,52,7,162,193
626,1109,734,1122,ci-dessous,O,0,0,0,0,0,0,0,1,0,0,0,0,11,9,163,170
743,1112,746,1122,:,O,0,1,0,0,0,0,0,1,0,0,0,0,29,0,-1,181
92,1132,124,1143,Nom,O,0,0,1,0,0,0,1,1,0,0,0,0,7,6,165,172
130,1132,147,1143,de,O,0,0,0,0,0,0,1,1,0,0,0,0,7,6,166,173
153,1132,164,1143,la,O,0,0,0,0,0,0,1,1,0,0,0,0,7,6,167,173
170,1132,222,1146,banque,O,0,0,0,0,0,0,1,1,0,0,0,0,4,6,168,174
228,1135,230,1143,:,O,0,1,0,0,0,0,0,1,0,0,0,0,7,207,169,175
437,1132,470,1143,BIC:,O,0,0,0,1,0,0,0,1,0,0,0,0,7,150,170,177
620,1133,654,1143,IBAN,O,0,0,0,1,0,0,1,1,0,0,0,0,8,6,171,178
660,1141,662,1143,:,O,0,1,0,0,0,0,0,1,0,0,0,0,35,0,-1,196
91,1150,118,1161,CIC,O,0,0,0,1,0,0,1,1,0,0,0,0,17,6,173,184
124,1150,171,1161,PARIS,O,0,0,0,1,0,0,1,1,0,0,0,0,17,6,174,185
177,1150,196,1161,ST,O,0,0,0,1,0,0,1,1,0,0,0,0,17,6,175,186
202,1150,271,1161,HONORE,O,0,0,0,1,0,0,1,1,0,0,0,0,17,6,176,187
277,1150,308,1161,ENT,O,0,0,0,1,0,0,1,1,0,0,0,0,18,130,177,188
438,1150,554,1161,CMCIFRPPXXX,O,0,0,0,1,0,0,1,1,0,0,0,0,17,68,178,192
622,1151,657,1161,FR76,O,0,0,0,1,0,0,0,1,1,0,0,0,17,6,179,194
663,1151,695,1161,3006,O,1,0,0,0,1,0,0,1,1,0,0,0,17,5,180,196
700,1151,734,1161,6109,O,1,0,0,0,1,0,0,1,1,0,0,0,17,5,181,196
739,1151,771,1161,3400,O,1,0,0,0,1,0,0,1,1,0,0,0,17,5,182,196
776,1151,807,1161,0201,O,1,0,0,0,1,0,0,1,1,0,0,0,17,7,183,198
814,1151,865,1161,05******,O,0,0,0,0,0,0,0,1,1,0,0,0,20,0,-1,199
91,1178,101,1188,A,O,0,0,1,1,0,0,1,1,0,0,0,0,6,6,185,202
107,1178,176,1189,l'occasion,O,0,0,0,0,0,0,0,1,0,0,0,0,5,6,186,203
182,1178,211,1189,d'un,O,0,0,0,0,0,0,0,1,0,0,0,0,6,6,187,204
217,1178,271,1191,premier,O,1,0,0,0,0,0,1,1,0,0,0,0,3,5,188,205
276,1179,364,1191,prélèvement,O,0,0,0,0,0,0,1,0,0,0,0,0,3,5,189,206
369,1181,386,1189,ou,O,0,0,0,0,0,0,1,1,0,0,0,0,5,6,190,208
392,1178,408,1189,de,O,0,0,0,0,0,0,1,1,0,0,0,0,5,6,191,209
414,1179,449,1189,toute,O,0,0,0,0,0,0,1,1,0,0,0,0,5,6,192,209
455,1178,539,1189,modification,O,0,0,0,0,0,0,1,1,0,0,0,0,63,6,193,221
545,1178,615,1190,"ultérieure,",O,0,0,0,0,0,0,0,0,0,0,0,0,62,7,194,222
622,1178,627,1188,il,O,0,0,0,0,0,0,1,1,0,0,0,0,87,6,195,244
633,1179,654,1189,est,O,0,0,0,0,0,0,1,1,0,0,0,0,63,6,196,223
660,1178,752,1189,recommandé,O,0,0,0,0,0,0,1,0,0,0,0,0,63,6,197,224
758,1178,775,1189,de,O,0,0,0,0,0,0,1,1,0,0,0,0,63,5,198,225
780,1178,828,1189,vérifier,O,0,0,0,0,0,0,1,0,0,0,0,0,63,5,199,225
833,1181,857,1189,ces,O,0,0,0,0,0,0,1,1,0,0,0,0,63,6,200,227
863,1178,937,1189,indications,O,0,0,0,0,0,0,1,1,0,0,0,0,63,6,201,227
943,1179,956,1189,et,O,0,0,0,0,0,0,1,1,0,0,0,0,63,0,-1,228
91,1194,108,1205,de,O,0,0,0,0,0,0,1,1,0,0,0,0,31,6,203,210
114,1194,170,1207,signaler,O,0,0,0,0,0,0,1,1,0,0,0,0,29,4,204,210
174,1195,209,1205,toute,O,0,0,0,0,0,0,1,1,0,0,0,0,31,6,205,211
215,1194,279,1205,anomalie,O,0,0,0,0,0,0,1,1,0,0,0,0,50,6,206,215
285,1194,293,1205,à,O,0,0,0,0,0,0,1,0,0,0,0,0,50,5,207,216
298,1195,333,1205,votre,O,0,0,0,0,0,0,1,1,0,0,0,0,47,6,208,217
339,1194,389,1205,service,O,0,0,0,0,0,0,1,1,0,0,0,0,50,5,209,218
394,1194,447,1205,abonné.,O,0,0,0,0,0,0,0,0,0,0,0,0,47,0,-1,220
81,1236,144,1248,Service,O,0,0,1,0,0,0,1,1,0,0,0,0,4,6,211,212
150,1236,217,1248,Abonné,O,0,0,1,0,0,0,1,0,0,0,0,0,4,0,-1,214
82,1252,119,1264,Pour,O,0,0,1,0,0,0,1,1,0,0,0,0,11,5,213,229
124,1255,162,1264,vous,O,0,0,0,0,0,0,1,1,0,0,0,0,11,6,214,230
168,1252,234,1264,informer,O,0,0,0,0,0,0,1,1,0,0,0,0,2,5,215,231
239,1255,264,1264,sur,O,0,0,0,0,0,0,1,1,0,0,0,0,11,6,216,233
270,1255,298,1264,nos,O,0,0,0,0,0,0,1,1,0,0,0,0,11,6,217,234
304,1252,342,1264,tarifs,O,0,0,0,0,0,0,1,1,0,0,0,0,23,6,218,237
348,1255,367,1264,ou,O,0,0,0,0,0,0,1,1,0,0,0,0,40,7,219,259
374,1255,409,1267,pour,O,0,0,0,0,0,0,1,1,0,0,0,0,10,6,220,238
415,1252,454,1264,toute,O,0,0,0,0,0,0,1,1,0,0,0,0,11,6,221,239
460,1252,527,1267,question,O,0,0,0,0,0,0,1,1,0,0,0,0,8,7,222,240
534,1252,623,1264,concernant,O,0,0,0,0,0,0,1,1,0,0,0,0,11,6,223,243
629,1252,668,1264,votre,O,0,0,0,0,0,0,1,1,0,0,0,0,11,6,224,244
674,1252,732,1265,"facture,",O,0,0,0,0,0,0,0,1,0,0,0,0,10,8,225,246
740,1252,816,1264,contactez,O,0,0,0,0,0,0,1,1,0,0,0,0,11,6,226,247
822,1252,835,1264,le,O,0,0,0,0,0,0,1,1,0,0,0,0,65,6,227,274
841,1252,900,1264,Service,O,0,0,1,0,0,0,1,1,0,0,0,0,11,6,228,250
906,1252,968,1264,Abonné.,O,0,0,1,0,0,0,0,0,0,0,0,0,11,0,-1,252
112,1275,118,1280,*,O,0,1,0,0,0,0,0,1,0,0,0,0,27,7,230,254
125,1275,200,1288,Téléphone,O,0,0,1,0,0,0,1,0,0,0,0,0,16,3,231,256
203,1266,211,1294,:,O,0,1,0,0,0,0,0,1,0,0,0,0,10,5,232,256
216,1275,232,1285,32,O,1,0,0,0,1,0,0,1,1,0,0,0,19,5,233,257
237,1275,254,1289,44,O,1,0,0,0,1,0,0,1,1,0,0,0,-1,16,234,235
270,1275,309,1285,inclus:,O,0,0,0,0,0,0,0,1,0,0,0,0,2,67,238,237
233,1288,275,1298,minuit,O,0,0,0,0,0,0,1,1,0,0,0,0,6,5,236,257
280,1288,293,1298,et,O,0,0,0,0,0,0,1,1,0,0,0,0,6,5,237,258
298,1287,309,1300,7),O,0,0,0,0,0,0,0,1,1,0,0,0,4,0,-1,258
376,1277,402,1285,une,O,0,0,0,0,0,0,1,1,0,0,0,0,19,5,239,259
407,1275,440,1288,ligne,O,0,0,0,0,0,0,1,1,0,0,0,0,16,6,240,260
446,1275,478,1285,Free.,O,0,0,1,0,0,0,0,1,0,0,0,0,19,11,241,261
489,1275,537,1288,Depuis,O,0,0,1,0,0,0,1,1,0,0,0,0,16,6,242,262
543,1277,559,1285,un,O,1,0,0,0,0,0,1,1,0,0,0,0,44,6,243,271
565,1275,600,1285,autre,O,0,0,0,0,0,0,1,1,0,0,0,0,44,6,244,271
606,1275,677,1288,"opérateur,",O,0,0,0,0,0,0,0,0,0,0,0,0,41,7,245,271
684,1277,700,1285,se,O,0,0,0,0,0,0,1,1,0,0,0,0,44,6,246,272
706,1275,752,1285,référer,O,0,0,0,0,0,0,1,0,0,0,0,0,44,6,247,272
758,1275,765,1285,à,O,0,0,0,0,0,0,1,0,0,0,0,0,47,6,248,273
771,1277,787,1285,sa,O,0,0,0,0,0,0,1,1,0,0,0,0,62,5,249,288
792,1275,825,1288,grille,O,0,0,0,0,0,0,1,1,0,0,0,0,41,6,250,274
831,1275,883,1285,tarifaire.,O,0,0,0,0,0,0,0,1,0,0,0,0,44,11,251,274
894,1275,913,1285,De,O,0,0,1,0,0,0,1,1,0,0,0,0,44,6,252,275
919,1275,935,1285,7h,O,0,0,0,0,0,0,0,1,1,0,0,0,44,6,253,275
941,1275,949,1285,à,O,0,0,0,0,0,0,1,0,0,0,0,0,44,0,-1,275
112,1307,117,1311,*,O,0,1,0,0,0,0,0,1,0,0,0,0,18,8,255,263
125,1306,176,1316,Courrier,O,0,0,1,0,0,0,1,1,0,0,0,0,13,9,256,264
185,1304,218,1316,Free,O,0,0,1,0,0,0,1,1,0,0,0,0,13,6,257,265
224,1304,280,1316,Service,O,0,0,1,0,0,0,1,1,0,0,0,0,14,5,258,266
285,1304,344,1316,Abonné,O,0,0,1,0,0,0,1,0,0,0,0,0,13,6,259,267
350,1304,394,1316,75371,O,1,0,0,0,1,0,0,1,1,0,0,0,13,9,260,268
403,1304,440,1316,Paris,O,0,0,1,0,0,0,1,1,0,0,0,0,13,6,261,269
446,1304,494,1316,Cedex,O,0,0,1,0,0,0,1,1,0,0,0,0,13,6,262,269
500,1304,518,1316,08,O,1,0,0,0,1,0,0,1,1,0,0,0,13,0,-1,270
112,1329,119,1335,*,O,0,1,0,0,0,0,0,1,0,0,0,0,56,7,264,300
126,1329,186,1341,Internet,O,0,0,1,0,0,0,1,1,0,0,0,0,50,7,265,301
193,1329,225,1341,:Sur,O,0,0,1,0,0,0,0,1,0,0,0,0,50,5,266,304
230,1330,270,1341,votre,O,0,0,0,0,0,0,1,1,0,0,0,0,6,7,267,279
277,1329,335,1344,Espace,O,0,0,1,0,0,0,1,1,0,0,0,0,3,6,268,279
341,1329,407,1343,"Abonné,",O,0,0,1,0,0,0,0,0,0,0,0,0,4,8,269,280
415,1329,479,1344,rubrique,O,0,0,0,0,0,0,1,1,0,0,0,0,3,7,270,282
486,1329,525,1341,"""Mon",O,0,0,1,0,0,0,0,1,0,0,0,0,6,7,271,283
532,1329,638,1341,"abonnement""",O,0,0,0,0,0,0,0,1,0,0,0,0,6,17,272,285
655,1329,738,1341,"""Consulter",O,0,0,1,0,0,0,0,1,0,0,0,0,6,6,273,287
744,1332,777,1341,mes,O,0,0,0,0,0,0,1,1,0,0,0,0,6,6,274,288
783,1329,868,1341,Conditions,O,0,0,1,0,0,0,1,1,0,0,0,0,6,7,275,288
875,1329,957,1341,Générales,O,0,0,1,0,0,0,1,0,0,0,0,0,6,6,276,290
963,1329,982,1341,de,O,0,0,0,0,0,0,1,1,0,0,0,0,6,6,277,290
988,1329,1041,1341,"Vente""",O,0,0,1,0,0,0,0,1,0,0,0,0,6,6,278,290
1047,1329,1052,1341,/,O,0,1,0,0,0,0,0,1,0,0,0,0,6,0,-1,290
232,1347,311,1359,“Brochure,O,0,0,1,0,0,0,0,0,0,0,0,0,32,6,280,305
317,1347,387,1360,"tarifaire"",",O,0,0,0,0,0,0,0,1,0,0,0,0,31,8,281,308
395,1350,419,1359,sur,O,0,0,0,0,0,0,1,1,0,0,0,0,32,5,282,312
424,1347,472,1359,free.fr.,O,0,0,0,0,0,0,0,1,0,0,0,0,32,11,283,313
483,1347,532,1359,Posez,O,0,0,1,0,0,0,1,1,0,0,0,0,32,5,284,315
537,1350,565,1359,vos,O,0,0,0,0,0,0,1,1,0,0,0,0,32,6,285,317
571,1347,647,1362,questions,O,0,0,0,0,0,0,1,1,0,0,0,0,29,3,286,319
650,1343,658,1367,à,O,0,0,0,0,0,0,1,0,0,0,0,0,24,11,287,322
669,1347,740,1359,l'adresse,O,0,0,0,0,0,0,0,1,0,0,0,0,32,7,288,323
747,1347,813,1359,suivante,O,0,0,0,0,0,0,1,1,0,0,0,0,15,7,289,291
820,1350,822,1352,:,O,0,1,0,0,0,0,0,1,0,0,0,0,25,8,290,292
830,1347,1062,1362,http://www.free.fr/assistance/,O,0,0,0,0,0,0,0,1,0,0,0,1,12,0,-1,295
759,1374,777,1385,Au,O,0,0,1,0,0,0,1,1,0,0,0,0,6,6,292,326
783,1377,825,1386,"verso,",O,0,0,0,0,0,0,0,1,0,0,0,0,-6,-28,328,328
831,1377,865,1385,vous,O,0,0,0,0,0,0,1,1,0,0,0,0,7,5,294,329
870,1375,936,1385,trouverez,O,0,0,0,0,0,0,1,1,0,0,0,0,7,6,295,330
942,1374,953,1385,le,O,0,0,0,0,0,0,1,1,0,0,0,0,6,6,296,331
959,1374,996,1385,détail,O,0,0,0,0,0,0,1,0,0,0,0,0,6,6,297,332
1002,1374,1018,1385,de,O,0,0,0,0,0,0,1,1,0,0,0,0,6,6,298,334
1024,1375,1059,1385,votre,O,0,0,0,0,0,0,1,1,0,0,0,0,6,5,299,335
1064,1374,1113,1385,facture,O,0,0,0,0,0,0,1,1,0,0,0,0,0,0,-1,-1
92,1391,115,1399,Free,O,0,0,1,0,0,0,1,1,0,0,0,0,0,5,301,-1
120,1391,143,1399,SAS,O,0,0,0,1,0,0,1,1,0,0,0,0,0,4,302,-1
147,1393,159,1399,au,O,0,0,0,0,0,0,1,1,0,0,0,0,0,5,303,-1
164,1391,198,1401,capital,O,0,0,0,0,0,0,1,1,0,0,0,0,0,4,304,-1
202,1391,215,1399,de,O,0,0,0,0,0,0,1,1,0,0,0,0,0,4,305,-1
219,1391,272,1399,3.441.812,O,1,0,0,0,0,0,0,1,1,0,0,0,0,4,306,-1
276,1391,307,1399,Euros,O,0,0,1,0,0,0,1,1,0,0,0,0,0,5,307,-1
312,1394,317,1396,~,O,0,0,0,0,0,0,0,1,0,0,0,0,0,5,308,-1
322,1391,329,1399,B,O,0,0,1,1,0,0,1,1,0,0,0,0,0,3,309,-1
332,1391,350,1399,421,O,1,0,0,0,1,0,0,1,1,0,0,0,0,6,310,-1
356,1391,376,1399,938,O,1,0,0,0,1,0,0,1,1,0,0,0,0,4,311,-1
380,1391,397,1399,861,O,1,0,0,0,1,0,0,1,1,0,0,0,0,7,312,-1
404,1391,428,1399,RCS,O,0,0,0,1,0,0,1,1,0,0,0,0,0,5,313,-1
433,1391,459,1399,Paris,O,0,0,1,0,0,0,1,1,0,0,0,0,0,5,314,-1
464,1394,469,1396,~,O,0,0,0,0,0,0,0,1,0,0,0,0,0,5,315,-1
474,1391,504,1401,Siège,O,0,0,1,0,0,0,1,0,0,0,0,0,0,4,316,-1
508,1391,538,1399,social:,O,0,0,0,0,0,0,0,1,0,0,0,0,0,9,317,-1
547,1391,550,1399,8,O,1,0,0,0,1,0,0,1,1,0,0,0,0,6,318,-1
556,1393,573,1399,rue,O,0,0,0,0,0,0,1,1,0,0,0,0,0,4,319,-1
577,1391,589,1399,de,O,0,0,0,0,0,0,1,1,0,0,0,0,0,5,320,-1
594,1391,602,1399,la,O,0,0,0,0,0,0,1,1,0,0,0,0,0,4,321,-1
606,1391,628,1399,Ville,O,0,0,1,0,0,0,1,1,0,0,0,0,0,5,322,-1
633,1391,679,1401,l'Évèque,O,0,0,0,0,0,0,0,0,0,0,0,0,0,4,323,-1
683,1391,715,1399,75008,O,1,0,0,0,1,0,0,1,1,0,0,0,0,5,324,-1
720,1391,746,1399,Paris,O,0,0,1,0,0,0,1,1,0,0,0,0,0,5,325,-1
751,1394,756,1396,~,O,0,0,0,0,0,0,0,1,0,0,0,0,0,5,326,-1
761,1391,773,1399,N°,O,0,0,1,1,0,0,0,0,0,0,0,0,0,5,327,-1
778,1391,791,1399,de,O,0,0,0,0,0,0,1,1,0,0,0,0,0,6,328,-1
797,1380,814,1408,TVA,O,0,0,0,1,0,0,1,1,0,0,0,0,0,8,329,-1
822,1392,844,1399,intra,O,0,0,0,0,0,0,1,1,0,0,0,0,0,4,330,-1
848,1392,931,1399,communautaire:,O,0,0,0,0,0,0,0,1,0,0,0,0,0,8,331,-1
939,1391,954,1399,FR,O,0,0,0,1,0,0,1,1,0,0,0,0,0,4,332,-1
958,1391,977,1399,604,O,1,0,0,0,1,0,0,1,1,0,0,0,0,4,333,-1
981,1391,1001,1399,219,O,1,0,0,0,1,0,0,1,1,0,0,0,0,4,334,-1
1005,1391,1024,1399,388,O,1,0,0,0,1,0,0,1,1,0,0,0,0,4,335,-1
1028,1391,1040,1399,61,O,1,0,0,0,1,0,0,1,1,0,0,0,0,0,-1,-1
