xmin,ymin,xmax,ymax,Object,label,like_num,is_punct,is_title,is_upper,is_digit,is_currency,is_alpha,is_ascii,hasNumbers,hascurrency,like_email,like_url,dh,dv,v_hor,v_vert
1042,53,1137,72,Facture,O,0,0,1,0,0,0,1,1,0,0,0,0,0,0,-1,-1
691,131,740,150,Payé,O,0,0,1,0,0,0,1,0,0,0,0,0,12,0,-1,2
690,162,758,172,Référence,O,0,0,1,0,0,0,1,0,0,0,0,0,15,5,3,6
763,162,779,172,de,O,0,0,0,0,0,0,1,1,0,0,0,0,14,6,4,8
785,163,846,175,paiement,O,0,0,0,0,0,0,1,1,0,0,0,0,11,5,5,8
851,162,1002,172,40M5323GX4BUJAGO,O,0,0,0,1,0,0,0,1,1,0,0,0,14,0,-1,9
689,187,732,197,Vendu,O,0,0,1,0,0,0,1,1,0,0,0,0,13,6,7,11
738,189,759,199,par,O,0,0,0,0,0,0,1,1,0,0,0,0,11,5,8,12
764,186,841,197,INVENTOR,COMPANY_NAME,0,0,0,1,0,0,1,1,0,0,0,0,13,5,9,12
846,186,919,197,CONCEPT,COMPANY_NAME,0,0,0,1,0,0,1,1,0,0,0,0,63,5,10,17
924,186,953,197,SRL,COMPANY_NAME,0,0,0,1,0,0,1,1,0,0,0,0,82,0,-1,23
690,210,719,220,TVA,O,0,0,0,1,0,0,1,1,0,0,0,0,40,5,12,13
724,210,835,220,FR93824391387,O,0,0,0,1,0,0,0,1,1,0,0,0,39,0,-1,16
695,260,725,270,Date,O,0,0,1,0,0,0,1,1,0,0,0,0,9,5,14,21
730,260,746,270,de,O,0,0,0,0,0,0,1,1,0,0,0,0,9,6,15,21
752,260,762,270,la,O,0,0,0,0,0,0,1,1,0,0,0,0,33,5,16,32
767,259,849,270,facture/Date,O,0,0,0,0,0,0,0,1,0,0,0,0,32,5,17,34
854,260,870,270,de,O,0,0,0,0,0,0,1,1,0,0,0,0,0,5,18,-1
875,260,885,270,la,O,0,0,0,0,0,0,1,1,0,0,0,0,0,0,-1,-1
127,269,156,281,BIG,CLIENT_NAME,0,0,0,1,0,0,1,1,0,0,0,0,13,7,20,25
163,269,210,281,APPS,CLIENT_NAME,0,0,0,1,0,0,1,1,0,0,0,0,13,0,-1,26
695,279,748,289,livraison,O,0,0,0,0,0,0,1,1,0,0,0,0,13,153,22,31
901,279,917,289,28,DATE,1,0,0,0,1,0,0,1,1,0,0,0,14,4,23,35
921,279,956,292,juillet,DATE,0,0,0,0,0,0,1,1,0,0,0,0,11,5,24,35
961,279,994,289,2019,DATE,1,0,0,0,1,0,0,1,1,0,0,0,14,0,-1,35
127,294,146,306,88,CLIENT_ADDRESS,1,0,0,0,1,0,0,1,1,0,0,0,11,6,26,36
152,294,225,306,AVENUE,CLIENT_ADDRESS,0,0,0,1,0,0,1,1,0,0,0,0,11,7,27,36
232,294,256,306,DU,CLIENT_ADDRESS,0,0,0,1,0,0,1,1,0,0,0,0,11,7,28,37
263,291,360,306,GÉNÉRALE,CLIENT_ADDRESS,0,0,0,1,0,0,1,0,0,0,0,0,11,7,29,37
367,294,390,305,DE,CLIENT_ADDRESS,0,0,0,1,0,0,1,1,0,0,0,0,106,7,30,51
397,293,457,306,GAULE,CLIENT_ADDRESS,0,0,0,1,0,0,1,1,0,0,0,0,105,0,-1,52
695,302,747,313,Numéro,O,0,0,1,0,0,0,1,0,0,0,0,0,14,5,32,39
752,303,768,313,de,O,0,0,0,0,0,0,1,1,0,0,0,0,16,5,33,41
773,303,784,313,la,O,0,0,0,0,0,0,1,1,0,0,0,0,16,5,34,41
789,302,834,313,facture,O,0,0,0,0,0,0,1,1,0,0,0,0,0,68,35,-1
902,303,1109,313,INV-FR-164988671-2019-2154,NUMBER,0,0,0,1,0,0,0,1,1,0,0,0,14,0,-1,42
127,317,229,331,"BAGNOLET,",CLIENT_ADDRESS,0,0,0,1,0,0,0,1,0,0,0,0,11,7,37,43
236,317,313,331,"FRANCE,",CLIENT_ADDRESS,0,0,0,1,0,0,0,1,0,0,0,0,80,7,38,47
320,317,369,329,93170,CLIENT_ADDRESS,1,0,0,0,1,0,0,1,1,0,0,0,82,0,-1,50
694,327,727,337,Total,O,0,0,1,0,0,0,1,1,0,0,0,0,0,5,40,-1
732,327,739,337,à,O,0,0,0,0,0,0,1,0,0,0,0,0,0,6,41,-1
745,329,782,340,payer,O,0,0,0,0,0,0,1,1,0,0,0,0,0,120,42,-1
902,327,951,339,"72,10€",TOTAL,0,0,0,0,0,0,0,0,1,1,0,0,0,0,-1,-1
128,342,150,354,FR,CLIENT_ADDRESS,0,0,0,1,0,0,1,1,0,0,0,0,57,0,-1,45
69,411,122,421,Veuillez,O,0,0,1,0,0,0,1,1,0,0,0,0,46,5,45,55
127,411,189,421,contacter,O,0,0,0,0,0,0,1,1,0,0,0,0,46,4,46,56
193,411,204,421,le,O,0,0,0,0,0,0,1,1,0,0,0,0,46,5,47,57
209,411,258,421,Service,O,0,0,1,0,0,0,1,1,0,0,0,0,46,6,48,57
264,411,301,421,Client,O,0,0,1,0,0,0,1,1,0,0,0,0,97,5,49,74
306,413,322,421,en,O,0,0,0,0,0,0,1,1,0,0,0,0,97,5,50,75
327,411,374,421,visitant,O,0,0,0,0,0,0,1,1,0,0,0,0,97,5,51,75
379,411,389,421,le,O,0,0,0,0,0,0,1,1,0,0,0,0,0,6,52,-1
395,411,417,421,lien,O,0,0,0,0,0,0,1,1,0,0,0,0,0,5,53,-1
422,411,469,421,suivant:,O,0,0,0,0,0,0,0,1,0,0,0,0,46,10,54,58
479,411,656,421,www.amazon.fr/contact-us,O,0,0,0,0,0,0,0,1,0,0,0,1,46,0,-1,59
71,467,142,480,Adresse,O,0,0,1,0,0,0,1,1,0,0,0,0,14,7,56,63
149,467,169,480,de,O,0,0,0,0,0,0,1,1,0,0,0,0,38,6,57,72
175,467,266,480,facturation,O,0,0,0,0,0,0,1,1,0,0,0,0,36,159,58,73
425,467,496,480,Adresse,O,0,0,1,0,0,0,1,1,0,0,0,0,14,6,59,65
502,467,523,480,de,O,0,0,0,0,0,0,1,1,0,0,0,0,38,7,60,78
530,467,600,480,livraison,O,0,0,0,0,0,0,1,1,0,0,0,0,36,178,61,79
778,467,834,480,Vendu,O,0,0,1,0,0,0,1,1,0,0,0,0,14,7,62,67
841,470,869,483,par,O,0,0,0,0,0,0,1,1,0,0,0,0,11,0,-1,67
72,494,96,504,BIG,CLIENT_NAME,0,0,0,1,0,0,1,1,0,0,0,0,14,5,64,70
101,494,140,504,APPS,CLIENT_NAME,0,0,0,1,0,0,1,1,0,0,0,0,14,285,65,71
425,494,450,504,BIG,CLIENT_NAME,0,0,0,1,0,0,1,1,0,0,0,0,14,5,66,76
455,494,494,504,APPS,CLIENT_NAME,0,0,0,1,0,0,1,1,0,0,0,0,14,285,67,77
779,494,856,504,INVENTOR,COMPANY_NAME,0,0,0,1,0,0,1,1,0,0,0,0,14,5,68,82
861,494,934,504,CONCEPT,COMPANY_NAME,0,0,0,1,0,0,1,1,0,0,0,0,14,5,69,83
939,494,967,504,SRL,COMPANY_NAME,0,0,0,1,0,0,1,1,0,0,0,0,14,0,-1,84
71,518,87,528,88,CLIENT_ADDRESS,1,0,0,0,1,0,0,1,1,0,0,0,14,5,71,92
92,518,153,528,AVENUE,CLIENT_ADDRESS,0,0,0,1,0,0,1,1,0,0,0,0,14,6,72,92
159,518,179,528,DU,CLIENT_ADDRESS,0,0,0,1,0,0,1,1,0,0,0,0,14,6,73,93
185,516,265,528,GENERALE,CLIENT_ADDRESS,0,0,0,1,0,0,1,1,0,0,0,0,14,6,74,93
271,518,291,528,DE,CLIENT_ADDRESS,0,0,0,1,0,0,1,1,0,0,0,0,0,5,75,-1
296,518,346,528,GAULE,CLIENT_ADDRESS,0,0,0,1,0,0,1,1,0,0,0,0,0,79,76,-1
425,518,441,528,88,CLIENT_ADDRESS,1,0,0,0,1,0,0,1,1,0,0,0,14,4,77,95
445,518,507,528,AVENUE,CLIENT_ADDRESS,0,0,0,1,0,0,1,1,0,0,0,0,14,6,78,95
513,518,532,528,DU,CLIENT_ADDRESS,0,0,0,1,0,0,1,1,0,0,0,0,14,6,79,96
538,516,619,528,GENERALE,CLIENT_ADDRESS,0,0,0,1,0,0,1,1,0,0,0,0,14,6,80,96
625,518,644,528,DE,CLIENT_ADDRESS,0,0,0,1,0,0,1,1,0,0,0,0,0,6,81,-1
650,518,700,528,GAULE,CLIENT_ADDRESS,0,0,0,1,0,0,1,1,0,0,0,0,0,79,82,-1
779,518,823,531,Splaiul,COMPANY_ADDRESS,0,0,1,0,0,0,1,1,0,0,0,0,11,6,83,99
829,518,911,531,Independent,COMPANY_ADDRESS,0,0,1,0,0,0,1,1,0,0,0,0,35,26,84,103
937,518,944,528,7,COMPANY_ADDRESS,1,0,0,0,1,0,0,1,1,0,0,0,0,6,85,-1
950,518,978,528,Bloc,COMPANY_ADDRESS,0,0,1,0,0,0,1,1,0,0,0,0,0,6,86,-1
984,518,1010,529,"101,",COMPANY_ADDRESS,1,0,0,0,0,0,0,1,1,0,0,0,0,7,87,-1
1017,518,1052,530,"Izvor,",COMPANY_ADDRESS,0,0,1,0,0,0,0,1,0,0,0,0,0,5,88,-1
1057,521,1072,528,sc,COMPANY_ADDRESS,0,0,0,0,0,0,1,1,0,0,0,0,0,4,89,-1
1076,518,1088,530,"4,",COMPANY_ADDRESS,1,0,0,0,0,0,0,1,1,0,0,0,0,5,90,-1
1093,518,1108,531,etj,COMPANY_ADDRESS,0,0,0,0,0,0,1,1,0,0,0,0,0,6,91,-1
1114,518,1125,530,"5,",COMPANY_ADDRESS,1,0,0,0,0,0,0,1,1,0,0,0,0,0,-1,-1
72,542,156,553,"BAGNOLET,",CLIENT_ADDRESS,0,0,0,1,0,0,0,1,0,0,0,0,13,6,93,100
162,542,226,553,"FRANCE,",CLIENT_ADDRESS,0,0,0,1,0,0,0,1,0,0,0,0,124,6,94,108
232,542,273,552,93170,CLIENT_ADDRESS,1,0,0,0,1,0,0,1,1,0,0,0,125,152,95,110
425,542,510,553,"BAGNOLET,",CLIENT_ADDRESS,0,0,0,1,0,0,0,1,0,0,0,0,13,6,96,101
516,542,580,553,"FRANCE,",CLIENT_ADDRESS,0,0,0,1,0,0,0,1,0,0,0,0,0,6,97,-1
586,542,627,552,93170,CLIENT_ADDRESS,1,0,0,0,1,0,0,1,1,0,0,0,0,152,98,-1
779,543,799,554,apt,COMPANY_ADDRESS,0,0,0,0,0,0,1,1,0,0,0,0,12,5,99,102
804,542,811,552,6,COMPANY_ADDRESS,1,0,0,0,1,0,0,1,1,0,0,0,14,0,-1,102
72,566,90,576,FR,CLIENT_ADDRESS,0,0,0,1,0,0,1,1,0,0,0,0,101,335,101,107
425,566,444,576,FR,CLIENT_ADDRESS,0,0,0,1,0,0,1,1,0,0,0,0,0,335,102,-1
779,566,849,577,"Bucharest,",COMPANY_ADDRESS,0,0,1,0,0,0,0,1,0,0,0,0,13,6,103,104
855,566,904,576,050093,COMPANY_ADDRESS,1,0,0,0,1,0,0,1,1,0,0,0,38,0,-1,106
779,590,800,600,RO,COMPANY_ADDRESS,0,0,0,1,0,0,1,1,0,0,0,0,14,0,-1,105
779,614,807,624,TVA,O,0,0,0,1,0,0,1,1,0,0,0,0,0,6,106,-1
813,614,924,624,FR93824391387,O,0,0,0,1,0,0,0,1,1,0,0,0,0,0,-1,-1
71,677,177,690,Informations,O,0,0,1,0,0,0,1,1,0,0,0,0,19,6,108,111
183,677,204,690,de,O,0,0,0,0,0,0,1,1,0,0,0,0,19,7,109,114
211,677,224,690,la,O,0,0,0,0,0,0,1,1,0,0,0,0,19,7,110,114
231,677,327,690,commande,O,0,0,0,0,0,0,1,1,0,0,0,0,18,0,-1,115
72,709,102,719,Date,O,0,0,1,0,0,0,1,1,0,0,0,0,12,5,112,118
107,709,123,719,de,O,0,0,0,0,0,0,1,1,0,0,0,0,12,5,113,118
128,709,139,719,la,O,0,0,0,0,0,0,1,1,0,0,0,0,12,5,114,119
144,709,218,719,commande,O,0,0,0,0,0,0,1,1,0,0,0,0,12,92,115,120
310,708,326,719,26,O,1,0,0,0,1,0,0,1,1,0,0,0,12,4,116,122
330,709,365,721,juillet,O,0,0,0,0,0,0,1,1,0,0,0,0,10,4,117,122
369,708,402,719,2019,O,1,0,0,0,1,0,0,1,1,0,0,0,12,0,-1,122
72,731,124,741,Numéro,O,0,0,1,0,0,0,1,0,0,0,0,0,12,5,119,123
129,731,145,741,de,O,0,0,0,0,0,0,1,1,0,0,0,0,12,5,120,123
150,731,161,741,la,O,0,0,0,0,0,0,1,1,0,0,0,0,15,5,121,124
166,731,240,741,commande,O,0,0,0,0,0,0,1,1,0,0,0,0,15,70,122,124
310,731,462,741,407-7637339-7154708,O,0,0,0,0,0,0,0,1,1,0,0,0,13,0,-1,125
71,753,148,763,Commandé,O,0,0,1,0,0,0,1,0,0,0,0,0,64,6,124,126
154,756,175,766,par,O,0,0,0,0,0,0,1,1,0,0,0,0,61,135,125,127
310,754,362,766,bigapps,O,0,0,0,0,0,0,1,1,0,0,0,0,0,0,-1,-1
78,827,145,842,Détails,O,0,0,1,0,0,0,1,0,0,0,0,0,27,8,127,130
153,827,177,842,de,O,0,0,0,0,0,0,1,1,0,0,0,0,83,8,128,143
185,827,200,842,la,O,0,0,0,0,0,0,1,1,0,0,0,0,83,8,129,143
208,827,276,842,facture,O,0,0,0,0,0,0,1,1,0,0,0,0,83,0,-1,145
78,869,151,882,Description,O,0,0,1,0,0,0,1,1,0,0,0,0,43,472,131,142
623,869,646,880,ate,O,0,0,0,0,0,0,1,1,0,0,0,0,129,55,132,170
701,869,725,879,Prix,O,0,0,1,0,0,0,1,1,0,0,0,0,130,6,133,171
731,870,782,880,Unitaire,O,0,0,1,0,0,0,1,1,0,0,0,0,13,48,134,139
830,869,862,880,Taux,O,0,0,1,0,0,0,1,1,0,0,0,0,0,5,135,-1
867,869,896,879,TVA,O,0,0,0,1,0,0,1,1,0,0,0,0,39,54,136,155
950,869,975,879,Prix,O,0,0,1,0,0,0,1,1,0,0,0,0,0,5,137,-1
980,870,1031,880,Unitaire,O,0,0,1,0,0,0,1,1,0,0,0,0,13,54,138,140
1085,869,1118,880,Total,O,0,0,1,0,0,0,1,1,0,0,0,0,13,0,-1,141
763,893,782,903,HT,O,0,0,0,1,0,0,1,1,0,0,0,0,14,221,140,153
1003,893,1031,903,TTC,O,0,0,0,1,0,0,1,1,0,0,0,0,22,63,141,156
1094,893,1122,903,TTC,O,0,0,0,1,0,0,1,1,0,0,0,0,22,0,-1,157
78,925,131,935,Inventor,O,0,0,1,0,0,0,1,1,0,0,0,0,15,5,143,158
136,925,208,935,Ventilateur,O,0,0,1,0,0,0,1,1,0,0,0,0,15,4,144,158
212,928,233,935,sur,O,0,0,0,0,0,0,1,1,0,0,0,0,15,5,145,159
238,925,266,935,Pied,O,0,0,1,0,0,0,1,1,0,0,0,0,15,7,146,159
273,925,329,935,Puissant,O,0,0,1,0,0,0,1,1,0,0,0,0,15,5,147,161
334,925,350,935,de,O,0,0,0,0,0,0,1,1,0,0,0,0,15,5,148,163
355,925,385,935,48W,O,0,0,1,1,0,0,0,1,1,0,0,0,15,5,149,164
390,928,421,935,avec,O,0,0,0,0,0,0,1,1,0,0,0,0,15,5,150,166
426,925,434,935,8,O,1,0,0,0,1,0,0,1,1,0,0,0,15,5,151,167
439,925,499,937,"Vitesses,",O,0,0,1,0,0,0,0,1,0,0,0,0,13,233,152,167
732,925,782,937,"60,08",O,1,0,0,0,0,0,0,1,1,0,0,0,0,-8,153,-1
774,917,787,945,€,O,0,0,0,0,0,1,0,0,0,1,0,0,-20,71,154,152
858,926,891,937,20,O,1,0,0,0,1,0,0,1,1,0,0,0,0,-9,155,-1
882,918,894,946,%,O,0,1,0,0,0,0,0,1,0,0,0,0,-20,88,156,154
982,925,1031,937,"72,10€",O,0,0,0,0,0,0,0,0,1,1,0,0,0,42,157,-1
1073,925,1122,937,"72,10€",O,0,0,0,0,0,0,0,0,1,1,0,0,72,0,-1,172
77,950,184,961,"Télécommande,",O,0,0,1,0,0,0,0,0,0,0,0,0,13,6,159,168
190,950,251,960,Minuterie,O,0,0,1,0,0,0,1,1,0,0,0,0,14,5,160,169
256,950,272,960,de,O,0,0,0,0,0,0,1,1,0,0,0,0,0,5,161,-1
277,950,285,960,8,O,1,0,0,0,1,0,0,1,1,0,0,0,0,5,162,-1
290,950,335,960,heures,O,0,0,0,0,0,0,1,1,0,0,0,0,0,5,163,-1
340,950,352,960,et,O,0,0,0,0,0,0,1,1,0,0,0,0,0,5,164,-1
357,950,364,960,2,O,1,0,0,0,1,0,0,1,1,0,0,0,0,5,165,-1
369,952,393,960,ans,O,0,0,0,0,0,0,1,1,0,0,0,0,0,5,166,-1
398,950,414,960,de,O,0,0,0,0,0,0,1,1,0,0,0,0,0,5,167,-1
419,950,476,960,Garantie,O,0,0,1,0,0,0,1,1,0,0,0,0,0,0,-1,-1
77,974,111,983,ASIN:,O,0,0,0,1,0,0,0,1,0,0,0,0,0,11,169,-1
122,974,215,983,BO7RRQ33LX,O,0,0,0,1,0,0,0,1,1,0,0,0,0,0,-1,-1
603,1009,677,1024,Facture,O,0,0,1,0,0,0,1,1,0,0,0,0,112,8,171,183
685,1009,733,1024,Total,O,0,0,1,0,0,0,1,1,0,0,0,0,0,321,172,-1
1054,1009,1128,1026,"72,10€",TOTAL,0,0,0,0,0,0,0,0,1,1,0,0,35,0,-1,177
744,1061,777,1071,Taux,O,0,0,1,0,0,0,1,1,0,0,0,0,0,5,174,-1
782,1061,811,1070,TVA,O,0,0,0,1,0,0,1,1,0,0,0,0,19,106,175,179
917,1061,950,1071,Total,O,0,0,1,0,0,0,1,1,0,0,0,0,27,6,176,180
956,1061,975,1070,HT,O,0,0,0,1,0,0,1,1,0,0,0,0,28,119,177,181
1094,1061,1123,1070,TVA,O,0,0,0,1,0,0,1,1,0,0,0,0,28,0,-1,182
777,1098,810,1108,20,O,1,0,0,0,1,0,0,1,1,0,0,0,0,-9,179,-1
801,1089,813,1117,%,O,0,1,0,0,0,0,0,1,0,0,0,0,-19,112,180,178
925,1098,962,1109,"60,08",O,1,0,0,0,0,0,0,1,1,0,0,0,27,5,181,184
967,1098,975,1108,€,O,0,0,0,0,0,1,0,0,0,1,0,0,28,99,182,185
1074,1098,1123,1109,"12,02€",O,0,0,0,0,0,0,0,0,1,1,0,0,27,0,-1,186
608,1136,640,1146,Total,O,0,0,1,0,0,0,1,1,0,0,0,0,0,285,184,-1
925,1136,962,1148,"60,08",O,1,0,0,0,0,0,0,1,1,0,0,0,0,5,185,-1
967,1136,975,1146,€,O,0,0,0,0,0,1,0,0,0,1,0,0,0,99,186,-1
1074,1136,1122,1148,"12,02€",O,0,0,0,0,0,0,0,0,1,1,0,0,0,0,-1,-1
1046,1387,1086,1401,Page,O,0,0,1,0,0,0,1,1,0,0,0,0,0,8,188,-1
1094,1387,1099,1398,1,O,1,0,0,0,1,0,0,1,1,0,0,0,0,9,189,-1
1108,1386,1139,1398,de,O,0,0,0,0,0,0,1,1,0,0,0,0,0,-7,190,-1
1132,1377,1143,1408,1,O,1,0,0,0,1,0,0,1,1,0,0,0,-22,0,-1,189
