xmin,ymin,xmax,ymax,Object,label,like_num,is_punct,is_title,is_upper,is_digit,is_currency,is_alpha,is_ascii,hasNumbers,hascurrency,like_email,like_url,dh,dv,v_hor,v_vert
171,106,298,115,NTERTITRES,LOGO,0,0,0,1,0,0,1,1,0,0,0,0,0,0,-1,-1
434,227,476,239,Total,O,0,0,1,0,0,0,1,1,0,0,0,0,13,9,2,8
485,230,516,239,non,O,0,0,0,0,0,0,1,1,0,0,0,0,13,7,3,9
523,230,570,239,soumi,O,0,0,0,0,0,0,1,1,0,0,0,0,12,23,4,10
593,226,601,239,à,O,0,0,0,0,0,0,1,0,0,0,0,0,13,7,5,11
608,227,658,239,T.V.A.,O,0,0,1,1,0,0,0,1,0,0,0,0,0,341,6,-1
999,227,1064,241,"1080,00",O,1,0,0,0,0,0,0,1,1,0,0,0,11,7,7,12
1071,227,1107,239,EUR,O,0,0,0,1,0,0,1,1,0,0,0,0,13,0,-1,13
434,252,476,264,Total,O,0,0,1,0,0,0,1,1,0,0,0,0,13,8,9,14
484,252,547,264,soumis,O,0,0,0,0,0,0,1,1,0,0,0,0,12,7,10,15
554,251,563,264,à,O,0,0,0,0,0,0,1,0,0,0,0,0,13,6,11,16
569,252,620,264,T.V.A.,O,0,0,1,1,0,0,0,1,0,0,0,0,112,399,12,32
1019,252,1064,266,"19,10",O,1,0,0,0,0,0,0,1,1,0,0,0,11,7,13,17
1071,252,1108,264,EUR,O,0,0,0,1,0,0,1,1,0,0,0,0,13,0,-1,18
434,277,485,289,T.V.A.,O,0,0,1,1,0,0,0,1,0,0,0,0,13,7,15,19
492,276,500,289,à,O,0,0,0,0,0,0,1,0,0,0,0,0,12,8,16,20
508,277,558,289,20.0%,O,0,0,0,0,0,0,0,1,1,0,0,0,12,471,17,20
1029,277,1064,291,"3,82",O,1,0,0,0,0,0,0,1,1,0,0,0,11,7,18,21
1071,277,1108,289,EUR,O,0,0,0,1,0,0,1,1,0,0,0,0,13,0,-1,22
434,302,476,314,Total,O,0,0,1,0,0,0,1,1,0,0,0,0,62,8,20,30
484,301,550,314,Général,O,0,0,1,0,0,0,1,0,0,0,0,0,62,449,21,31
999,302,1064,316,"1102,92",TOTAL,1,0,0,0,0,0,0,1,1,0,0,0,60,7,22,41
1071,302,1108,314,EUR,O,0,0,0,1,0,0,1,1,0,0,0,0,0,0,-1,-1
58,376,104,387,Mode,O,0,0,1,0,0,0,1,1,0,0,0,0,27,5,24,42
109,376,130,387,de,O,0,0,0,0,0,0,1,1,0,0,0,0,27,7,25,42
137,376,224,391,règlement,O,0,0,0,0,0,0,1,0,0,0,0,0,22,6,26,43
230,379,234,387,:,O,0,1,0,0,0,0,0,1,0,0,0,0,26,7,27,43
241,376,410,387,PRELEVEMENT,O,0,0,0,1,0,0,1,1,0,0,0,0,26,-32,28,43
378,368,404,396,sur,O,0,0,0,0,0,0,1,1,0,0,0,0,-20,11,29,27
415,376,429,387,le,O,0,0,0,0,0,0,1,1,0,0,0,0,26,6,30,45
435,376,499,391,compte,O,0,0,0,0,0,0,1,1,0,0,0,0,23,6,31,46
505,376,549,387,FR76,O,0,0,0,1,0,0,0,1,1,0,0,0,30,6,32,47
555,376,594,387,3000,O,1,0,0,0,1,0,0,1,1,0,0,0,0,7,33,-1
601,376,641,387,3038,O,1,0,0,0,1,0,0,1,1,0,0,0,0,5,34,-1
646,376,686,387,0000,O,1,0,0,0,1,0,0,1,1,0,0,0,0,6,35,-1
692,376,733,387,0205,O,1,0,0,0,1,0,0,1,1,0,0,0,0,6,36,-1
739,376,779,387,4488,O,1,0,0,0,1,0,0,1,1,0,0,0,0,5,37,-1
784,376,813,387,891,O,1,0,0,0,1,0,0,1,1,0,0,0,0,7,38,-1
820,376,829,387,à,O,0,0,0,0,0,0,1,0,0,0,0,0,0,7,39,-1
836,377,908,391,compter,O,0,0,0,0,0,0,1,1,0,0,0,0,116,5,40,75
913,376,934,387,du,O,0,0,0,0,0,0,1,1,0,0,0,0,0,5,41,-1
939,376,1031,387,04/10/2019,O,0,0,0,0,0,0,0,1,1,0,0,0,0,0,-1,-1
58,414,168,425,Informations,O,0,0,1,0,0,0,1,1,0,0,0,0,7,7,43,49
175,413,288,425,caractérisant,O,0,0,0,0,0,0,1,0,0,0,0,0,7,6,44,50
294,417,325,425,vos,O,0,0,0,0,0,0,1,1,0,0,0,0,7,7,45,51
332,413,449,429,prélèvements,O,0,0,0,0,0,0,1,0,0,0,0,0,-1,7,46,53
456,414,504,425,SEPA,O,0,0,0,1,0,0,1,1,0,0,0,0,7,8,47,54
512,417,515,425,:,O,0,1,0,0,0,0,0,1,0,0,0,0,7,0,-1,54
92,439,97,441,-,O,0,1,0,0,0,0,0,1,0,0,0,0,16,13,49,55
110,432,188,444,Identifiant,O,0,0,1,0,0,0,1,1,0,0,0,0,6,6,50,56
194,432,273,444,Créancier,O,0,0,1,0,0,0,1,0,0,0,0,0,6,6,51,57
279,432,326,444,SEPA,O,0,0,0,1,0,0,1,1,0,0,0,0,6,6,52,59
332,432,373,447,(ICS),O,0,0,0,1,0,0,0,1,0,0,0,0,3,5,53,60
378,428,386,452,:,O,0,1,0,0,0,0,0,1,0,0,0,0,-2,6,54,60
392,432,528,444,FR91ZZZ194409,O,0,0,0,1,0,0,0,1,1,0,0,0,2,0,-1,61
92,457,97,459,-,O,0,1,0,0,0,0,0,1,0,0,0,0,48,12,56,63
109,450,190,462,Référence,O,0,0,1,0,0,0,1,0,0,0,0,0,45,7,57,64
197,450,253,465,Unique,O,0,0,1,0,0,0,1,1,0,0,0,0,42,7,58,65
260,450,279,462,de,O,0,0,0,0,0,0,1,1,0,0,0,0,45,6,59,66
285,450,345,462,Mandat,O,0,0,1,0,0,0,1,1,0,0,0,0,45,6,60,67
351,450,403,465,(RUM),O,0,0,0,1,0,0,0,1,0,0,0,0,57,5,61,86
408,446,414,470,:,O,0,1,0,0,0,0,0,1,0,0,0,0,36,7,62,68
421,450,518,462,3115474001,O,1,0,0,0,1,0,0,1,1,0,0,0,44,0,-1,68
57,507,121,517,CLAUSE,O,0,0,0,1,0,0,1,1,0,0,0,0,6,10,64,81
131,507,151,517,DE,O,0,0,0,1,0,0,1,1,0,0,0,0,6,11,65,81
162,507,237,517,RESERVE,O,0,0,0,1,0,0,1,1,0,0,0,0,6,11,66,82
248,507,269,517,DE,O,0,0,0,1,0,0,1,1,0,0,0,0,5,11,67,84
280,507,369,517,PROPRIETE,O,0,0,0,1,0,0,1,1,0,0,0,0,5,26,68,85
395,506,493,517,conformément,O,0,0,0,0,0,0,1,0,0,0,0,0,6,11,69,87
504,509,528,517,aux,O,0,0,0,0,0,0,1,1,0,0,0,0,5,9,70,89
537,507,610,517,Conditions,O,0,0,1,0,0,0,1,1,0,0,0,0,42,11,71,102
621,506,691,517,Générales,O,0,0,1,0,0,0,1,0,0,0,0,0,43,10,72,105
701,507,717,517,de,O,0,0,0,0,0,0,1,1,0,0,0,0,43,11,73,106
728,507,770,518,"Vente,",O,0,0,1,0,0,0,0,1,0,0,0,0,41,12,74,107
782,507,827,517,Natixis,O,0,0,1,0,0,0,1,1,0,0,0,0,43,11,75,109
838,507,901,517,Intertitres,O,0,0,1,0,0,0,1,1,0,0,0,0,43,10,76,111
911,509,927,517,se,O,0,0,0,0,0,0,1,1,0,0,0,0,42,10,77,113
937,506,988,517,réserve,O,0,0,0,0,0,0,1,0,0,0,0,0,42,10,78,113
998,507,1008,517,la,O,0,0,0,0,0,0,1,1,0,0,0,0,0,11,79,-1
1019,506,1078,520,propriété,O,0,0,0,0,0,0,1,0,0,0,0,0,39,11,80,115
1089,507,1113,517,des,O,0,0,0,0,0,0,1,1,0,0,0,0,43,0,-1,117
57,523,154,533,marchandises,O,0,0,0,0,0,0,1,1,0,0,0,0,27,5,82,90
159,523,199,536,objets,O,0,0,0,0,0,0,1,1,0,0,0,0,24,5,83,93
204,523,229,533,des,O,0,0,0,0,0,0,1,1,0,0,0,0,27,5,84,95
234,522,293,536,présents,O,0,0,0,0,0,0,1,0,0,0,0,0,24,5,85,95
298,522,342,534,"débits,",O,0,0,0,0,0,0,0,0,0,0,0,0,26,5,86,97
347,522,396,536,jusqu'à,O,0,0,0,0,0,0,0,0,0,0,0,0,26,6,87,98
402,523,427,533,leur,O,0,0,0,0,0,0,1,1,0,0,0,0,27,5,88,100
432,523,493,536,paiement,O,0,0,0,0,0,0,1,1,0,0,0,0,24,6,89,100
499,522,547,536,intégral,O,0,0,0,0,0,0,1,0,0,0,0,0,23,0,-1,102
58,560,76,570,En,O,0,0,1,0,0,0,1,1,0,0,0,0,6,7,91,118
83,562,107,570,cas,O,0,0,0,0,0,0,1,1,0,0,0,0,6,7,92,118
114,560,130,570,de,O,0,0,0,0,0,0,1,1,0,0,0,0,6,8,93,119
138,560,176,570,retard,O,0,0,0,0,0,0,1,1,0,0,0,0,6,8,94,120
184,560,200,570,de,O,0,0,0,0,0,0,1,1,0,0,0,0,8,7,95,121
207,560,273,573,"paiement,",O,0,0,0,0,0,0,0,1,0,0,0,0,3,8,96,122
281,560,292,570,le,O,0,0,0,0,0,0,1,1,0,0,0,0,6,8,97,124
300,560,335,570,client,O,0,0,0,0,0,0,1,1,0,0,0,0,6,7,98,124
342,562,358,570,se,O,0,0,0,0,0,0,1,1,0,0,0,0,5,7,99,125
365,562,399,570,verra,O,0,0,0,0,0,0,1,1,0,0,0,0,5,7,100,125
406,560,469,573,appliquer,O,0,0,0,0,0,0,1,1,0,0,0,0,3,7,101,126
476,562,501,570,une,O,0,0,0,0,0,0,1,1,0,0,0,0,8,7,102,127
508,559,560,573,pénalité,O,0,0,0,0,0,0,1,0,0,0,0,0,3,8,103,128
568,560,584,570,de,O,0,0,0,0,0,0,1,1,0,0,0,0,6,7,104,130
591,560,630,570,retard,O,0,0,0,0,0,0,1,1,0,0,0,0,6,8,105,130
638,560,666,570,d'un,O,0,0,0,0,0,0,0,1,0,0,0,0,6,8,106,130
674,560,729,570,montant,O,0,0,0,0,0,0,1,1,0,0,0,0,6,7,107,131
736,559,763,573,égal,O,0,0,0,0,0,0,1,0,0,0,0,0,3,8,108,132
771,559,778,570,à,O,0,0,0,0,0,0,1,0,0,0,0,0,6,7,109,134
785,560,814,570,trois,O,1,0,0,0,0,0,1,1,0,0,0,0,8,8,110,135
822,560,846,570,fois,O,0,0,0,0,0,0,1,1,0,0,0,0,8,7,111,135
853,560,863,570,le,O,0,0,0,0,0,0,1,1,0,0,0,0,0,8,112,-1
871,560,899,570,taux,O,0,0,0,0,0,0,1,1,0,0,0,0,0,7,113,-1
906,559,959,570,d'intérêt,O,0,0,0,0,0,0,0,0,0,0,0,0,0,9,114,-1
968,559,1002,573,"légal,",O,0,0,0,0,0,0,0,0,0,0,0,0,0,8,115,-1
1010,559,1066,570,calculée,O,0,0,0,0,0,0,1,0,0,0,0,0,0,8,116,-1
1074,562,1095,570,sur,O,0,0,0,0,0,0,1,1,0,0,0,0,0,7,117,-1
1102,560,1113,570,le,O,0,0,0,0,0,0,1,1,0,0,0,0,0,0,-1,-1
57,576,112,586,montant,O,0,0,0,0,0,0,1,1,0,0,0,0,0,5,119,-1
117,576,134,586,de,O,0,0,0,0,0,0,1,1,0,0,0,0,0,4,120,-1
138,576,149,586,la,O,0,0,0,0,0,0,1,1,0,0,0,0,0,5,121,-1
154,578,205,586,somme,O,0,0,0,0,0,0,1,1,0,0,0,0,0,5,122,-1
210,576,237,588,"due,",O,0,0,0,0,0,0,0,1,0,0,0,0,0,7,123,-1
244,578,274,586,ainsi,O,0,0,0,0,0,0,1,1,0,0,0,0,0,6,124,-1
280,576,326,589,qu'une,O,0,0,0,0,0,0,0,1,0,0,0,0,0,5,125,-1
331,575,397,586,indemnité,O,0,0,0,0,0,0,1,0,0,0,0,0,0,5,126,-1
402,576,466,586,forfaitaire,O,0,0,0,0,0,0,1,1,0,0,0,0,0,5,127,-1
471,578,500,589,pour,O,0,0,0,0,0,0,1,1,0,0,0,0,0,6,128,-1
506,576,536,586,frais,O,0,0,0,0,0,0,1,1,0,0,0,0,0,4,129,-1
540,576,557,586,de,O,0,0,0,0,0,0,1,1,0,0,0,0,0,4,130,-1
561,576,655,586,recouvrement,O,0,0,0,0,0,0,1,1,0,0,0,0,0,5,131,-1
660,576,688,586,d'un,O,0,0,0,0,0,0,0,1,0,0,0,0,0,5,132,-1
693,576,747,586,montant,O,0,0,0,0,0,0,1,1,0,0,0,0,0,6,133,-1
753,576,769,586,de,O,0,0,0,0,0,0,1,1,0,0,0,0,0,6,134,-1
775,576,791,586,40,O,1,0,0,0,1,0,0,1,1,0,0,0,0,6,135,-1
797,578,834,586,euros.,O,0,0,0,0,0,0,0,1,0,0,0,0,0,0,-1,-1
1168,1302,1196,1316,67,O,1,0,0,0,1,0,0,1,1,0,0,0,0,0,-1,-1
1179,1165,1188,1255,191001163116,O,1,0,0,0,1,0,0,1,1,0,0,0,47,0,-1,136
1168,1164,1196,1179,001,O,1,0,0,0,1,0,0,1,1,0,0,0,-14,-17,137,137
1179,1142,1188,1159,116,O,1,0,0,0,1,0,0,1,1,0,0,0,5,0,-1,138
