xmin,ymin,xmax,ymax,Object,label,like_num,is_punct,is_title,is_upper,is_digit,is_currency,is_alpha,is_ascii,hasNumbers,hascurrency,like_email,like_url,dh,dv,v_hor,v_vert
442,85,547,99,FACTURE,O,0,0,0,1,0,0,1,1,0,0,0,0,0,7,1,-1
554,85,579,99,N°,O,0,0,1,1,0,0,0,0,0,0,0,0,0,17,2,-1
596,85,788,99,13860013414731BF,NUMBER,0,0,0,1,0,0,0,1,1,0,0,0,0,0,-1,-1
80,76,274,103,Carrefour,LOGO,0,0,1,0,0,0,1,1,0,0,0,0,82,17,4,6
291,72,369,115,<@>,O,0,0,0,0,0,0,0,1,0,0,0,0,70,73,0,8
838,140,1143,195,UML,O,0,0,0,1,0,0,1,1,0,0,0,0,3,0,-1,13
87,185,214,198,CARREFOUR,COMPANY_NAME,0,0,0,1,0,0,1,1,0,0,0,0,5,8,7,10
222,185,311,198,AULNAY,COMPANY_NAME,0,0,0,1,0,0,1,1,0,0,0,0,6,7,8,12
318,185,371,198,SOUS,COMPANY_NAME,0,0,0,1,0,0,1,1,0,0,0,0,41,9,9,24
380,185,426,198,BOIS,COMPANY_NAME,0,0,0,1,0,0,1,1,0,0,0,0,59,412,5,33
87,203,143,216,Centre,COMPANY_ADDRESS,0,0,1,0,0,0,1,1,0,0,0,0,5,7,11,16
150,203,253,216,Commercial,COMPANY_ADDRESS,0,0,1,0,0,0,1,1,0,0,0,0,5,9,12,17
262,204,324,216,Parinor,COMPANY_ADDRESS,0,0,1,0,0,0,1,1,0,0,0,0,5,462,13,20
786,198,894,212,099990013,O,1,0,0,0,1,0,0,1,1,0,0,0,100,28,14,41
922,198,943,212,10:,O,0,0,0,0,0,0,0,1,1,0,0,0,0,2,15,-1
945,198,1075,211,20419070621,O,1,0,0,0,1,0,0,1,1,0,0,0,0,0,-1,-1
87,221,107,233,22,COMPANY_ADDRESS,1,0,0,0,1,0,0,1,1,0,0,0,6,8,17,21
115,221,176,233,Parinor,COMPANY_ADDRESS,0,0,1,0,0,0,1,1,0,0,0,0,6,7,18,21
183,228,188,230,-,COMPANY_ADDRESS,0,1,0,0,0,0,0,1,0,0,0,0,9,11,19,22
199,221,259,234,Secteur,COMPANY_ADDRESS,0,0,1,0,0,0,1,1,0,0,0,0,5,11,20,22
270,221,297,233,N°2,COMPANY_ADDRESS,0,0,1,1,0,0,0,0,1,0,0,0,6,0,-1,23
87,239,139,251,93600,COMPANY_ADDRESS,1,0,0,0,1,0,0,1,1,0,0,0,5,7,22,25
146,239,235,251,AULNAY,COMPANY_ADDRESS,0,0,0,1,0,0,1,1,0,0,0,0,6,8,23,26
243,239,296,251,SOUS,COMPANY_ADDRESS,0,0,0,1,0,0,1,1,0,0,0,0,6,8,24,30
304,239,350,251,BOIS,COMPANY_ADDRESS,0,0,0,1,0,0,1,1,0,0,0,0,6,0,-1,31
87,256,138,269,Tél.01,O,0,0,1,0,0,0,0,0,1,0,0,0,0,10,26,-1
148,257,168,269,48,O,1,0,0,0,1,0,0,1,1,0,0,0,0,10,27,-1
178,257,195,269,14,O,1,0,0,0,1,0,0,1,1,0,0,0,0,8,28,-1
203,257,221,269,76,O,1,0,0,0,1,0,0,1,1,0,0,0,0,8,29,-1
229,257,248,269,79,O,1,0,0,0,1,0,0,1,1,0,0,0,0,9,30,-1
257,257,309,269,Fax.01,O,0,0,1,0,0,0,0,1,1,0,0,0,0,11,31,-1
320,257,338,269,48,O,1,0,0,0,1,0,0,1,1,0,0,0,0,8,32,-1
346,257,365,269,65,O,1,0,0,0,1,0,0,1,1,0,0,0,0,10,33,-1
375,257,392,268,53,O,1,0,0,0,1,0,0,1,1,0,0,0,0,9,34,-1
401,257,420,269,24,O,1,0,0,0,1,0,0,1,1,0,0,0,0,0,-1,-1
616,293,684,306,Société,CLIENT_NAME,0,0,1,0,0,0,1,0,0,0,0,0,6,8,36,38
692,293,724,310,Big,CLIENT_NAME,0,0,1,0,0,0,1,1,0,0,0,0,6,7,37,39
731,297,773,310,apps,CLIENT_NAME,0,0,0,0,0,0,1,1,0,0,0,0,2,0,-1,40
616,312,637,326,88,CLIENT_ADDRESS,1,0,0,0,1,0,0,1,1,0,0,0,25,7,39,44
644,316,711,326,avenue,CLIENT_ADDRESS,0,0,0,0,0,0,1,1,0,0,0,0,25,7,40,44
718,312,740,326,du,CLIENT_ADDRESS,0,0,0,0,0,0,1,1,0,0,0,0,25,8,41,45
748,312,820,326,General,CLIENT_ADDRESS,0,0,1,0,0,0,1,1,0,0,0,0,25,8,42,45
828,312,850,325,de,CLIENT_ADDRESS,0,0,0,0,0,0,1,1,0,0,0,0,0,7,43,-1
857,312,919,325,Gaulle,CLIENT_ADDRESS,0,0,1,0,0,0,1,1,0,0,0,0,0,0,-1,-1
615,351,673,364,93170,CLIENT_ADDRESS,1,0,0,0,1,0,0,1,1,0,0,0,7,9,45,46
682,351,807,364,BAGNOLET,CLIENT_ADDRESS,0,0,0,1,0,0,1,1,0,0,0,0,205,0,-1,66
616,371,677,384,France,CLIENT_ADDRESS,0,0,1,0,0,0,1,1,0,0,0,0,0,0,-1,-1
87,484,143,497,établie,O,0,0,0,0,0,0,1,0,0,0,0,0,25,7,48,53
150,488,168,496,en,O,0,0,0,0,0,0,1,1,0,0,0,0,24,7,49,54
175,484,185,496,€,O,0,0,0,0,0,1,0,0,0,1,0,0,24,8,50,54
193,484,206,497,le,O,0,0,0,0,0,0,1,1,0,0,0,0,103,6,51,73
212,484,311,497,06-07-2019,DATE,0,0,0,0,0,0,0,1,1,0,0,0,23,7,52,55
318,484,365,496,21:25,DATE,0,0,0,0,0,0,0,1,1,0,0,0,24,0,-1,56
102,522,126,532,ate,O,0,0,0,0,0,0,1,1,0,0,0,0,68,7,54,73
133,520,191,532,d'achat,O,0,0,0,0,0,0,0,1,0,0,0,0,40,18,55,57
209,520,331,532,06-07-2019,O,0,0,0,0,0,0,0,1,1,0,0,0,68,11,56,74
342,520,362,532,21:22,O,0,0,0,0,0,0,0,1,1,0,0,0,68,0,-1,76
145,572,175,585,Ref,O,0,0,1,0,0,0,1,1,0,0,0,0,15,186,58,73
361,572,412,585,Détail,O,0,0,1,0,0,0,1,0,0,0,0,0,15,138,61,76
929,572,973,585,Total,O,0,0,1,0,0,0,1,1,0,0,0,0,0,7,60,-1
980,573,1008,585,HT,O,0,0,0,1,0,0,1,1,0,0,0,0,16,31,71,81
550,573,592,585,TVA,O,0,0,0,1,0,0,1,1,0,0,0,0,15,2,62,77
594,569,606,593,|,O,0,0,0,0,0,0,0,1,0,0,0,0,0,9,63,-1
615,573,646,585,P.U.,O,0,0,1,1,0,0,0,1,0,0,0,0,0,12,64,-1
658,573,696,585,Brut,O,0,0,1,0,0,0,1,1,0,0,0,0,0,6,65,-1
702,573,730,585,HT,O,0,0,0,1,0,0,1,1,0,0,0,0,16,6,66,78
736,569,746,593,|,O,0,0,0,0,0,0,0,1,0,0,0,0,216,4,67,159
750,573,813,585,Remise,O,0,0,1,0,0,0,1,1,0,0,0,0,0,7,68,-1
820,573,848,585,HT,O,0,0,0,1,0,0,1,1,0,0,0,0,16,4,69,79
852,569,862,593,|,O,0,0,0,0,0,0,0,1,0,0,0,0,0,6,70,-1
868,573,899,589,Qté,O,0,0,1,0,0,0,1,0,0,0,0,0,12,30,59,80
1039,572,1083,585,Total,O,0,0,1,0,0,0,1,1,0,0,0,0,0,7,72,-1
1090,573,1130,586,TTC,O,0,0,0,1,0,0,1,1,0,0,0,0,15,0,-1,82
93,600,220,612,317804131787,O,1,0,0,0,1,0,0,1,1,0,0,0,15,21,74,83
241,600,279,612,MIR,O,0,0,0,1,0,0,1,1,0,0,0,0,15,8,75,84
287,600,325,612,VSL,O,0,0,0,1,0,0,1,1,0,0,0,0,15,7,76,84
332,600,425,612,CERISIER,O,0,0,0,1,0,0,1,1,0,0,0,0,15,125,77,85
550,600,596,613,"20,00",O,1,0,0,0,0,0,0,1,1,0,0,0,15,105,78,88
701,601,733,613,1.44,O,1,0,0,0,0,0,0,1,1,0,0,0,15,81,79,89
814,601,850,613,"0,00",O,1,0,0,0,0,0,0,1,1,0,0,0,15,47,80,90
897,601,900,613,I,O,0,0,1,1,0,0,1,1,0,0,0,0,15,87,81,91
987,601,1019,613,1.44,O,1,0,0,0,0,0,0,1,1,0,0,0,15,84,82,92
1103,601,1135,613,"1,73",O,1,0,0,0,0,0,0,1,1,0,0,0,15,0,-1,93
94,627,220,640,317804069812,O,1,0,0,0,1,0,0,1,1,0,0,0,14,21,84,94
241,627,303,640,S00ML,O,0,0,0,1,0,0,0,1,1,0,0,0,15,8,85,95
311,627,348,639,MIR,O,0,0,0,1,0,0,1,1,0,0,0,0,16,9,86,96
357,627,395,640,VSL,O,0,0,0,1,0,0,1,1,0,0,0,0,15,8,87,97
403,627,458,640,ECOR,O,0,0,0,1,0,0,1,1,0,0,0,0,15,91,88,98
549,628,596,640,"20,00",O,1,0,0,0,0,0,0,1,1,0,0,0,15,105,89,99
701,628,734,640,1.46,O,1,0,0,0,0,0,0,1,1,0,0,0,15,80,90,100
814,628,850,640,"0,00",O,1,0,0,0,0,0,0,1,1,0,0,0,15,47,91,101
897,628,900,640,I,O,0,0,1,1,0,0,1,1,0,0,0,0,16,87,92,102
987,628,1020,640,1.46,O,1,0,0,0,0,0,0,1,1,0,0,0,15,83,93,103
1103,628,1136,640,"1,75",O,1,0,0,0,0,0,0,1,1,0,0,0,15,0,-1,104
94,654,219,667,317804132512,O,1,0,0,0,1,0,0,1,1,0,0,0,15,22,95,105
241,655,303,667,SOOML,O,0,0,0,1,0,0,1,1,0,0,0,0,15,8,96,106
311,655,349,667,MIR,O,0,0,0,1,0,0,1,1,0,0,0,0,15,8,97,108
357,655,395,667,VSL,O,0,0,0,1,0,0,1,1,0,0,0,0,15,7,98,109
402,655,448,667,CITR,O,0,0,0,1,0,0,1,1,0,0,0,0,15,101,99,109
549,655,596,667,"20,00",O,1,0,0,0,0,0,0,1,1,0,0,0,15,105,100,110
701,655,723,667,1.6:,O,0,0,0,0,0,0,0,1,1,0,0,0,16,91,101,111
814,655,850,667,"0,00",O,1,0,0,0,0,0,0,1,1,0,0,0,16,47,102,112
897,656,900,667,1,O,1,0,0,0,1,0,0,1,1,0,0,0,0,87,103,-1
987,655,1019,667,"1,65",O,1,0,0,0,0,0,0,1,1,0,0,0,16,84,104,113
1103,655,1136,668,"1,98",O,1,0,0,0,0,0,0,1,1,0,0,0,15,0,-1,114
94,682,220,694,317804133824,O,1,0,0,0,1,0,0,1,1,0,0,0,15,21,106,115
241,682,279,694,MIR,O,0,0,0,1,0,0,1,1,0,0,0,0,16,8,107,116
287,682,325,694,VSL,O,0,0,0,1,0,0,1,1,0,0,0,0,16,7,108,117
332,682,348,694,SI,O,0,0,0,1,0,0,1,1,0,0,0,0,16,8,109,118
356,682,460,695,AGRUMES,O,0,0,0,1,0,0,1,1,0,0,0,0,15,89,110,118
549,682,596,695,"20,00",O,1,0,0,0,0,0,0,1,1,0,0,0,15,105,111,120
701,683,734,695,1.66,O,1,0,0,0,0,0,0,1,1,0,0,0,15,80,112,121
814,683,850,695,"0,00",O,1,0,0,0,0,0,0,1,1,0,0,0,15,136,113,122
986,683,1020,695,"1,66",O,1,0,0,0,0,0,0,1,1,0,0,0,15,83,114,123
1103,683,1136,695,"1,59",O,1,0,0,0,0,0,0,1,1,0,0,0,15,0,-1,124
93,709,217,722,317804069071,O,1,0,0,0,1,0,0,1,1,0,0,0,15,24,116,125
241,710,279,722,MIR,O,0,0,0,1,0,0,1,1,0,0,0,0,15,8,117,126
287,710,325,722,VSL,O,0,0,0,1,0,0,1,1,0,0,0,0,15,7,118,126
332,710,388,722,ALOE,O,0,0,0,1,0,0,1,1,0,0,0,0,15,7,119,126
395,710,451,722,VERA,O,0,0,0,1,0,0,1,1,0,0,0,0,15,98,120,126
549,710,596,722,"20,00",O,1,0,0,0,0,0,0,1,1,0,0,0,16,105,121,127
701,710,733,722,"1,42",O,1,0,0,0,0,0,0,1,1,0,0,0,16,81,122,128
814,710,850,722,"0,00",O,1,0,0,0,0,0,0,1,1,0,0,0,16,136,123,129
986,710,1019,722,"1,42",O,1,0,0,0,0,0,0,1,1,0,0,0,16,84,124,130
1103,710,1136,723,"1,70",O,1,0,0,0,0,0,0,1,1,0,0,0,15,0,-1,131
94,737,220,749,317804133829,O,1,0,0,0,1,0,0,1,1,0,0,0,15,21,126,132
241,737,472,749,MIRFRUITSROUGESS00,O,0,0,0,1,0,0,0,1,1,0,0,0,15,78,127,133
550,738,596,750,"20,00",O,1,0,0,0,0,0,0,1,1,0,0,0,15,105,128,138
701,738,733,750,1.62,O,1,0,0,0,0,0,0,1,1,0,0,0,15,81,129,139
814,738,850,750,"0,00",O,1,0,0,0,0,0,0,1,1,0,0,0,15,137,130,140
987,738,1019,750,"1,62",O,1,0,0,0,0,0,0,1,1,0,0,0,15,84,131,141
1103,738,1136,750,"1,94",O,1,0,0,0,0,0,0,1,1,0,0,0,15,0,-1,142
94,764,220,776,327019019280,O,1,0,0,0,1,0,0,1,1,0,0,0,15,21,133,143
241,764,282,776,BRK,O,0,0,0,1,0,0,1,1,0,0,0,0,15,7,134,144
289,764,331,776,4X1L,O,0,0,1,1,0,0,0,1,1,0,0,0,15,14,135,144
345,764,387,776,ABC,O,0,0,0,1,0,0,1,1,0,0,0,0,15,11,136,146
398,764,429,776,JUS,O,0,0,0,1,0,0,1,1,0,0,0,0,15,7,137,146
436,764,451,776,O,O,0,0,1,1,0,0,1,1,0,0,0,0,15,126,138,146
577,765,596,777,50,O,1,0,0,0,1,0,0,1,1,0,0,0,15,102,139,147
698,765,733,777,3.26,O,1,0,0,0,0,0,0,1,1,0,0,0,15,81,140,148
814,765,850,777,"0,00",O,1,0,0,0,0,0,0,1,1,0,0,0,15,133,141,149
983,765,1019,778,"6,52",O,1,0,0,0,0,0,0,1,1,0,0,0,14,81,142,150
1100,765,1136,777,"6,88",O,1,0,0,0,0,0,0,1,1,0,0,0,16,0,-1,151
94,791,217,804,356007033961,O,1,0,0,0,1,0,0,1,1,0,0,0,15,24,144,152
241,791,308,804,SUCRE,O,0,0,0,1,0,0,1,1,0,0,0,0,15,8,145,153
316,792,342,804,EN,O,0,0,0,1,0,0,1,1,0,0,0,0,15,8,146,154
350,791,467,804,POUDR.IKG,O,0,0,0,1,0,0,0,1,0,0,0,0,15,93,147,155
560,792,596,804,"5,50",O,1,0,0,0,0,0,0,1,1,0,0,0,15,101,148,157
697,792,733,805,"0,68",O,1,0,0,0,0,0,0,1,1,0,0,0,15,81,149,158
814,792,850,805,"0,00",O,1,0,0,0,0,0,0,1,1,0,0,0,15,133,150,160
983,792,1019,805,"0,68",O,1,0,0,0,0,0,0,1,1,0,0,0,15,81,151,161
1100,793,1135,805,"0,72",O,1,0,0,0,0,0,0,1,1,0,0,0,15,0,-1,162
93,819,220,831,316543042000,O,1,0,0,0,1,0,0,1,1,0,0,0,15,21,153,163
241,819,308,831,SUCRE,O,0,0,0,1,0,0,1,1,0,0,0,0,15,8,154,164
316,819,362,831,MCX,O,0,0,0,1,0,0,1,1,0,0,0,0,15,8,155,164
370,819,395,831,N4,O,0,0,1,1,0,0,0,1,1,0,0,0,16,8,156,165
403,819,478,831,DADDY,O,0,0,0,1,0,0,1,1,0,0,0,0,16,98,157,165
576,819,596,832,50,O,1,0,0,0,1,0,0,1,1,0,0,0,15,101,158,166
697,820,742,836,0.90,O,1,0,0,0,0,0,0,1,1,0,0,0,7,-5,159,168
737,809,746,842,|,O,0,0,0,0,0,0,0,1,0,0,0,0,-22,68,160,158
814,820,850,832,"0,00",O,1,0,0,0,0,0,0,1,1,0,0,0,15,133,161,169
983,820,1020,832,"0,90",O,1,0,0,0,0,0,0,1,1,0,0,0,15,96,162,170
1116,820,1135,833,95,O,1,0,0,0,1,0,0,1,1,0,0,0,15,0,-1,171
93,846,220,859,800184107759,O,1,0,0,0,1,0,0,1,1,0,0,0,15,21,164,172
241,846,337,859,PAMPERS,O,0,0,0,1,0,0,1,1,0,0,0,0,15,8,165,173
345,847,458,859,LINGETTES,O,0,0,0,1,0,0,1,1,0,0,0,0,15,91,166,174
549,847,596,860,"20,00",O,1,0,0,0,0,0,0,1,1,0,0,0,15,103,167,176
699,847,742,860,"3,03",O,1,0,0,0,0,0,0,1,1,0,0,0,11,-6,168,178
736,843,745,868,|,O,0,0,0,0,0,0,0,1,0,0,0,0,-21,69,169,167
814,847,850,860,"0,00",O,1,0,0,0,0,0,0,1,1,0,0,0,15,149,170,179
999,847,1019,860,03,O,1,0,0,0,1,0,0,1,1,0,0,0,15,82,171,181
1101,848,1135,860,"3,63",O,1,0,0,0,0,0,0,1,1,0,0,0,16,0,-1,182
93,874,220,886,356007101167,O,1,0,0,0,1,0,0,1,1,0,0,0,15,21,173,183
241,874,275,886,80X,O,0,0,1,1,0,0,0,1,1,0,0,0,16,9,174,184
284,874,397,887,LINGETTES,O,0,0,0,1,0,0,1,1,0,0,0,0,15,8,175,185
405,875,442,887,M.U,O,0,0,1,1,0,0,0,1,0,0,0,0,15,107,176,187
549,875,596,887,"20,00",O,1,0,0,0,0,0,0,1,1,0,0,0,15,105,177,188
701,875,742,888,"1,66",O,1,0,0,0,0,0,0,1,1,0,0,0,14,-6,178,192
736,871,745,896,|,O,0,0,0,0,0,0,0,1,0,0,0,0,-21,69,179,177
814,875,850,887,"0,00",O,1,0,0,0,0,0,0,1,1,0,0,0,16,44,180,189
894,875,903,887,2,O,1,0,0,0,1,0,0,1,1,0,0,0,138,80,181,223
983,875,1019,888,"3,32",O,1,0,0,0,0,0,0,1,1,0,0,0,15,82,182,190
1101,876,1136,888,"3,98",O,1,0,0,0,0,0,0,1,1,0,0,0,15,0,-1,191
93,901,220,914,350211001056,O,1,0,0,0,1,0,0,1,1,0,0,0,15,21,184,193
241,902,294,914,PEPSI,O,0,0,0,1,0,0,1,1,0,0,0,0,15,9,185,194
303,902,314,914,R.,O,0,0,1,1,0,0,0,1,0,0,0,0,15,13,186,194
327,902,371,914,CAN,O,0,0,0,1,0,0,1,1,0,0,0,0,15,8,187,195
379,902,441,914,330ML,O,0,0,0,1,0,0,0,1,1,0,0,0,15,119,188,196
560,902,596,914,"5,50",O,1,0,0,0,0,0,0,1,1,0,0,0,16,102,192,198
814,903,850,915,"0,00",O,1,0,0,0,0,0,0,1,1,0,0,0,15,134,190,200
984,903,1020,915,2.17,O,1,0,0,0,0,0,0,1,1,0,0,0,15,80,191,201
1100,903,1136,915,"2,29",O,1,0,0,0,0,0,0,1,1,0,0,0,15,0,-1,202
698,902,742,919,"2,17|",O,0,0,0,0,0,0,0,1,1,0,0,0,11,72,189,199
93,929,219,941,544900020552,O,1,0,0,0,1,0,0,1,1,0,0,0,15,21,194,203
240,929,310,941,SPRITE,O,0,0,0,1,0,0,1,1,0,0,0,0,15,8,195,204
318,929,355,941,FRE,O,0,0,0,1,0,0,1,1,0,0,0,0,16,8,196,205
363,929,401,941,BTE,O,0,0,0,1,0,0,1,1,0,0,0,0,16,7,197,205
408,929,441,942,33C,O,0,0,1,1,0,0,0,1,1,0,0,0,15,119,198,206
560,930,596,942,"5,50",O,1,0,0,0,0,0,0,1,1,0,0,0,15,101,199,207
697,930,733,942,"0,66",O,1,0,0,0,0,0,0,1,1,0,0,0,15,81,200,208
814,930,850,942,"0,00",O,1,0,0,0,0,0,0,1,1,0,0,0,15,133,201,210
983,930,1020,942,0.66,O,1,0,0,0,0,0,0,1,1,0,0,0,15,80,202,211
1100,930,1136,943,"0,70",O,1,0,0,0,0,0,0,1,1,0,0,0,15,0,-1,212
94,956,220,968,500011260960,O,1,0,0,0,1,0,0,1,1,0,0,0,72,23,204,221
243,956,324,969,15X33CL,O,0,0,0,1,0,0,0,1,1,0,0,0,51,7,205,217
331,957,389,969,COCA,O,0,0,0,1,0,0,1,1,0,0,0,0,51,8,206,218
397,957,438,969,COL.,O,0,0,0,1,0,0,0,1,0,0,0,0,0,122,207,-1
560,957,596,971,"5,50",O,1,0,0,0,0,0,0,1,1,0,0,0,0,101,208,-1
697,957,742,975,6.66,O,1,0,0,0,0,0,0,1,1,0,0,0,158,-7,209,237
735,946,744,980,|,O,0,0,0,0,0,0,0,1,0,0,0,0,-23,70,210,208
814,957,850,970,"0,00",O,1,0,0,0,0,0,0,1,1,0,0,0,13,133,211,214
983,957,1020,970,"6,66",O,1,0,0,0,0,0,0,1,1,0,0,0,57,80,212,224
1100,958,1135,970,"7,03",O,1,0,0,0,0,0,0,1,1,0,0,0,15,0,-1,216
750,983,815,995,TOTAL,O,0,0,0,1,0,0,1,1,0,0,0,0,27,7,214,222
822,983,862,995,NET,O,0,0,0,1,0,0,1,1,0,0,0,0,27,7,215,222
869,983,892,998,(€),O,0,0,0,0,0,0,0,0,0,1,0,0,27,198,216,223
1090,985,1136,999,"37,27",TOTAL,1,0,0,0,0,0,0,1,1,0,0,0,0,0,-1,-1
261,1020,305,1031,Détail,O,0,0,1,0,0,0,1,0,0,0,0,0,0,6,218,-1
311,1020,385,1034,règlement,O,0,0,0,0,0,0,1,0,0,0,0,0,126,216,219,255
601,1021,666,1032,Montant,O,0,0,1,0,0,0,1,1,0,0,0,0,100,4,220,236
670,1021,679,1032,€,O,0,0,0,0,0,1,0,0,0,1,0,0,19,88,222,228
142,1040,151,1041,=,O,0,0,0,0,0,0,0,1,0,0,0,0,9,0,-1,225
767,1022,867,1040,Règlement,O,0,0,1,0,0,0,1,0,0,0,0,0,11,7,223,229
874,1025,962,1040,comptant,O,0,0,0,0,0,0,1,1,0,0,0,0,121,7,224,277
969,1027,1009,1036,sans,O,0,0,0,0,0,0,1,1,0,0,0,0,0,0,-1,-1
92,1050,146,1062,Cartes,O,0,0,1,0,0,0,1,1,0,0,0,0,0,8,226,-1
154,1050,195,1062,Banc:,O,0,0,1,0,0,0,0,1,0,0,0,0,98,18,227,250
213,1054,236,1062,res,O,0,0,0,0,0,0,1,1,0,0,0,0,98,430,228,252
666,1051,712,1063,"37,27",TOTAL,1,0,0,0,0,0,0,1,1,0,0,0,69,55,229,236
767,1051,858,1069,Escompte,O,0,0,1,0,0,0,1,1,0,0,0,0,63,0,-1,239
397,1132,417,1145,pré,O,0,0,0,0,0,0,1,0,0,0,0,0,59,20,231,297
437,1133,453,1142,nte,O,0,0,0,0,0,0,1,1,0,0,0,0,62,7,232,299
460,1132,507,1142,facture,O,0,0,0,0,0,0,1,1,0,0,0,0,6,5,233,241
512,1135,539,1142,sera,O,0,0,0,0,0,0,1,1,0,0,0,0,7,6,234,243
545,1132,598,1145,payable,O,0,0,0,0,0,0,1,1,0,0,0,0,1,5,235,244
603,1138,607,1142,à,O,0,0,0,0,0,0,1,0,0,0,0,0,8,25,236,245
632,1132,687,1142,chéance,O,0,0,0,0,0,0,1,0,0,0,0,0,6,7,237,246
694,1133,746,1145,figurant,O,0,0,0,0,0,0,1,1,0,0,0,0,3,7,238,247
753,1135,774,1143,sur,O,0,0,0,0,0,0,1,1,0,0,0,0,36,6,239,288
780,1132,790,1143,la,O,0,0,0,0,0,0,1,1,0,0,0,0,5,7,240,248
797,1133,843,1143,facture:,O,0,0,0,0,0,0,0,1,0,0,0,0,5,0,-1,249
448,1148,478,1159,mpte,O,0,0,0,0,0,0,1,1,0,0,0,0,3,6,242,262
484,1149,498,1156,ne,O,0,0,0,0,0,0,1,1,0,0,0,0,8,7,243,263
505,1149,531,1156,sera,O,0,0,0,0,0,0,1,1,0,0,0,0,4,6,244,264
537,1146,585,1159,appliqu,O,0,0,0,0,0,0,1,1,0,0,0,0,2,18,245,265
603,1150,634,1160,pour,O,0,0,0,0,0,0,1,1,0,0,0,0,3,5,246,267
639,1148,701,1160,paiement,O,0,0,0,0,0,0,1,1,0,0,0,0,3,6,247,268
707,1148,749,1160,compt,O,0,0,0,0,0,0,1,1,0,0,0,0,1,19,248,270
768,1148,792,1157,tou,O,0,0,0,0,0,0,1,1,0,0,0,0,7,7,249,272
799,1148,823,1157,anti,O,0,0,0,0,0,0,1,1,0,0,0,0,4,0,-1,273
164,1160,168,1170,En,O,0,0,1,0,0,0,1,1,0,0,0,0,34,19,251,292
187,1163,208,1170,cas,O,0,0,0,0,0,0,1,1,0,0,0,0,34,6,252,292
214,1160,228,1170,de,O,0,0,0,0,0,0,1,1,0,0,0,0,37,7,253,294
235,1163,259,1170,non,O,0,0,0,0,0,0,1,1,0,0,0,0,37,6,254,295
265,1162,313,1173,respect,O,0,0,0,0,0,0,1,1,0,0,0,0,4,6,255,257
319,1160,334,1171,de,O,0,0,0,0,0,0,1,1,0,0,0,0,7,6,256,258
340,1160,378,1171,l'éché:,O,0,0,0,0,0,0,0,0,0,0,0,0,4,43,260,259
303,1177,314,1185,et,O,0,0,0,0,0,0,1,1,0,0,0,0,19,7,258,296
321,1178,344,1185,une,O,0,0,0,0,0,0,1,1,0,0,0,0,19,7,259,296
351,1175,405,1185,indemnii,O,0,0,0,0,0,0,1,1,0,0,0,0,19,20,261,297
421,1160,435,1171,de:,O,0,0,0,0,0,0,0,1,0,0,0,0,5,19,262,261
425,1176,433,1185,fo,O,0,0,0,0,0,0,1,1,0,0,0,0,19,66,281,298
454,1162,466,1171,nt,O,0,0,0,0,0,0,1,1,0,0,0,0,33,28,263,299
494,1164,499,1170,S,O,0,0,1,1,0,0,1,1,0,0,0,0,34,6,264,299
505,1160,520,1171,de,O,0,0,0,0,0,0,1,1,0,0,0,0,7,6,265,281
526,1161,565,1171,retard,O,0,0,0,0,0,0,1,1,0,0,0,0,5,6,266,282
571,1164,583,1174,po,O,0,0,0,0,0,0,1,1,0,0,0,0,2,20,267,283
603,1163,630,1171,ront,O,0,0,0,0,0,0,1,1,0,0,0,0,7,5,268,284
635,1163,660,1171,être,O,0,0,0,0,0,0,1,0,0,0,0,0,34,12,269,303
672,1163,721,1171,facturés,O,0,0,0,0,0,0,1,0,0,0,0,0,5,5,270,286
726,1161,733,1171,à,O,0,0,0,0,0,0,1,0,0,0,0,0,5,6,271,287
739,1164,750,1171,un,O,1,0,0,0,0,0,1,1,0,0,0,0,8,16,272,288
766,1164,789,1172,aux,O,0,0,0,0,0,0,1,1,0,0,0,0,7,23,273,289
812,1161,823,1171,al,O,0,0,0,0,0,0,1,1,0,0,0,0,34,6,274,306
829,1161,835,1172,à,O,0,0,0,0,0,0,1,0,0,0,0,0,4,6,275,290
841,1163,871,1172,trois,O,1,0,0,0,0,0,1,1,0,0,0,0,4,6,276,290
877,1162,902,1172,fois,O,0,0,0,0,0,0,1,1,0,0,0,0,4,6,277,291
908,1161,918,1172,le,O,0,0,0,0,0,0,1,1,0,0,0,0,33,6,278,309
924,1163,953,1172,taux,O,0,0,0,0,0,0,1,1,0,0,0,0,33,6,279,309
959,1161,1014,1172,d'intérêt,O,0,0,0,0,0,0,0,0,0,0,0,0,33,7,280,310
1021,1161,1053,1175,légal,O,0,0,0,0,0,0,1,0,0,0,0,0,34,0,-1,312
499,1178,530,1188,pour,O,0,0,0,0,0,0,1,1,0,0,0,0,16,6,282,299
536,1176,565,1186,frais,O,0,0,0,0,0,0,1,1,0,0,0,0,18,6,283,300
571,1176,585,1186,de,O,0,0,0,0,0,0,1,1,0,0,0,0,18,7,284,301
592,1178,644,1186,recouvr,O,0,0,0,0,0,0,1,1,0,0,0,0,19,30,285,302
674,1177,686,1186,nt,O,0,0,0,0,0,0,1,1,0,0,0,0,77,6,286,331
692,1176,706,1186,de,O,0,0,0,0,0,0,1,1,0,0,0,0,19,6,287,304
712,1176,729,1186,40,O,1,0,0,0,1,0,0,1,1,0,0,0,19,5,288,304
734,1179,771,1186,euros,O,0,0,0,0,0,0,1,1,0,0,0,0,19,6,289,305
777,1179,804,1186,sera,O,0,0,0,0,0,0,1,1,0,0,0,0,19,22,290,306
826,1176,880,1186,alement,O,0,0,0,0,0,0,1,1,0,0,0,0,19,5,291,307
885,1176,909,1186,due.,O,0,0,0,0,0,0,0,1,0,0,0,0,21,0,-1,308
114,1204,206,1214,ivertissement,O,0,0,0,0,0,0,1,1,0,0,0,0,0,4,293,-1
210,1196,215,1224,:,O,0,1,0,0,0,0,0,1,0,0,0,0,0,6,294,-1
221,1207,232,1214,si,O,0,0,0,0,0,0,1,1,0,0,0,0,0,6,295,-1
238,1207,268,1214,vous,O,0,0,0,0,0,0,1,1,0,0,0,0,0,8,296,-1
276,1204,340,1214,souhaitez,O,0,0,0,0,0,0,1,1,0,0,0,0,0,6,297,-1
346,1204,412,1215,bénéficier,O,0,0,0,0,0,0,1,0,0,0,0,0,3,10,298,314
422,1204,436,1214,de,O,0,0,0,0,0,0,1,1,0,0,0,0,5,5,299,316
441,1204,534,1217,l'engagement,O,0,0,0,0,0,0,0,1,0,0,0,0,-7,-50,317,317
541,1204,555,1215,"""le",O,0,0,0,0,0,0,0,1,0,0,0,0,7,8,301,318
563,1204,597,1215,droit,O,0,0,0,0,0,0,1,1,0,0,0,0,7,6,302,319
603,1205,618,1215,de,O,0,0,0,0,0,0,1,1,0,0,0,0,8,6,303,320
624,1205,678,1217,changer,O,0,0,0,0,0,0,1,1,0,0,0,0,4,8,304,322
686,1205,719,1215,d'avi,O,0,0,0,0,0,0,0,1,0,0,0,0,4,25,305,323
744,1205,771,1215,seul,O,0,0,0,0,0,0,1,1,0,0,0,0,8,5,306,324
776,1205,841,1218,l'original,O,0,0,0,0,0,0,0,1,0,0,0,0,1,4,307,326
845,1205,861,1215,de,O,0,0,0,0,0,0,1,1,0,0,0,0,4,7,308,326
868,1207,902,1215,votre,O,0,0,0,0,0,0,1,1,0,0,0,0,77,6,309,353
908,1205,945,1215,ticket,O,0,0,0,0,0,0,1,1,0,0,0,0,0,5,310,-1
950,1205,966,1215,de,O,0,0,0,0,0,0,1,1,0,0,0,0,0,5,311,-1
971,1208,1013,1215,caisse,O,0,0,0,0,0,0,1,1,0,0,0,0,0,7,312,-1
1020,1209,1049,1215,sera,O,0,0,0,0,0,0,1,1,0,0,0,0,0,4,313,-1
1053,1207,1107,1218,accepté.,O,0,0,0,0,0,0,0,0,0,0,0,0,0,0,-1,-1
341,1218,359,1228,La,O,0,0,1,0,0,0,1,1,0,0,0,0,63,4,315,342
363,1221,419,1231,présente,O,0,0,0,0,0,0,1,0,0,0,0,0,31,8,316,327
427,1219,495,1231,facture,O,0,0,0,0,0,0,1,1,0,0,0,0,31,-11,317,327
484,1210,499,1239,ne,O,0,0,0,0,0,0,1,1,0,0,0,0,-20,3,318,316
502,1222,551,1232,pourra,O,0,0,0,0,0,0,1,1,0,0,0,0,30,5,319,328
556,1222,572,1229,en,O,0,0,0,0,0,0,1,1,0,0,0,0,33,5,320,328
577,1223,615,1229,aucun,O,0,0,0,0,0,0,1,1,0,0,0,0,33,9,321,328
624,1223,647,1229,cas,O,0,0,0,0,0,0,1,1,0,0,0,0,34,6,322,329
653,1221,676,1229,être,O,0,0,0,0,0,0,1,0,0,0,0,0,37,8,323,330
684,1219,742,1232,produite,O,0,0,0,0,0,0,1,1,0,0,0,0,31,6,324,331
748,1223,779,1232,pour,O,0,0,0,0,0,0,1,1,0,0,0,0,31,8,325,333
787,1223,803,1230,en,O,0,0,0,0,0,0,1,1,0,0,0,0,33,6,326,333
809,1219,875,1231,bénéficier,O,0,0,0,0,0,0,1,0,0,0,0,0,35,0,-1,334
361,1262,465,1286,CARREFOUR,O,0,0,0,1,0,0,1,1,0,0,0,0,-9,1,335,343
472,1262,613,1272,HYPERMARCHES,O,0,0,0,1,0,0,1,1,0,0,0,0,5,6,329,336
619,1263,649,1272,SAS,O,0,0,0,1,0,0,1,1,0,0,0,0,5,6,330,338
655,1266,670,1273,au,O,0,0,0,0,0,0,1,1,0,0,0,0,0,6,331,-1
676,1263,721,1276,capital,O,0,0,0,0,0,0,1,1,0,0,0,0,1,6,332,339
727,1263,742,1273,de,O,0,0,0,0,0,0,1,1,0,0,0,0,4,6,333,340
748,1263,818,1273,6.922.200,O,1,0,0,0,0,0,0,1,1,0,0,0,4,5,334,341
823,1266,860,1273,euros,O,0,0,0,0,0,0,1,1,0,0,0,0,19,0,-1,352
466,1280,488,1287,jean,O,0,0,0,0,0,0,1,1,0,0,0,0,0,7,336,-1
495,1277,552,1287,Mermoz,O,0,0,1,0,0,0,1,1,0,0,0,0,4,5,337,344
557,1277,590,1287,ZAE,O,0,0,0,1,0,0,1,1,0,0,0,0,4,6,338,345
596,1277,644,1287,Saint-C,O,0,0,1,0,0,0,0,1,0,0,0,0,5,32,339,346
676,1277,702,1287,ault,O,0,0,0,0,0,0,1,1,0,0,0,0,5,5,340,349
707,1277,750,1287,91002,O,1,0,0,0,1,0,0,1,1,0,0,0,-4,17,341,351
767,1277,777,1287,EV,O,0,0,0,1,0,0,1,1,0,0,0,0,0,0,-1,-1
321,1291,369,1301,SIRET,O,0,0,0,1,0,0,1,1,0,0,0,0,0,5,343,-1
374,1277,496,1302,45132133500099,O,1,0,0,0,1,0,0,1,1,0,0,0,-22,-30,335,335
503,1291,533,1302,RCS,O,0,0,0,1,0,0,1,1,0,0,0,0,0,8,345,-1
541,1291,586,1302,EVRY,O,0,0,0,1,0,0,1,1,0,0,0,0,0,7,346,-1
593,1292,602,1302,B,O,0,0,1,1,0,0,1,1,0,0,0,0,34,7,347,354
609,1292,631,1302,IST,O,0,0,0,1,0,0,1,1,0,0,0,0,34,9,348,354
640,1292,655,1302,52,O,1,0,0,0,1,0,0,1,1,0,0,0,34,34,349,355
689,1292,695,1300,S,O,0,0,1,1,0,0,1,1,0,0,0,0,0,9,350,-1
704,1292,749,1302,TVA,O,0,0,0,1,0,0,1,1,0,0,0,0,0,-8,351,-1
741,1283,753,1311,C,O,0,0,1,1,0,0,1,1,0,0,0,0,-19,27,352,350
780,1292,841,1302,FR9045,O,0,0,0,1,0,0,0,1,1,0,0,0,0,7,353,-1
848,1292,896,1302,1321335,O,1,0,0,0,1,0,0,1,1,0,0,0,0,0,-1,-1
586,1336,622,1350,Page,O,0,0,1,0,0,0,1,1,0,0,0,0,0,9,355,-1
631,1336,651,1347,1/2,O,1,0,0,0,0,0,0,1,1,0,0,0,0,0,-1,-1
