xmin,ymin,xmax,ymax,Object,label,like_num,is_punct,is_title,is_upper,is_digit,is_currency,is_alpha,is_ascii,hasNumbers,hascurrency,like_email,like_url,dh,dv,v_hor,v_vert
454,76,559,89,FACTURE,O,0,0,0,1,0,0,1,1,0,0,0,0,90,8,1,9
567,76,597,89,N°:,O,0,0,1,1,0,0,0,0,0,0,0,0,0,11,2,-1
608,74,800,89,13860013415631BF,NUMBER,0,0,0,1,0,0,0,1,1,0,0,0,115,0,-1,12
92,68,286,96,Carrefour,LOGO,0,0,1,0,0,0,1,1,0,0,0,0,86,16,4,5
302,63,382,106,(8,O,0,0,0,0,0,0,0,1,1,0,0,0,75,72,0,6
139,182,206,195,TVACX),O,0,0,0,1,0,0,0,1,0,0,0,0,60,100,6,17
306,181,346,192,Total,O,0,0,1,0,0,0,1,1,0,0,0,0,0,6,7,-1
352,181,376,192,HT,O,0,0,0,1,0,0,1,1,0,0,0,0,0,115,8,-1
491,180,531,191,Total,O,0,0,1,0,0,0,1,1,0,0,0,0,0,4,9,-1
535,179,572,191,TVA,O,0,0,0,1,0,0,1,1,0,0,0,0,0,0,-1,-1
211,206,240,216,5.50,O,1,0,0,0,0,0,0,1,1,0,0,0,14,161,11,14
401,205,430,215,0.97,O,1,0,0,0,0,0,0,1,1,0,0,0,14,161,12,15
591,204,620,215,0.05,O,1,0,0,0,0,0,0,1,1,0,0,0,13,0,-1,13
592,228,620,239,723,O,1,0,0,0,1,0,0,1,1,0,0,0,14,0,-1,16
202,230,240,241,20.00,O,1,0,0,0,0,0,0,1,1,0,0,0,13,152,15,18
392,229,430,240,36.17,O,1,0,0,0,0,0,0,1,1,0,0,0,14,162,13,19
591,253,621,264,"7,29",O,1,0,0,0,0,0,0,1,1,0,0,0,0,0,-1,-1
165,255,227,266,TOTAL,O,0,0,0,1,0,0,1,1,0,0,0,0,0,4,18,-1
231,254,240,265,€,O,0,0,0,0,0,1,0,0,0,1,0,0,0,152,19,-1
392,254,430,266,"37,13",O,1,0,0,0,0,0,0,1,1,0,0,0,0,161,16,-1
394,1123,411,1133,La,O,0,0,1,0,0,0,1,1,0,0,0,0,5,6,21,31
417,1123,474,1136,présente,O,0,0,0,0,0,0,1,0,0,0,0,0,3,6,22,32
480,1123,527,1133,facture,O,0,0,0,0,0,0,1,1,0,0,0,0,7,5,23,33
532,1125,559,1133,sera,O,0,0,0,0,0,0,1,1,0,0,0,0,7,6,24,34
565,1122,618,1136,payable,O,0,0,0,0,0,0,1,1,0,0,0,0,1,6,25,35
624,1123,630,1133,à,O,0,0,0,0,0,0,1,0,0,0,0,0,7,7,26,36
637,1122,707,1133,l'échéance,O,0,0,0,0,0,0,0,0,0,0,0,0,3,7,27,37
714,1122,767,1135,figurant,O,0,0,0,0,0,0,1,1,0,0,0,0,2,6,28,38
773,1125,794,1132,sur,O,0,0,0,0,0,0,1,1,0,0,0,0,5,6,29,38
800,1122,811,1132,la,O,0,0,0,0,0,0,1,1,0,0,0,0,7,6,30,39
817,1121,863,1132,facture,O,0,0,0,0,0,0,1,1,0,0,0,0,5,0,-1,40
383,1138,428,1148,Aucun,O,0,0,1,0,0,0,1,1,0,0,0,0,4,5,32,54
433,1139,498,1150,escompte,O,0,0,0,0,0,0,1,1,0,0,0,0,2,6,33,41
504,1140,519,1147,ne,O,0,0,0,0,0,0,1,1,0,0,0,0,22,12,34,69
531,1140,552,1147,sera,O,0,0,0,0,0,0,1,1,0,0,0,0,4,5,35,55
557,1137,616,1150,appliqué,O,0,0,0,0,0,0,1,0,0,0,0,0,1,7,36,56
623,1140,654,1150,pour,O,0,0,0,0,0,0,1,1,0,0,0,0,3,5,37,57
659,1136,722,1150,paiement,O,0,0,0,0,0,0,1,1,0,0,0,0,1,5,38,58
727,1137,792,1149,comptant,O,0,0,0,0,0,0,1,1,0,0,0,0,4,5,39,44
797,1139,813,1146,ou,O,0,0,0,0,0,0,1,1,0,0,0,0,8,6,40,45
819,1137,856,1146,antici,O,0,0,0,0,0,0,1,1,0,0,0,0,4,0,-1,46
441,1152,463,1162,des,O,0,0,0,0,0,0,1,1,0,0,0,0,5,6,42,68
469,1153,494,1162,intéi,O,0,0,0,0,0,0,1,0,0,0,0,0,5,31,55,68
760,1154,775,1161,un,O,1,0,0,0,0,0,1,1,0,0,0,0,7,7,44,76
782,1153,793,1161,taux,O,0,0,0,0,0,0,1,1,0,0,0,0,7,10,45,76
803,1154,822,1161,&,O,0,1,0,0,0,0,0,1,0,0,0,0,7,10,46,77
832,1150,843,1161,al,O,0,0,0,0,0,0,1,1,0,0,0,0,4,8,47,78
851,1151,866,1161,at,O,0,0,0,0,0,0,1,1,0,0,0,0,4,33,60,78
183,1153,201,1163,En,O,0,0,1,0,0,0,1,1,0,0,0,0,36,5,49,81
206,1155,228,1163,cas,O,0,0,0,0,0,0,1,1,0,0,0,0,36,5,50,81
233,1152,249,1163,de,O,0,0,0,0,0,0,1,1,0,0,0,0,37,6,51,82
255,1155,279,1163,non,O,0,0,0,0,0,0,1,1,0,0,0,0,37,6,52,83
285,1154,333,1165,respect,O,0,0,0,0,0,0,1,1,0,0,0,0,4,6,53,65
339,1152,354,1162,de,O,0,0,0,0,0,0,1,1,0,0,0,0,7,6,54,66
360,1152,415,1162,l'échéant,O,0,0,0,0,0,0,0,0,0,0,0,0,5,26,41,67
525,1151,540,1162,de,O,0,0,0,0,0,0,1,1,0,0,0,0,7,6,56,70
546,1151,585,1162,retard,O,0,0,0,0,0,0,1,1,0,0,0,0,4,6,57,71
591,1153,651,1165,pourront,O,0,0,0,0,0,0,1,1,0,0,0,0,1,4,58,72
655,1151,681,1162,être,O,0,0,0,0,0,0,1,0,0,0,0,0,5,6,59,73
687,1151,727,1161,facture,O,0,0,0,0,0,0,1,1,0,0,0,0,4,33,43,74
899,1150,923,1160,fois,O,0,0,0,0,0,0,1,1,0,0,0,0,5,6,61,79
929,1150,939,1160,le,O,0,0,0,0,0,0,1,1,0,0,0,0,5,6,62,79
945,1152,974,1160,taux,O,0,0,0,0,0,0,1,1,0,0,0,0,34,5,63,97
979,1150,1036,1160,d'intérêt,O,0,0,0,0,0,0,0,0,0,0,0,0,34,6,64,98
1042,1149,1074,1163,légal,O,0,0,0,0,0,0,1,0,0,0,0,0,34,0,-1,100
323,1169,335,1177,et,O,0,0,0,0,0,0,1,1,0,0,0,0,19,6,66,84
341,1169,364,1177,une,O,0,0,0,0,0,0,1,1,0,0,0,0,19,11,67,84
375,1167,438,1177,indemnité,O,0,0,0,0,0,0,1,0,0,0,0,0,19,7,68,85
445,1167,495,1177,forfaitai,O,0,0,0,0,0,0,1,1,0,0,0,0,19,12,69,86
507,1169,513,1176,e,O,0,0,0,0,0,0,1,1,0,0,0,0,20,6,70,87
519,1169,550,1179,pour,O,0,0,0,0,0,0,1,1,0,0,0,0,17,6,71,87
556,1166,586,1176,frais,O,0,0,0,0,0,0,1,1,0,0,0,0,19,5,72,88
591,1166,607,1176,de,O,0,0,0,0,0,0,1,1,0,0,0,0,19,5,73,89
612,1167,707,1176,recouvrement,O,0,0,0,0,0,0,1,1,0,0,0,0,19,5,74,90
712,1165,727,1176,de,O,0,0,0,0,0,0,1,1,0,0,0,0,19,6,75,92
733,1165,750,1176,40,O,1,0,0,0,1,0,0,1,1,0,0,0,19,5,76,92
755,1168,792,1176,euros,O,0,0,0,0,0,0,1,1,0,0,0,0,19,5,77,93
797,1168,824,1176,sera,O,0,0,0,0,0,0,1,1,0,0,0,0,18,5,78,94
829,1165,900,1178,également,O,0,0,0,0,0,0,1,0,0,0,0,0,16,6,79,94
906,1165,934,1175,due.,O,0,0,0,0,0,0,0,1,0,0,0,0,21,0,-1,96
131,1197,170,1207,Averti,O,0,0,1,0,0,0,1,1,0,0,0,0,0,15,81,-1
185,1199,226,1207,ement,O,0,0,0,0,0,0,1,1,0,0,0,0,0,15,82,-1
241,1200,253,1207,si,O,0,0,0,0,0,0,1,1,0,0,0,0,0,6,83,-1
259,1200,288,1207,vous,O,0,0,0,0,0,0,1,1,0,0,0,0,0,6,84,-1
294,1196,360,1206,souhaitez,O,0,0,0,0,0,0,1,1,0,0,0,0,77,6,85,133
366,1196,436,1209,bénéficier,O,0,0,0,0,0,0,1,0,0,0,0,0,1,4,86,102
440,1196,456,1206,de,O,0,0,0,0,0,0,1,1,0,0,0,0,4,6,87,104
462,1196,555,1209,l'engagement,O,0,0,0,0,0,0,0,1,0,0,0,0,1,7,88,104
562,1195,579,1206,"""le",O,0,0,0,0,0,0,0,1,0,0,0,0,7,5,89,106
584,1195,618,1206,droit,O,0,0,0,0,0,0,1,1,0,0,0,0,7,5,90,107
623,1195,639,1206,de,O,0,0,0,0,0,0,1,1,0,0,0,0,7,5,91,108
644,1195,699,1208,changer,O,0,0,0,0,0,0,1,1,0,0,0,0,2,7,92,110
706,1195,757,1206,"d'avis”,",O,0,0,0,0,0,0,0,0,0,0,0,0,3,6,93,111
763,1195,792,1205,seul,O,0,0,0,0,0,0,1,1,0,0,0,0,8,5,94,112
797,1194,862,1208,l'original,O,0,0,0,0,0,0,0,1,0,0,0,0,1,4,95,114
866,1194,882,1204,de,O,0,0,0,0,0,0,1,1,0,0,0,0,5,6,96,114
888,1196,923,1204,votre,O,0,0,0,0,0,0,1,1,0,0,0,0,77,6,97,143
929,1194,966,1204,ticket,O,0,0,0,0,0,0,1,1,0,0,0,0,0,5,98,-1
971,1194,987,1204,de,O,0,0,0,0,0,0,1,1,0,0,0,0,0,5,99,-1
992,1197,1035,1204,caisse,O,0,0,0,0,0,0,1,1,0,0,0,0,0,6,100,-1
1041,1197,1070,1204,sera,O,0,0,0,0,0,0,1,1,0,0,0,0,0,5,101,-1
1075,1194,1128,1207,accepté.,O,0,0,0,0,0,0,0,0,0,0,0,0,0,0,-1,-1
362,1210,379,1221,La,O,0,0,1,0,0,0,1,1,0,0,0,0,0,4,103,-1
383,1210,443,1223,présente,O,0,0,0,0,0,0,1,0,0,0,0,0,31,5,104,115
448,1210,497,1222,facture,O,0,0,0,0,0,0,1,1,0,0,0,0,32,6,105,115
503,1213,518,1220,ne,O,0,0,0,0,0,0,1,1,0,0,0,0,33,4,106,116
522,1213,572,1223,pourra,O,0,0,0,0,0,0,1,1,0,0,0,0,30,5,107,117
577,1213,593,1220,en,O,0,0,0,0,0,0,1,1,0,0,0,0,33,5,108,117
598,1213,641,1220,aucun,O,0,0,0,0,0,0,1,1,0,0,0,0,33,5,109,117
646,1213,669,1220,cas,O,0,0,0,0,0,0,1,1,0,0,0,0,33,5,110,118
674,1210,700,1220,être,O,0,0,0,0,0,0,1,0,0,0,0,0,36,5,111,119
705,1209,764,1222,produite,O,0,0,0,0,0,0,1,1,0,0,0,0,30,5,112,120
769,1213,800,1222,pour,O,0,0,0,0,0,0,1,1,0,0,0,0,30,8,113,122
808,1212,824,1219,en,O,0,0,0,0,0,0,1,1,0,0,0,0,33,5,114,122
829,1209,899,1222,bénéficier.,O,0,0,0,0,0,0,0,0,0,0,0,0,33,0,-1,123
382,1254,486,1264,CARREFOUR,O,0,0,0,1,0,0,1,1,0,0,0,0,4,7,116,124
493,1253,531,1263,HYPE,O,0,0,0,1,0,0,1,1,0,0,0,0,5,20,117,126
551,1253,624,1263,MARCHE:,O,0,0,0,1,0,0,0,1,0,0,0,0,5,16,118,129
640,1253,670,1263,SAS,O,0,0,0,1,0,0,1,1,0,0,0,0,5,6,119,130
676,1256,688,1263,au,O,0,0,0,0,0,0,1,1,0,0,0,0,19,25,120,139
713,1252,743,1266,pital,O,0,0,0,0,0,0,1,1,0,0,0,0,1,5,121,131
748,1253,764,1263,de,O,0,0,0,0,0,0,1,1,0,0,0,0,4,5,122,131
769,1252,839,1263,6.922.200,O,1,0,0,0,0,0,0,1,1,0,0,0,4,5,123,132
844,1255,881,1263,euros,O,0,0,0,0,0,0,1,1,0,0,0,0,18,0,-1,143
442,1268,445,1278,1,O,1,0,0,0,1,0,0,1,1,0,0,0,4,9,125,134
454,1271,474,1278,rue,O,0,0,0,0,0,0,1,1,0,0,0,0,4,6,126,134
480,1268,510,1278,Jean,O,0,0,1,0,0,0,1,1,0,0,0,0,4,6,127,134
516,1268,529,1278,M,O,0,0,1,1,0,0,1,1,0,0,0,0,0,16,128,-1
545,1271,573,1278,moz,O,0,0,0,0,0,0,1,1,0,0,0,0,0,6,129,-1
579,1268,600,1278,ZA,O,0,0,0,1,0,0,1,1,0,0,0,0,4,36,130,136
636,1268,664,1278,int-C,O,0,0,0,0,0,0,0,1,0,0,0,0,4,64,131,138
728,1267,771,1277,91002,O,1,0,0,0,1,0,0,1,1,0,0,0,5,17,132,141
788,1267,824,1277,EVRY,O,0,0,0,1,0,0,1,1,0,0,0,0,4,0,-1,143
342,1283,368,1293,SIR),O,0,0,0,1,0,0,0,1,0,0,0,0,0,27,134,-1
395,1282,517,1293,45132133500999,O,1,0,0,0,1,0,0,1,1,0,0,0,0,7,135,-1
524,1282,555,1293,RCS,O,0,0,0,1,0,0,1,1,0,0,0,0,0,7,136,-1
562,1282,607,1293,EVRY,O,0,0,0,1,0,0,1,1,0,0,0,0,0,7,137,-1
614,1282,620,1293,B,O,0,0,1,1,0,0,1,1,0,0,0,0,34,9,138,144
629,1282,653,1293,451,O,1,0,0,0,1,0,0,1,1,0,0,0,34,8,139,144
661,1282,683,1292,321,O,1,0,0,0,1,0,0,1,1,0,0,0,34,9,140,145
692,1282,716,1292,335,O,1,0,0,0,1,0,0,1,1,0,0,0,0,6,141,-1
722,1282,757,1292,TVA,O,0,0,0,1,0,0,1,1,0,0,0,0,0,6,142,-1
763,1282,795,1292,CEE,O,0,0,0,1,0,0,1,1,0,0,0,0,0,7,143,-1
802,1281,918,1292,FR90451321335,O,0,0,0,1,0,0,0,1,1,0,0,0,0,0,-1,-1
607,1327,644,1341,Page,O,0,0,1,0,0,0,1,1,0,0,0,0,0,6,145,-1
650,1326,673,1337,2/2,O,1,0,0,0,0,0,0,1,1,0,0,0,0,0,-1,-1
