xmin,ymin,xmax,ymax,Object,label,like_num,is_punct,is_title,is_upper,is_digit,is_currency,is_alpha,is_ascii,hasNumbers,hascurrency,like_email,like_url,dh,dv,v_hor,v_vert
844,88,901,99,Numéro,O,0,0,1,0,0,0,1,0,0,0,0,0,49,6,1,11
907,88,923,99,de,O,0,0,0,0,0,0,1,1,0,0,0,0,0,6,2,-1
929,88,940,99,la,O,0,0,0,0,0,0,1,1,0,0,0,0,0,6,3,-1
946,88,997,99,facture,O,0,0,0,0,0,0,1,1,0,0,0,0,0,14,4,-1
1011,88,1102,99,3617772809,NUMBER,1,0,0,0,1,0,0,1,1,0,0,0,49,0,-1,13
97,72,155,103,Go,LOGO,0,0,1,0,0,0,1,1,0,0,0,0,45,26,6,8
181,73,242,112,gle,LOGO,0,0,0,0,0,0,1,1,0,0,0,0,0,24,7,-1
266,83,365,102,Facture,O,0,0,1,0,0,0,1,1,0,0,0,0,46,479,0,9
97,148,192,159,Abonnement,O,0,0,1,0,0,0,1,1,0,0,0,0,26,125,9,14
317,148,400,162,Description,O,0,0,1,0,0,0,1,1,0,0,0,0,23,127,10,17
527,148,595,159,Intervalle,O,0,0,1,0,0,0,1,1,0,0,0,0,26,244,11,21
839,148,901,160,Quantité,O,0,0,1,0,0,0,1,0,0,0,0,0,26,116,12,18
1017,149,1078,159,Montant,O,0,0,1,0,0,0,1,1,0,0,0,0,105,5,13,39
1083,148,1102,162,(€),O,0,0,0,0,0,0,0,0,0,1,0,0,23,0,-1,19
98,185,107,197,G,O,0,0,1,1,0,0,1,1,0,0,0,0,26,6,15,25
113,185,149,197,Suite,O,0,0,1,0,0,0,1,1,0,0,0,0,26,6,16,26
155,186,194,197,Basic,O,0,0,1,0,0,0,1,1,0,0,0,0,26,123,17,27
317,185,389,197,Utilisation,O,0,0,1,0,0,0,1,1,0,0,0,0,26,138,20,28
884,186,898,196,11,O,1,0,0,0,1,0,0,1,1,0,0,0,27,176,19,34
1074,185,1103,197,"5,53",O,1,0,0,0,0,0,0,1,1,0,0,0,26,0,-1,35
527,186,532,196,1,O,1,0,0,0,1,0,0,1,1,0,0,0,27,6,21,29
538,185,559,200,juil.,O,0,0,0,0,0,0,0,1,0,0,0,0,23,10,22,30
569,191,573,193,-,O,0,1,0,0,0,0,0,1,0,0,0,0,0,7,23,-1
580,185,583,197,3,O,1,0,0,0,1,0,0,1,1,0,0,0,26,7,24,32
590,185,611,200,juil,O,0,0,0,0,0,0,1,1,0,0,0,0,23,273,18,33
98,223,107,234,G,O,0,0,1,1,0,0,1,1,0,0,0,0,0,6,26,-1
113,223,149,234,Suite,O,0,0,1,0,0,0,1,1,0,0,0,0,0,6,27,-1
155,223,194,234,Basic,O,0,0,1,0,0,0,1,1,0,0,0,0,0,123,28,-1
317,223,389,234,Utilisation,O,0,0,1,0,0,0,1,1,0,0,0,0,0,137,29,-1
526,223,533,234,4,O,1,0,0,0,1,0,0,1,1,0,0,0,0,5,30,-1
538,223,563,237,juil.,O,0,0,0,0,0,0,0,1,0,0,0,0,0,6,31,-1
569,229,573,230,-,O,0,1,0,0,0,0,0,1,0,0,0,0,0,5,32,-1
578,223,593,234,31,O,1,0,0,0,1,0,0,1,1,0,0,0,0,6,33,-1
599,223,624,237,juil.,O,0,0,0,0,0,0,0,1,0,0,0,0,27,260,34,36
884,223,901,234,10,O,1,0,0,0,1,0,0,1,1,0,0,0,0,162,35,-1
1063,223,1103,236,"46,96",O,1,0,0,0,0,0,0,1,1,0,0,0,28,0,-1,39
601,264,674,275,Sous-total,O,0,0,0,0,0,0,0,1,0,0,0,0,13,6,37,42
680,267,696,275,en,O,0,0,0,0,0,0,1,1,0,0,0,0,61,6,38,47
702,264,731,275,EUR,O,0,0,0,1,0,0,1,1,0,0,0,0,0,320,39,-1
1051,264,1089,277,"52,49",O,1,0,0,0,0,0,0,1,1,0,0,0,12,6,40,43
1095,264,1103,275,€,O,0,0,0,0,0,1,0,0,0,1,0,0,14,0,-1,44
600,289,631,300,TVA,O,0,0,0,1,0,0,1,1,0,0,0,0,35,5,42,45
636,288,667,303,(0%),O,0,0,0,0,0,0,0,1,1,0,0,0,35,393,43,46
1060,289,1089,301,"0,00",O,1,0,0,0,0,0,0,1,1,0,0,0,32,6,44,48
1095,289,1103,300,€,O,0,0,0,0,0,1,0,0,0,1,0,0,33,0,-1,49
600,335,636,347,Total,O,0,0,1,0,0,0,1,1,0,0,0,0,0,6,46,-1
642,338,658,347,en,O,0,0,0,0,0,0,1,1,0,0,0,0,0,7,47,-1
665,336,693,347,EUR,O,0,0,0,1,0,0,1,1,0,0,0,0,0,322,48,-1
1015,333,1080,354,"52,49",TOTAL,1,0,0,0,0,0,0,1,1,0,0,0,0,9,49,-1
1089,333,1102,351,€,O,0,0,0,0,0,1,0,0,0,1,0,0,0,0,-1,-1
1013,1459,1103,1472,Page,O,0,0,1,0,0,0,1,1,0,0,0,0,0,-51,51,-1
1052,1450,1060,1479,2,O,1,0,0,0,1,0,0,1,1,0,0,0,-20,7,52,50
1067,1450,1089,1479,sur,O,0,0,0,0,0,0,1,1,0,0,0,0,-20,7,53,50
1096,1450,1106,1479,2,O,1,0,0,0,1,0,0,1,1,0,0,0,-20,0,-1,50
