xmin,ymin,xmax,ymax,Object,label,like_num,is_punct,is_title,is_upper,is_digit,is_currency,is_alpha,is_ascii,hasNumbers,hascurrency,like_email,like_url,dh,dv,v_hor,v_vert
455,81,560,94,FACTURE,O,0,0,0,1,0,0,1,1,0,0,0,0,0,7,1,-1
567,81,598,94,N°:,O,0,0,1,1,0,0,0,0,0,0,0,0,0,12,2,-1
610,81,801,95,13860013415631BF,NUMBER,0,0,0,1,0,0,0,1,1,0,0,0,0,0,-1,-1
93,71,287,99,Carrefour,LOGO,0,0,1,0,0,0,1,1,0,0,0,0,82,45,4,5
332,68,383,111,<@>,O,0,0,0,0,0,0,0,1,0,0,0,0,70,72,0,7
100,181,227,194,CARREFOUR,COMPANY_NAME,0,0,0,1,0,0,1,1,0,0,0,0,5,8,6,15
235,181,323,194,AULNAY,COMPANY_NAME,0,0,0,1,0,0,1,1,0,0,0,0,6,8,7,17
331,181,385,194,SOUS,COMPANY_NAME,0,0,0,1,0,0,1,1,0,0,0,0,41,8,8,26
393,181,439,194,BOIS,COMPANY_NAME,0,0,0,1,0,0,1,1,0,0,0,0,59,335,9,35
774,136,986,191,UMC,O,0,0,0,1,0,0,1,1,0,0,0,0,3,97,14,13
1102,136,1117,191,|,O,0,0,0,0,0,0,0,1,0,0,0,0,378,6,11,75
1123,136,1126,191,|,O,0,0,0,0,0,0,0,1,0,0,0,0,378,12,12,75
1138,136,1156,191,|,O,0,0,0,0,0,0,0,1,0,0,0,0,406,0,-1,86
799,194,1105,208,0999900130140218190801210,O,1,0,0,0,1,0,0,1,1,0,0,0,99,-22,14,45
1083,136,1090,208,|,O,0,0,0,0,0,0,0,1,0,0,0,0,-14,12,10,13
100,199,156,212,Centre,COMPANY_ADDRESS,0,0,1,0,0,0,1,1,0,0,0,0,5,6,16,18
162,199,266,212,Commercial,COMPANY_ADDRESS,0,0,1,0,0,0,1,1,0,0,0,0,5,9,17,19
275,200,337,212,Parinor,COMPANY_ADDRESS,0,0,1,0,0,0,1,1,0,0,0,0,5,462,13,22
100,217,119,229,22,COMPANY_ADDRESS,1,0,0,0,1,0,0,1,1,0,0,0,6,9,19,23
128,217,189,230,Parinor,COMPANY_ADDRESS,0,0,1,0,0,0,1,1,0,0,0,0,5,6,20,23
195,224,201,226,-,COMPANY_ADDRESS,0,1,0,0,0,0,0,1,0,0,0,0,9,7,21,24
208,217,272,230,Secteur,COMPANY_ADDRESS,0,0,1,0,0,0,1,1,0,0,0,0,5,5,22,24
277,217,311,229,N°2,COMPANY_ADDRESS,0,0,1,1,0,0,0,0,1,0,0,0,6,0,-1,25
100,235,152,247,93600,COMPANY_ADDRESS,1,0,0,0,1,0,0,1,1,0,0,0,6,7,24,27
159,235,248,247,AULNAY,COMPANY_ADDRESS,0,0,0,1,0,0,1,1,0,0,0,0,6,8,25,28
256,235,309,247,SOUS,COMPANY_ADDRESS,0,0,0,1,0,0,1,1,0,0,0,0,6,8,26,32
317,235,363,247,BOIS,COMPANY_ADDRESS,0,0,0,1,0,0,1,1,0,0,0,0,6,0,-1,33
100,253,151,265,Tél.01,O,0,0,1,0,0,0,0,0,1,0,0,0,0,10,28,-1
161,253,181,265,48,O,1,0,0,0,1,0,0,1,1,0,0,0,211,10,29,50
191,253,208,265,14,O,1,0,0,0,1,0,0,1,1,0,0,0,0,8,30,-1
216,253,234,265,76,O,1,0,0,0,1,0,0,1,1,0,0,0,0,8,31,-1
242,253,260,265,79,O,1,0,0,0,1,0,0,1,1,0,0,0,0,9,32,-1
269,253,322,265,Fax.01,O,0,0,1,0,0,0,0,1,1,0,0,0,0,10,33,-1
332,253,352,265,48,O,1,0,0,0,1,0,0,1,1,0,0,0,0,8,34,-1
360,253,379,265,65,O,1,0,0,0,1,0,0,1,1,0,0,0,0,8,35,-1
387,253,405,265,53,O,1,0,0,0,1,0,0,1,1,0,0,0,0,9,36,-1
414,253,433,265,24,O,1,0,0,0,1,0,0,1,1,0,0,0,0,0,-1,-1
629,289,697,302,Société,CLIENT_NAME,0,0,1,0,0,0,1,0,0,0,0,0,6,9,38,40
706,289,737,306,Big,CLIENT_NAME,0,0,1,0,0,0,1,1,0,0,0,0,6,7,39,41
744,293,787,306,apps,CLIENT_NAME,0,0,0,0,0,0,1,1,0,0,0,0,2,0,-1,42
629,308,650,322,88,CLIENT_ADDRESS,1,0,0,0,1,0,0,1,1,0,0,0,25,8,41,46
658,312,724,322,avenue,CLIENT_ADDRESS,0,0,0,0,0,0,1,1,0,0,0,0,25,7,42,46
731,308,753,322,du,CLIENT_ADDRESS,0,0,0,0,0,0,1,1,0,0,0,0,25,8,43,47
761,308,834,322,General,CLIENT_ADDRESS,0,0,1,0,0,0,1,1,0,0,0,0,25,8,44,47
842,308,863,321,de,CLIENT_ADDRESS,0,0,0,0,0,0,1,1,0,0,0,0,0,8,45,-1
871,307,933,321,Gaulle,CLIENT_ADDRESS,0,0,1,0,0,0,1,1,0,0,0,0,244,0,-1,70
628,347,687,361,93170,CLIENT_ADDRESS,1,0,0,0,1,0,0,1,1,0,0,0,6,8,47,48
695,347,821,361,BAGNOLET,CLIENT_ADDRESS,0,0,0,1,0,0,1,1,0,0,0,0,204,0,-1,67
629,367,691,380,France,CLIENT_ADDRESS,0,0,1,0,0,0,1,1,0,0,0,0,0,0,-1,-1
100,480,243,493,établie,O,0,0,0,0,0,0,1,0,0,0,0,0,19,-81,50,57
162,476,178,501,en,O,0,0,0,0,0,0,1,1,0,0,0,0,-21,7,51,49
185,476,194,501,€,O,0,0,0,0,0,1,0,0,0,1,0,0,-21,8,52,49
202,476,219,501,le,O,0,0,0,0,0,0,1,1,0,0,0,0,-21,35,53,49
254,480,321,493,01-08-2019,DATE,0,0,0,0,0,0,0,1,1,0,0,0,23,10,54,58
331,480,379,493,21:10,DATE,0,0,0,0,0,0,0,1,1,0,0,0,23,0,-1,59
100,516,139,528,Date,O,0,0,1,0,0,0,1,1,0,0,0,0,68,7,56,76
146,516,204,529,d'achat,O,0,0,0,0,0,0,0,1,0,0,0,0,38,4,57,60
208,512,217,537,:,O,0,1,0,0,0,0,0,1,0,0,0,0,59,5,58,76
222,516,321,529,01-08-2019,O,0,0,0,0,0,0,0,1,1,0,0,0,67,7,59,77
328,516,375,529,21:07,O,0,0,0,0,0,0,0,1,1,0,0,0,67,0,-1,79
158,567,191,581,Réf,O,0,0,1,0,0,0,1,0,0,0,0,0,15,183,61,76
374,568,425,581,Détail,O,0,0,1,0,0,0,1,0,0,0,0,0,15,138,62,79
563,569,606,581,TVA,O,0,0,0,1,0,0,1,1,0,0,0,0,15,3,63,81
609,565,620,590,|,O,0,0,0,0,0,0,0,1,0,0,0,0,0,8,64,-1
628,569,665,581,P.U.,O,0,0,1,1,0,0,0,1,0,0,0,0,0,7,65,-1
672,569,709,581,Brut,O,0,0,1,0,0,0,1,1,0,0,0,0,0,7,66,-1
716,569,744,582,HT,O,0,0,0,1,0,0,1,1,0,0,0,0,15,4,67,82
748,565,759,590,|,O,0,0,0,0,0,0,0,1,0,0,0,0,0,5,68,-1
764,569,827,582,Remise,O,0,0,1,0,0,0,1,1,0,0,0,0,0,6,69,-1
833,569,862,581,HT,O,0,0,0,1,0,0,1,1,0,0,0,0,16,3,70,83
865,565,876,590,|,O,0,0,0,0,0,0,0,1,0,0,0,0,0,6,71,-1
882,569,913,584,Qté,O,0,0,1,0,0,0,1,0,0,0,0,0,13,29,72,84
942,568,987,581,Total,O,0,0,1,0,0,0,1,1,0,0,0,0,0,7,73,-1
994,569,1022,581,HT,O,0,0,0,1,0,0,1,1,0,0,0,0,16,31,74,85
1053,569,1097,582,Total,O,0,0,1,0,0,0,1,1,0,0,0,0,0,8,75,-1
1105,569,1144,582,TTC,O,0,0,0,1,0,0,1,1,0,0,0,0,15,0,-1,86
109,596,230,608,376013600341,O,1,0,0,0,1,0,0,1,1,0,0,0,15,24,77,87
254,596,293,608,SAC,O,0,0,0,1,0,0,1,1,0,0,0,0,43,9,78,96
302,596,327,608,DE,O,0,0,0,1,0,0,1,1,0,0,0,0,43,8,79,97
335,596,408,608,CAISSE,O,0,0,0,1,0,0,1,1,0,0,0,0,15,7,80,88
415,596,466,609,STRE,O,0,0,0,1,0,0,1,1,0,0,0,0,70,97,81,109
563,596,610,609,"20,00",O,1,0,0,0,0,0,0,1,1,0,0,0,15,104,82,89
714,597,747,609,"1,25",O,1,0,0,0,0,0,0,1,1,0,0,0,15,81,83,90
828,597,864,609,0.00,O,1,0,0,0,0,0,0,1,1,0,0,0,15,47,84,91
911,597,914,609,I,O,0,0,1,1,0,0,1,1,0,0,0,0,15,87,85,92
1001,597,1033,609,"1,25",O,1,0,0,0,0,0,0,1,1,0,0,0,15,84,86,93
1117,597,1150,609,"1,50",O,1,0,0,0,0,0,0,1,1,0,0,0,15,0,-1,94
107,623,230,636,360923279941,O,1,0,0,0,1,0,0,1,1,0,0,0,14,87,88,95
317,623,385,636,NOTES,O,0,0,0,1,0,0,1,1,0,0,0,0,15,178,89,97
563,624,610,636,"20,00",O,1,0,0,0,0,0,0,1,1,0,0,0,15,101,90,99
711,624,747,636,"0,79",O,1,0,0,0,0,0,0,1,1,0,0,0,15,81,91,100
828,624,864,636,"0,00",O,1,0,0,0,0,0,0,1,1,0,0,0,15,45,92,101
909,624,916,636,3,O,1,0,0,0,1,0,0,1,1,0,0,0,16,82,93,102
998,624,1033,637,"2,38",O,1,0,0,0,0,0,0,1,1,0,0,0,15,81,94,103
1114,624,1149,637,2.85,O,1,0,0,0,0,0,0,1,1,0,0,0,15,0,-1,104
116,650,233,663,02670038120,O,1,0,0,0,1,0,0,1,1,0,0,0,15,21,96,105
254,651,304,663,LOT6,O,0,0,0,1,0,0,0,1,1,0,0,0,15,7,97,106
311,651,346,663,2X8,O,0,0,1,1,0,0,0,1,1,0,0,0,43,8,98,118
354,651,378,663,2G,O,0,0,1,1,0,0,0,1,1,0,0,0,15,185,99,108
563,651,610,664,"20,00",O,1,0,0,0,0,0,0,1,1,0,0,0,15,101,100,111
711,651,747,664,"4,96",O,1,0,0,0,0,0,0,1,1,0,0,0,15,81,101,112
828,651,864,664,"0,00",O,1,0,0,0,0,0,0,1,1,0,0,0,15,48,102,113
912,652,914,664,1,O,1,0,0,0,1,0,0,1,1,0,0,0,15,83,103,114
997,652,1034,664,4.96,O,1,0,0,0,0,0,0,1,1,0,0,0,15,80,104,115
1114,652,1149,664,5.95,O,1,0,0,0,0,0,0,1,1,0,0,0,15,0,-1,116
106,678,233,690,007630890819,O,1,0,0,0,1,0,0,1,1,0,0,0,15,20,106,117
253,678,263,690,4,O,1,0,0,0,1,0,0,1,1,0,0,0,16,8,107,118
271,678,324,691,BLOC,O,0,0,0,1,0,0,1,1,0,0,0,0,15,9,108,118
333,678,388,691,VERT,O,0,0,0,1,0,0,1,1,0,0,0,0,15,7,109,118
395,679,448,691,BLEU,O,0,0,0,1,0,0,1,1,0,0,0,0,15,8,110,119
456,679,466,691,F,O,0,0,1,1,0,0,1,1,0,0,0,0,15,97,111,119
563,679,610,691,20.00,O,1,0,0,0,0,0,0,1,1,0,0,0,15,101,112,120
711,679,746,691,4.13,O,1,0,0,0,0,0,0,1,1,0,0,0,16,82,113,121
828,679,864,691,"0,00",O,1,0,0,0,0,0,0,1,1,0,0,0,16,47,114,122
911,679,914,691,I,O,0,0,1,1,0,0,1,1,0,0,0,0,0,83,115,-1
997,679,1033,691,"4,13",O,1,0,0,0,0,0,0,1,1,0,0,0,16,81,116,123
1114,679,1149,692,"4,95",O,1,0,0,0,0,0,0,1,1,0,0,0,15,0,-1,124
107,705,232,718,308612010003,O,1,0,0,0,1,0,0,1,1,0,0,0,15,22,118,125
254,706,388,718,STYLO-BILLE,O,0,0,0,1,0,0,0,1,0,0,0,0,15,7,119,126
395,706,469,718,CRISTA,O,0,0,0,1,0,0,1,1,0,0,0,0,15,94,120,127
563,706,610,719,"20,00",O,1,0,0,0,0,0,0,1,1,0,0,0,15,102,121,128
712,707,747,719,"2,00",O,1,0,0,0,0,0,0,1,1,0,0,0,15,81,122,129
828,707,864,719,"0,00",O,1,0,0,0,0,0,0,1,1,0,0,0,15,134,123,130
998,707,1034,719,2.00,O,1,0,0,0,0,0,0,1,1,0,0,0,15,80,124,131
1114,707,1150,719,"2,40",O,1,0,0,0,0,0,0,1,1,0,0,0,16,0,-1,132
106,733,233,745,308612160112,O,1,0,0,0,1,0,0,1,1,0,0,0,15,21,126,133
254,733,388,746,STYLO-BILLE,O,0,0,0,1,0,0,0,1,0,0,0,0,15,7,127,134
395,733,469,746,CRISTA,O,0,0,0,1,0,0,1,1,0,0,0,0,15,94,128,137
563,734,610,746,20.00,O,1,0,0,0,0,0,0,1,1,0,0,0,15,104,129,139
714,734,747,746,"1,39",O,1,0,0,0,0,0,0,1,1,0,0,0,15,81,130,140
828,734,864,746,0.00,O,1,0,0,0,0,0,0,1,1,0,0,0,15,136,131,141
1000,734,1034,746,"1,39",O,1,0,0,0,0,0,0,1,1,0,0,0,16,83,132,142
1117,735,1150,747,"1,67",O,1,0,0,0,0,0,0,1,1,0,0,0,15,0,-1,143
106,760,232,773,339050874275,O,1,0,0,0,1,0,0,1,1,0,0,0,15,21,134,144
253,761,282,773,4+1,O,0,0,0,0,0,0,0,1,1,0,0,0,15,11,135,145
293,761,332,773,BLC,O,0,0,0,1,0,0,1,1,0,0,0,0,15,7,136,145
339,761,384,773,NNA,O,0,0,0,1,0,0,1,1,0,0,0,0,15,8,137,146
392,761,436,773,AGR,O,0,0,0,1,0,0,1,1,0,0,0,0,15,7,138,147
443,761,468,773,A4,O,0,0,1,1,0,0,0,1,1,0,0,0,15,95,139,147
563,761,610,774,"20,00",O,1,0,0,0,0,0,0,1,1,0,0,0,15,101,140,148
711,761,747,774,"4,67",O,1,0,0,0,0,0,0,1,1,0,0,0,15,81,141,149
828,761,864,774,"0,00",O,1,0,0,0,0,0,0,1,1,0,0,0,15,133,142,150
997,762,1034,774,"4,67",O,1,0,0,0,0,0,0,1,1,0,0,0,15,80,143,151
1114,762,1150,774,"5,60",O,1,0,0,0,0,0,0,1,1,0,0,0,15,0,-1,152
106,788,232,800,800109023445,O,1,0,0,0,1,0,0,1,1,0,0,0,15,22,145,153
254,788,345,800,FEBREZE,O,0,0,0,1,0,0,1,1,0,0,0,0,15,7,146,154
352,788,386,800,AIR,O,0,0,0,1,0,0,1,1,0,0,0,0,16,9,147,155
395,788,466,801,FRUITS,O,0,0,0,1,0,0,1,1,0,0,0,0,15,97,148,155
563,789,610,801,20.00,O,1,0,0,0,0,0,0,1,1,0,0,0,15,102,149,156
712,789,747,801,"2,49",O,1,0,0,0,0,0,0,1,1,0,0,0,16,81,150,157
828,789,864,801,0.00,O,1,0,0,0,0,0,0,1,1,0,0,0,15,133,151,158
997,789,1033,802,"4,98",O,1,0,0,0,0,0,0,1,1,0,0,0,15,81,152,159
1114,789,1150,802,5.98,O,1,0,0,0,0,0,0,1,1,0,0,0,15,0,-1,160
107,815,233,828,315414693500,O,1,0,0,0,1,0,0,1,1,0,0,0,15,20,154,161
253,815,344,828,CISEAUX,O,0,0,0,1,0,0,1,1,0,0,0,0,15,9,155,162
353,816,490,831,SYMETRIQUE,O,0,0,0,1,0,0,1,1,0,0,0,0,12,73,156,163
563,816,610,829,"20,00",O,1,0,0,0,0,0,0,1,1,0,0,0,15,120,157,165
730,817,747,829,16,O,1,0,0,0,1,0,0,1,1,0,0,0,43,81,158,176
828,816,864,829,"0,00",O,1,0,0,0,0,0,0,1,1,0,0,0,15,134,159,167
998,817,1034,829,"2,16",O,1,0,0,0,0,0,0,1,1,0,0,0,15,80,160,169
1114,817,1150,829,"2,59",O,1,0,0,0,0,0,0,1,1,0,0,0,15,0,-1,170
106,843,233,855,800109023429,O,1,0,0,0,1,0,0,1,1,0,0,0,16,21,162,171
254,843,345,855,FEBREZE,O,0,0,0,1,0,0,1,1,0,0,0,0,16,7,163,172
352,843,387,855,AIR,O,0,0,0,1,0,0,1,1,0,0,0,0,16,8,164,174
395,844,461,856,ROSEE,O,0,0,0,1,0,0,1,1,0,0,0,0,15,102,165,174
563,844,610,856,"20,00",O,1,0,0,0,0,0,0,1,1,0,0,0,15,218,167,175
711,854,725,858,"2,",O,1,0,0,0,0,0,0,1,1,0,0,0,14,272,169,176
828,844,864,856,0.00,O,1,0,0,0,0,0,0,1,1,0,0,0,16,44,168,177
908,844,917,856,2,O,1,0,0,0,1,0,0,1,1,0,0,0,110,80,169,198
997,844,1033,857,"4,13",O,1,0,0,0,0,0,0,1,1,0,0,0,15,81,170,178
1114,844,1150,857,"4,96",O,1,0,0,0,0,0,0,1,1,0,0,0,15,0,-1,179
105,871,230,883,400638138351,O,1,0,0,0,1,0,0,1,1,0,0,0,15,23,172,180
253,871,262,883,6,O,1,0,0,0,1,0,0,1,1,0,0,0,15,8,173,181
270,871,322,883,BOSS,O,0,0,0,1,0,0,1,1,0,0,0,0,15,7,174,181
329,871,431,883,ORIGINAL,O,0,0,0,1,0,0,1,1,0,0,0,0,15,132,175,182
563,871,610,884,"20,00",O,1,0,0,0,0,0,0,1,1,0,0,0,15,101,176,184
711,872,746,884,"4,13",O,1,0,0,0,0,0,0,1,1,0,0,0,15,82,177,185
828,872,864,884,"0,00",O,1,0,0,0,0,0,0,1,1,0,0,0,15,133,178,186
997,872,1033,884,"4,13",O,1,0,0,0,0,0,0,1,1,0,0,0,15,81,179,187
1114,872,1149,885,"4,95",O,1,0,0,0,0,0,0,1,1,0,0,0,14,0,-1,188
106,898,233,911,327408000100,O,1,0,0,0,1,0,0,1,1,0,0,0,80,21,181,200
254,898,295,911,EAU,O,0,0,0,1,0,0,1,1,0,0,0,0,50,8,182,193
303,898,427,911,CRISTALINE,O,0,0,0,1,0,0,1,1,0,0,0,0,50,7,183,194
434,899,459,911,X6,O,0,0,1,1,0,0,0,1,1,0,0,0,0,115,184,-1
574,899,610,911,"5,50",O,1,0,0,0,0,0,0,1,1,0,0,0,0,101,185,-1
711,899,747,911,"0,97",O,1,0,0,0,0,0,0,1,1,0,0,0,82,81,186,202
828,899,864,911,"0,00",O,1,0,0,0,0,0,0,1,1,0,0,0,14,133,187,190
997,899,1033,912,"0,97",O,1,0,0,0,0,0,0,1,1,0,0,0,56,84,188,199
1117,899,1150,912,"1,02",O,1,0,0,0,0,0,0,1,1,0,0,0,15,0,-1,192
759,925,828,937,TOTAL,O,0,0,0,1,0,0,1,1,0,0,0,0,27,7,190,197
835,925,876,937,NET,O,0,0,0,1,0,0,1,1,0,0,0,0,27,7,191,197
883,925,907,940,(€),O,0,0,0,0,0,0,0,0,0,1,0,0,26,196,192,198
1103,927,1149,939,44.42,TOTAL,1,0,0,0,0,0,0,1,1,0,0,0,0,0,-1,-1
274,961,318,972,Détail,O,0,0,1,0,0,0,1,0,0,0,0,0,0,6,194,-1
324,961,398,975,règlement,O,0,0,0,0,0,0,1,0,0,0,0,0,0,217,195,-1
615,963,680,973,Montant,O,0,0,1,0,0,0,1,1,0,0,0,0,0,4,196,-1
684,962,693,973,€,O,0,0,0,0,0,1,0,0,0,1,0,0,20,88,197,202
781,964,881,981,Règlement,O,0,0,1,0,0,0,1,0,0,0,0,0,12,7,198,203
888,966,976,982,comptant,O,0,0,0,0,0,0,1,1,0,0,0,0,0,7,199,-1
983,968,1023,978,sans,O,0,0,0,0,0,0,1,1,0,0,0,0,0,0,-1,-1
105,991,159,1004,Cartes,O,0,0,1,0,0,0,1,1,0,0,0,0,0,8,201,-1
167,992,249,1004,Bancaires,O,0,0,1,0,0,0,1,1,0,0,0,0,0,430,202,-1
679,993,726,1005,"44,42",TOTAL,1,0,0,0,0,0,0,1,1,0,0,0,0,55,203,-1
781,993,872,1011,Escompte,O,0,0,1,0,0,0,1,1,0,0,0,0,118,0,-1,207
630,1128,700,1139,l'échéance,O,0,0,0,0,0,0,0,0,0,0,0,0,7,8,205,235
708,1129,761,1139,figurant,O,0,0,0,0,0,0,1,1,0,0,0,0,6,6,206,237
767,1132,787,1139,sur,O,0,0,0,0,0,0,1,1,0,0,0,0,6,6,207,238
793,1129,804,1139,la,O,0,0,0,0,0,0,1,1,0,0,0,0,7,7,208,239
811,1129,840,1139,factu,O,0,0,0,0,0,0,1,1,0,0,0,0,6,0,-1,240
398,1131,404,1138,a,O,0,0,0,0,0,0,1,1,0,0,0,0,5,6,210,220
410,1130,467,1141,présente,O,0,0,0,0,0,0,1,0,0,0,0,0,4,6,211,221
473,1128,519,1138,facture,O,0,0,0,0,0,0,1,1,0,0,0,0,8,7,212,222
526,1131,553,1138,sera,O,0,0,0,0,0,0,1,1,0,0,0,0,19,6,213,226
559,1128,612,1141,payable,O,0,0,0,0,0,0,1,1,0,0,0,0,2,18,204,234
177,1156,194,1166,En,O,0,0,1,0,0,0,1,1,0,0,0,0,34,6,215,263
200,1159,221,1167,cas,O,0,0,0,0,0,0,1,1,0,0,0,0,33,6,216,263
227,1156,241,1167,de,O,0,0,0,0,0,0,1,1,0,0,0,0,37,7,217,264
248,1159,272,1167,non,O,0,0,0,0,0,0,1,1,0,0,0,0,37,6,218,265
278,1158,326,1169,respect,O,0,0,0,0,0,0,1,1,0,0,0,0,4,6,219,242
332,1156,347,1167,de,O,0,0,0,0,0,0,1,1,0,0,0,0,7,58,223,243
376,1143,421,1153,Aucun,O,0,0,1,0,0,0,1,1,0,0,0,0,7,6,221,223
427,1145,491,1156,escompte,O,0,0,0,0,0,0,1,1,0,0,0,0,1,6,222,224
497,1146,512,1153,ne,O,0,0,0,0,0,0,1,1,0,0,0,0,6,55,234,225
405,1160,424,1167,"nce,",O,0,0,0,0,0,0,0,1,0,0,0,0,4,10,224,244
434,1157,456,1167,des,O,0,0,0,0,0,0,1,1,0,0,0,0,5,6,225,245
462,1159,513,1167,intérêts,O,0,0,0,0,0,0,1,0,0,0,0,0,8,5,226,252
518,1157,533,1167,de,O,0,0,0,0,0,0,1,1,0,0,0,0,8,6,227,253
539,1157,578,1168,retard,O,0,0,0,0,0,0,1,1,0,0,0,0,4,7,228,254
585,1159,644,1170,pourront,O,0,0,0,0,0,0,1,1,0,0,0,0,2,5,229,255
649,1160,674,1168,être,O,0,0,0,0,0,0,1,0,0,0,0,0,6,15,230,256
689,1159,735,1168,facturés,O,0,0,0,0,0,0,1,0,0,0,0,0,4,5,231,257
740,1161,747,1168,à,O,0,0,0,0,0,0,1,0,0,0,0,0,5,6,232,258
753,1161,769,1168,un,O,1,0,0,0,0,0,1,1,0,0,0,0,7,6,233,259
775,1159,803,1168,taux,O,0,0,0,0,0,0,1,1,0,0,0,0,8,31,241,260
567,1143,610,1156,pliqué,O,0,0,0,0,0,0,1,0,0,0,0,0,3,6,235,228
616,1146,647,1156,pour,O,0,0,0,0,0,0,1,1,0,0,0,0,3,6,236,228
653,1146,689,1156,paiem,O,0,0,0,0,0,0,1,1,0,0,0,0,4,17,237,229
706,1145,715,1153,nt,O,0,0,0,0,0,0,1,1,0,0,0,0,6,6,238,230
721,1145,785,1156,comptant,O,0,0,0,0,0,0,1,1,0,0,0,0,5,5,239,231
790,1146,806,1153,où,O,0,0,0,0,0,0,1,0,0,0,0,0,6,6,240,233
812,1145,837,1154,anti,O,0,0,0,0,0,0,1,1,0,0,0,0,4,0,-1,241
834,1158,836,1168,1,O,1,0,0,0,1,0,0,1,1,0,0,0,5,19,246,261
316,1173,328,1182,et,O,0,0,0,0,0,0,1,1,0,0,0,0,18,6,243,266
334,1174,357,1182,une,O,0,0,0,0,0,0,1,1,0,0,0,0,18,7,244,266
364,1171,431,1182,indemnité,O,0,0,0,0,0,0,1,0,0,0,0,0,18,7,245,267
438,1172,462,1182,fort:,O,0,0,0,0,0,0,0,1,0,0,0,0,18,32,252,269
855,1160,885,1168,trois,O,1,0,0,0,0,0,1,1,0,0,0,0,5,6,247,261
891,1158,916,1168,fois,O,0,0,0,0,0,0,1,1,0,0,0,0,5,6,248,262
922,1158,933,1168,le,O,0,0,0,0,0,0,1,1,0,0,0,0,34,5,249,293
938,1160,967,1168,taux,O,0,0,0,0,0,0,1,1,0,0,0,0,34,6,250,293
973,1158,1028,1168,d'intérêt,O,0,0,0,0,0,0,0,0,0,0,0,0,34,8,251,294
1036,1158,1067,1172,légal,O,0,0,0,0,0,0,1,0,0,0,0,0,33,0,-1,296
494,1175,506,1182,ire,O,0,0,0,0,0,0,1,1,0,0,0,0,18,6,253,270
512,1175,543,1185,pour,O,0,0,0,0,0,0,1,1,0,0,0,0,15,7,254,270
550,1172,579,1182,frais,O,0,0,0,0,0,0,1,1,0,0,0,0,19,5,255,271
584,1172,600,1182,de,O,0,0,0,0,0,0,1,1,0,0,0,0,19,6,256,272
606,1174,699,1182,recouvrement,O,0,0,0,0,0,0,1,1,0,0,0,0,19,6,257,273
705,1172,720,1183,de,O,0,0,0,0,0,0,1,1,0,0,0,0,18,6,258,275
726,1173,743,1182,40,O,1,0,0,0,1,0,0,1,1,0,0,0,19,5,259,275
748,1175,785,1183,euros,O,0,0,0,0,0,0,1,1,0,0,0,0,18,6,260,289
791,1176,817,1183,sera,O,0,0,0,0,0,0,1,1,0,0,0,0,18,6,261,290
823,1173,893,1186,également,O,0,0,0,0,0,0,1,0,0,0,0,0,15,6,262,290
899,1173,923,1183,due,O,0,0,0,0,0,0,1,1,0,0,0,0,21,0,-1,292
127,1200,219,1210,ivertissement,O,0,0,0,0,0,0,1,1,0,0,0,0,0,17,264,-1
236,1204,245,1210,si,O,0,0,0,0,0,0,1,1,0,0,0,0,0,7,265,-1
252,1204,282,1210,vous,O,0,0,0,0,0,0,1,1,0,0,0,0,0,7,266,-1
289,1200,344,1211,souhaitez,O,0,0,0,0,0,0,1,1,0,0,0,0,0,15,267,-1
359,1200,391,1211,béné),O,0,0,0,0,0,0,0,0,0,0,0,0,4,31,268,276
422,1204,425,1211,r,O,0,0,0,0,0,0,1,1,0,0,0,0,48,8,269,298
433,1200,449,1211,de,O,0,0,0,0,0,0,1,1,0,0,0,0,5,6,270,278
455,1200,548,1214,l'engagement,O,0,0,0,0,0,0,0,1,0,0,0,0,2,7,271,278
555,1201,572,1211,"""le",O,0,0,0,0,0,0,0,1,0,0,0,0,8,5,272,280
577,1201,611,1212,droit,O,0,0,0,0,0,0,1,1,0,0,0,0,7,5,273,281
616,1201,630,1212,de,O,0,0,0,0,0,0,1,1,0,0,0,0,7,7,274,282
637,1201,692,1214,changer,O,0,0,0,0,0,0,1,1,0,0,0,0,4,7,275,284
699,1201,739,1212,d'avis,O,0,0,0,0,0,0,0,1,0,0,0,0,4,19,289,285
355,1215,372,1225,La,O,0,0,1,0,0,0,1,1,0,0,0,0,62,4,277,310
376,1218,389,1228,pr,O,0,0,0,0,0,0,1,1,0,0,0,0,31,52,278,298
441,1216,488,1227,facture,O,0,0,0,0,0,0,1,1,0,0,0,0,32,7,279,298
495,1219,509,1226,ne,O,0,0,0,0,0,0,1,1,0,0,0,0,33,6,280,299
515,1219,565,1228,pourra,O,0,0,0,0,0,0,1,1,0,0,0,0,31,5,281,299
570,1219,586,1226,en,O,0,0,0,0,0,0,1,1,0,0,0,0,33,5,282,299
591,1219,634,1226,aucun,O,0,0,0,0,0,0,1,1,0,0,0,0,62,5,283,315
639,1219,660,1226,cas,O,0,0,0,0,0,0,1,1,0,0,0,0,33,7,284,300
667,1218,693,1226,être,O,0,0,0,0,0,0,1,0,0,0,0,0,36,4,285,301
697,1216,757,1229,produite,O,0,0,0,0,0,0,1,1,0,0,0,0,30,5,286,302
762,1219,792,1229,pour,O,0,0,0,0,0,0,1,1,0,0,0,0,30,9,287,304
801,1219,817,1226,en,O,0,0,0,0,0,0,1,1,0,0,0,0,33,5,288,304
822,1216,889,1228,bénéficier,O,0,0,0,0,0,0,1,0,0,0,0,0,35,0,-1,305
758,1201,785,1212,seul,O,0,0,0,0,0,0,1,1,0,0,0,0,7,5,290,286
790,1201,855,1214,l'original,O,0,0,0,0,0,0,0,1,0,0,0,0,2,4,291,288
859,1201,875,1212,de,O,0,0,0,0,0,0,1,1,0,0,0,0,4,6,292,288
881,1204,916,1212,votre,O,0,0,0,0,0,0,1,1,0,0,0,0,0,6,293,-1
922,1202,959,1212,ticket,O,0,0,0,0,0,0,1,1,0,0,0,0,0,5,294,-1
964,1202,980,1212,de,O,0,0,0,0,0,0,1,1,0,0,0,0,0,5,295,-1
985,1205,1027,1212,caisse,O,0,0,0,0,0,0,1,1,0,0,0,0,0,7,296,-1
1034,1205,1063,1213,sera,O,0,0,0,0,0,0,1,1,0,0,0,0,0,5,297,-1
1068,1204,1119,1216,accepté,O,0,0,0,0,0,0,1,0,0,0,0,0,0,0,-1,-1
375,1259,478,1269,CARREFOUR,O,0,0,0,1,0,0,1,1,0,0,0,0,18,8,299,311
486,1259,598,1269,HYPERMARCE,O,0,0,0,1,0,0,1,1,0,0,0,0,4,46,300,307
644,1259,663,1269,AS,O,0,0,0,1,0,0,1,1,0,0,0,0,5,14,301,309
677,1262,684,1269,au,O,0,0,0,0,0,0,1,1,0,0,0,0,0,6,302,-1
690,1259,735,1272,capital,O,0,0,0,0,0,0,1,1,0,0,0,0,16,6,303,317
741,1259,756,1270,de,O,0,0,0,0,0,0,1,1,0,0,0,0,19,6,304,318
762,1259,831,1284,6.922.200,O,1,0,0,0,0,0,0,1,1,0,0,0,-10,6,305,319
837,1263,874,1270,euros,O,0,0,0,0,0,0,1,1,0,0,0,0,4,0,-1,320
479,1276,502,1283,jean,O,0,0,0,0,0,0,1,1,0,0,0,0,4,7,307,312
509,1273,565,1284,Mermoz,O,0,0,1,0,0,0,1,1,0,0,0,0,4,6,308,313
571,1273,598,1284,ZAE,O,0,0,0,1,0,0,1,1,0,0,0,0,4,21,309,314
619,1274,679,1284,aint-Guél,O,0,0,0,0,0,0,0,0,0,0,0,0,4,76,319,315
334,1287,365,1297,SIRET,O,0,0,0,1,0,0,1,1,0,0,0,0,0,23,311,-1
388,1287,436,1298,451321,O,1,0,0,0,1,0,0,1,1,0,0,0,0,31,312,-1
467,1287,510,1298,00990,O,1,0,0,0,1,0,0,1,1,0,0,0,0,6,313,-1
516,1288,547,1298,RCS,O,0,0,0,1,0,0,1,1,0,0,0,0,0,7,314,-1
554,1288,599,1298,EVRY,O,0,0,0,1,0,0,1,1,0,0,0,0,0,8,315,-1
607,1288,644,1299,Bas,O,0,0,1,0,0,0,1,1,0,0,0,0,33,9,316,322
653,1288,676,1299,321,O,1,0,0,0,1,0,0,1,1,0,0,0,33,8,317,323
684,1288,708,1299,338,O,1,0,0,0,1,0,0,1,1,0,0,0,0,10,318,-1
718,1289,749,1299,TVA,O,0,0,0,1,0,0,1,1,0,0,0,0,0,6,319,-1
755,1274,791,1299,CER,O,0,0,0,1,0,0,1,1,0,0,0,0,0,3,320,-1
794,1274,855,1299,FROOAS,O,0,0,0,1,0,0,1,1,0,0,0,0,0,4,321,-1
859,1289,882,1299,1321,O,1,0,0,0,1,0,0,1,1,0,0,0,0,0,-1,-1
599,1332,635,1347,Page,O,0,0,1,0,0,0,1,1,0,0,0,0,0,10,323,-1
645,1332,665,1344,1/2,O,1,0,0,0,0,0,0,1,1,0,0,0,0,0,-1,-1
